mjd,m,merr
52696.402129,16.577,0.07
52696.416848,16.604,0.054
52708.36959,16.458,0.044
52708.383215,16.464,0.046
52708.396871,16.481,0.046
52708.410984,16.474,0.046
52708.425183,16.46,0.048
52709.373334,16.176,0.039
52709.386863,16.192,0.039
52709.40029,16.25,0.041
52709.414038,16.237,0.041
52709.427555,16.242,0.041
52712.316358,16.236,0.073
52712.316816,15.98,0.079
52712.329782,16.156,0.097
52712.34316,16.266,0.068
52712.357402,16.162,0.064
52712.357761,16.227,0.089
52712.370792,16.305,0.064
52712.371151,16.219,0.074
52723.358159,16.358,0.068
52723.369685,16.65,0.414
52752.284637,16.194,0.044
52752.294856,16.24,0.046
52752.305036,16.224,0.044
52752.31524,16.25,0.046
52752.325422,16.245,0.046
52771.227589,16.305,0.097
52771.240481,15.981,0.073
52787.219789,16.489,0.048
52787.230602,16.484,0.048
52787.241161,16.5,0.048
52787.251766,16.553,0.05
52787.262322,16.532,0.052
52811.17927,16.386,0.074
52811.189193,16.404,0.074
52811.199297,16.346,0.069
52811.2096,16.268,0.064
52811.219559,16.217,0.061
52826.173335,16.429,0.094
52826.183254,16.568,0.111
52826.193382,16.428,0.094
52826.203454,16.515,0.111
52826.213342,16.571,0.104
52842.171145,16.296,0.085
53024.407563,16.545,0.059
53024.420395,16.581,0.091
53024.44644,16.583,0.131
53024.459219,16.513,0.057
53035.427491,16.576,0.057
53035.43996,16.578,0.052
53035.452859,16.642,0.063
53035.4669,16.627,0.052
53050.336045,16.321,0.076
53050.347732,16.419,0.085
53050.371028,16.481,0.117
53050.382647,16.394,0.102
53065.345648,16.242,0.038
53065.358677,16.223,0.038
53065.372977,16.294,0.041
53065.38878,16.384,0.043
53065.4061,16.397,0.04
53078.332026,16.516,0.048
53078.342819,16.587,0.052
53078.353727,16.532,0.05
53109.293391,16.26,0.039
53109.30413,16.27,0.039
53109.314836,16.296,0.041
53109.32566,16.292,0.041
53109.336405,16.306,0.043
53114.3029,16.489,0.033
53114.303831,16.426,0.031
53114.31614,16.475,0.033
53114.327284,16.43,0.033
53114.327645,16.511,0.033
53114.338213,16.481,0.035
53114.339041,16.513,0.033
53114.349166,16.515,0.035
53114.350289,16.511,0.035
53137.246857,16.224,0.043
53137.25665,16.273,0.046
53137.266528,16.269,0.043
53137.276313,16.298,0.046
53137.286133,16.275,0.05
53165.229221,16.643,0.067
53165.239223,16.602,0.07
53165.25932,16.694,0.074
53358.472636,16.634,0.068
53358.485278,16.634,0.067
53358.49791,16.679,0.068
53358.510544,16.682,0.068
53358.530855,16.572,0.063
53386.485305,16.144,0.037
53386.498261,16.196,0.039
53386.511556,16.247,0.041
53386.526401,16.227,0.041
53386.539918,16.276,0.046
53387.480534,16.612,0.061
53387.493843,16.652,0.059
53387.509133,16.482,0.05
53387.523312,16.096,0.037
53387.536391,15.743,0.028
53441.396672,16.64,0.055
53441.407597,16.66,0.057
53441.418558,16.632,0.055
53441.430002,16.545,0.054
53441.440928,16.445,0.05
53443.434014,16.382,0.081
53443.455924,16.45,0.08
53443.466736,16.42,0.065
53443.47754,16.415,0.05
53473.391526,15.862,0.033
53473.403477,15.957,0.037
53473.413556,15.999,0.039
53473.423171,16.048,0.043
53473.432786,16.062,0.044
53474.294456,16.701,0.076
53474.307234,16.736,0.067
53474.321723,16.695,0.061
53474.331728,16.767,0.068
53474.342055,16.61,0.059
53475.316806,16.412,0.052
53475.326694,16.411,0.052
53475.336513,16.454,0.054
53475.346746,16.385,0.05
53475.357688,16.471,0.054
53498.258992,15.83,0.035
53498.269576,15.76,0.031
53498.309431,15.896,0.074
53499.215132,16.574,0.059
53499.225966,16.574,0.057
53499.236345,16.566,0.057
53499.24719,16.553,0.055
53499.257758,16.605,0.059
53528.222816,16.48,0.07
53528.234074,16.508,0.076
53528.245141,16.433,0.068
53528.25598,16.439,0.07
53528.266357,16.453,0.07
53539.1781,16.514,0.128
53539.18763,16.461,0.124
53539.197155,16.347,0.115
53539.206667,16.546,0.141
53539.216177,16.522,0.139
53552.178879,16.269,0.063
53552.189057,16.147,0.055
53552.199462,16.097,0.054
53552.209886,16.029,0.048
53552.220315,15.935,0.044
53570.166681,15.957,0.076
53570.177302,15.713,0.061
53570.187896,15.721,0.065
53570.198516,15.859,0.076
53570.209109,15.862,0.08
53576.163235,16.371,0.063
53576.206977,16.45,0.083
53741.474786,16.524,0.044
53741.488022,16.506,0.043
53741.50137,16.531,0.041
53741.514159,16.571,0.043
53741.527095,16.542,0.043
53786.347073,16.211,0.087
53786.37095,15.8,0.041
53843.311968,16.204,0.056
53843.32341,16.233,0.058
53843.334787,16.262,0.063
53854.245679,16.05,0.046
53854.255754,16.068,0.048
53854.265865,16.132,0.051
53882.215562,16.241,0.051
53882.226115,16.26,0.051
53882.23684,16.279,0.056
53882.247442,16.352,0.058
53882.25796,16.295,0.054
53886.227263,16.225,0.054
53886.238144,16.208,0.055
53886.249039,16.286,0.061
53886.259944,16.352,0.067
53886.270863,16.255,0.061
53903.219821,16.627,0.089
53903.229757,16.666,0.098
53903.239682,16.611,0.096
53903.24967,16.609,0.096
53903.259664,16.626,0.096
53931.173603,16.461,0.089
53931.193989,16.558,0.112
54085.470715,16.214,0.071
54085.483658,16.167,0.063
54085.496635,16.212,0.061
54085.509834,16.14,0.053
54085.522761,16.13,0.053
54123.389914,16.437,0.055
54123.402263,16.516,0.057
54123.414776,16.502,0.054
54123.427307,16.516,0.055
54123.43961,16.549,0.054
54156.325113,16.212,0.054
54156.336128,16.222,0.053
54156.34719,16.277,0.054
54156.358356,16.253,0.049
54156.369506,16.233,0.048
54207.279239,16.009,0.036
54207.288898,15.982,0.051
54207.298461,16.085,0.116
54216.261573,16.621,0.072
54216.270354,16.65,0.076
54216.27911,16.589,0.072
54216.288232,16.589,0.07
54216.296989,16.665,0.076
54529.2704,16.508,0.061
54529.282165,16.468,0.059
54529.293573,16.49,0.061
54529.304941,16.423,0.056
54529.316045,16.523,0.063
54562.189405,16.309,0.066
54562.215732,16.361,0.064
54562.227419,16.501,0.073
54562.238778,16.423,0.066
54573.289965,16.418,0.087
54573.300811,16.464,0.091
54573.31163,16.46,0.089
54573.322472,16.353,0.083
54573.333277,16.452,0.093
54582.247857,16.415,0.078
54582.258007,16.396,0.076
54582.268152,16.453,0.089
54582.278335,16.224,0.066
54582.288485,16.111,0.061
54613.210101,16.251,0.063
54613.220937,16.185,0.061
54613.231244,16.26,0.064
54613.241605,16.23,0.064
54613.251891,16.214,0.063
