mjd,m,merr
52652.456811,15.739,0.026
52652.472052,15.734,0.026
52652.487264,15.757,0.028
52652.505463,15.745,0.026
52652.520323,15.747,0.028
52664.358711,15.787,0.033
52664.373953,15.781,0.052
52664.419792,15.703,0.074
52722.304579,15.734,0.026
52722.316692,15.701,0.026
52722.328714,15.722,0.026
52722.340724,15.733,0.028
52722.352734,15.722,0.028
52751.302015,15.754,0.031
52751.312742,15.693,0.03
52751.323462,15.737,0.031
52751.334188,15.714,0.033
52751.344905,15.749,0.035
52772.271252,15.74,0.066
52772.283105,15.682,0.135
52772.294748,15.77,0.068
52782.21685,15.664,0.087
52800.218191,15.7,0.07
52800.22854,15.707,0.07
52800.238687,15.769,0.072
52800.248786,15.722,0.072
52810.230774,16.122,0.117
52810.240575,16.31,0.061
52812.224062,15.728,0.031
52812.234144,15.746,0.031
52812.244129,15.861,0.035
52812.254373,16.0,0.039
52812.264363,16.231,0.046
52827.182821,15.802,0.063
52990.467026,15.763,0.031
52990.480283,15.748,0.028
52990.493311,15.762,0.028
52990.506513,15.751,0.026
52990.519542,15.745,0.026
53023.406812,15.732,0.022
53023.41949,15.737,0.02
53023.43217,15.731,0.02
53023.44486,15.734,0.02
53023.457562,15.727,0.02
53046.406929,15.734,0.033
53046.419439,15.72,0.033
53046.431399,15.753,0.035
53046.443304,15.825,0.037
53046.455881,16.034,0.046
53107.296626,16.215,0.033
53107.30766,16.314,0.037
53107.31893,16.09,0.03
53107.32997,15.876,0.026
53107.341038,15.764,0.022
53127.247715,15.663,0.057
53127.257775,15.65,0.055
53127.267737,15.701,0.054
53127.277694,15.798,0.055
53127.287728,15.733,0.052
53136.244473,15.735,0.03
53136.253844,15.757,0.03
53136.263313,15.752,0.03
53136.272582,15.708,0.03
53136.281849,15.75,0.03
53154.213324,15.718,0.041
53154.222082,15.729,0.041
53154.230972,15.698,0.041
53154.23976,15.729,0.041
53154.248672,15.781,0.043
53164.220804,15.735,0.024
53164.230979,15.774,0.026
53164.241211,15.768,0.03
53164.25139,15.798,0.028
53164.261572,15.765,0.028
53194.204503,16.056,0.12
53340.468498,15.715,0.056
53340.483979,15.923,0.064
53340.501895,16.182,0.074
53340.514359,15.925,0.056
53358.475697,15.689,0.033
53358.490178,15.731,0.031
53358.504651,15.708,0.03
53358.51918,15.675,0.031
53421.35537,15.755,0.041
53421.379133,15.751,0.039
53421.391209,15.749,0.037
53421.40309,15.762,0.037
53430.371196,15.71,0.035
53430.382905,15.73,0.033
53430.397908,15.738,0.035
53430.409104,15.734,0.035
53430.420448,15.722,0.033
53491.252841,15.688,0.035
53491.265262,15.715,0.03
53491.27699,15.732,0.03
53491.28856,15.704,0.031
53491.299747,15.734,0.028
53537.260144,15.787,0.105
53566.210193,15.75,0.055
53566.220805,15.797,0.059
53566.231484,15.775,0.061
53566.242111,15.699,0.055
53566.252743,15.765,0.065
53583.168876,15.755,0.035
53583.180145,15.7,0.033
53583.191406,15.748,0.039
53583.202684,15.754,0.041
53727.492955,15.792,0.054
53757.388844,15.71,0.035
53757.401481,15.726,0.035
53757.414182,15.73,0.035
53757.426974,15.695,0.033
53757.439725,15.766,0.035
53773.412202,16.335,0.044
53773.419226,16.344,0.046
53773.425252,16.224,0.039
53773.432225,16.041,0.033
53773.437894,15.981,0.031
53773.44489,15.845,0.028
53773.450479,15.822,0.028
53773.457582,15.748,0.026
53773.463319,15.775,0.026
53773.470434,15.712,0.026
53775.473106,15.993,0.078
53775.515511,15.768,0.043
53775.516091,15.731,0.057
53825.302457,15.691,0.028
53825.314502,15.745,0.025
53825.325712,15.681,0.025
53825.336853,15.689,0.026
53842.333971,15.988,0.066
53856.272222,15.715,0.033
53856.2823,15.717,0.033
53856.292166,15.67,0.031
53856.302135,15.685,0.031
53856.312062,15.691,0.033
53877.257618,15.733,0.04
53877.268254,15.752,0.049
53904.217115,16.198,0.055
53904.226955,15.985,0.046
53904.236842,15.791,0.041
53904.246728,15.772,0.041
53904.2566,15.721,0.039
53918.193204,15.695,0.071
53932.181284,15.67,0.064
53932.19171,15.704,0.063
53932.205023,15.596,0.048
53932.21531,15.65,0.045
53944.192736,15.613,0.086
53944.203681,15.66,0.078
54098.434778,15.638,0.033
54098.447569,15.613,0.031
54098.46007,15.618,0.031
54098.472166,15.645,0.033
54098.484259,15.617,0.031
54124.395809,15.738,0.026
54124.408375,15.717,0.026
54124.42173,15.688,0.026
54124.434441,15.691,0.025
54124.446874,15.69,0.026
54140.395607,15.762,0.035
54140.407828,15.863,0.04
54140.419936,16.095,0.045
54140.4322,16.304,0.056
54140.444548,16.158,0.048
54198.274793,15.728,0.028
54198.284445,15.776,0.043
54198.30425,15.735,0.118
54210.265159,15.693,0.03
54210.273966,15.73,0.03
54210.282892,15.728,0.031
54210.291716,15.71,0.03
54210.300609,15.7,0.03
54218.2684,15.635,0.048
54218.277064,15.681,0.05
54218.285705,15.681,0.05
54218.294339,15.697,0.05
54218.302933,15.72,0.05
54481.447413,15.616,0.035
54481.46016,15.601,0.035
54481.498511,15.581,0.035
54498.389637,15.635,0.033
54498.401449,15.682,0.035
54498.413929,15.661,0.035
54498.425733,15.691,0.035
54498.437536,15.665,0.035
54526.33778,15.726,0.03
54526.349346,15.732,0.031
54526.360745,15.73,0.03
54526.374958,15.69,0.031
54526.386289,15.702,0.031
54537.322707,15.723,0.083
54537.333629,15.975,0.097
54537.3446,16.117,0.071
54537.355781,16.367,0.099
54537.366907,16.328,0.081
54555.243095,15.709,0.041
54555.254951,15.657,0.04
54555.266588,15.664,0.04
54555.278327,15.678,0.04
54555.290041,15.661,0.04
54559.299463,15.655,0.038
54559.311005,15.64,0.038
54559.322662,15.672,0.038
54559.334137,15.709,0.038
54559.345593,15.708,0.04
54569.291662,16.173,0.053
54569.302642,16.27,0.059
54569.31361,16.021,0.048
54569.324528,15.939,0.048
54569.335422,15.698,0.036
54599.252926,15.685,0.031
54599.262231,15.693,0.033
