mjd,m,merr
52602.454588,14.864,0.022
52602.469527,14.986,0.024
52602.484454,14.903,0.022
52602.49938,14.943,0.022
52602.514308,14.89,0.022
52635.374659,14.82,0.017
52635.38874,14.773,0.017
52635.402861,14.756,0.015
52635.416902,14.796,0.017
52635.430969,14.822,0.017
52654.379611,14.852,0.022
52654.394318,14.83,0.024
52654.409153,14.919,0.024
52654.423925,14.89,0.02
52654.438671,14.973,0.02
52662.373928,15.018,0.02
52662.403454,14.838,0.017
52662.41822,14.784,0.015
52662.433064,14.77,0.015
52692.347121,14.914,0.015
52692.367015,14.899,0.017
52692.384004,14.969,0.017
52692.400799,14.95,0.017
52692.422195,14.947,0.017
52720.254915,14.936,0.017
52720.271786,15.018,0.018
52720.290331,15.15,0.022
52720.303553,15.172,0.022
52720.322133,15.108,0.022
52743.24457,14.968,0.026
52743.257646,14.97,0.028
52743.269964,14.989,0.03
52743.282165,15.133,0.03
52743.294453,15.155,0.033
52749.188399,14.853,0.013
52749.199393,14.837,0.015
52778.181745,14.911,0.02
52778.204465,14.965,0.017
52778.216254,15.03,0.017
52780.172449,14.927,0.028
52802.166143,15.034,0.046
52802.176229,14.946,0.043
52802.186389,14.996,0.043
52802.196786,14.938,0.037
52802.206847,14.979,0.043
52807.167866,14.921,0.022
52807.177854,14.997,0.026
52807.187793,15.097,0.041
52949.442808,14.768,0.02
52949.454836,14.805,0.018
52949.467037,14.839,0.018
52949.479229,14.916,0.015
52949.491289,14.903,0.017
52979.398902,14.933,0.041
52979.411512,14.866,0.041
52979.424037,14.921,0.037
52984.391188,14.816,0.022
52984.404095,14.798,0.022
52984.429983,15.012,0.024
52984.442831,15.123,0.026
53009.347062,14.915,0.02
53009.359805,14.924,0.02
53009.372894,14.967,0.02
53009.385891,14.983,0.02
53009.399913,15.003,0.022
53017.334117,14.942,0.02
53017.346334,14.886,0.018
53017.35852,14.857,0.018
53017.370798,14.811,0.018
53017.38306,14.848,0.018
53044.373092,14.784,0.031
53044.385579,14.959,0.044
53044.398665,14.97,0.05
53044.419112,14.766,0.024
53074.275676,14.869,0.017
53074.286565,14.82,0.017
53074.297482,14.853,0.017
53074.308909,14.882,0.017
53074.31987,14.831,0.017
53104.24917,14.968,0.017
53104.260163,14.902,0.018
53104.271109,14.865,0.018
53104.282113,14.867,0.018
53104.293133,14.829,0.018
53133.226785,14.963,0.018
53133.236256,14.92,0.018
53156.206757,15.144,0.03
53156.215594,15.056,0.028
53156.22448,15.015,0.028
53156.233281,14.948,0.028
53156.242105,14.94,0.026
53162.171892,15.19,0.083
53162.182064,15.135,0.035
53162.192246,14.979,0.02
53162.212603,15.023,0.028
53192.169096,14.982,0.022
53192.179195,15.017,0.022
53192.189335,14.972,0.022
53192.199498,14.997,0.024
53192.209671,14.987,0.024
53339.405319,15.157,0.033
53339.420278,15.057,0.031
53339.432941,15.059,0.03
53339.446099,14.979,0.028
53339.459579,14.884,0.024
53359.348643,14.871,0.015
53359.364043,14.9,0.015
53359.3768,14.898,0.015
53359.390099,14.984,0.015
53359.402883,15.079,0.017
53370.404833,14.712,0.028
53399.359346,14.799,0.018
53399.37233,14.776,0.018
53399.386561,14.692,0.018
53399.400513,14.778,0.018
53399.416235,14.766,0.02
53428.337598,14.754,0.02
53428.349453,14.757,0.02
53459.246088,14.852,0.015
53459.256457,14.836,0.017
53459.267038,14.855,0.017
53459.277682,14.836,0.018
53459.288068,14.873,0.018
53482.242963,14.763,0.03
53482.255262,14.83,0.03
53482.267038,14.851,0.03
53482.278795,14.844,0.03
53482.289555,14.881,0.03
53487.22413,15.03,0.022
53487.233714,15.051,0.024
53487.243444,15.173,0.026
53533.170972,14.856,0.018
53533.180671,14.87,0.02
53533.19036,14.85,0.02
53533.200044,14.882,0.02
53533.209757,14.899,0.022
53534.193708,14.881,0.022
53534.203415,14.855,0.022
53561.213638,14.918,0.022
53666.485075,14.873,0.024
53666.497082,14.837,0.022
53694.390446,14.841,0.026
53694.402858,14.809,0.024
53753.341444,14.926,0.022
53753.354883,14.947,0.022
53753.367778,14.99,0.02
53753.38044,14.982,0.02
53753.393409,14.94,0.02
53777.408979,15.127,0.031
53777.425606,15.182,0.031
53777.441077,15.147,0.03
53777.470802,15.003,0.025
53806.344522,14.926,0.026
53806.356668,14.993,0.03
53806.372708,15.053,0.033
53806.389985,15.162,0.033
53806.404148,15.125,0.035
53831.249708,14.82,0.016
53831.25995,14.786,0.018
53831.270256,14.811,0.016
53831.280548,14.885,0.018
53831.290784,14.866,0.018
53861.196108,14.834,0.015
53861.217842,14.816,0.016
53861.228059,14.77,0.016
53861.238093,14.731,0.015
53861.2481,14.829,0.016
53874.215141,14.86,0.013
53874.226337,14.846,0.013
53874.237571,14.871,0.015
54048.433376,15.048,0.026
54048.445569,14.916,0.022
54048.457678,14.9,0.022
54048.469672,14.853,0.02
54048.481769,14.831,0.018
54077.370399,15.066,0.03
54077.383727,15.197,0.03
54077.397152,15.07,0.028
54077.410465,15.0,0.028
54077.42376,14.894,0.024
54138.293035,15.063,0.02
54138.305395,15.09,0.021
54138.31775,15.137,0.023
54138.330746,15.091,0.023
54138.343051,14.979,0.021
54166.345339,14.808,0.04
54216.215542,14.892,0.021
54216.224019,14.846,0.021
54216.232419,14.912,0.021
54216.241567,14.904,0.021
54216.250406,14.955,0.023
54453.391501,14.961,0.018
54453.391682,14.938,0.018
54453.40407,14.963,0.018
54453.40425,14.958,0.018
54453.416622,15.015,0.018
54453.416802,14.978,0.018
54453.429482,14.944,0.016
54453.429662,14.959,0.018
54453.44244,14.961,0.018
54453.442621,14.942,0.018
54485.348444,15.064,0.026
54485.360561,15.101,0.026
54485.372637,14.978,0.025
54485.385167,15.053,0.025
54522.280609,14.886,0.016
54522.292428,14.823,0.016
54522.304161,14.805,0.016
54522.315819,14.837,0.016
54522.327445,14.798,0.016
54573.194444,14.932,0.028
54573.206456,14.868,0.026
54573.220719,14.853,0.026
54573.233292,14.862,0.026
54573.244456,14.822,0.026
