mjd,m,merr
52668.500357,16.538,0.193
52668.516101,16.298,0.059
52670.485929,16.492,0.067
52670.499951,16.501,0.067
52670.513982,16.496,0.063
52670.527995,16.523,0.063
52672.453038,16.401,0.141
52673.479297,16.285,0.046
52703.383582,16.378,0.055
52703.410069,16.323,0.104
52703.423244,16.321,0.091
52709.380502,16.601,0.068
52709.42101,16.411,0.057
52709.434814,16.366,0.055
52727.406238,16.447,0.13
52727.418885,16.36,0.104
52727.431264,16.459,0.1
52730.350657,16.308,0.048
52730.362271,16.349,0.05
52733.399575,16.275,0.081
52736.31516,16.597,0.061
52736.327417,16.583,0.059
52736.351595,16.566,0.057
52736.363781,16.566,0.059
52757.275449,16.46,0.076
52757.28771,16.401,0.071
52757.29998,16.326,0.066
52757.312504,16.31,0.069
52757.324614,16.367,0.073
52758.268641,16.512,0.055
52758.316201,16.681,0.068
52765.238904,16.559,0.076
52788.22682,16.565,0.183
52788.258492,16.549,0.117
52788.26891,16.574,0.068
52793.275402,16.464,0.083
52793.295383,16.663,0.096
52815.175747,16.373,0.083
52815.185719,16.461,0.085
52815.195781,16.414,0.087
52815.205792,16.44,0.094
52815.215793,16.542,0.098
52821.17158,16.239,0.054
52821.181902,16.252,0.068
52821.182084,16.298,0.089
52821.192189,16.201,0.083
52821.202028,16.281,0.061
52821.20221,16.154,0.092
52822.173924,16.564,0.087
52822.183795,16.568,0.085
52822.193717,16.496,0.102
52822.213445,16.425,0.087
53028.480404,16.563,0.044
53028.494961,16.613,0.054
53028.508164,16.735,0.313
53028.521177,16.546,0.141
53032.460866,16.266,0.045
53032.485697,16.252,0.041
53032.510574,16.327,0.046
53055.409838,17.14,0.564
53061.388516,16.284,0.041
53061.400879,16.337,0.044
53061.412078,16.407,0.046
53061.424383,16.357,0.046
53061.436286,16.449,0.054
53081.438653,16.331,0.049
53082.448336,16.464,0.048
53091.414071,16.366,0.044
53091.424362,16.433,0.046
53112.316411,16.41,0.063
53112.337748,16.452,0.064
53113.417619,16.485,0.165
53116.368601,16.228,0.037
53116.4019,16.342,0.043
53116.412951,16.401,0.046
53140.250497,16.36,0.058
53140.259763,16.277,0.054
53140.278406,16.279,0.056
53140.288464,16.21,0.053
53141.264497,16.527,0.057
53141.274231,16.628,0.061
53141.283817,16.591,0.059
53141.293537,16.581,0.059
53141.303162,16.552,0.059
53144.256726,16.516,0.083
53144.266121,16.603,0.097
53144.277506,16.685,0.096
53144.288469,16.609,0.083
53144.297374,16.585,0.068
53168.176106,16.528,0.083
53168.186331,16.553,0.083
53168.196283,16.631,0.087
53168.206254,16.571,0.083
53168.216205,16.616,0.089
53170.1778,16.549,0.052
53170.187923,16.559,0.052
53170.198035,16.502,0.05
53170.208146,16.529,0.052
53170.218298,16.455,0.05
53173.176392,16.592,0.069
53173.185971,16.521,0.068
53173.197809,16.504,0.068
53173.207311,16.551,0.073
53173.216915,16.462,0.068
53381.518582,16.517,0.118
53403.493301,16.702,0.139
53403.505866,16.679,0.133
53403.518483,16.448,0.102
53403.531202,16.349,0.091
53432.409213,16.374,0.076
53432.421151,16.346,0.107
53432.433168,16.262,0.065
53432.444734,16.264,0.065
53432.456235,16.317,0.07
53446.44762,16.312,0.046
53464.390156,16.279,0.048
53464.400567,16.319,0.05
53464.411765,16.307,0.052
53464.422403,16.331,0.054
53467.330428,16.408,0.055
53467.364738,16.321,0.05
53467.376135,16.299,0.059
53467.434398,16.353,0.065
53467.463143,16.32,0.085
53467.472937,16.513,0.094
53478.321333,16.526,0.107
53478.330443,16.35,0.093
53478.339609,16.285,0.089
53478.348833,16.367,0.094
53478.358008,16.349,0.089
53495.301815,16.582,0.226
53495.311852,16.617,0.191
53495.321888,16.768,0.189
53495.331904,16.508,0.168
53495.341951,16.568,0.202
53499.263907,16.332,0.055
53499.274955,16.361,0.057
53499.289827,16.305,0.054
53499.30517,16.292,0.057
53499.31558,16.298,0.059
53503.274128,16.545,0.059
53503.284458,16.573,0.063
53503.295443,16.602,0.063
53503.304533,16.654,0.065
53503.313353,16.569,0.057
53506.23921,16.38,0.081
53506.248623,16.315,0.076
53506.258023,16.384,0.085
53506.267481,16.435,0.087
53506.277451,16.568,0.096
53525.218459,16.396,0.072
53525.228755,16.465,0.076
53525.239297,16.543,0.08
53525.249549,16.567,0.085
53525.25979,16.601,0.087
53759.514312,16.419,0.117
53762.4808,16.526,0.067
53762.494169,16.568,0.068
53762.507371,16.51,0.083
53762.520242,16.455,0.059
53762.533661,16.407,0.063
53777.485309,16.353,0.089
53777.498396,16.381,0.087
53777.51123,16.44,0.091
53777.524068,16.519,0.094
53777.536973,16.519,0.1
53790.452981,16.422,0.059
53790.464907,16.562,0.067
53790.476735,16.534,0.068
53790.488568,16.507,0.091
53790.500404,16.695,0.146
53793.459065,16.343,0.08
53793.482729,16.552,0.198
53793.494547,16.575,0.068
53793.506392,16.596,0.068
53797.360824,16.503,0.074
53797.372627,16.618,0.08
53797.396297,16.565,0.113
53797.40811,16.69,0.179
53799.409987,16.232,0.105
53799.421593,16.346,0.087
53799.433216,16.319,0.089
53799.444854,16.371,0.104
53803.35156,16.476,0.08
53803.362961,16.499,0.078
53803.374263,16.544,0.08
53803.385748,16.545,0.078
53816.426729,16.516,0.068
53816.43825,16.502,0.071
53816.450032,16.356,0.066
53819.410647,16.52,0.072
53819.421425,16.575,0.076
53819.443501,16.562,0.085
53819.454287,16.493,0.085
53827.412909,16.512,0.074
53827.423493,16.53,0.081
53827.444592,16.441,0.072
53827.455242,16.343,0.07
53832.331562,16.706,0.087
53832.342586,16.733,0.109
53832.352617,16.585,0.078
53846.351014,16.543,0.089
53846.361963,16.542,0.089
53846.374142,16.627,0.107
53846.387368,16.575,0.111
53850.385024,16.315,0.063
53850.395967,16.373,0.067
53850.417557,16.367,0.072
53850.428357,16.574,0.094
53853.334686,16.34,0.063
53853.34512,16.345,0.061
53856.33712,16.366,0.063
53856.347371,16.349,0.063
53856.357624,16.332,0.063
53856.367984,16.285,0.061
53856.37823,16.311,0.065
53879.278485,16.353,0.056
53879.313099,16.492,0.068
53879.329807,16.561,0.073
53879.346342,16.51,0.074
53882.278112,16.317,0.055
53882.289364,16.451,0.065
53882.300622,16.438,0.063
53882.311873,16.478,0.07
53885.272062,16.335,0.059
53885.309696,16.283,0.061
53885.329009,16.263,0.066
53885.347587,16.444,0.084
53890.173283,16.439,0.094
53890.186969,16.33,0.085
53890.201025,16.416,0.093
53890.214509,16.277,0.085
53890.227691,16.268,0.083
53912.192732,16.254,0.072
54123.461516,16.372,0.073
54123.474025,16.318,0.068
54123.486677,16.397,0.071
54123.499093,16.278,0.063
54123.51195,16.295,0.064
54144.42284,16.321,0.05
54144.43432,16.341,0.05
54144.468173,16.378,0.055
54148.401931,16.633,0.092
54148.413508,16.539,0.083
54148.425216,16.519,0.081
54148.437104,16.537,0.084
54148.448944,16.566,0.086
54149.399552,16.319,0.041
54149.448002,16.439,0.043
54154.406252,16.492,0.046
54154.417986,16.572,0.05
54154.42977,16.546,0.048
54158.397019,16.413,0.065
54158.40877,16.448,0.068
54158.420496,16.316,0.057
54158.432256,16.301,0.057
54158.444037,16.261,0.052
54173.37457,16.413,0.052
54173.385423,16.402,0.048
54173.407179,16.54,0.052
54173.418062,16.593,0.055
54176.413459,16.484,0.05
54176.424482,16.471,0.05
54177.38075,16.379,0.056
54177.392239,16.317,0.053
54177.402882,16.287,0.053
54177.41348,16.249,0.053
54177.424873,16.267,0.081
54179.410842,16.414,0.054
54179.432949,16.439,0.054
54179.444726,16.505,0.059
54206.316527,16.273,0.043
54206.325782,16.322,0.044
54206.344301,16.336,0.048
54206.353557,16.347,0.05
54209.311861,16.232,0.124
54209.339519,16.344,0.093
54209.348726,16.369,0.085
54475.488183,16.493,0.092
54475.500496,16.585,0.104
54475.513025,16.597,0.106
54475.525723,16.606,0.106
54507.449054,16.546,0.044
54507.461423,16.576,0.052
54507.473837,16.557,0.046
54507.48619,16.436,0.041
54529.388434,16.467,0.041
54529.434437,16.554,0.046
54532.461914,16.712,0.079
54532.4729,16.553,0.069
54532.483884,16.617,0.076
54536.402668,16.246,0.03
54536.413986,16.264,0.03
54562.373102,16.356,0.033
54562.384741,16.407,0.035
54570.295872,16.295,0.052
54570.306977,16.334,0.054
54570.31809,16.272,0.05
54570.329166,16.368,0.055
54570.340201,16.344,0.054
54584.308305,16.293,0.043
54584.318908,16.286,0.044
54591.299999,16.557,0.065
54591.310193,16.588,0.063
54591.320422,16.614,0.065
54591.330669,16.634,0.065
54591.340909,16.624,0.068
54599.252833,16.521,0.083
54599.26341,16.521,0.083
54599.273949,16.557,0.087
54599.284476,16.448,0.08
54599.295001,16.544,0.089
54614.218708,16.485,0.048
54614.228743,16.485,0.046
54614.23874,16.4,0.044
54614.258737,16.318,0.043
