mjd,m,merr
52650.432972,15.831,0.03
52650.446893,15.814,0.03
52650.460861,15.777,0.028
52650.474939,15.792,0.026
52650.488894,15.788,0.026
52665.452737,15.87,0.031
52665.467099,16.174,0.039
52665.481399,15.769,0.028
52665.495696,15.732,0.026
52665.510112,15.74,0.026
52677.391445,15.76,0.046
52677.405996,15.742,0.035
52677.420282,15.675,0.031
52677.434701,15.729,0.031
52677.449006,15.726,0.03
52680.429153,15.678,0.03
52680.443914,15.688,0.03
52680.458794,15.687,0.03
52680.473534,15.703,0.031
52680.489647,15.701,0.03
52697.445242,16.169,0.118
52706.368198,15.731,0.024
52706.381097,15.754,0.024
52706.394055,15.747,0.026
52706.407265,15.766,0.026
52706.420403,15.799,0.026
52712.316949,15.769,0.044
52712.34289,15.771,0.039
52712.355734,15.748,0.037
52712.368899,15.733,0.035
52724.359605,15.761,0.024
52724.371221,15.742,0.024
52724.382773,15.786,0.024
52724.394318,15.813,0.026
52724.405923,16.05,0.033
52725.429237,15.734,0.026
52725.440997,15.727,0.026
52725.452695,15.826,0.028
52725.464446,16.085,0.035
52725.47615,15.774,0.028
52753.258555,15.819,0.031
52753.27122,15.764,0.03
52753.287757,15.715,0.028
52753.300047,15.725,0.028
52753.313013,15.728,0.028
52770.214975,15.691,0.046
52770.226718,15.752,0.046
52770.238339,15.74,0.046
52770.249796,15.776,0.046
52770.261642,15.774,0.046
52797.218684,15.749,0.039
52797.228686,15.783,0.043
52797.23867,15.787,0.044
52797.248631,16.084,0.059
52797.258602,16.07,0.057
52811.179008,15.723,0.035
52811.188961,15.75,0.035
52811.198858,15.718,0.033
52811.218585,15.769,0.033
52812.17122,15.746,0.036
52812.189263,15.995,0.045
52812.199988,16.145,0.051
52812.210195,15.817,0.038
52812.220409,15.736,0.036
52813.22302,15.745,0.045
52813.233147,15.758,0.043
52813.243187,16.104,0.059
52813.253295,15.978,0.053
52813.263649,15.773,0.043
52825.205067,15.674,0.045
52825.215156,15.737,0.049
52842.171694,15.805,0.054
52847.159364,15.721,0.043
52847.189738,15.82,0.055
52847.200038,15.827,0.044
52992.471888,15.818,0.028
52992.485412,15.754,0.026
52992.498993,15.836,0.028
52992.512285,15.787,0.03
52992.525549,15.804,0.03
53034.405309,15.721,0.028
53034.417789,15.792,0.03
53034.430191,15.774,0.03
53034.44261,15.914,0.033
53034.454869,16.173,0.041
53051.389798,15.817,0.024
53051.4014,15.756,0.022
53051.413157,15.713,0.02
53051.424762,15.732,0.022
53051.436401,15.733,0.02
53065.346405,15.796,0.028
53065.359433,15.801,0.028
53065.373732,15.846,0.03
53065.389549,16.007,0.033
53065.407606,15.736,0.023
53078.414657,15.785,0.036
53094.278665,15.768,0.025
53094.28831,15.784,0.025
53094.299159,15.768,0.023
53094.309031,15.787,0.023
53094.318935,15.794,0.023
53095.319987,15.795,0.03
53095.329869,15.758,0.031
53095.339928,15.761,0.03
53095.349898,15.778,0.031
53095.360205,15.787,0.031
53109.300908,15.746,0.03
53109.311041,15.685,0.03
53109.321251,15.711,0.03
53109.331413,15.724,0.03
53109.341466,15.777,0.031
53122.251055,15.78,0.026
53122.261404,15.826,0.026
53122.27176,15.814,0.026
53122.282115,15.754,0.024
53122.292783,15.81,0.026
53137.25314,15.747,0.031
53137.263215,15.811,0.031
53137.273012,15.794,0.033
53137.282946,16.043,0.045
53137.292655,16.097,0.045
53153.249926,15.854,0.037
53153.258939,15.857,0.041
53153.267726,15.93,0.05
53153.27651,16.256,0.059
53153.285295,16.282,0.055
53165.235017,15.805,0.036
53165.244821,15.743,0.053
53165.257345,15.769,0.038
53165.26715,15.755,0.038
53165.277242,15.771,0.04
53178.180355,15.748,0.022
53178.190495,15.718,0.022
53178.200706,15.75,0.024
53178.210786,15.753,0.024
53178.220867,15.749,0.024
53441.398145,15.805,0.026
53441.409074,15.791,0.026
53441.420034,15.756,0.026
53441.431477,15.755,0.026
53441.442406,15.785,0.028
53500.247281,15.753,0.028
53500.258275,15.809,0.03
53500.269131,15.774,0.028
53500.280696,15.763,0.028
53500.290945,15.743,0.028
53502.249259,15.691,0.03
53502.266012,15.742,0.031
53502.283387,15.719,0.031
53502.296107,15.782,0.035
53502.306261,16.07,0.044
53528.223967,16.209,0.055
53528.235224,15.897,0.043
53528.246291,15.796,0.037
53528.257128,15.757,0.035
53528.267509,15.773,0.037
53540.218426,15.834,0.081
53540.22825,15.804,0.076
53540.247536,16.028,0.096
53540.257223,15.923,0.087
53551.187925,15.828,0.031
53551.198076,15.777,0.031
53551.208016,15.82,0.031
53551.217921,16.001,0.041
53740.472941,15.767,0.028
53740.485847,15.795,0.028
53740.4988,15.792,0.028
53740.511649,15.813,0.028
53740.524581,15.77,0.028
53770.422397,15.807,0.028
53770.436671,15.984,0.035
53770.453861,15.882,0.031
53770.466967,15.763,0.026
53770.481103,15.757,0.026
53787.413708,15.767,0.051
53787.426594,15.755,0.028
53813.365274,15.767,0.048
53813.376278,15.816,0.05
53813.387288,15.905,0.055
53813.39831,16.187,0.07
53813.409347,15.889,0.052
53823.256902,15.765,0.028
53823.267886,15.757,0.028
53823.278922,15.778,0.028
53823.289708,15.791,0.028
53823.30063,15.759,0.028
53844.282782,15.777,0.031
53844.293055,15.776,0.033
53844.303333,15.795,0.035
53844.313819,15.778,0.037
53844.324274,15.987,0.046
53853.248023,15.74,0.043
53853.25841,15.744,0.04
53853.268728,15.7,0.04
53853.279166,15.78,0.041
53853.289503,15.786,0.041
53883.217452,15.838,0.045
53883.227758,15.755,0.04
53883.238065,15.709,0.038
53887.227779,15.736,0.044
53887.238435,15.723,0.043
53887.2491,15.774,0.044
53887.259817,15.793,0.043
53887.270527,15.818,0.043
53902.245655,15.81,0.045
53902.255904,15.639,0.041
53902.266558,15.767,0.048
53915.177606,15.764,0.049
53915.187467,16.033,0.063
53915.19886,15.951,0.056
53931.174031,15.739,0.049
53931.184198,16.038,0.064
53931.194418,15.917,0.059
53931.204547,15.728,0.049
53931.214602,15.668,0.051
54098.429261,15.792,0.035
54098.44137,15.685,0.03
54098.456549,15.94,0.037
54098.469916,15.946,0.035
54098.48213,15.706,0.028
54110.454934,15.884,0.091
54110.467804,15.796,0.073
54110.480484,16.203,0.129
54121.394673,15.773,0.03
54121.406879,15.764,0.03
54121.419069,15.782,0.031
54121.431267,15.809,0.031
54121.443452,15.856,0.031
54155.358753,15.764,0.033
54155.370292,15.744,0.031
54155.382217,15.767,0.031
54155.394135,15.769,0.031
54155.406377,15.768,0.033
54206.27338,15.783,0.031
54206.282788,15.765,0.031
54206.29213,15.788,0.031
54206.301468,15.783,0.033
54206.310855,15.999,0.038
54529.271728,15.695,0.038
54529.283491,15.823,0.043
54529.294959,15.746,0.04
54529.306269,15.897,0.043
54529.317373,16.209,0.053
54562.191906,15.647,0.045
54562.205331,15.658,0.043
54562.218235,15.724,0.046
54562.229923,16.003,0.053
54562.241294,15.916,0.048
54574.29841,15.768,0.055
54574.309079,15.719,0.052
54574.319767,15.785,0.052
54574.330449,15.824,0.052
54582.250153,15.752,0.026
54582.260575,15.727,0.026
54582.270907,15.735,0.026
54582.281251,15.771,0.026
54582.291644,15.783,0.026
54613.208174,15.778,0.026
54613.218013,15.752,0.026
54613.228032,15.774,0.028
54613.238083,15.974,0.033
54613.248105,16.089,0.041
