mjd,m,merr
52651.434418,14.44,0.012
52651.44962,14.483,0.01
52651.464932,14.512,0.012
52651.480072,14.545,0.012
52651.495209,14.57,0.012
52665.481,14.064,0.008
52677.417353,14.636,0.012
52696.401877,14.547,0.011
52696.416568,14.333,0.007
52709.373499,14.332,0.007
52709.387005,14.326,0.007
52709.40043,14.362,0.007
52709.414169,14.364,0.007
52709.427696,14.382,0.007
52723.346515,14.293,0.037
52723.357921,14.363,0.026
52752.284416,14.298,0.009
52752.294635,14.33,0.009
52752.304815,14.339,0.009
52752.315019,14.339,0.009
52752.325201,14.362,0.009
52771.228331,14.277,0.013
52771.240073,14.283,0.013
52771.251761,14.289,0.015
52771.263617,14.34,0.015
52787.220517,14.437,0.012
52787.231437,14.49,0.012
52787.242268,14.457,0.012
52787.253188,14.477,0.012
52787.264019,14.488,0.012
52811.220365,14.439,0.013
52811.230164,14.481,0.013
52811.239977,14.452,0.013
52811.249782,14.496,0.013
52811.2596,14.51,0.013
52812.169666,14.019,0.01
52812.180501,14.069,0.01
52812.198551,14.111,0.01
52812.209277,14.134,0.01
52812.219487,14.136,0.01
52826.173939,14.289,0.011
52826.18389,14.307,0.013
52826.193868,14.323,0.013
52826.203782,14.336,0.013
52826.213651,14.345,0.013
52840.16269,14.429,0.013
52840.172647,14.438,0.013
52840.182594,14.463,0.013
52840.192556,14.45,0.013
52840.202527,14.47,0.013
53035.42727,14.525,0.011
53035.439739,14.52,0.009
53035.452638,14.512,0.009
53035.466679,14.546,0.009
53049.341055,14.511,0.009
53049.352914,14.507,0.009
53049.364778,14.545,0.009
53049.376643,14.562,0.009
53049.388507,14.601,0.009
53094.337324,14.192,0.006
53094.347736,14.122,0.006
53094.358231,14.084,0.006
53094.36891,14.096,0.006
53095.33955,14.412,0.01
53095.349524,14.415,0.01
53107.316234,14.39,0.008
53164.238151,14.449,0.012
53164.257504,14.491,0.012
53194.200627,13.824,0.015
53358.472442,14.03,0.007
53358.485084,14.07,0.007
53358.497716,14.125,0.007
53358.510351,14.162,0.007
53358.530661,14.201,0.009
53386.485693,14.456,0.009
53386.498649,14.483,0.009
53386.511943,14.492,0.009
53386.526788,14.495,0.009
53386.540305,14.504,0.009
53442.263144,14.6,0.009
53442.274458,14.645,0.011
53442.285766,14.622,0.009
53442.2982,14.62,0.009
53442.309556,14.566,0.009
53474.352491,14.5,0.009
53474.363812,14.504,0.009
53474.37423,14.499,0.009
53474.385443,14.511,0.011
53498.259295,14.409,0.009
53498.270209,14.411,0.011
53498.299709,14.358,0.026
53498.309735,14.546,0.024
53499.215432,13.813,0.006
53499.226267,13.824,0.006
53499.236649,13.845,0.006
53499.247501,13.845,0.006
53499.258146,13.902,0.006
53521.211764,14.608,0.013
53521.222088,14.621,0.015
53521.232408,14.648,0.018
53521.242734,14.668,0.02
53521.253044,14.609,0.018
53538.217914,14.456,0.02
53538.227539,14.476,0.022
53538.237153,14.476,0.022
53552.178685,14.625,0.015
53552.188863,14.597,0.013
53552.199268,14.602,0.013
53552.209693,14.566,0.013
53552.22012,14.442,0.011
53570.166989,14.277,0.017
53570.177607,14.313,0.017
53570.188187,14.292,0.018
53570.198806,14.388,0.02
53570.2094,14.371,0.02
53576.163536,14.627,0.013
53576.185396,14.632,0.013
53582.157917,14.211,0.018
53582.169169,14.247,0.011
53582.191626,14.295,0.013
53582.202851,14.284,0.015
53741.475228,14.508,0.009
53741.488479,14.501,0.009
53741.501812,14.526,0.009
53741.514694,14.529,0.009
53741.527537,14.534,0.009
53786.369867,14.486,0.016
53786.383121,14.48,0.02
53843.312551,14.582,0.013
53843.323931,14.646,0.015
53843.335309,14.636,0.015
53843.346849,14.654,0.016
53854.245494,13.925,0.012
53854.255569,13.945,0.013
53854.265618,13.984,0.013
53882.215836,14.31,0.01
53882.226388,14.32,0.01
53882.247716,14.377,0.01
53882.258234,14.358,0.01
53886.227053,14.478,0.013
53886.237935,14.507,0.013
53886.248828,14.574,0.015
53886.259736,14.586,0.015
53886.270651,14.601,0.015
53903.220073,14.427,0.013
53903.230009,14.465,0.015
53903.239966,14.443,0.015
53903.249923,14.411,0.015
53903.259916,14.465,0.015
53932.191865,14.358,0.028
53932.20271,14.341,0.022
53932.213458,14.375,0.018
53942.16185,14.182,0.021
54085.471075,14.124,0.012
54085.484021,14.093,0.01
54085.496999,14.104,0.01
54085.510197,14.162,0.01
54085.523123,14.177,0.01
54123.390261,14.184,0.009
54123.402608,14.226,0.009
54123.415123,14.249,0.009
54123.427654,14.262,0.009
54123.439956,14.285,0.009
54156.325549,14.32,0.01
54156.336564,14.341,0.01
54156.347627,14.344,0.01
54156.358791,14.36,0.01
54156.369939,14.377,0.01
54201.28483,14.474,0.009
54201.295011,14.504,0.009
54201.305152,14.49,0.009
54201.314852,14.499,0.009
54201.324879,14.482,0.009
54207.278996,13.852,0.012
54207.288654,13.9,0.012
54216.279477,14.265,0.007
54216.297355,14.302,0.007
54508.414794,14.657,0.013
54508.42671,14.653,0.013
54508.438862,14.594,0.013
54508.451019,14.458,0.012
54508.462929,14.249,0.01
54543.336709,14.023,0.015
54543.348252,14.065,0.015
54543.358988,14.091,0.015
54543.370948,14.151,0.015
54543.382196,14.115,0.015
54561.243914,14.406,0.016
54561.255401,14.411,0.018
54561.266815,14.425,0.02
54561.279375,14.418,0.023
54561.290948,14.45,0.02
54573.29034,14.467,0.015
54573.301187,14.471,0.015
54573.312005,14.46,0.015
54573.322848,14.452,0.015
54573.333648,14.488,0.015
54582.248336,14.48,0.023
54582.258486,14.537,0.023
54582.26863,14.561,0.025
54582.278816,14.575,0.023
54582.288963,14.581,0.025
54613.210539,14.525,0.025
54613.221402,14.573,0.026
54613.23168,14.567,0.025
54613.242044,14.571,0.026
54613.252327,14.663,0.026
