mjd,m,merr
52651.434289,15.432,0.023
52651.449491,15.411,0.023
52651.464803,15.448,0.023
52651.479943,15.509,0.025
52651.49508,15.563,0.026
52665.480873,15.541,0.023
52677.417483,15.473,0.023
52696.402527,15.626,0.031
52696.417266,15.648,0.024
52696.430078,15.719,0.044
52723.34711,15.76,0.15
52723.358517,15.594,0.03
52752.284977,15.918,0.033
52752.295195,15.943,0.035
52752.305374,15.962,0.033
52752.315579,15.915,0.033
52752.325761,15.929,0.035
52771.217204,15.84,0.076
52771.228889,15.94,0.061
52771.240536,15.947,0.059
52771.252214,15.935,0.061
52771.264076,15.953,0.063
52787.220623,15.582,0.026
52787.231543,15.59,0.026
52787.242375,15.634,0.026
52787.253294,15.645,0.028
52787.264126,15.687,0.03
52801.191324,16.192,0.219
52802.174328,16.015,0.14
52802.195818,16.107,0.144
52810.230121,16.419,0.084
52810.240056,16.187,0.054
52810.249948,16.62,0.152
52812.231808,15.959,0.041
52812.24184,15.956,0.043
52812.252039,15.983,0.043
52812.262277,16.022,0.045
52812.272318,16.101,0.049
52826.173851,15.467,0.033
52826.183803,15.496,0.035
52826.19378,15.569,0.035
52826.203695,15.601,0.039
52826.213564,15.626,0.035
52840.162958,16.064,0.048
52840.172915,16.004,0.046
52840.182862,15.93,0.043
52840.192825,15.819,0.041
52840.202795,15.77,0.039
53035.427827,16.172,0.037
53035.440296,16.139,0.035
53035.453195,16.062,0.031
53035.467235,15.81,0.026
53049.341501,16.097,0.03
53049.353361,16.124,0.03
53049.365226,16.082,0.03
53049.377091,16.034,0.03
53049.388954,16.047,0.03
53094.337506,15.942,0.026
53107.285676,16.103,0.035
53107.296024,16.059,0.033
53107.306311,16.077,0.033
53107.316614,16.054,0.031
53107.327008,16.047,0.033
53136.242024,15.726,0.033
53136.250934,15.73,0.033
53136.277948,15.806,0.036
53154.209652,15.916,0.059
53154.220058,15.889,0.058
53154.228484,15.957,0.061
53154.236828,16.019,0.066
53154.245164,15.975,0.063
53164.238069,15.302,0.023
53164.24768,15.254,0.021
53164.257422,15.233,0.021
53358.476727,15.393,0.025
53358.491212,15.435,0.025
53358.505686,15.527,0.026
53358.520214,15.593,0.026
53442.263259,15.8,0.028
53442.274573,15.689,0.026
53442.285879,15.578,0.022
53442.298313,15.464,0.02
53442.309675,15.448,0.02
53474.352899,15.713,0.028
53474.364217,15.73,0.028
53474.374637,15.756,0.03
53474.385849,15.782,0.03
53498.259394,15.933,0.037
53498.270308,15.927,0.037
53499.215537,15.657,0.026
53499.226366,15.711,0.028
53499.236748,15.697,0.028
53499.247606,15.718,0.026
53499.258245,15.722,0.028
53521.212166,16.068,0.044
53521.222492,16.026,0.05
53521.23281,16.011,0.055
53521.243138,15.875,0.059
53521.253445,15.835,0.065
53538.217831,15.66,0.065
53538.227456,15.696,0.068
53538.237071,15.758,0.07
53538.246746,15.771,0.074
53538.25639,15.8,0.081
53552.179181,15.637,0.035
53552.189356,15.665,0.035
53552.199757,15.666,0.035
53552.210186,15.697,0.037
53552.220613,15.714,0.037
53582.157822,15.969,0.059
53582.169076,15.979,0.052
53582.191532,15.978,0.055
53582.202757,16.043,0.07
53741.475373,15.264,0.015
53741.488627,15.361,0.017
53741.501958,15.413,0.017
53741.514842,15.518,0.017
53741.527689,15.576,0.018
53786.370355,15.295,0.023
53824.413207,15.85,0.053
53843.306715,15.768,0.044
53843.317981,15.816,0.05
53843.329254,15.84,0.05
53843.340521,15.828,0.05
53843.35182,15.811,0.05
53854.246208,16.008,0.038
53854.256212,16.045,0.04
53854.266325,16.076,0.043
53882.215927,15.645,0.015
53882.226478,15.684,0.015
53886.227703,16.147,0.05
53886.238583,16.126,0.05
53886.249478,16.131,0.052
53886.260385,16.153,0.054
53886.271305,16.168,0.055
53903.22015,15.31,0.028
53903.230087,15.336,0.03
53903.240044,15.366,0.031
53903.250001,15.436,0.033
53903.259994,15.432,0.033
53932.181135,16.056,0.146
53932.191767,16.124,0.126
53932.202612,16.104,0.104
53932.21336,16.05,0.072
53942.161762,15.244,0.046
54085.484138,15.684,0.038
54085.49712,15.544,0.031
54085.510316,15.489,0.028
54085.523243,15.464,0.028
54123.390374,15.515,0.024
54123.402721,15.541,0.024
54123.415236,15.591,0.024
54123.427767,15.597,0.024
54123.440068,15.665,0.024
54186.323787,15.857,0.04
54186.334011,15.925,0.045
54186.344412,15.98,0.049
54186.354631,15.976,0.046
54186.36485,15.946,0.066
54201.285205,15.495,0.018
54201.295386,15.554,0.018
54201.305525,15.554,0.018
54201.315225,15.591,0.02
54201.325253,15.614,0.02
54207.279599,15.596,0.025
54207.289326,15.632,0.038
54207.298831,15.634,0.064
54216.262071,16.04,0.048
54216.270848,15.964,0.044
54216.279606,16.023,0.046
54216.288727,15.993,0.046
54216.297483,16.081,0.05
54508.415002,16.063,0.033
54508.426915,16.083,0.033
54508.439067,16.139,0.036
54508.451224,16.208,0.04
54508.463134,16.174,0.036
54543.382054,15.953,0.066
54573.290465,16.107,0.061
54573.30131,16.119,0.063
54573.312128,16.04,0.059
54573.322966,16.117,0.065
54573.333768,16.131,0.067
54614.219441,15.912,0.045
54614.229933,15.873,0.043
54614.240224,15.932,0.045
54614.250579,15.952,0.045
54614.260833,15.965,0.049
