mjd,m,merr
52636.353243,16.901,0.1
52636.367379,16.996,0.105
52636.395748,16.998,0.104
52636.409913,16.9,0.093
52649.305487,16.417,0.051
52649.320731,16.487,0.054
52649.335841,16.561,0.058
52649.350914,16.617,0.061
52653.307081,16.696,0.083
52653.322412,16.747,0.087
52653.337801,16.731,0.083
52653.353146,16.774,0.091
52653.368519,16.721,0.085
52660.313518,16.825,0.128
52675.251672,16.221,0.16
52695.242682,15.984,0.043
52695.2595,16.114,0.037
52695.275435,16.215,0.039
52695.291754,16.348,0.046
52695.308143,16.46,0.05
52722.192617,16.39,0.041
52722.206292,16.236,0.037
52722.219892,15.963,0.03
52722.233213,15.923,0.028
52722.250496,15.948,0.031
52739.142316,16.747,0.145
52739.15397,16.674,0.135
52739.165555,16.705,0.144
52739.177192,16.579,0.132
52751.137905,16.04,0.043
52751.159097,16.081,0.141
52751.169801,16.122,0.059
52751.180596,16.128,0.046
52914.433184,16.868,0.159
52914.446074,16.925,0.128
52914.459229,16.951,0.283
52914.485573,17.082,0.176
52928.428697,16.217,0.115
52928.440216,16.196,0.111
52928.45167,16.378,0.128
52964.411136,16.295,0.036
52964.42427,16.384,0.04
52964.438253,16.445,0.041
52964.452881,16.507,0.045
52964.470131,16.61,0.049
52966.3194,16.391,0.046
52966.329717,16.513,0.049
52966.338728,16.501,0.049
52966.347593,16.486,0.048
52966.356628,16.574,0.051
52977.339865,16.755,0.084
52977.350956,16.784,0.083
52977.36216,16.816,0.086
52977.373471,16.778,0.081
52977.38482,16.856,0.084
52978.378596,16.807,0.094
52978.391317,16.646,0.078
52978.404039,16.692,0.081
52978.416775,16.748,0.083
52978.429637,16.656,0.076
52988.326103,16.754,0.072
52988.339176,16.78,0.074
52988.352153,16.806,0.074
52988.365126,16.775,0.072
52988.378017,16.797,0.072
53003.263049,16.471,0.033
53003.275142,16.473,0.035
53003.287239,16.54,0.035
53003.299424,16.575,0.036
53003.311535,16.641,0.04
53006.263309,16.834,0.091
53006.275415,16.758,0.104
53006.287499,16.757,0.085
53006.299775,16.828,0.098
53006.321646,16.665,0.122
53008.289283,16.967,0.115
53008.301837,16.608,0.085
53045.237212,16.718,0.068
53045.249381,16.763,0.071
53045.273669,16.536,0.059
53121.172514,15.905,0.054
53125.154562,16.888,0.233
53125.16426,16.729,0.21
53125.174774,16.975,0.317
53134.149862,16.671,0.086
53134.158925,16.78,0.109
53134.167961,16.761,0.102
53134.177165,16.593,0.084
53134.186366,16.71,0.135
53262.413238,16.117,0.053
53262.425564,16.099,0.048
53262.437456,16.238,0.051
53262.449584,16.26,0.053
53262.462213,16.307,0.053
53281.422369,16.492,0.149
53281.433122,16.751,0.18
53281.444159,16.725,0.175
53281.45524,16.696,0.167
53281.466111,16.635,0.155
53294.450319,16.843,0.071
53294.461757,16.901,0.074
53294.473177,16.902,0.073
53294.484702,16.887,0.073
53319.411165,16.636,0.074
53319.424344,16.636,0.076
53319.438809,16.634,0.074
53319.453658,16.772,0.081
53319.468009,16.76,0.084
53329.402668,16.886,0.167
53329.41529,16.85,0.091
53329.427725,17.005,0.104
53329.440238,16.956,0.122
53329.452672,16.905,0.097
53340.33699,16.606,0.158
53340.362335,16.706,0.17
53340.375062,16.69,0.158
53340.387733,16.819,0.185
53349.396573,16.842,0.096
53349.410013,16.71,0.087
53349.423848,16.693,0.087
53349.437615,16.729,0.096
53349.45121,16.683,0.096
53355.411097,16.692,0.061
53355.424371,16.759,0.066
53355.437591,16.837,0.104
53355.450799,16.849,0.073
53355.464677,16.846,0.073
53360.347114,16.884,0.092
53360.360955,16.875,0.089
53360.374926,16.799,0.084
53360.389271,16.832,0.084
53360.40345,16.193,0.051
53385.41733,16.934,0.094
53385.430268,16.921,0.094
53385.443188,16.985,0.098
53385.456675,16.915,0.096
53401.28308,16.658,0.065
53401.295604,16.607,0.065
53401.308225,16.587,0.065
53401.320862,16.671,0.068
53401.334004,16.66,0.074
53403.215848,16.539,0.052
53403.222792,16.554,0.048
53403.228423,16.57,0.054
53403.23579,16.578,0.049
53403.240895,16.577,0.052
53403.248525,16.608,0.049
53403.254446,16.612,0.054
53403.261266,16.577,0.048
53403.266864,16.604,0.052
53403.273919,16.592,0.049
53404.228302,16.609,0.052
53404.240992,16.612,0.052
53404.2546,16.639,0.048
53404.267814,16.596,0.048
53404.281001,16.629,0.048
53415.236043,16.845,0.07
53415.248334,16.94,0.078
53415.261367,16.934,0.076
53415.273701,16.908,0.074
53415.28599,16.844,0.074
53430.232885,16.647,0.076
53430.244657,16.699,0.061
53430.25814,16.66,0.065
53430.271944,16.719,0.07
53430.291507,16.747,0.078
53437.175409,16.2,0.037
53437.187381,16.265,0.039
53437.199983,16.318,0.041
53437.212322,16.34,0.043
53437.227159,16.339,0.043
53480.140681,16.985,0.2
53480.14987,16.922,0.194
53480.167732,16.857,0.187
53480.176762,16.913,0.194
53491.154301,16.15,0.072
53491.164162,16.086,0.052
53685.396518,16.835,0.083
53685.421197,16.788,0.131
53697.401742,16.537,0.087
53697.427274,16.6,0.087
53727.33715,16.727,0.078
53727.349915,16.761,0.07
53727.362783,16.796,0.074
53727.375744,16.758,0.078
53727.388436,16.797,0.074
53757.259302,16.768,0.061
53757.271998,16.837,0.063
53757.28466,16.77,0.061
53757.297195,16.874,0.067
53757.309802,16.788,0.065
53773.284946,16.655,0.081
53773.29853,16.643,0.08
53773.31139,16.748,0.091
53773.324263,16.649,0.093
53773.337072,16.687,0.117
53802.243175,16.717,0.114
53802.255481,16.665,0.107
53827.197588,16.386,0.051
53827.208965,16.364,0.051
53827.219834,16.429,0.053
53827.230848,16.418,0.051
53827.241784,16.545,0.058
53842.135751,17.028,0.104
53842.146982,16.854,0.093
53842.158372,17.013,0.105
53842.169934,16.834,0.093
53842.181253,16.918,0.104
53866.154708,16.861,0.246
53995.440823,16.621,0.111
53995.454541,16.571,0.099
54024.421886,16.781,0.116
54024.434009,16.81,0.104
54024.449392,16.71,0.091
54024.463581,16.736,0.091
54024.476575,16.924,0.117
54052.390775,16.667,0.074
54052.40299,16.61,0.07
54052.415187,16.769,0.083
54052.427396,16.776,0.085
54071.330287,16.596,0.112
54071.342948,16.568,0.112
54071.355603,16.618,0.114
54071.368775,16.635,0.117
54071.381502,16.742,0.127
54080.306596,16.618,0.076
54080.318489,16.68,0.081
54080.330382,16.712,0.083
54080.342276,16.623,0.076
54080.354454,16.788,0.087
54098.311698,16.649,0.086
54098.323828,16.697,0.087
54098.335905,16.587,0.078
54098.348159,16.719,0.084
54098.360423,16.629,0.079
54109.300819,16.841,0.2
54109.313377,16.91,0.111
54124.26929,16.46,0.054
54124.281644,16.544,0.059
54124.294229,16.534,0.058
54124.306527,16.5,0.058
54124.319326,16.68,0.068
54140.238522,16.875,0.054
54140.250516,16.916,0.057
54140.262776,16.913,0.059
54140.27565,16.823,0.055
54140.289673,16.711,0.054
54198.175626,15.963,0.037
54198.185087,16.027,0.044
54198.194739,16.091,0.043
54198.204231,16.189,0.048
54198.213725,16.238,0.05
54212.13817,16.773,0.142
54212.146776,16.907,0.172
54212.155316,16.913,0.178
54212.163875,16.619,0.134
54212.172406,16.927,0.188
54498.264316,16.768,0.076
54498.276301,16.746,0.078
54498.288076,16.784,0.078
54498.300117,16.793,0.079
54498.311858,16.821,0.083
54526.218437,16.723,0.063
54526.230044,16.73,0.063
54526.241274,16.792,0.068
54526.252503,16.716,0.064
54526.264271,16.761,0.066
54559.181117,15.667,0.036
54559.192497,15.812,0.041
54559.203964,15.875,0.045
54559.215595,15.943,0.046
54559.227933,16.04,0.051
54570.135684,16.55,0.134
54570.146891,16.496,0.129
54570.157696,16.564,0.139
54570.1685,16.531,0.137
54570.179406,16.492,0.135
54589.144579,16.444,0.057
54589.155062,16.555,0.067
54589.165543,16.559,0.068
54589.176007,16.56,0.068
54589.186562,16.562,0.068
