mjd,m,merr
52613.453792,15.365,0.022
52613.469069,15.336,0.022
52613.484313,15.385,0.022
52613.499517,15.374,0.022
52613.514802,15.361,0.022
52618.460362,15.372,0.033
52618.491039,15.356,0.031
52618.50661,15.332,0.031
52618.52195,15.365,0.024
52641.456604,15.445,0.02
52641.47194,15.572,0.022
52641.48731,15.749,0.026
52641.502117,15.661,0.024
52641.517601,15.489,0.02
52643.442013,15.654,0.024
52643.455998,15.988,0.031
52643.469948,15.803,0.026
52643.483952,15.484,0.018
52643.498275,15.34,0.017
52647.45888,15.342,0.02
52647.473751,15.348,0.02
52647.488101,15.321,0.02
52647.50278,15.338,0.02
52667.397122,15.386,0.018
52667.412537,15.651,0.024
52667.427824,16.022,0.033
52667.443142,15.801,0.03
52667.45849,15.437,0.022
52670.398999,15.359,0.02
52670.412913,15.41,0.022
52670.426901,15.403,0.02
52670.440842,15.466,0.022
52670.454763,15.591,0.024
52673.306648,15.469,0.022
52673.321928,15.624,0.024
52673.33719,15.74,0.028
52673.352512,15.567,0.024
52673.367853,15.409,0.02
52703.312409,15.389,0.043
52703.326215,15.43,0.059
52703.339531,15.395,0.041
52703.35363,15.433,0.052
52703.366896,15.511,0.055
52707.30553,15.537,0.026
52707.30613,15.501,0.026
52707.318576,15.633,0.028
52707.33162,15.672,0.028
52707.345053,15.506,0.025
52707.358162,15.39,0.023
52730.289756,15.315,0.02
52730.301328,15.315,0.02
52730.312969,15.301,0.02
52730.32452,15.299,0.02
52730.336078,15.29,0.02
52733.252968,15.776,0.028
52733.265027,16.036,0.035
52733.277383,15.843,0.031
52733.290119,15.552,0.028
52733.302122,15.393,0.054
52737.246853,15.355,0.02
52737.259753,15.338,0.02
52737.271425,15.332,0.02
52737.283243,15.339,0.02
52737.295105,15.345,0.02
52756.199415,15.4,0.025
52756.211663,15.363,0.025
52756.223715,15.343,0.025
52756.2359,15.315,0.025
52756.248142,15.35,0.026
52758.205719,15.331,0.017
52758.217573,15.3,0.017
52758.229463,15.297,0.018
52758.241435,15.295,0.017
52758.25332,15.31,0.018
52788.17164,15.468,0.039
52788.181895,15.641,0.031
52788.213234,15.476,0.094
52793.22242,15.514,0.033
52793.232455,15.404,0.033
52793.242398,15.372,0.035
52966.466695,15.286,0.022
52966.491654,15.302,0.02
52966.504192,15.349,0.02
52972.451141,15.56,0.022
52972.463996,15.665,0.022
52972.476837,15.602,0.022
52972.489587,15.48,0.018
52987.503897,15.605,0.039
52994.47631,16.04,0.026
52997.493373,15.484,0.128
53028.412224,15.362,0.013
53028.424616,15.413,0.017
53028.449521,15.922,0.044
53033.336684,15.33,0.018
53033.348966,15.309,0.018
53033.361101,15.287,0.018
53033.373574,15.345,0.057
53033.385974,15.283,0.02
53054.366729,15.426,0.017
53054.381407,15.538,0.018
53054.393401,15.647,0.02
53054.406068,15.646,0.02
53054.418001,15.518,0.018
53061.329022,15.38,0.013
53061.373333,16.03,0.024
53064.281176,15.346,0.026
53064.294411,15.34,0.02
53064.318893,15.326,0.02
53064.337334,15.325,0.018
53064.350743,15.352,0.018
53065.28307,15.374,0.02
53065.295143,15.604,0.025
53065.307093,15.942,0.033
53065.319123,15.918,0.033
53065.330949,15.612,0.025
53080.282259,15.331,0.017
53080.293782,15.347,0.018
53080.305794,15.37,0.017
53080.31714,15.534,0.02
53080.328422,15.793,0.026
53082.337836,15.404,0.013
53082.349365,15.364,0.013
53082.360479,15.351,0.013
53082.371681,15.343,0.015
53082.388925,15.306,0.015
53091.283762,15.425,0.013
53091.294251,15.365,0.013
53091.304817,15.355,0.013
53091.315237,15.35,0.013
53091.325653,15.325,0.013
53111.1907,15.344,0.022
53111.201477,15.4,0.022
53111.212226,15.383,0.022
53111.222963,15.388,0.022
53111.233791,15.377,0.022
53116.307999,15.629,0.024
53116.319359,15.517,0.018
53116.330987,15.393,0.017
53116.342993,15.37,0.017
53116.354229,15.341,0.017
53139.160023,15.373,0.022
53139.169737,15.402,0.022
53139.179298,15.475,0.022
53139.188824,15.537,0.024
53139.198337,15.647,0.028
53141.211377,15.396,0.018
53141.221561,15.387,0.018
53141.231244,15.375,0.018
53141.241463,15.361,0.018
53141.251137,15.355,0.02
53144.208769,15.606,0.038
53144.217704,15.628,0.046
53144.226544,15.487,0.053
53144.235832,15.458,0.071
53144.244619,15.399,0.094
53346.452664,15.365,0.028
53346.465998,15.355,0.026
53346.479676,15.324,0.026
53346.492328,15.331,0.026
53346.50447,15.329,0.024
53353.458219,15.356,0.024
53353.47163,15.365,0.024
53353.484469,15.417,0.024
53353.497313,15.416,0.022
53353.510157,15.494,0.024
53376.482016,15.397,0.018
53376.495955,15.346,0.018
53376.509763,15.323,0.017
53376.527035,15.291,0.017
53381.423993,15.434,0.115
53381.436846,15.732,0.048
53381.449711,15.775,0.115
53381.475663,15.396,0.033
53403.353583,15.312,0.02
53403.367048,15.321,0.018
53403.39386,15.35,0.02
53403.406698,15.394,0.022
53410.355278,15.397,0.015
53410.367467,15.411,0.015
53410.380395,15.433,0.015
53410.393206,15.502,0.017
53410.406086,15.645,0.018
53432.347962,15.316,0.059
53432.35931,15.323,0.067
53432.370755,15.317,0.028
53432.382116,15.36,0.02
53432.393809,15.411,0.022
53437.294266,15.409,0.018
53437.306277,15.393,0.018
53437.317902,15.354,0.018
53437.3296,15.318,0.017
53437.341239,15.313,0.018
53443.272929,15.353,0.018
53443.283779,15.388,0.017
53443.295275,15.419,0.017
53443.306116,15.488,0.018
53443.317529,15.576,0.02
53446.280996,15.32,0.033
53446.291451,15.329,0.026
53446.302388,15.298,0.018
53446.313307,15.311,0.02
53446.324828,15.334,0.017
53464.292847,15.554,0.024
53464.303032,15.404,0.022
53464.313197,15.331,0.02
53464.32338,15.326,0.022
53464.333537,15.348,0.022
53495.245777,15.449,0.048
53495.255815,15.439,0.061
53495.265942,15.406,0.059
53495.275974,15.334,0.055
53495.28606,15.37,0.094
53496.196779,15.316,0.024
53496.207053,15.323,0.026
53496.217276,15.316,0.026
53496.227559,15.379,0.028
53496.237824,15.366,0.028
53525.174024,15.295,0.028
53525.184174,15.307,0.028
53525.194386,15.317,0.028
53525.204561,15.339,0.03
53527.165937,15.236,0.024
53527.176207,15.273,0.024
53527.186055,15.293,0.026
53527.195886,15.32,0.026
53527.205652,15.337,0.03
53708.460221,15.598,0.028
53708.473198,15.759,0.031
53708.485967,15.75,0.031
53708.498679,15.583,0.026
53708.511474,15.46,0.022
53710.453296,16.036,0.05
53710.466644,15.668,0.037
53710.479332,15.429,0.03
53710.491856,15.387,0.028
53710.504482,15.388,0.028
53732.475214,15.572,0.035
53732.488759,15.429,0.031
53732.501589,15.387,0.03
53732.51445,15.367,0.031
53732.527175,15.33,0.028
53735.466979,15.542,0.05
53735.493144,16.081,0.122
53735.505999,15.914,0.096
53735.518937,15.495,0.03
53746.402645,15.808,0.044
53746.415109,15.717,0.041
53746.427666,15.605,0.037
53746.440352,15.41,0.03
53746.452816,15.419,0.03
53759.407733,15.33,0.022
53759.420542,15.367,0.026
53759.433136,15.427,0.035
53759.445752,15.645,0.043
53762.41232,15.312,0.018
53762.425022,15.34,0.02
53762.437703,15.396,0.028
53762.450235,15.376,0.035
53762.463187,15.434,0.02
53787.467183,15.325,0.024
53787.503534,15.318,0.093
53790.341699,15.38,0.02
53790.353397,15.39,0.022
53790.365089,15.433,0.022
53790.37678,15.432,0.024
53790.38849,15.5,0.026
53791.351992,15.322,0.018
53791.363793,15.312,0.018
53791.375687,15.288,0.018
53791.38735,15.286,0.018
53791.399242,15.303,0.02
53793.346839,15.371,0.02
53793.35857,15.359,0.02
53793.3703,15.348,0.024
53793.382048,15.346,0.018
53793.393789,15.394,0.046
53797.249566,15.403,0.02
53797.272776,15.35,0.02
53797.284355,15.346,0.02
53799.336072,15.506,0.024
53799.347511,15.682,0.031
53799.358932,15.709,0.039
53799.37037,15.656,0.043
53799.381816,15.54,0.05
53815.286531,15.942,0.057
53815.297693,15.645,0.048
53815.308867,15.447,0.026
53815.320057,15.36,0.026
53815.331252,15.317,0.026
53817.263629,15.583,0.025
53817.275121,15.467,0.023
53817.286389,15.412,0.021
53817.297701,15.415,0.023
53817.309044,15.35,0.021
53819.290282,15.3,0.024
53819.301298,15.29,0.054
53819.30143,15.286,0.052
53819.314228,15.301,0.039
53819.324923,15.313,0.02
53826.285731,15.327,0.02
53826.311147,15.384,0.085
53826.322985,15.333,0.022
53826.334197,15.379,0.024
53827.297606,15.454,0.022
53827.308725,15.429,0.022
53827.319638,15.399,0.03
53827.330422,15.401,0.022
53827.341426,15.362,0.022
53832.224264,15.422,0.03
53832.236404,15.436,0.028
53832.247018,15.448,0.028
53832.258142,15.578,0.031
53832.268819,15.732,0.037
53846.191135,15.408,0.026
53846.201839,15.413,0.028
53846.212651,15.568,0.031
53846.223364,15.696,0.035
53846.234075,15.713,0.035
53846.246941,15.629,0.037
53846.257742,15.485,0.033
53846.268547,15.438,0.031
53846.279351,15.411,0.031
53846.290157,15.389,0.031
53850.195428,15.468,0.03
53850.205818,15.394,0.026
53850.216305,15.419,0.03
53850.22682,15.38,0.028
53850.237495,15.343,0.035
53850.273667,15.347,0.022
53850.284781,15.359,0.024
53850.296153,15.36,0.024
53850.307785,15.367,0.024
53850.319253,15.482,0.028
53853.243246,15.408,0.026
53853.253976,15.329,0.026
53853.264992,15.33,0.024
53853.275785,15.335,0.026
53853.286215,15.336,0.026
53856.276659,15.464,0.028
53856.289422,15.424,0.028
53856.300972,15.396,0.026
53856.311112,15.381,0.028
53856.321266,15.363,0.028
53879.162619,15.645,0.026
53879.173433,15.536,0.026
53879.184166,15.415,0.023
53879.194939,15.383,0.023
53879.206525,15.38,0.023
53882.168066,15.48,0.024
53882.180939,15.751,0.031
53882.193853,16.113,0.044
53882.205085,15.874,0.037
53882.21699,15.564,0.028
53884.161587,15.76,0.039
53884.173331,15.655,0.037
53884.185084,15.557,0.033
53884.196884,15.461,0.033
53884.208656,15.402,0.031
53885.158403,15.348,0.023
53885.169506,15.332,0.023
53885.180355,15.332,0.023
53885.191126,15.37,0.025
53885.202414,15.436,0.028
54060.447715,15.265,0.031
54060.462287,15.297,0.031
54060.47595,15.294,0.03
54060.489562,15.289,0.03
54060.502351,15.305,0.03
54080.484604,15.322,0.059
54086.425814,15.387,0.022
54086.438762,15.382,0.022
54086.451608,15.407,0.022
54086.464465,15.451,0.022
54086.477432,15.547,0.024
54091.358484,15.427,0.04
54091.371106,15.421,0.035
54091.379124,15.413,0.024
54091.383011,15.368,0.031
54091.391708,15.41,0.022
54091.394912,15.354,0.03
54091.404626,15.414,0.022
54091.407035,15.332,0.03
54091.417221,15.38,0.022
54091.429819,15.359,0.02
54113.391096,15.314,0.026
54113.418651,15.284,0.03
54113.431448,15.264,0.028
54113.444343,15.267,0.028
54115.412221,15.332,0.026
54115.424962,15.347,0.026
54115.438105,15.388,0.028
54115.451313,15.394,0.028
54115.464101,15.579,0.033
54123.39425,15.359,0.025
54123.407154,15.313,0.023
54123.419563,15.252,0.023
54123.432612,15.25,0.021
54123.444965,15.262,0.023
54144.36158,15.342,0.018
54144.372655,15.348,0.018
54144.384319,15.369,0.018
54144.395394,15.384,0.018
54144.407746,15.403,0.02
54148.338989,15.362,0.023
54148.350584,15.366,0.023
54148.362175,15.398,0.025
54148.373786,15.468,0.028
54148.385741,15.75,0.035
54154.329097,15.49,0.018
54154.341504,15.423,0.018
54154.353115,15.388,0.017
54154.36475,15.364,0.018
54154.376355,15.379,0.018
54155.301074,15.281,0.018
54155.312728,15.291,0.018
54155.32445,15.31,0.018
54155.336467,15.363,0.018
54155.348651,15.424,0.018
54156.32034,15.358,0.018
54156.331948,15.34,0.018
54156.343463,15.316,0.017
54156.354984,15.316,0.017
54156.366516,15.325,0.018
54173.314743,15.373,0.017
54173.325474,15.379,0.018
54173.336214,15.356,0.017
54173.346943,15.374,0.018
54173.358582,15.375,0.017
54174.270379,15.275,0.02
54174.281327,15.286,0.021
54174.29241,15.325,0.025
54174.303281,15.325,0.03
54174.314563,15.392,0.025
54176.27713,15.439,0.018
54176.28775,15.63,0.022
54176.298494,15.941,0.028
54176.30906,16.132,0.033
54176.319674,15.875,0.028
54179.338029,15.586,0.022
54179.349036,15.669,0.024
54179.359682,15.66,0.024
54179.370781,15.514,0.022
54179.381973,15.432,0.02
54180.278646,15.363,0.021
54180.288983,15.311,0.02
54180.299456,15.268,0.02
54180.310191,15.275,0.02
54180.320544,15.272,0.018
54186.339681,15.358,0.017
54186.351419,15.372,0.018
54186.362879,15.34,0.018
54186.37428,15.357,0.018
54186.386219,15.366,0.017
54200.219364,15.354,0.028
54200.228842,15.337,0.026
54200.257837,15.499,0.031
54206.263952,15.399,0.017
54206.273451,15.38,0.018
54206.282596,15.395,0.018
54206.291749,15.417,0.018
54206.300877,15.414,0.02
54209.259819,15.449,0.041
54209.268899,15.355,0.041
54209.277959,15.346,0.046
54209.287021,15.32,0.043
54209.296083,15.311,0.035
54439.475119,15.603,0.018
54507.333177,15.341,0.013
54507.357365,15.307,0.013
54507.36942,15.299,0.013
54507.381483,15.3,0.013
54507.45298,15.602,0.033
54507.464899,15.612,0.036
54507.476855,15.51,0.033
54507.489657,15.393,0.026
54507.501525,15.344,0.026
54522.419424,15.301,0.018
54529.327292,15.415,0.015
54529.372505,15.388,0.015
54535.393556,15.474,0.026
54535.404569,15.405,0.025
54535.415571,15.413,0.026
54535.426572,15.372,0.026
54535.437746,15.366,0.028
54536.273035,15.866,0.02
54536.284054,15.581,0.017
54536.294997,15.394,0.013
54536.305995,15.342,0.013
54536.316981,15.317,0.013
54553.306027,15.441,0.026
54553.317921,15.419,0.017
54553.329799,15.437,0.018
54553.341868,15.407,0.018
54553.3538,15.406,0.018
54562.29825,15.39,0.013
54562.309787,15.383,0.013
54562.3213,15.381,0.013
54562.332857,15.394,0.013
54562.344392,15.389,0.013
54580.19597,15.366,0.017
54580.206594,15.34,0.017
54580.217209,15.348,0.018
54580.227819,15.355,0.018
54580.238489,15.361,0.02
54584.250332,15.327,0.017
54584.260994,15.335,0.017
54584.271574,15.321,0.017
54584.282144,15.303,0.017
54584.292777,15.284,0.017
54590.195017,15.353,0.04
54590.204832,15.372,0.046
54590.214497,15.379,0.045
54590.224317,15.317,0.041
54590.234115,15.308,0.04
54591.244325,15.427,0.022
54591.254479,15.38,0.02
54591.264644,15.373,0.022
54591.274807,15.353,0.022
54591.284961,15.348,0.022
54611.161993,15.293,0.017
54611.172341,15.326,0.017
54611.182315,15.352,0.017
54611.192155,15.359,0.017
54611.202043,15.445,0.018
54614.164751,15.368,0.018
54614.174712,15.321,0.018
54614.184683,15.314,0.018
54614.194686,15.324,0.018
54614.20463,15.339,0.018
