mjd,m,merr
52646.481801,15.899,0.043
52646.497024,15.911,0.041
52646.511943,15.95,0.04
52646.526835,15.926,0.041
52667.465794,15.897,0.04
52667.48102,15.872,0.04
52667.495631,15.905,0.04
52667.510275,15.857,0.038
52667.52489,15.921,0.043
52676.371458,15.929,0.051
52676.386539,15.944,0.049
52676.40165,15.961,0.046
52676.41695,15.945,0.046
52676.43194,15.962,0.046
52707.38149,15.979,0.031
52707.394659,15.976,0.031
52707.408688,15.948,0.031
52707.421896,15.951,0.033
52707.435173,15.947,0.033
52710.375387,15.957,0.04
52710.388507,15.982,0.038
52710.401297,15.958,0.025
52710.401652,15.959,0.038
52710.414312,15.943,0.025
52710.414671,15.955,0.036
52710.427407,15.977,0.026
52710.427766,15.976,0.038
52738.301952,15.874,0.03
52738.313447,15.938,0.03
52738.324955,15.911,0.03
52738.336663,15.876,0.028
52738.348329,15.927,0.028
52755.268122,16.335,0.048
52755.280132,16.486,0.054
52755.292053,16.496,0.055
52755.303918,16.544,0.061
52755.315882,16.62,0.065
52768.26378,15.961,0.054
52768.275519,15.955,0.053
52768.28723,15.959,0.051
52768.298787,15.947,0.049
52768.310395,15.987,0.051
52792.255683,15.897,0.038
52792.266477,15.895,0.036
52793.287028,15.897,0.038
52793.297588,15.895,0.036
52819.216699,16.196,0.054
52824.176324,16.397,0.049
52824.186219,16.275,0.045
52824.196202,16.195,0.046
52824.206221,16.108,0.041
52824.216211,16.171,0.041
53002.5058,15.888,0.02
53002.520728,15.897,0.02
53002.534892,15.92,0.021
53033.402318,16.094,0.043
53033.414476,16.079,0.041
53033.426882,16.061,0.039
53033.438979,15.995,0.035
53033.451144,16.016,0.035
53053.41088,15.895,0.028
53053.422674,15.888,0.03
53053.434372,15.894,0.033
53053.446726,15.95,0.052
53053.458432,15.901,0.046
53064.363843,15.938,0.033
53064.412031,15.914,0.028
53079.366862,15.986,0.031
53079.378227,15.991,0.033
53079.389064,16.053,0.033
53079.401045,16.095,0.035
53079.411849,16.154,0.035
53089.344271,16.63,0.157
53110.295271,15.94,0.033
53110.306087,15.937,0.033
53110.31689,15.931,0.031
53110.327692,15.904,0.031
53110.338492,15.934,0.031
53119.294939,15.904,0.024
53119.305372,15.871,0.024
53119.315857,15.874,0.024
53119.326367,15.899,0.026
53119.336791,15.871,0.024
53138.252084,15.972,0.035
53138.261617,15.934,0.033
53138.271186,15.946,0.033
53138.280781,16.006,0.033
53138.290364,15.935,0.033
53149.249316,16.112,0.033
53149.258284,16.148,0.033
53149.267206,16.122,0.033
53149.276129,16.078,0.031
53149.285053,16.093,0.031
53166.242773,15.969,0.037
53166.252218,15.917,0.035
53166.26167,15.906,0.035
53166.27112,15.94,0.037
53166.280659,15.935,0.037
53447.358371,15.897,0.03
53447.368767,15.952,0.117
53447.390479,15.912,0.061
53447.401388,15.905,0.028
53468.391161,16.019,0.037
53468.400781,16.05,0.039
53468.410343,16.124,0.041
53468.419932,16.166,0.043
53468.430043,16.185,0.046
53503.325539,15.887,0.028
53503.334559,15.939,0.03
53503.344926,15.899,0.031
53503.355774,15.894,0.033
53503.364805,15.91,0.035
53522.217812,15.881,0.035
53522.228054,15.916,0.035
53522.238337,15.905,0.035
53522.248546,15.886,0.035
53522.258834,15.916,0.039
53746.470052,16.07,0.063
53746.482669,16.072,0.057
53746.495206,16.087,0.054
53746.507632,16.13,0.048
53746.520157,16.109,0.043
53790.406601,15.905,0.035
53790.418686,15.948,0.035
53790.430412,15.94,0.035
53790.442164,15.979,0.035
53790.454495,15.955,0.035
53818.342965,16.192,0.041
53818.354332,16.105,0.038
53818.365671,16.02,0.036
53818.376825,16.033,0.036
53818.388,15.967,0.033
53845.296738,15.909,0.041
53845.319299,15.913,0.053
53845.330603,15.865,0.053
53845.341823,15.867,0.048
53846.293565,15.948,0.046
53846.304592,15.931,0.048
53846.315608,15.917,0.046
53846.326629,15.878,0.046
53846.337628,15.887,0.044
53850.250683,15.911,0.043
53850.260951,15.926,0.043
53850.271265,15.879,0.041
53850.281651,15.92,0.043
53850.292029,15.881,0.043
53884.222449,15.972,0.046
53884.234035,15.96,0.044
53884.245598,15.972,0.046
53884.257187,16.007,0.048
53884.268783,15.985,0.046
53901.186383,15.836,0.087
53901.196388,15.867,0.059
53901.206404,15.86,0.059
53911.233617,15.999,0.116
54152.404023,15.989,0.03
54152.41591,15.985,0.028
54152.427864,15.987,0.028
54152.439779,15.984,0.026
54152.451708,15.972,0.026
54173.323943,15.911,0.036
54173.334788,15.951,0.038
54173.345488,16.017,0.097
54173.356115,15.936,0.035
54173.367087,15.939,0.035
54185.347434,16.007,0.053
54185.357907,15.948,0.056
54200.271347,16.065,0.056
54200.280943,16.093,0.066
54200.290416,16.113,0.078
54200.29987,16.061,0.054
54200.309555,16.067,0.054
54477.462603,16.039,0.03
54477.47555,16.037,0.03
54477.488481,15.99,0.028
54477.501551,15.983,0.026
54477.514481,15.977,0.024
54484.46218,15.899,0.039
54539.322366,16.54,0.041
54539.33326,16.481,0.037
54539.344124,16.418,0.033
54539.354981,16.293,0.028
54539.365998,16.239,0.028
54558.243862,15.931,0.109
54558.25545,15.883,0.041
54558.267147,15.893,0.039
54558.27872,15.872,0.031
54558.290304,15.903,0.037
54567.293211,15.88,0.026
54567.304398,15.877,0.026
54567.315667,15.893,0.026
54567.326837,15.897,0.026
54567.338002,15.905,0.024
54580.257258,15.923,0.058
54580.267585,15.942,0.059
54580.27784,15.946,0.061
54580.28818,15.97,0.061
54580.298454,15.952,0.059
54591.242854,16.0,0.089
54591.252438,16.067,0.097
54591.262044,16.028,0.087
54591.271641,15.894,0.081
54591.281337,16.062,0.094
54597.254657,16.068,0.052
54597.265292,16.138,0.055
54597.275885,16.075,0.05
54597.286654,16.032,0.05
54597.2973,16.058,0.048
54611.205355,15.877,0.054
54611.213713,15.938,0.058
54611.22194,15.929,0.058
54611.230174,15.888,0.054
54611.238386,15.947,0.056
54620.219567,15.918,0.033
54620.229796,15.892,0.031
54620.23997,15.934,0.033
54620.250171,15.885,0.031
54620.260359,15.901,0.031
