mjd,m,merr
52667.465921,15.561,0.028
52667.481148,15.562,0.028
52667.495759,15.594,0.03
52667.510402,15.605,0.03
52667.525017,15.702,0.033
52676.371329,15.731,0.041
52676.386409,15.769,0.04
52676.40152,15.75,0.036
52676.416821,15.749,0.038
52676.43181,15.732,0.036
52707.381359,15.807,0.028
52707.394528,15.827,0.028
52707.408557,15.865,0.03
52707.421763,15.847,0.03
52707.435044,15.88,0.031
52710.375268,15.738,0.033
52710.388386,15.706,0.03
52710.401534,15.728,0.03
52710.41455,15.772,0.031
52710.427644,15.728,0.03
52711.311535,15.839,0.043
52711.324541,15.799,0.04
52711.338156,15.853,0.041
52711.351254,15.828,0.04
52711.364305,15.865,0.04
52725.430591,15.672,0.024
52725.442352,15.686,0.026
52725.45405,15.646,0.026
52725.465799,15.607,0.026
52725.477506,15.644,0.026
52734.314623,15.506,0.048
52734.314979,15.515,0.04
52738.302192,15.873,0.03
52738.313689,15.889,0.03
52738.325197,15.86,0.028
52738.336904,15.887,0.028
52738.348571,15.909,0.028
52755.268233,15.733,0.03
52755.280242,15.746,0.028
52755.292163,15.73,0.028
52755.304028,15.752,0.03
52755.315992,15.751,0.03
52768.26367,15.674,0.043
52768.275392,15.654,0.04
52768.287112,15.618,0.038
52768.29866,15.573,0.036
52768.310268,15.51,0.033
52769.268273,15.984,0.059
52769.291184,15.965,0.059
52769.303001,15.893,0.054
52769.314492,16.002,0.063
52794.220328,15.705,0.038
52794.230642,15.634,0.035
52794.241162,15.655,0.036
52794.251683,15.71,0.04
52794.262431,15.651,0.038
52819.217152,15.898,0.053
52824.175622,15.887,0.039
52824.185615,15.861,0.037
52824.195453,15.857,0.039
52824.205346,15.871,0.041
52824.215235,15.919,0.041
53002.506234,15.975,0.021
53002.52116,15.975,0.021
53002.535324,15.992,0.021
53006.457779,15.745,0.035
53006.469968,15.629,0.031
53006.482238,15.555,0.026
53006.494514,15.545,0.026
53006.506707,15.511,0.03
53033.403266,15.87,0.036
53033.415973,15.895,0.036
53033.42827,15.916,0.036
53033.440504,15.921,0.035
53033.452971,15.935,0.035
53035.469932,15.71,0.024
53035.482711,15.681,0.024
53035.495324,15.585,0.022
53035.496163,15.592,0.023
53035.508043,15.523,0.02
53035.508328,15.517,0.021
53035.520547,15.466,0.021
53035.521397,15.431,0.018
53053.410992,15.791,0.026
53053.422786,15.784,0.028
53053.434484,15.789,0.03
53053.446839,15.811,0.046
53053.458544,15.841,0.043
53064.363712,15.987,0.039
53064.4119,15.972,0.03
53079.366962,15.962,0.031
53079.378328,15.934,0.031
53079.389165,15.928,0.03
53079.401146,15.916,0.03
53079.41195,15.908,0.028
53110.295177,15.976,0.035
53110.305993,15.959,0.035
53110.316796,15.997,0.033
53110.327598,15.971,0.033
53110.338398,15.957,0.033
53119.29753,15.583,0.02
53119.307535,15.509,0.018
53119.318262,15.503,0.018
53119.328453,15.492,0.018
53119.338498,15.517,0.021
53138.251997,15.707,0.028
53138.26153,15.712,0.026
53138.271099,15.679,0.026
53138.280694,15.653,0.024
53138.290277,15.626,0.026
53149.20988,15.825,0.031
53149.218456,15.878,0.033
53149.227083,15.875,0.031
53149.236036,15.847,0.03
53149.244663,15.895,0.031
53166.24286,15.787,0.031
53166.252305,15.775,0.031
53166.261756,15.783,0.031
53166.271207,15.778,0.033
53166.280746,15.781,0.033
53447.358494,15.855,0.028
53447.390602,15.918,0.087
53447.401511,15.888,0.028
53468.391062,15.91,0.033
53468.400682,15.878,0.035
53468.410245,15.887,0.033
53468.419833,15.843,0.031
53468.429944,15.809,0.033
53494.299801,15.584,0.031
53494.31044,15.516,0.03
53494.321584,15.396,0.067
53494.332131,15.412,0.026
53494.342578,15.385,0.024
53503.325741,15.732,0.024
53503.334761,15.749,0.026
53503.345129,15.796,0.03
53503.356004,15.78,0.03
53503.365009,15.77,0.031
53522.217919,15.623,0.028
53522.228163,15.651,0.028
53522.238446,15.693,0.03
53522.248656,15.674,0.03
53522.258945,15.711,0.031
53747.472645,15.879,0.072
53747.485703,15.887,0.067
53747.498719,15.923,0.063
53747.51197,15.934,0.05
53747.524956,15.976,0.052
53790.406466,15.99,0.038
53790.418558,15.95,0.035
53790.430284,15.949,0.033
53790.442035,15.978,0.035
53790.4543,15.993,0.035
53799.349726,15.557,0.02
53799.361762,15.523,0.018
53799.373567,15.488,0.018
53799.385401,15.5,0.018
53799.397289,15.505,0.018
53818.34283,15.677,0.025
53818.354197,15.679,0.025
53818.365536,15.678,0.025
53818.37669,15.679,0.025
53818.387866,15.648,0.025
53845.29663,15.899,0.04
53845.307817,15.821,0.038
53845.319142,15.812,0.049
53845.330497,15.714,0.046
53845.341714,15.732,0.04
53846.293565,15.842,0.043
53846.304592,15.796,0.043
53846.315608,15.802,0.041
53846.326629,15.839,0.043
53846.337628,15.844,0.041
53851.289488,15.763,0.036
53851.299811,15.75,0.036
53851.310241,15.736,0.036
53851.320641,15.805,0.04
53851.33133,15.801,0.038
53880.21584,15.764,0.039
53880.227059,15.826,0.039
53880.23829,15.784,0.037
53880.249521,15.77,0.037
53880.260764,15.793,0.037
53885.222132,15.768,0.039
53885.234118,15.721,0.035
53885.246098,15.754,0.037
53885.258249,15.798,0.041
53885.270325,15.769,0.041
53912.177346,15.5,0.033
53912.187005,15.522,0.033
53912.206536,15.465,0.031
53912.216537,15.405,0.074
54112.500516,15.93,0.054
54112.51311,15.95,0.056
54112.525694,15.962,0.056
54152.403878,15.7,0.022
54152.415765,15.698,0.02
54152.427719,15.703,0.02
54152.439633,15.724,0.02
54152.451563,15.71,0.02
54173.324072,15.816,0.033
54173.334918,15.836,0.035
54173.345618,15.788,0.076
54173.356245,15.835,0.031
54173.367216,15.825,0.031
54185.326835,15.744,0.153
54185.34756,15.749,0.038
54185.358034,15.804,0.043
54185.36826,15.909,0.107
54201.287875,16.007,0.045
54201.297221,15.964,0.04
54201.306591,16.009,0.04
54201.316075,16.013,0.041
54201.325434,16.047,0.041
54478.470437,15.817,0.02
54478.483533,15.867,0.02
54478.496629,15.857,0.02
54478.509714,15.862,0.018
54558.244155,15.571,0.041
54558.255742,15.575,0.031
54558.267439,15.572,0.043
54558.279012,15.626,0.024
54558.290597,15.658,0.028
54568.292679,15.746,0.026
54568.303621,15.74,0.026
54568.314566,15.698,0.024
54568.325526,15.712,0.024
54568.336497,15.703,0.024
54580.257139,15.583,0.043
54580.267468,15.59,0.043
54580.277723,15.602,0.043
54580.288062,15.582,0.043
54580.298337,15.554,0.043
54588.292555,15.929,0.03
54588.303164,15.96,0.031
54588.31379,15.906,0.03
54588.324397,15.914,0.031
54588.334896,15.907,0.035
54597.254785,15.638,0.035
54597.265422,15.578,0.031
54597.276013,15.549,0.031
54597.28678,15.569,0.031
54597.297428,15.548,0.03
54611.205459,15.643,0.045
54611.213817,15.685,0.046
54611.222042,15.563,0.043
54611.230278,15.663,0.045
54611.238489,15.656,0.045
54620.219666,15.757,0.028
54620.229895,15.83,0.03
54620.240069,15.811,0.03
54620.25027,15.811,0.028
54620.260458,15.816,0.03
