mjd,m,merr
52650.435143,15.648,0.026
52650.449048,15.694,0.028
52650.46302,15.718,0.028
52650.477085,15.741,0.026
52650.491042,15.773,0.026
52665.454334,15.835,0.031
52665.4687,15.774,0.028
52665.483,15.728,0.028
52665.497295,15.729,0.026
52665.511713,15.651,0.026
52677.407592,15.794,0.035
52677.421972,15.899,0.043
52677.436296,15.979,0.061
52677.450601,15.928,0.037
52697.404672,17.177,0.272
52697.405032,15.674,0.086
52706.376702,15.795,0.03
52706.3898,15.807,0.031
52706.402906,15.752,0.028
52706.416343,15.75,0.03
52706.429462,15.769,0.03
52712.319439,15.869,0.056
52712.346112,15.875,0.046
52712.36029,15.827,0.045
52712.374016,15.879,0.043
52724.36115,15.762,0.024
52724.372773,15.801,0.024
52724.384336,15.829,0.026
52724.395882,15.851,0.026
52724.407483,15.889,0.028
52753.259458,15.949,0.035
52753.272117,15.948,0.035
52753.28866,15.953,0.033
52753.300952,15.953,0.035
52753.313924,15.897,0.033
52771.229666,15.655,0.053
52771.242282,15.672,0.054
52771.253735,15.649,0.051
52771.265319,15.615,0.049
52787.221132,15.66,0.024
52787.231892,15.677,0.024
52787.242453,15.674,0.024
52787.253047,15.671,0.024
52787.2636,15.73,0.026
52797.219757,15.81,0.043
52797.229778,15.901,0.046
52797.239752,15.851,0.044
52797.249708,15.873,0.048
52797.259678,15.877,0.05
52811.219962,15.867,0.037
52811.22972,15.841,0.037
52811.239589,15.849,0.037
52811.24935,15.829,0.037
52811.259143,15.85,0.037
52826.174955,15.729,0.046
52826.184876,15.79,0.059
52826.195001,15.711,0.049
52826.205072,15.716,0.049
52826.21496,15.647,0.046
52842.173163,15.731,0.046
52847.180677,15.846,0.048
52847.190737,15.824,0.05
52847.201252,15.885,0.05
53024.409543,15.854,0.039
53024.44842,15.997,0.172
53024.461199,15.905,0.046
53034.406176,15.707,0.026
53034.41865,15.704,0.026
53034.43104,15.655,0.026
53034.443476,15.701,0.026
53034.455777,15.672,0.026
53050.384959,15.688,0.057
53050.396678,15.651,0.031
53050.408327,15.731,0.024
53050.420066,15.746,0.022
53050.431826,15.79,0.022
53065.348063,16.005,0.033
53065.361785,15.991,0.031
53065.376025,16.007,0.031
53065.391994,15.84,0.026
53065.409856,15.778,0.03
53078.334215,15.75,0.026
53078.345008,15.734,0.026
53078.355933,15.733,0.03
53109.294959,15.938,0.03
53109.305695,15.906,0.028
53109.316404,15.942,0.03
53109.327261,15.909,0.03
53109.337972,15.834,0.028
53122.252421,15.81,0.028
53122.262768,15.78,0.026
53122.273125,15.755,0.026
53122.283508,15.712,0.024
53122.294148,15.701,0.024
53137.248305,15.8,0.03
53137.258097,15.796,0.03
53137.267975,15.868,0.031
53137.277761,15.887,0.031
53137.287581,15.9,0.035
53153.251008,15.966,0.037
53153.26002,15.953,0.037
53153.268807,15.972,0.037
53153.277591,15.971,0.039
53153.286428,15.902,0.037
53165.230689,15.669,0.026
53165.24069,15.701,0.03
53165.250718,15.727,0.031
53165.260787,15.726,0.031
53178.222523,15.909,0.028
53178.232506,15.89,0.093
53178.242577,15.879,0.046
53178.252561,15.878,0.087
53386.487875,15.832,0.031
53386.500831,15.855,0.03
53386.514124,15.809,0.03
53386.528992,15.755,0.028
53386.542488,15.726,0.031
53441.398887,15.903,0.03
53441.409816,15.919,0.03
53441.420776,15.894,0.03
53441.43222,15.915,0.03
53441.443152,15.858,0.03
53443.435611,15.741,0.043
53443.446729,15.775,0.031
53443.468337,15.727,0.048
53443.479139,15.694,0.026
53473.435241,15.757,0.031
53473.444914,15.7,0.033
53473.454608,15.757,0.035
53473.465088,15.813,0.037
53500.248724,15.75,0.03
53500.26004,15.739,0.028
53500.271003,15.721,0.028
53500.282046,15.703,0.028
53500.292243,15.66,0.026
53528.224691,15.884,0.041
53528.235952,15.881,0.041
53528.247018,15.828,0.041
53528.25786,15.777,0.037
53528.268237,15.728,0.035
53539.217694,15.756,0.07
53539.227271,15.76,0.068
53539.236849,15.715,0.067
53539.246415,15.645,0.065
53539.255985,15.598,0.063
53551.189087,15.776,0.031
53551.199237,15.775,0.031
53551.209177,15.835,0.033
53551.219083,15.826,0.035
53570.168408,15.763,0.065
53570.179016,15.783,0.067
53570.189596,15.881,0.076
53570.200215,15.889,0.076
53570.210814,15.865,0.081
53576.175905,15.924,0.031
53576.197774,15.88,0.039
53576.208751,15.741,0.043
53740.473806,15.849,0.031
53740.486711,15.954,0.033
53740.499665,16.038,0.035
53740.512514,15.977,0.033
53740.525446,16.029,0.035
53786.433144,16.059,0.1
53786.445274,15.821,0.033
53813.410821,15.708,0.046
53813.421844,15.722,0.046
53813.432987,15.576,0.041
53813.444002,15.626,0.044
53813.45504,15.668,0.046
53823.301968,15.753,0.025
53823.312917,15.731,0.025
53823.323802,15.733,0.025
53823.334636,15.736,0.025
53823.345751,15.705,0.025
53844.283987,15.781,0.033
53844.294258,15.784,0.035
53844.304534,15.824,0.037
53844.315106,15.837,0.041
53844.325476,15.945,0.048
53853.249271,15.73,0.04
53853.259547,15.675,0.036
53853.269862,15.703,0.038
53853.280312,15.664,0.036
53853.290693,15.716,0.038
53854.237449,15.904,0.069
53854.247518,15.783,0.071
53854.251954,15.971,0.043
53854.257525,15.843,0.073
53854.267051,15.945,0.044
53854.267644,15.918,0.084
53883.218752,15.756,0.036
53883.229066,15.742,0.036
53883.259985,15.792,0.038
53887.22886,15.965,0.054
53887.239518,15.884,0.05
53887.250207,15.954,0.052
53887.260906,15.873,0.048
53887.271615,15.801,0.043
53902.236391,15.803,0.041
53902.246716,15.877,0.041
53902.257179,15.837,0.045
53902.26834,15.844,0.049
53915.178627,15.831,0.048
53915.18849,15.91,0.053
53915.199889,15.986,0.056
53931.175066,15.892,0.056
53931.195464,15.999,0.059
53931.215646,15.915,0.066
54098.430619,16.089,0.046
54098.442624,15.975,0.039
54098.457804,16.019,0.043
54098.471172,15.976,0.037
54098.483386,16.026,0.039
54110.456329,15.65,0.066
54110.469197,15.531,0.054
54121.396013,15.681,0.026
54121.408217,15.683,0.026
54121.420408,15.752,0.028
54121.432606,15.737,0.028
54121.44479,15.762,0.028
54155.360274,15.857,0.035
54155.371811,15.812,0.033
54155.383745,15.81,0.033
54155.395661,15.77,0.031
54155.407895,15.704,0.03
54206.274134,15.69,0.028
54206.283504,15.677,0.028
54206.292844,15.758,0.03
54206.302191,15.737,0.03
54206.31157,15.751,0.03
54529.274737,15.686,0.035
54529.285848,15.665,0.033
54529.297439,15.661,0.036
54529.308627,15.753,0.033
54529.319734,15.749,0.033
54562.193483,16.445,0.081
54562.231497,16.382,0.071
54574.289072,15.686,0.054
54574.299765,15.662,0.052
54574.310416,15.61,0.046
54574.321111,15.622,0.046
54574.331792,15.613,0.044
54582.292859,15.732,0.028
54582.303465,15.724,0.028
54582.314035,15.68,0.028
54582.324597,15.706,0.03
54582.33523,15.714,0.031
54613.209202,15.972,0.033
54613.219068,15.942,0.033
54613.229077,16.012,0.035
54613.239132,16.029,0.037
54613.249218,16.08,0.041
