mjd,m,merr
52673.444122,15.738,0.04
52673.458917,15.739,0.038
52673.473586,15.752,0.036
52705.371749,15.524,0.031
52705.384784,15.577,0.033
52705.387852,15.593,0.028
52705.397824,15.623,0.035
52705.401234,15.632,0.03
52705.410856,15.616,0.035
52705.414378,15.657,0.03
52705.424064,15.666,0.038
52705.42808,15.72,0.033
52705.441344,15.763,0.033
52709.439506,16.006,0.051
52709.452641,16.044,0.053
52709.465696,16.049,0.058
52709.478755,15.725,0.041
52709.491916,15.494,0.035
52729.349332,15.51,0.024
52729.360844,15.548,0.024
52729.372398,15.592,0.026
52729.383864,15.574,0.028
52729.39535,15.646,0.03
52735.313025,15.73,0.045
52735.324858,15.709,0.043
52735.336999,15.779,0.046
52735.3488,15.757,0.046
52735.360642,15.851,0.048
52741.306183,15.867,0.064
52741.318616,15.828,0.061
52741.330508,15.954,0.066
52741.35553,15.893,0.097
52759.264462,15.631,0.028
52759.276414,15.658,0.028
52759.288374,15.635,0.028
52759.30034,15.719,0.03
52759.312333,15.705,0.031
52760.270619,15.499,0.031
52760.282637,15.554,0.035
52760.294864,15.549,0.033
52760.306872,15.564,0.035
52760.318889,15.645,0.038
52765.274245,15.848,0.04
52815.207675,15.566,0.049
52815.217834,15.532,0.046
52817.172195,16.007,0.069
52817.182455,16.039,0.078
52817.1926,15.861,0.068
52817.202737,15.597,0.054
53058.414985,15.703,0.023
53058.439454,15.748,0.031
53058.451918,15.715,0.023
53058.464251,15.751,0.021
53061.409342,15.991,0.033
53061.421101,15.874,0.03
53061.43301,15.524,0.02
53061.44482,15.355,0.028
53061.456849,15.172,0.016
53081.427182,15.762,0.03
53081.438084,15.808,0.031
53081.448858,15.839,0.033
53081.459636,15.877,0.035
53081.47054,15.842,0.033
53083.408174,15.435,0.016
53083.419127,15.457,0.018
53083.430409,15.501,0.021
53083.441924,15.554,0.02
53083.452861,15.574,0.021
53085.451742,15.136,0.033
53085.463892,15.164,0.035
53085.487022,15.358,0.076
53090.369163,15.518,0.031
53090.380246,15.535,0.031
53112.309841,15.662,0.052
53112.320607,15.753,0.041
53112.331442,15.768,0.046
53112.342183,15.772,0.046
53114.361845,15.473,0.02
53114.372683,15.558,0.021
53114.397197,15.605,0.025
53114.408811,15.642,0.028
53116.358892,15.381,0.018
53116.36952,15.229,0.015
53116.391462,15.123,0.015
53116.404678,15.204,0.016
53120.287285,15.652,0.026
53120.297189,15.679,0.026
53120.317336,15.713,0.026
53140.248121,15.892,0.041
53140.25769,15.933,0.039
53140.267195,15.904,0.041
53140.276703,15.976,0.043
53140.286229,15.978,0.043
53142.343404,15.985,0.079
53144.310326,15.691,0.033
53144.319601,15.722,0.039
53144.328878,15.727,0.035
53144.338152,15.732,0.052
53144.347549,15.779,0.063
53167.171063,15.48,0.036
53167.202159,15.571,0.038
53171.17708,15.829,0.036
53171.186863,15.848,0.038
53171.196782,15.881,0.038
53171.20673,15.95,0.036
53171.21648,15.998,0.04
53173.17711,15.853,0.026
53173.187871,15.854,0.026
53173.198095,15.874,0.028
53173.208369,15.877,0.028
53173.218597,15.898,0.03
53383.483955,16.028,0.059
53383.496821,16.006,0.055
53383.509652,15.81,0.044
53383.52288,15.502,0.031
53383.536165,15.239,0.024
53436.370644,15.262,0.02
53436.38233,15.274,0.02
53436.393578,15.329,0.022
53436.405448,15.409,0.024
53436.416711,15.43,0.024
53437.406269,15.131,0.024
53437.417566,15.173,0.037
53437.428895,15.241,0.031
53437.440185,15.298,0.026
53437.456906,15.334,0.026
53466.404464,15.745,0.035
53466.414017,15.807,0.039
53466.424411,15.803,0.037
53466.434059,15.843,0.043
53466.443653,15.818,0.041
53789.463364,15.455,0.113
53792.471883,16.035,0.104
53792.483862,16.036,0.08
53792.495835,15.984,0.091
53792.507826,15.683,0.08
53802.412582,15.841,0.048
53802.424072,15.885,0.041
53802.435561,15.813,0.039
53802.447059,15.859,0.041
53824.454263,15.976,0.052
53824.465223,15.985,0.05
53824.476193,15.998,0.063
53831.337017,15.898,0.046
53831.346794,15.944,0.046
53831.356861,15.988,0.048
53831.37691,15.982,0.044
53846.352796,15.892,0.054
53846.363744,15.655,0.043
53846.375932,15.483,0.041
53846.389149,15.242,0.035
53846.400933,15.179,0.035
53851.34528,15.603,0.039
53851.355461,15.64,0.039
53851.365881,15.674,0.041
53851.375855,15.693,0.043
53851.385819,15.698,0.046
53857.37637,15.892,0.072
53857.397269,15.998,0.111
54153.442186,15.935,0.093
54153.47808,16.061,0.087
54153.489917,16.106,0.063
54174.378926,15.236,0.033
54174.389704,15.194,0.041
54174.400501,15.307,0.024
54174.411437,15.363,0.026
54174.422179,15.421,0.028
54177.40374,15.879,0.035
54177.415513,15.925,0.039
54177.427199,15.925,0.05
54179.39163,15.835,0.046
54179.402445,15.927,0.049
54179.413357,15.949,0.051
54179.423861,15.872,0.048
54179.434915,15.966,0.051
54180.394863,15.695,0.03
54180.405506,15.702,0.03
54180.416386,15.755,0.03
54180.426774,15.753,0.031
54180.437471,15.8,0.033
54205.361299,15.474,0.02
54205.370703,15.488,0.024
54205.380088,15.531,0.024
54205.389529,15.553,0.024
54205.399034,15.552,0.022
54208.352514,15.891,0.035
54208.361675,15.956,0.035
54208.370827,15.982,0.041
54208.379985,15.994,0.041
54208.38915,16.024,0.044
54212.32281,15.539,0.026
54212.332172,15.555,0.026
54212.34145,15.55,0.026
54212.350825,15.565,0.026
54212.360164,15.615,0.028
54481.475482,15.486,0.031
54481.488665,15.247,0.037
54481.501848,15.134,0.017
54498.463555,16.018,0.03
54498.476388,16.036,0.031
54498.489176,16.05,0.031
54498.501971,16.044,0.031
54498.51482,15.986,0.03
54506.455229,15.949,0.03
54506.46786,15.958,0.03
54506.480326,16.008,0.03
54506.492787,16.017,0.03
54506.50529,15.948,0.026
54527.4418,15.436,0.018
54527.45348,15.484,0.02
54527.465225,15.508,0.022
54527.476767,15.519,0.024
54527.488432,15.554,0.059
54535.392057,15.273,0.013
54535.403442,15.34,0.015
54535.414804,15.372,0.015
54535.426182,15.421,0.015
54535.437561,15.478,0.017
54540.390201,15.833,0.02
54540.401689,15.828,0.018
54540.412982,15.854,0.02
54540.424349,15.913,0.022
54540.435535,15.893,0.022
54561.360111,15.892,0.022
54561.371812,15.961,0.024
54561.383517,15.986,0.024
54561.395229,16.034,0.026
54561.407087,16.007,0.031
54571.305507,15.742,0.041
54571.316694,15.795,0.043
54571.327884,15.775,0.041
54571.339038,15.903,0.044
54571.350197,15.819,0.043
54583.354646,15.16,0.026
54583.365703,15.193,0.028
54583.37672,15.217,0.03
54583.387771,15.321,0.035
54583.398749,15.365,0.037
54590.351583,15.426,0.033
54590.362408,15.454,0.037
54590.372899,15.511,0.041
