mjd,m,merr
52643.496836,16.273,0.053
52643.513115,16.173,0.046
52643.529718,16.015,0.04
52667.477041,15.932,0.043
52667.492297,15.854,0.039
52667.507424,15.878,0.039
52667.52289,15.872,0.039
52667.538113,15.907,0.041
52670.500129,15.964,0.041
52670.515256,16.07,0.043
52670.529731,16.168,0.046
52676.439461,16.048,0.046
52676.45567,16.192,0.052
52676.471072,16.093,0.044
52676.490328,15.933,0.041
52676.508655,15.911,0.039
52701.381884,16.01,0.04
52701.382,15.976,0.038
52701.402375,15.905,0.038
52701.40249,15.898,0.036
52701.415509,15.911,0.036
52701.415623,15.861,0.035
52701.428565,15.924,0.038
52701.428681,15.88,0.035
52701.441665,15.955,0.04
52701.44178,15.921,0.036
52707.379116,16.002,0.04
52707.379717,16.027,0.04
52707.392301,16.094,0.043
52707.392905,16.15,0.045
52707.40539,16.204,0.048
52707.419083,16.086,0.045
52707.419683,16.109,0.043
52707.432631,16.008,0.043
52707.433231,15.969,0.038
52729.305276,16.119,0.045
52729.305634,16.079,0.041
52729.317744,16.226,0.048
52729.318101,16.137,0.043
52729.329827,16.259,0.049
52729.330185,16.304,0.048
52729.341852,16.256,0.048
52729.342208,16.197,0.043
52729.354529,16.077,0.041
52729.354888,16.106,0.04
52732.312009,16.204,0.053
52732.324065,16.0,0.045
52732.324421,16.026,0.041
52732.335995,15.959,0.043
52732.336351,15.943,0.038
52732.348209,15.929,0.041
52732.348563,15.917,0.038
52732.360477,15.873,0.04
52732.360831,15.869,0.035
52737.37486,16.043,0.035
52737.392138,16.174,0.039
52737.404226,16.217,0.043
52737.416957,16.177,0.043
52737.429292,16.049,0.039
52756.258943,16.152,0.044
52756.27089,16.079,0.043
52756.282837,15.979,0.039
52756.294752,15.918,0.035
52756.3068,15.895,0.035
52761.265187,15.931,0.033
52761.276905,15.853,0.031
52761.288719,15.863,0.033
52761.300407,15.921,0.035
52761.312217,15.975,0.037
52768.26764,15.955,0.048
52768.279765,15.935,0.046
52768.29185,15.958,0.046
52768.303729,15.945,0.043
52768.315614,16.042,0.046
53000.510545,15.921,0.023
53000.523603,15.868,0.021
53033.453436,15.995,0.039
53033.465513,15.924,0.035
53033.477524,15.861,0.035
53033.4897,15.817,0.033
53033.501957,15.839,0.033
53054.437938,16.023,0.033
53054.453909,15.944,0.031
53054.465787,15.873,0.031
53054.478791,15.834,0.03
53054.491437,15.851,0.03
53062.415225,15.854,0.092
53080.34512,15.925,0.031
53080.356062,15.999,0.033
53080.36814,16.085,0.035
53080.37958,16.153,0.039
53080.390562,16.126,0.037
53087.386056,16.073,0.03
53087.396501,15.998,0.028
53087.407134,15.918,0.028
53087.417688,15.899,0.115
53111.292698,15.885,0.037
53111.303501,15.964,0.039
53111.314333,16.065,0.043
53111.325152,16.103,0.043
53111.336142,16.048,0.041
53118.309833,16.078,0.028
53118.320538,16.121,0.03
53118.341697,16.053,0.028
53139.249725,15.863,0.035
53139.259213,15.876,0.035
53139.268713,15.932,0.035
53139.278179,15.919,0.035
53139.287651,15.998,0.037
53148.286127,15.933,0.031
53148.294793,15.981,0.033
53148.303527,16.043,0.035
53148.313701,16.157,0.04
53148.324465,16.235,0.043
53169.220947,15.908,0.033
53169.230895,15.92,0.035
53169.240891,15.87,0.033
53169.250817,15.834,0.033
53169.260748,15.89,0.035
53175.219093,16.054,0.054
53175.228786,16.188,0.076
53175.238528,16.29,0.053
53175.248533,16.249,0.056
53175.25937,16.222,0.111
53404.460718,15.822,0.059
53404.473551,15.878,0.064
53440.481186,15.858,0.037
53440.492322,15.838,0.037
53440.502844,15.81,0.037
53469.287769,15.889,0.033
53469.29771,15.83,0.031
53469.309539,15.854,0.031
53469.319232,15.907,0.033
53469.330011,15.931,0.033
53496.252028,16.041,0.05
53496.262061,16.149,0.054
53496.272141,16.183,0.052
53496.282246,16.322,0.063
53496.292304,16.105,0.05
53530.216189,16.013,0.048
53530.226838,15.927,0.044
53530.237275,15.919,0.044
53530.24893,15.876,0.043
53530.259456,15.885,0.044
53556.174455,16.132,0.048
53556.184961,16.002,0.043
53556.195585,15.965,0.041
53556.206418,15.909,0.039
53556.216933,15.862,0.039
53791.415852,15.843,0.031
53791.427754,15.855,0.031
53791.43962,15.905,0.035
53791.451559,15.972,0.038
53791.463505,16.047,0.04
53815.348629,15.959,0.07
53815.359764,15.96,0.068
53815.370926,15.912,0.068
53815.38209,15.942,0.07
53815.393257,15.986,0.059
53833.322716,15.984,0.05
53833.332805,16.14,0.072
53833.342751,16.065,0.052
53833.352673,15.918,0.046
53833.362609,15.892,0.044
53846.290457,15.915,0.041
53846.301151,15.884,0.04
53846.311757,15.903,0.04
53846.322439,15.87,0.038
53846.333011,15.911,0.04
53905.172145,16.086,0.054
53905.182144,16.129,0.057
53905.192128,16.118,0.057
53905.202162,16.058,0.054
53905.212242,15.964,0.05
53910.173036,16.173,0.058
53910.183601,16.016,0.049
53910.194178,15.956,0.048
53910.204679,15.878,0.045
53910.215195,15.839,0.046
54113.485919,16.072,0.061
54113.502874,15.96,0.05
54113.515828,15.913,0.044
54147.403108,15.937,0.043
54147.415124,15.882,0.041
54147.427196,15.837,0.04
54147.439673,15.819,0.038
54147.451791,15.847,0.04
54156.383144,16.133,0.041
54156.401161,16.133,0.037
54156.41317,16.058,0.033
54156.424713,15.928,0.028
54156.436277,15.883,0.028
54175.378697,16.026,0.04
54175.400124,15.92,0.038
54175.411232,15.88,0.035
54179.38793,15.994,0.045
54179.393486,16.112,0.039
54179.398669,16.093,0.049
54179.404494,16.111,0.039
54179.415566,16.045,0.035
54179.420131,15.983,0.045
54179.4269,15.983,0.033
54179.43075,15.953,0.043
54179.4382,15.885,0.031
54198.35611,16.18,0.124
54476.469035,15.859,0.024
54476.481944,15.981,0.028
54476.494855,16.008,0.028
54476.507755,16.017,0.028
54484.465457,15.943,0.048
54484.478539,15.843,0.037
54484.491409,15.821,0.028
54484.504258,15.755,0.026
54484.517197,15.728,0.026
54509.399533,15.808,0.022
54509.411623,15.844,0.022
54509.423711,15.899,0.022
54509.43578,15.97,0.024
54509.447877,16.102,0.028
54533.388701,16.028,0.022
54533.400175,16.109,0.024
54533.411705,16.146,0.024
54533.422917,16.083,0.024
54533.434333,15.967,0.02
54538.368249,16.014,0.024
54538.379259,16.036,0.026
54538.390203,16.079,0.026
54538.401234,16.01,0.026
54538.41217,15.931,0.024
54568.351089,15.874,0.04
54568.36211,15.975,0.043
54568.373005,16.022,0.045
54568.383901,16.13,0.048
54568.394724,16.179,0.049
54587.300959,15.788,0.031
54587.311346,15.85,0.033
54587.321654,15.849,0.031
54587.331951,15.912,0.037
54587.342336,15.985,0.039
54595.250753,15.889,0.035
54595.270685,15.948,0.033
54595.280664,16.033,0.035
54595.290628,16.118,0.037
54619.214452,15.909,0.063
54619.224684,15.951,0.048
54619.234989,16.083,0.046
54619.245263,16.178,0.044
54619.255652,16.255,0.05
54622.25956,15.984,0.14
