mjd,m,merr
52650.437158,15.478,0.022
52650.451054,15.546,0.024
52650.465094,15.641,0.024
52650.479088,15.676,0.024
52650.493051,15.727,0.026
52651.427015,15.614,0.03
52651.442458,15.661,0.03
52651.457867,15.744,0.03
52651.473209,15.854,0.035
52651.488668,15.895,0.035
52665.45617,15.542,0.024
52665.470534,15.598,0.024
52665.484835,15.646,0.024
52665.49923,15.73,0.026
52665.513549,15.771,0.026
52677.452426,16.212,0.046
52677.46668,15.926,0.035
52677.480973,15.484,0.024
52677.49525,15.217,0.018
52677.509576,15.236,0.018
52680.493453,15.685,0.028
52680.508172,15.744,0.03
52680.522888,15.78,0.031
52697.403485,15.447,0.063
52697.434073,15.621,0.063
52697.448535,15.728,0.054
52706.371155,16.148,0.035
52706.384032,16.15,0.035
52706.396979,16.127,0.035
52706.410224,16.15,0.035
52706.423358,16.143,0.035
52712.373372,15.257,0.022
52712.386633,15.327,0.022
52712.399887,15.43,0.024
52712.413233,15.463,0.024
52712.426633,15.581,0.026
52724.362939,16.184,0.035
52724.374566,16.192,0.035
52724.386123,16.237,0.037
52724.397677,16.226,0.037
52724.409279,16.237,0.039
52753.261021,16.078,0.039
52753.273792,16.062,0.039
52753.290222,16.083,0.037
52753.30253,16.126,0.039
52753.315485,16.122,0.039
52755.261228,16.166,0.039
52755.273233,16.15,0.039
52755.285188,16.206,0.041
52755.297072,16.189,0.041
52755.308949,16.171,0.041
52771.268147,16.155,0.076
52771.279922,16.148,0.076
52771.291742,16.228,0.081
52771.303163,16.126,0.073
52771.314638,16.186,0.078
52797.220914,15.801,0.039
52797.230936,15.85,0.043
52797.240909,15.876,0.044
52797.250877,15.922,0.046
52797.26084,15.903,0.046
52811.220678,15.641,0.03
52811.23045,15.704,0.031
52811.240305,15.744,0.031
52811.25008,15.719,0.031
52811.259861,15.802,0.033
52825.176893,15.214,0.021
52825.186807,15.262,0.03
52825.19684,15.304,0.023
52825.207097,15.372,0.023
52825.217183,15.427,0.025
52826.176217,15.406,0.035
52826.21626,15.534,0.04
52848.159918,16.07,0.046
52848.170177,16.067,0.046
52848.190767,16.09,0.052
52848.200936,16.144,0.057
53034.407672,15.502,0.024
53034.420151,15.542,0.024
53034.432523,15.617,0.028
53034.444976,15.686,0.03
53034.457273,15.758,0.03
53051.392883,15.705,0.022
53051.404483,15.726,0.022
53051.416242,15.786,0.022
53051.427848,15.808,0.024
53051.439487,15.807,0.022
53065.349561,15.285,0.018
53065.363291,15.353,0.018
53065.378649,15.47,0.02
53065.39409,15.545,0.02
53065.411714,15.621,0.021
53078.417413,15.246,0.021
53094.322628,16.244,0.033
53094.332162,16.242,0.033
53094.342201,16.068,0.028
53094.35187,15.786,0.023
53094.361422,15.515,0.018
53109.302781,16.199,0.043
53109.312895,16.241,0.045
53109.323113,16.226,0.043
53109.333277,16.274,0.046
53109.343334,16.215,0.043
53122.29647,16.107,0.033
53122.306801,16.122,0.033
53122.317231,16.138,0.031
53122.327723,16.172,0.033
53122.338252,16.153,0.031
53137.255856,16.107,0.04
53137.265601,16.088,0.04
53137.275522,16.13,0.041
53137.285348,16.138,0.046
53137.295196,16.135,0.043
53153.252087,16.146,0.041
53153.261098,16.136,0.041
53153.269885,16.153,0.041
53153.27867,16.169,0.043
53153.287506,16.173,0.043
53165.237379,15.833,0.035
53165.247182,15.858,0.04
53165.259701,15.908,0.038
53165.269509,15.933,0.04
53165.279601,15.966,0.043
53178.223335,15.6,0.02
53178.233318,15.724,0.107
53178.243389,15.668,0.057
53178.253374,15.71,0.054
53441.446654,16.137,0.037
53441.458273,16.18,0.039
53441.471579,16.192,0.039
53441.483849,16.269,0.043
53441.495573,16.228,0.041
53500.250211,15.758,0.028
53500.261562,15.774,0.028
53500.272576,15.843,0.03
53500.283602,15.874,0.03
53500.294196,15.94,0.031
53529.214356,15.358,0.024
53529.225878,15.438,0.026
53529.237261,15.502,0.028
53529.248643,15.541,0.03
53529.25953,15.609,0.031
53540.220227,16.162,0.118
53540.230045,16.176,0.111
53540.239646,16.202,0.115
53540.249339,16.372,0.135
53540.259021,16.335,0.135
53551.180029,15.977,0.039
53551.19005,16.088,0.039
53551.20021,16.026,0.039
53551.210135,16.139,0.043
53551.220042,16.085,0.043
53739.484421,15.883,0.033
53739.497443,15.941,0.031
53739.510346,15.927,0.03
53739.523322,15.992,0.03
53739.536453,16.011,0.03
53770.485775,15.924,0.03
53770.498837,15.955,0.03
53770.511755,15.98,0.031
53770.524761,16.024,0.031
53787.429569,15.868,0.033
53787.442417,15.929,0.031
53787.455355,15.976,0.033
53787.468364,16.01,0.035
53787.481435,15.972,0.099
53813.412528,15.236,0.03
53813.423553,15.349,0.033
53813.434698,15.375,0.033
53813.44571,15.456,0.037
53813.45675,15.547,0.043
53815.402346,15.57,0.026
53815.413739,15.615,0.028
53815.425357,15.639,0.028
53815.437033,15.727,0.031
53815.4485,15.751,0.031
53823.303412,16.041,0.033
53823.31436,16.101,0.035
53823.325262,16.073,0.033
53823.33636,16.1,0.033
53823.347197,16.11,0.035
53824.360577,16.146,0.037
53824.372873,16.122,0.052
53824.409844,16.16,0.039
53844.284638,16.103,0.043
53844.294907,16.137,0.046
53844.305184,16.238,0.054
53844.315755,16.233,0.055
53844.326127,16.255,0.061
53853.292398,15.975,0.045
53853.303209,16.004,0.048
53853.313632,15.991,0.041
53853.324148,16.046,0.046
53853.33456,16.088,0.046
53883.250341,15.78,0.038
53883.260687,15.809,0.04
53887.230202,16.015,0.055
53887.240854,16.048,0.055
53887.251556,16.065,0.054
53887.262249,16.065,0.054
53887.272967,16.12,0.054
53902.237927,16.088,0.051
53902.247915,16.158,0.054
53902.258386,16.127,0.056
53902.269773,16.069,0.056
53915.179795,15.695,0.041
53915.189658,15.69,0.043
53915.2011,15.761,0.045
53931.171279,15.732,0.043
53931.181743,15.752,0.044
53931.192117,15.786,0.046
53931.202529,15.803,0.055
53931.212958,15.842,0.054
53940.164222,16.236,0.071
53940.174767,16.227,0.086
53940.185317,16.424,0.183
53940.196225,16.417,0.109
53940.210172,16.201,0.127
54098.432101,16.103,0.05
54098.444104,16.061,0.044
54098.459285,16.09,0.044
54098.472655,16.112,0.043
54098.484867,16.043,0.041
54110.457954,16.007,0.087
54110.470817,16.155,0.096
54121.446372,15.675,0.026
54121.458682,15.745,0.028
54121.470932,15.763,0.026
54121.483602,15.789,0.026
54121.495849,15.839,0.028
54155.40967,15.901,0.035
54155.421321,15.938,0.036
54155.433351,15.956,0.036
54155.445246,15.981,0.038
54155.45711,16.036,0.04
54205.274993,15.908,0.036
54205.284254,15.966,0.038
54205.294105,15.957,0.038
54205.303818,16.001,0.04
54205.313119,16.005,0.04
54529.323282,16.155,0.049
54529.345888,16.0,0.041
54529.35716,16.173,0.049
54529.368367,16.103,0.043
54582.294232,15.24,0.018
54582.304818,15.28,0.018
54582.315387,15.339,0.02
54582.325954,15.409,0.022
54582.336585,15.48,0.026
54613.210338,16.226,0.039
54613.220226,16.192,0.037
54613.230253,16.161,0.037
54613.24029,16.006,0.031
54613.250406,15.681,0.024
