mjd,m,merr
52652.48228,16.024,0.04
52652.497437,16.047,0.043
52652.512326,16.036,0.038
52652.527639,16.032,0.04
52681.357816,15.906,0.049
52681.372492,15.957,0.04
52681.403273,16.021,0.043
52681.417931,16.021,0.036
52696.414095,16.229,0.045
52696.427756,16.213,0.046
52723.371032,15.86,0.097
52723.408532,15.937,0.064
52752.294621,15.798,0.035
52752.30626,15.851,0.036
52752.316895,15.881,0.036
52752.32756,15.863,0.036
52752.338274,15.91,0.036
52772.219437,15.955,0.08
52772.231241,16.031,0.083
52772.242841,16.038,0.081
52772.254418,16.028,0.093
52772.266177,16.031,0.078
52800.2211,16.108,0.114
52800.23173,16.181,0.12
52800.242042,16.061,0.106
52800.252354,16.15,0.122
52810.232223,15.887,0.045
52810.252028,15.837,0.043
52812.233894,16.132,0.048
52812.24392,16.21,0.051
52812.254134,16.165,0.049
52812.264355,16.28,0.054
52812.274395,16.228,0.053
52827.176095,15.597,0.05
52827.186196,15.649,0.052
52840.165289,15.663,0.033
52840.175245,15.549,0.03
52840.185196,15.466,0.028
52840.195154,15.436,0.028
52840.205138,15.463,0.028
53035.432136,16.076,0.035
53035.44443,16.075,0.054
53037.471282,15.804,0.028
53037.483651,15.814,0.026
53037.496636,15.847,0.026
53037.509613,15.863,0.028
53037.522239,15.882,0.033
53049.39162,15.887,0.028
53049.403501,15.873,0.028
53049.415386,15.911,0.03
53049.427299,15.922,0.03
53049.439248,15.919,0.03
53107.287977,15.824,0.028
53107.308569,15.849,0.028
53107.329277,15.892,0.03
53136.262089,15.845,0.036
53136.271013,15.854,0.035
53154.247983,15.858,0.051
53154.256411,15.741,0.046
53154.264853,15.699,0.045
53154.273284,15.605,0.04
53154.281768,15.466,0.036
53164.219833,16.026,0.04
53164.259537,16.08,0.043
53194.21228,15.797,0.066
53358.480873,16.006,0.046
53358.495367,15.989,0.043
53358.509873,16.004,0.043
53422.409884,15.487,0.044
53422.421825,15.59,0.074
53422.434318,15.549,0.037
53422.446293,15.57,0.035
53450.344348,15.809,0.041
53450.355141,15.755,0.039
53450.366377,15.809,0.039
53450.377613,15.81,0.039
53474.355514,16.046,0.035
53474.366632,16.04,0.035
53474.377068,16.024,0.037
53474.388278,16.049,0.037
53521.214575,15.447,0.026
53521.224872,15.444,0.026
53521.235204,15.448,0.028
53521.245522,15.488,0.026
53521.255827,15.456,0.035
53538.219933,15.765,0.061
53538.229559,15.748,0.059
53538.239171,15.644,0.054
53538.248845,15.541,0.05
53538.258489,15.445,0.048
53553.179916,15.841,0.041
53553.190603,15.848,0.041
53553.201136,15.904,0.041
53553.211684,15.902,0.039
53553.222302,15.861,0.039
53583.160504,15.489,0.043
53583.171827,15.543,0.03
53583.183071,15.572,0.028
53583.194343,15.619,0.031
53583.205614,15.635,0.031
53605.135315,16.097,0.052
53605.146337,16.144,0.05
53605.157399,16.08,0.055
53605.16843,16.15,0.07
53728.472018,16.176,0.057
53728.485855,16.021,0.05
53728.499279,15.785,0.039
53728.512532,15.655,0.035
53728.525774,15.588,0.033
53742.480811,16.032,0.028
53742.493752,16.042,0.028
53742.506738,16.084,0.028
53742.532688,16.087,0.026
53772.419771,15.834,0.033
53772.432507,15.855,0.033
53772.445244,15.87,0.033
53772.45823,15.899,0.035
53772.471056,15.919,0.033
53786.42627,16.011,0.051
53786.439675,15.732,0.026
53786.453087,15.617,0.023
53786.466255,15.482,0.021
53807.34051,16.035,0.063
53807.351649,16.126,0.067
53807.362784,16.169,0.068
53807.373928,16.17,0.067
53824.392258,16.113,0.04
53824.416038,16.152,0.158
53824.427882,16.055,0.079
53843.30906,15.517,0.035
53843.320331,15.521,0.037
53843.331602,15.577,0.039
53843.342881,15.621,0.041
53843.354186,15.631,0.041
53855.290503,15.72,0.035
53855.300709,15.688,0.031
53855.311725,15.75,0.033
53855.322245,15.747,0.033
53855.332423,15.747,0.033
53878.243462,16.04,0.054
53878.254217,16.071,0.054
53878.264964,16.093,0.053
53878.27594,16.09,0.053
53878.287791,16.093,0.053
53892.218703,15.722,0.07
53892.228782,15.681,0.067
53892.238849,15.722,0.072
53892.248891,15.758,0.072
53892.258974,15.804,0.076
53903.234559,16.044,0.049
53903.244099,16.083,0.053
53903.253809,16.0,0.049
53903.263515,16.056,0.054
53903.27311,16.089,0.056
53917.216598,15.736,0.059
53917.226331,15.79,0.059
53917.236252,15.728,0.076
53917.246006,15.862,0.104
53917.255754,15.924,0.081
53932.183581,16.005,0.131
53932.205068,16.05,0.107
53932.215814,16.11,0.067
53942.164346,15.56,0.066
54086.43817,15.761,0.061
54086.451922,15.679,0.051
54086.465333,15.735,0.053
54086.48038,15.735,0.049
54086.49361,15.792,0.049
54109.470852,16.076,0.122
54109.482719,16.15,0.109
54169.331462,15.509,0.024
54169.343008,15.555,0.026
54169.354234,15.608,0.028
54169.365471,15.636,0.026
54169.376842,15.656,0.026
54186.326334,15.527,0.03
54186.336588,15.459,0.028
54186.346953,15.391,0.025
54186.357173,15.518,0.028
54186.367389,15.546,0.04
54200.321446,16.066,0.03
54200.332391,16.09,0.031
54200.342963,16.079,0.031
54200.35324,16.11,0.031
54200.364005,16.068,0.031
54209.266387,15.887,0.117
54209.275531,15.967,0.061
54209.284404,15.989,0.053
54209.293145,16.031,0.083
54209.302141,16.156,0.094
54217.253461,15.883,0.044
54217.262105,15.979,0.048
54217.270796,15.946,0.048
54217.279449,15.951,0.05
54217.28809,15.946,0.048
54218.27402,15.866,0.066
54218.283015,15.873,0.064
54218.291885,15.939,0.068
54218.30064,15.835,0.063
54218.309927,15.818,0.059
54509.390049,16.186,0.046
54509.4022,16.187,0.046
54509.414135,16.237,0.048
54509.426059,16.186,0.046
54509.438014,16.252,0.048
54536.329107,15.753,0.035
54536.340118,15.794,0.035
54536.351057,15.766,0.035
54536.361972,15.763,0.033
54536.372882,15.866,0.035
54543.339538,16.048,0.071
54543.351075,16.101,0.078
54543.363046,16.033,0.071
54543.374205,16.079,0.073
54543.385024,16.078,0.073
54614.221554,15.951,0.033
54614.232048,15.912,0.033
54614.242446,15.949,0.033
54614.252695,15.948,0.033
54614.262944,15.982,0.035
