mjd,m,merr
52650.493506,15.369,0.023
52650.523825,15.42,0.021
52666.472328,15.761,0.033
52666.4878,15.738,0.03
52666.503156,15.786,0.03
52666.518251,15.805,0.035
52666.533406,15.776,0.035
52698.411381,15.486,0.022
52698.426073,15.539,0.022
52698.440469,15.592,0.024
52711.384545,15.797,0.031
52711.398893,15.778,0.03
52711.413161,15.784,0.03
52711.427603,15.795,0.026
52711.441927,15.806,0.026
52725.441776,15.254,0.02
52725.441891,15.229,0.016
52725.453789,15.311,0.021
52725.453905,15.283,0.018
52725.465852,15.315,0.021
52725.465967,15.325,0.018
52725.478657,15.339,0.018
52739.303008,15.442,0.022
52739.314797,15.458,0.022
52739.32659,15.518,0.024
52739.338368,15.536,0.024
52739.350143,15.564,0.024
52754.26593,15.793,0.03
52754.278835,15.837,0.03
52754.291322,15.856,0.03
52754.305471,15.845,0.03
52754.317923,15.827,0.03
52770.268543,15.07,0.022
52770.280363,15.067,0.022
52770.292185,15.117,0.022
52770.30413,15.161,0.022
52770.315753,15.22,0.024
52820.179502,15.507,0.026
52820.189376,15.513,0.067
52820.199261,15.584,0.033
52820.209105,15.605,0.031
52820.218998,15.656,0.031
52825.177531,15.864,0.055
52825.187498,15.83,0.044
52825.197501,15.848,0.043
52825.207448,15.878,0.041
52849.158085,14.98,0.017
52849.168681,15.039,0.018
52849.179032,15.103,0.02
52849.190973,15.181,0.022
52849.201162,15.255,0.024
53033.457848,15.225,0.018
53033.469997,15.273,0.02
53033.482218,15.332,0.02
53033.494474,15.37,0.02
53033.506917,15.401,0.02
53052.395112,15.801,0.028
53052.407038,15.813,0.028
53052.418766,15.833,0.028
53052.430577,15.813,0.028
53065.343659,15.772,0.031
53065.355005,15.706,0.03
53065.366329,15.62,0.028
53065.377821,15.521,0.024
53065.389104,15.414,0.02
53079.33779,15.527,0.023
53079.349033,15.559,0.023
53079.360494,15.588,0.023
53079.372221,15.634,0.025
53079.383802,15.645,0.025
53093.325436,15.801,0.021
53093.335293,15.8,0.021
53093.345434,15.796,0.02
53093.355273,15.79,0.02
53093.365793,15.8,0.018
53110.297334,15.293,0.02
53110.307922,15.304,0.02
53110.31854,15.356,0.02
53110.32924,15.406,0.021
53110.339887,15.46,0.021
53121.298732,15.768,0.022
53121.309226,15.758,0.024
53121.319722,15.783,0.02
53121.330215,15.78,0.022
53121.340801,15.79,0.026
53137.244446,15.864,0.031
53137.249478,15.841,0.033
53137.254238,15.874,0.031
53137.264091,15.855,0.03
53137.273905,15.832,0.03
53137.27932,15.792,0.031
53137.283724,15.761,0.03
53137.289059,15.684,0.03
53138.253866,15.841,0.03
53138.26337,15.774,0.028
53138.272816,15.742,0.026
53138.282274,15.647,0.025
53138.291811,15.505,0.021
53150.257958,15.493,0.039
53166.221152,15.781,0.035
53166.230912,15.776,0.033
53166.24056,15.813,0.035
53166.250264,15.803,0.035
53166.25992,15.751,0.031
53177.222005,15.61,0.026
53177.231781,15.503,0.02
53177.241646,15.42,0.02
53177.251426,15.356,0.017
53177.261202,15.3,0.017
53438.473355,15.803,0.028
53438.485074,15.703,0.026
53438.496802,15.592,0.024
53445.472802,15.176,0.015
53445.484904,15.211,0.017
53445.496706,15.277,0.017
53471.363985,15.865,0.035
53471.37365,15.936,0.037
53471.3841,15.902,0.035
53471.393789,15.907,0.035
53471.404355,15.954,0.037
53502.331226,15.83,0.037
53502.345753,15.892,0.037
53502.357417,15.914,0.039
53502.367814,15.939,0.041
53502.378208,15.901,0.039
53523.22427,15.899,0.033
53523.234769,15.834,0.033
53523.245224,15.757,0.03
53523.255703,15.606,0.026
53523.266268,15.439,0.022
53550.232197,15.979,0.044
53580.157712,15.818,0.048
53580.169103,15.727,0.033
53580.180509,15.693,0.033
53580.191902,15.777,0.05
53580.203294,15.799,0.043
53769.459679,15.779,0.03
53769.473233,15.786,0.028
53769.486887,15.773,0.026
53769.500222,15.755,0.024
53769.513512,15.788,0.026
53789.420514,15.402,0.026
53789.445484,15.475,0.031
53789.458269,15.517,0.056
53789.470948,15.617,0.033
53845.297017,15.743,0.035
53845.308065,15.757,0.039
53845.318988,15.829,0.046
53845.329952,15.745,0.043
53845.341299,15.747,0.039
53852.29439,15.803,0.038
53852.305014,15.829,0.04
53852.315721,15.821,0.038
53852.326758,15.837,0.04
53852.337447,15.832,0.04
53881.223821,15.737,0.033
53881.23487,15.74,0.033
53881.245937,15.756,0.035
53881.257326,15.793,0.035
53881.268388,15.764,0.035
53887.221073,15.761,0.043
53887.231496,15.768,0.043
53887.241664,15.803,0.041
53887.251801,15.794,0.041
53887.262069,15.76,0.04
53902.230831,15.358,0.03
53902.240664,15.392,0.031
53902.250635,15.429,0.031
53902.260692,15.431,0.033
53914.180204,15.622,0.046
53914.199843,15.694,0.054
54144.395517,15.645,0.031
54144.407396,15.719,0.033
54144.419548,15.734,0.033
54144.43141,15.764,0.033
54144.44337,15.83,0.036
54153.399649,15.875,0.045
54153.411316,15.881,0.059
54153.423318,15.923,0.045
54153.435033,15.932,0.066
54153.446774,15.837,0.089
54208.298312,14.912,0.016
54208.307517,14.922,0.018
54208.316157,14.958,0.018
54208.32493,15.009,0.018
54208.333852,15.06,0.018
54559.29544,15.61,0.018
54559.307005,15.629,0.017
54559.318658,15.674,0.017
54559.330312,15.686,0.018
54559.342076,15.699,0.018
54581.298301,15.408,0.03
54581.308862,15.332,0.028
54581.319503,15.36,0.028
54581.330071,15.352,0.028
54581.340632,15.282,0.026
54592.242938,15.381,0.031
54592.25325,15.428,0.033
54592.263226,15.453,0.033
54592.273196,15.467,0.033
54592.283123,15.472,0.033
