mjd,m,merr
52613.453531,15.363,0.024
52613.468809,15.387,0.024
52613.484052,15.446,0.026
52613.499255,15.436,0.024
52613.51454,15.431,0.024
52618.460098,15.227,0.031
52618.47534,15.456,0.131
52618.490778,15.199,0.028
52618.506348,15.184,0.024
52618.521689,15.265,0.024
52640.456999,15.407,0.021
52640.471895,15.425,0.021
52640.486764,15.456,0.021
52640.501676,15.468,0.021
52640.516524,15.441,0.02
52643.442371,15.402,0.02
52643.456355,15.428,0.02
52643.470306,15.438,0.02
52643.48431,15.447,0.018
52643.49872,15.481,0.018
52647.459247,15.233,0.02
52647.474118,15.182,0.018
52647.488467,15.162,0.018
52647.503148,15.126,0.018
52667.389084,15.31,0.021
52667.403831,15.377,0.023
52667.418867,15.397,0.023
52667.433627,15.378,0.023
52667.448574,15.429,0.026
52670.399352,15.309,0.02
52670.413269,15.338,0.022
52670.427258,15.363,0.022
52670.441198,15.389,0.022
52670.45512,15.383,0.022
52673.307037,15.201,0.018
52673.322319,15.214,0.017
52673.33758,15.253,0.018
52673.3529,15.255,0.018
52673.368304,15.293,0.018
52703.312133,15.296,0.048
52703.325943,15.267,0.048
52703.33926,15.31,0.041
52703.353362,15.279,0.037
52703.366628,15.388,0.061
52704.413212,15.349,0.028
52704.429264,15.299,0.028
52704.444872,15.241,0.028
52704.459281,15.184,0.03
52704.473015,15.156,0.031
52707.310199,15.472,0.02
52707.324014,15.475,0.02
52707.337223,15.475,0.02
52707.350935,15.459,0.02
52707.364268,15.477,0.02
52730.24064,15.16,0.017
52730.252341,15.158,0.017
52730.264029,15.167,0.017
52730.275683,15.179,0.017
52730.287563,15.201,0.017
52733.252734,15.161,0.017
52733.264792,15.176,0.017
52733.277148,15.195,0.017
52733.289889,15.199,0.018
52733.301894,15.219,0.046
52738.237606,15.5,0.024
52738.249033,15.499,0.024
52738.260967,15.422,0.022
52738.272395,15.372,0.02
52738.284003,15.292,0.02
52755.201318,15.278,0.023
52755.21321,15.278,0.023
52755.225171,15.312,0.023
52755.237104,15.365,0.025
52755.249076,15.319,0.025
52758.205501,15.284,0.017
52758.217354,15.335,0.018
52758.229245,15.354,0.018
52758.241215,15.37,0.018
52758.253099,15.377,0.018
52759.197385,15.499,0.02
52759.209404,15.521,0.022
52759.2214,15.52,0.02
52759.233322,15.504,0.02
52759.245485,15.457,0.02
52760.197943,15.164,0.015
52760.209971,15.165,0.017
52760.2219,15.169,0.017
52760.23383,15.159,0.017
52760.245772,15.176,0.018
52761.198029,15.297,0.033
52761.210045,15.324,0.03
52761.222159,15.377,0.035
52761.234236,15.409,0.026
52761.246256,15.372,0.024
52788.171433,15.226,0.03
52788.181689,15.26,0.022
52788.213027,15.354,0.076
52793.222687,15.17,0.026
52793.232725,15.155,0.028
52793.242666,15.182,0.03
52966.466458,15.333,0.024
52966.478874,15.281,0.022
52966.491417,15.36,0.022
52966.503955,15.368,0.022
52973.433224,15.696,0.036
52973.444338,15.722,0.035
52973.457176,15.699,0.033
52973.468728,15.758,0.033
52973.480753,15.649,0.031
52994.475937,15.423,0.017
52994.489962,15.343,0.013
52994.503195,15.26,0.013
52994.516468,15.238,0.013
52994.52986,15.192,0.011
53025.376179,15.361,0.063
53025.38938,15.29,0.037
53028.399476,15.168,0.011
53028.411866,15.156,0.009
53028.424258,15.188,0.018
53028.436775,15.163,0.011
53028.449165,15.35,0.068
53033.3365,15.376,0.02
53033.348783,15.422,0.02
53033.360917,15.421,0.02
53033.373391,15.61,0.07
53033.385722,15.462,0.026
53053.348755,15.145,0.015
53053.360369,15.178,0.017
53053.37204,15.27,0.028
53053.383688,15.272,0.024
53053.395893,15.249,0.018
53061.328682,15.257,0.013
53061.339747,15.225,0.013
53061.350812,15.17,0.013
53061.361929,15.138,0.013
53061.372994,15.088,0.013
53079.309528,15.432,0.018
53079.320261,15.392,0.018
53079.331066,15.377,0.018
53079.341813,15.299,0.018
53079.352845,15.25,0.017
53080.278376,15.128,0.015
53080.28994,15.159,0.015
53080.301902,15.155,0.015
53080.313258,15.164,0.015
53080.32456,15.184,0.015
53081.296821,15.357,0.016
53081.309827,15.425,0.018
53081.311141,15.392,0.017
53081.321851,15.39,0.016
53081.32256,15.403,0.017
53081.333881,15.399,0.017
53081.333888,15.444,0.018
53081.345185,15.439,0.017
53081.35645,15.454,0.018
53082.360654,15.147,0.013
53082.371856,15.104,0.013
53082.389099,15.1,0.013
53083.287369,15.151,0.011
53083.29815,15.103,0.011
53083.309093,15.16,0.011
53083.319869,15.126,0.011
53084.276683,15.295,0.013
53084.287487,15.331,0.013
53084.298395,15.352,0.013
53084.309725,15.372,0.013
53084.322919,15.399,0.013
53085.330275,15.425,0.065
53085.341074,15.305,0.054
53086.226698,15.159,0.041
53086.237791,15.161,0.03
53086.24896,15.151,0.037
53086.260498,15.147,0.022
53086.271842,15.143,0.018
53091.283417,15.371,0.015
53091.293905,15.314,0.015
53091.304471,15.348,0.015
53091.314891,15.326,0.013
53091.325307,15.298,0.013
53110.19314,15.296,0.022
53110.203831,15.247,0.02
53110.214516,15.233,0.02
53110.225266,15.191,0.018
53110.236023,15.144,0.018
53116.319013,15.114,0.017
53116.330642,15.129,0.015
53116.342648,15.15,0.015
53116.353883,15.169,0.015
53138.200924,15.225,0.018
53138.21065,15.223,0.018
53138.220498,15.251,0.018
53138.230252,15.258,0.02
53138.239978,15.248,0.02
53141.211076,15.188,0.017
53141.221259,15.2,0.017
53141.230942,15.214,0.018
53141.241161,15.24,0.018
53141.250836,15.226,0.018
53144.208493,15.258,0.023
53144.21743,15.269,0.031
53144.226269,15.334,0.056
53144.235558,15.302,0.059
53166.17828,15.389,0.026
53166.187634,15.404,0.03
53166.196986,15.41,0.03
53166.206365,15.465,0.033
53166.215727,15.452,0.033
53346.44184,15.226,0.026
53346.454134,15.243,0.028
53346.466598,15.278,0.028
53346.47882,15.284,0.026
53346.491114,15.332,0.03
53351.491114,15.159,0.025
53351.505665,15.18,0.025
53351.52001,15.164,0.025
53351.534365,15.177,0.026
53353.458731,15.452,0.028
53353.472145,15.455,0.026
53353.484982,15.495,0.026
53353.497824,15.479,0.026
53353.51067,15.465,0.024
53376.482262,15.222,0.017
53376.496201,15.292,0.018
53376.510009,15.325,0.017
53376.527281,15.302,0.017
53381.423738,15.276,0.105
53381.43659,15.256,0.031
53381.449454,15.295,0.076
53381.462527,15.223,0.067
53381.475408,15.175,0.031
53403.353956,15.165,0.018
53403.36742,15.16,0.017
53403.380271,15.148,0.018
53403.394232,15.164,0.018
53403.407072,15.174,0.018
53410.35567,15.337,0.015
53410.367859,15.361,0.015
53410.380789,15.363,0.015
53410.393609,15.388,0.017
53410.406494,15.428,0.017
53432.347722,15.578,0.068
53432.370515,15.485,0.03
53432.381876,15.407,0.024
53432.39357,15.368,0.024
53437.29404,15.244,0.017
53437.306051,15.262,0.017
53437.317672,15.275,0.017
53437.329374,15.285,0.018
53437.341013,15.336,0.018
53440.303884,15.226,0.017
53440.317653,15.258,0.018
53440.330213,15.281,0.018
53440.34332,15.317,0.018
53440.357382,15.325,0.018
53443.272684,15.215,0.017
53443.283534,15.236,0.015
53443.295031,15.223,0.015
53443.305872,15.241,0.015
53443.317286,15.274,0.017
53446.280757,15.254,0.031
53446.291212,15.253,0.026
53446.302149,15.237,0.017
53446.313069,15.261,0.018
53446.324589,15.293,0.017
53464.292646,15.244,0.018
53464.30283,15.27,0.02
53464.312995,15.294,0.02
53464.323179,15.336,0.022
53464.333335,15.343,0.022
53468.235316,15.433,0.035
53468.244967,15.427,0.03
53468.256378,15.424,0.054
53468.265943,15.513,0.054
53495.24599,15.387,0.044
53495.256032,15.539,0.061
53495.266154,15.498,0.065
53495.276186,15.489,0.065
53496.197083,15.509,0.03
53496.207354,15.462,0.03
53496.217679,15.456,0.03
53496.227864,15.382,0.03
53496.238127,15.317,0.028
53503.227325,15.182,0.018
53503.235952,15.198,0.02
53503.24476,15.184,0.02
53503.2535,15.232,0.02
53503.262542,15.215,0.02
53525.174204,15.35,0.028
53525.184395,15.321,0.03
53525.194565,15.384,0.031
53525.20474,15.364,0.031
53527.166201,15.145,0.022
53527.176473,15.159,0.024
53527.18632,15.151,0.024
53527.19615,15.156,0.024
53527.205915,15.153,0.026
53708.45996,15.113,0.018
53708.472936,15.158,0.018
53708.485705,15.17,0.02
53708.498417,15.193,0.018
53708.511211,15.194,0.018
53710.453588,15.434,0.03
53710.466934,15.38,0.028
53710.479624,15.304,0.026
53710.492147,15.262,0.026
53710.504773,15.244,0.024
53732.475747,15.189,0.026
53732.489287,15.218,0.026
53732.502115,15.249,0.026
53732.514978,15.272,0.028
53732.5277,15.281,0.026
53735.466714,15.203,0.035
53735.518672,15.283,0.026
53746.402416,15.502,0.035
53746.414879,15.516,0.035
53746.427435,15.481,0.033
53746.440122,15.465,0.033
53746.452585,15.391,0.03
53759.407466,15.164,0.018
53759.420277,15.176,0.022
53759.432871,15.172,0.031
53759.445488,15.189,0.03
53759.458073,15.137,0.087
53762.412058,15.169,0.017
53762.424759,15.191,0.018
53762.437439,15.213,0.024
53762.449972,15.255,0.033
53762.462924,15.189,0.017
53788.469735,15.259,0.022
53788.481664,15.221,0.022
53788.493621,15.21,0.024
53788.505646,15.157,0.024
53788.517757,15.176,0.026
53790.341431,15.235,0.02
53790.344463,15.252,0.018
53790.353129,15.261,0.02
53790.356376,15.271,0.018
53790.36482,15.28,0.02
53790.368223,15.309,0.02
53790.376512,15.306,0.022
53790.380033,15.328,0.02
53790.388222,15.291,0.022
53790.392099,15.334,0.021
53793.347227,15.249,0.018
53793.358961,15.26,0.02
53793.37069,15.304,0.024
53793.382437,15.307,0.018
53793.394179,15.363,0.054
53797.319611,15.335,0.039
53797.331181,15.456,0.018
53797.342818,15.433,0.02
53799.335808,15.263,0.018
53799.347247,15.278,0.018
53799.358668,15.247,0.018
53799.370107,15.277,0.022
53799.381551,15.279,0.028
53817.264203,15.167,0.015
53817.275681,15.182,0.016
53817.286947,15.191,0.016
53817.298275,15.209,0.016
53817.3096,15.221,0.016
53819.290017,15.403,0.028
53819.313962,15.295,0.041
53819.324657,15.232,0.018
53819.335814,15.212,0.018
53826.285474,15.212,0.018
53826.322725,15.241,0.02
53826.333942,15.26,0.02
53827.297977,15.451,0.024
53827.309097,15.468,0.024
53827.320009,15.332,0.046
53827.330796,15.481,0.024
53827.341799,15.472,0.026
53832.223956,15.208,0.024
53832.236096,15.204,0.022
53832.246709,15.198,0.024
53832.257832,15.192,0.026
53832.268509,15.195,0.024
53845.193272,15.256,0.023
53845.20443,15.248,0.023
53845.215523,15.267,0.023
53845.226611,15.281,0.025
53848.242207,15.304,0.028
53848.252657,15.321,0.046
53848.263399,15.377,0.031
53848.274284,15.357,0.039
53848.284756,15.391,0.031
53850.188704,15.239,0.023
53850.195725,15.219,0.021
53850.199211,15.177,0.021
53850.206115,15.169,0.021
53850.209698,15.159,0.021
53850.216601,15.179,0.023
53850.220175,15.148,0.023
53850.227118,15.188,0.023
53850.230774,15.149,0.021
53850.237792,15.178,0.023
53850.273404,15.156,0.02
53850.284517,15.181,0.02
53850.29589,15.193,0.02
53850.307521,15.238,0.022
53850.31899,15.232,0.022
53851.133974,15.243,0.023
53851.144427,15.203,0.023
53851.155161,15.182,0.031
53852.188743,15.49,0.03
53852.199004,15.464,0.03
53852.209248,15.508,0.031
53852.219442,15.507,0.031
53852.229618,15.538,0.033
53853.130575,15.436,0.031
53853.130698,15.444,0.03
53853.141022,15.406,0.03
53853.141145,15.384,0.028
53853.151941,15.29,0.041
53853.152063,15.315,0.039
53853.162955,15.314,0.028
53853.163079,15.323,0.026
53853.174021,15.245,0.026
53853.174146,15.23,0.024
53853.242988,15.134,0.022
53853.253718,15.174,0.022
53853.264733,15.17,0.022
53853.275469,15.209,0.024
53853.285958,15.188,0.022
53856.276409,15.175,0.022
53856.289174,15.181,0.022
53856.300725,15.179,0.022
53856.310863,15.23,0.024
53856.321015,15.225,0.024
53880.166035,15.243,0.025
53880.177498,15.211,0.025
53880.188172,15.195,0.023
53880.198988,15.156,0.023
53880.209916,15.139,0.023
53882.168417,15.461,0.026
53882.181291,15.467,0.026
53882.194206,15.464,0.026
53882.20544,15.489,0.028
53882.217343,15.514,0.028
53884.161366,15.22,0.026
53884.162725,15.213,0.023
53884.173109,15.252,0.026
53884.173447,15.233,0.025
53884.184689,15.25,0.025
53884.184864,15.278,0.028
53884.195415,15.281,0.025
53884.196663,15.283,0.03
53884.206284,15.299,0.028
53884.208435,15.286,0.03
54059.462649,15.314,0.03
54059.476853,15.334,0.026
54059.489314,15.338,0.025
54059.501918,15.399,0.026
54086.425537,15.238,0.02
54086.438485,15.254,0.02
54086.451332,15.276,0.02
54086.464189,15.296,0.02
54086.477155,15.335,0.022
54091.358261,15.25,0.033
54091.370883,15.371,0.033
54091.378854,15.359,0.022
54091.382787,15.28,0.03
54091.391438,15.263,0.02
54091.394689,15.275,0.028
54091.404357,15.227,0.018
54091.406815,15.187,0.026
54091.416951,15.185,0.018
54091.429548,15.128,0.017
54113.404188,15.155,0.036
54113.418382,15.205,0.025
54113.43118,15.245,0.026
54113.444073,15.219,0.026
54115.412619,15.206,0.021
54115.425359,15.172,0.021
54115.438504,15.186,0.021
54115.451714,15.142,0.021
54115.464502,15.146,0.021
54123.393982,15.431,0.023
54123.406889,15.431,0.023
54123.419299,15.449,0.023
54123.432347,15.46,0.025
54123.4447,15.486,0.025
54144.361336,15.421,0.02
54144.372412,15.429,0.018
54144.383703,15.459,0.024
54144.395152,15.468,0.02
54144.407504,15.451,0.02
54148.339362,15.433,0.023
54148.350954,15.383,0.023
54148.362545,15.328,0.023
54148.374156,15.311,0.023
54148.386116,15.24,0.021
54154.329655,15.42,0.017
54154.342065,15.371,0.017
54154.353678,15.359,0.017
54154.365312,15.3,0.017
54154.376921,15.244,0.015
54155.301515,15.175,0.017
54155.313173,15.184,0.017
54155.3249,15.168,0.017
54155.336918,15.182,0.015
54155.349104,15.194,0.015
54173.271743,15.193,0.015
54173.282474,15.179,0.015
54173.29314,15.169,0.015
54173.303785,15.2,0.015
54173.314485,15.19,0.015
54174.270919,15.288,0.02
54174.281868,15.325,0.021
54174.292947,15.357,0.023
54174.303821,15.378,0.026
54174.315103,15.391,0.023
54176.276865,15.167,0.015
54176.287487,15.156,0.015
54176.298231,15.16,0.015
54176.308798,15.158,0.015
54176.31941,15.156,0.015
54179.293004,15.167,0.015
54179.304011,15.168,0.015
54179.315443,15.178,0.015
54179.326283,15.195,0.017
54179.337596,15.187,0.017
54180.279181,15.315,0.02
54180.289514,15.33,0.02
54180.299989,15.337,0.02
54180.310721,15.377,0.02
54180.321075,15.372,0.02
54186.33941,15.193,0.015
54186.351118,15.179,0.015
54186.362609,15.169,0.015
54186.374008,15.201,0.015
54186.385947,15.19,0.015
54200.21967,15.282,0.025
54200.229148,15.241,0.023
54200.258145,15.173,0.023
54206.264321,15.15,0.015
54206.273823,15.147,0.015
54206.282966,15.149,0.015
54206.292118,15.14,0.015
54206.301246,15.158,0.017
54209.260186,15.236,0.081
54209.269269,15.201,0.033
54209.278327,15.24,0.044
54209.287393,15.202,0.037
54209.296456,15.217,0.035
54439.450148,15.151,0.013
54439.463034,15.185,0.013
54439.475915,15.204,0.013
54439.488785,15.191,0.013
54439.501665,15.218,0.013
54448.449568,15.18,0.011
54448.46273,15.175,0.011
54448.475842,15.188,0.011
54448.488941,15.208,0.011
54448.502037,15.239,0.011
54507.332807,15.459,0.015
54507.344874,15.442,0.015
54507.356992,15.438,0.015
54507.369047,15.439,0.015
54507.381107,15.398,0.015
54507.453491,15.233,0.021
54507.46541,15.215,0.023
54507.477369,15.204,0.023
54507.490186,15.186,0.021
54507.502167,15.166,0.021
54523.393845,15.169,0.013
54523.405669,15.183,0.015
54523.417546,15.151,0.015
54523.429382,15.135,0.015
54523.44121,15.19,0.017
54530.333336,15.283,0.026
54530.3446,15.348,0.022
54530.355854,15.342,0.017
54530.367127,15.345,0.013
54530.378392,15.357,0.013
54535.393898,15.208,0.021
54535.40491,15.217,0.021
54535.415911,15.241,0.021
54535.426913,15.238,0.023
54535.438086,15.275,0.023
54536.272662,15.214,0.011
54536.283683,15.219,0.011
54536.294626,15.22,0.011
54536.305623,15.232,0.011
54536.31661,15.253,0.013
54554.302145,15.234,0.011
54554.314134,15.258,0.011
54554.326263,15.285,0.011
54554.338271,15.311,0.013
54554.35029,15.322,0.013
54558.179668,15.251,0.017
54558.191245,15.267,0.024
54558.202808,15.3,0.022
54558.214368,15.366,0.03
54558.225972,15.356,0.043
54563.248178,15.127,0.011
54563.25965,15.128,0.011
54563.27109,15.144,0.011
54563.282552,15.182,0.011
54563.294016,15.21,0.011
54580.196487,15.512,0.02
54580.207109,15.522,0.02
54580.217725,15.525,0.02
54580.228337,15.482,0.022
54580.239007,15.475,0.024
54584.250713,15.168,0.015
54584.261376,15.184,0.015
54584.271956,15.195,0.015
54584.282528,15.194,0.015
54584.293157,15.209,0.017
54591.244585,15.419,0.022
54591.254743,15.385,0.022
54591.264905,15.411,0.022
54591.275067,15.441,0.026
54591.285219,15.482,0.026
54611.162418,15.188,0.015
54611.172733,15.174,0.015
54611.182702,15.193,0.015
54611.192613,15.174,0.015
54611.202428,15.185,0.015
54614.165452,15.177,0.015
54614.175403,15.17,0.015
54614.185379,15.157,0.015
54614.195382,15.15,0.015
54614.205332,15.159,0.015
