mjd,m,merr
52636.353126,16.439,0.061
52636.367263,16.666,0.076
52636.38142,16.7,0.08
52636.395631,16.602,0.072
52636.409796,16.491,0.065
52650.2429,16.493,0.066
52650.25813,16.363,0.061
52650.274573,16.319,0.054
52650.289984,16.27,0.051
52650.305356,16.259,0.048
52653.306942,16.338,0.059
52653.322289,16.501,0.07
52653.337677,16.71,0.081
52653.353023,16.761,0.091
52653.368396,16.59,0.074
52660.313646,16.336,0.081
52695.259334,16.246,0.041
52695.275285,16.217,0.037
52695.291627,16.219,0.039
52711.215627,16.379,0.083
52711.229383,16.271,0.078
52722.192753,16.705,0.054
52722.206428,16.7,0.055
52722.220029,16.666,0.054
52722.233348,16.495,0.046
52739.142438,16.437,0.106
52739.154093,16.628,0.129
52739.165677,16.819,0.153
52751.138016,16.3,0.054
52751.148604,16.293,0.163
52751.169912,16.46,0.083
52751.180707,16.559,0.065
52914.433302,16.57,0.118
52914.446193,16.711,0.096
52914.485692,16.406,0.102
52928.428589,16.426,0.139
52928.46314,16.588,0.157
52928.474687,16.523,0.142
52964.411251,16.297,0.036
52964.424392,16.229,0.035
52964.438375,16.182,0.033
52964.452997,16.181,0.033
52964.470251,16.277,0.036
52966.319263,16.713,0.058
52966.329593,16.857,0.066
52966.338603,16.77,0.063
52966.347471,16.744,0.059
52966.356504,16.585,0.051
52977.339752,16.418,0.061
52977.350843,16.452,0.061
52977.362048,16.659,0.074
52977.373358,16.758,0.078
52977.384708,16.648,0.068
52978.378706,16.495,0.067
52978.391427,16.409,0.061
52978.40415,16.278,0.054
52978.416886,16.232,0.05
52978.429748,16.215,0.048
52988.326212,16.198,0.043
52988.339285,16.233,0.044
52988.352262,16.223,0.044
52988.365235,16.262,0.044
52988.378126,16.447,0.052
53003.263436,16.45,0.033
53003.27553,16.364,0.031
53003.287626,16.27,0.026
53003.299811,16.242,0.026
53003.311921,16.175,0.026
53006.263429,16.203,0.048
53006.275536,16.167,0.054
53006.28762,16.174,0.048
53006.299896,16.254,0.059
53006.321766,16.355,0.065
53008.289391,16.298,0.061
53008.301945,16.453,0.07
53045.221576,16.6,0.058
53045.237344,16.731,0.069
53045.249512,16.693,0.066
53045.261385,16.498,0.054
53045.2738,16.45,0.056
53092.17919,16.815,0.099
53092.190029,16.878,0.106
53092.199619,16.869,0.107
53092.209345,16.701,0.097
53096.173641,16.226,0.119
53125.164163,16.593,0.18
53134.149769,16.337,0.064
53134.158814,16.324,0.069
53134.167862,16.5,0.078
53134.177072,16.586,0.083
53262.413331,16.3,0.061
53262.425657,16.234,0.053
53262.437549,16.243,0.051
53262.449677,16.219,0.049
53262.462306,16.293,0.051
53281.422468,16.299,0.125
53281.43322,16.349,0.125
53281.444258,16.468,0.139
53281.455339,16.632,0.155
53281.466209,16.757,0.175
53294.450429,16.505,0.051
53294.461867,16.676,0.058
53294.473287,16.731,0.061
53294.484812,16.76,0.063
53319.411072,16.223,0.051
53319.424252,16.169,0.051
53319.438717,16.232,0.051
53319.453565,16.277,0.051
53319.467916,16.403,0.061
53329.453176,16.166,0.049
53329.465651,16.172,0.049
53329.478491,16.188,0.051
53329.490959,16.185,0.051
53329.503699,16.182,0.051
53340.336887,16.526,0.135
53340.349495,16.58,0.14
53340.362232,16.423,0.119
53340.374959,16.533,0.129
53340.38763,16.772,0.16
53349.396479,16.219,0.054
53349.409919,16.226,0.056
53349.423753,16.193,0.056
53349.437521,16.185,0.056
53349.451116,16.326,0.066
53355.411004,16.739,0.064
53355.437498,16.736,0.094
53355.450706,16.496,0.051
53355.464584,16.342,0.046
53360.347,16.703,0.076
53360.360841,16.766,0.079
53360.374812,16.603,0.069
53360.389157,16.464,0.058
53360.403336,16.394,0.058
53385.41746,16.622,0.067
53385.430398,16.409,0.055
53385.443318,16.267,0.048
53385.456806,16.226,0.048
53385.470362,16.136,0.044
53401.283203,16.186,0.041
53401.295727,16.195,0.043
53401.308348,16.215,0.044
53401.320984,16.246,0.044
53401.334126,16.265,0.048
53404.228302,16.212,0.033
53404.240992,16.208,0.033
53404.2546,16.153,0.03
53404.267814,16.152,0.03
53404.281001,16.165,0.03
53405.215087,16.289,0.043
53405.228317,16.232,0.037
53405.24157,16.205,0.035
53405.254887,16.18,0.035
53405.269492,16.226,0.039
53415.236168,16.575,0.052
53415.24846,16.425,0.046
53415.261492,16.326,0.043
53415.273826,16.275,0.039
53415.286115,16.241,0.039
53430.233007,16.561,0.065
53430.244779,16.388,0.044
53430.258262,16.276,0.043
53430.272066,16.173,0.043
53430.291629,16.141,0.044
53437.175526,16.29,0.039
53437.187496,16.213,0.037
53437.212438,16.135,0.035
53437.227276,16.193,0.037
53480.140782,16.653,0.141
53480.149972,16.542,0.131
53480.158939,16.381,0.117
53480.167891,16.371,0.115
53480.176863,16.231,0.102
53490.155202,16.525,0.065
53490.16559,16.68,0.074
53490.176335,16.767,0.081
53490.18642,16.689,0.078
53685.38412,16.705,0.074
53685.396389,16.456,0.057
53685.408675,16.369,0.057
53685.421069,16.307,0.107
53697.40163,16.815,0.105
53697.414389,16.597,0.091
53697.427163,16.363,0.065
53697.441141,16.188,0.055
53697.454488,16.193,0.054
53726.345905,16.254,0.072
53726.360047,16.409,0.052
53726.37379,16.521,0.057
53726.387151,16.7,0.068
53726.405827,16.611,0.067
53756.289326,16.244,0.048
53756.302883,16.268,0.104
53756.315836,16.268,0.061
53756.329166,16.543,0.1
53773.285074,16.207,0.052
53773.298659,16.378,0.061
53773.311519,16.404,0.065
53773.324394,16.494,0.072
53773.337203,16.569,0.098
53802.243041,16.193,0.071
53802.255351,16.272,0.076
53827.197451,16.714,0.068
53827.208827,16.748,0.071
53827.219699,16.796,0.071
53827.23061,16.527,0.056
53827.241648,16.388,0.048
53835.17434,16.273,0.092
53842.13563,16.163,0.046
53842.146862,16.238,0.054
53842.158251,16.315,0.057
53842.169813,16.377,0.061
53842.181132,16.434,0.067
53990.44327,16.353,0.111
53990.455474,16.731,0.15
53990.468583,16.677,0.139
53995.42695,16.65,0.114
53995.440695,16.365,0.083
53995.454413,16.29,0.073
54024.422014,16.51,0.081
54024.434137,16.385,0.068
54024.44952,16.321,0.059
54024.463709,16.29,0.058
54024.476996,15.846,0.054
54052.3909,16.672,0.07
54052.403115,16.693,0.07
54052.415312,16.532,0.063
54052.427521,16.33,0.054
54071.330418,16.599,0.112
54071.343077,16.793,0.132
54071.355733,16.514,0.101
54071.368905,16.309,0.083
54071.381632,16.282,0.081
54080.3067,16.193,0.048
54080.318593,16.118,0.046
54080.330487,16.145,0.048
54080.34238,16.232,0.05
54080.354559,16.253,0.052
54108.276357,16.413,0.078
54108.28844,16.265,0.068
54108.300902,16.21,0.063
54108.313423,16.215,0.066
54108.326786,16.262,0.068
54125.261155,16.271,0.051
54125.27283,16.234,0.049
54125.285292,16.182,0.045
54125.296882,16.245,0.046
54125.308455,16.252,0.046
54140.250643,16.258,0.03
54140.262905,16.167,0.028
54140.289803,16.163,0.03
54212.138272,16.321,0.094
54407.401145,16.624,0.069
54407.41329,16.548,0.063
54407.426704,16.321,0.053
54407.438395,16.267,0.049
54407.450147,16.224,0.048
54416.389932,16.196,0.04
54416.401833,16.262,0.041
54416.413829,16.315,0.043
54470.262219,16.233,0.051
54470.274647,16.337,0.056
54470.287073,16.393,0.058
54497.215044,16.243,0.043
54497.227032,16.186,0.041
54497.23886,16.146,0.04
54497.250783,16.129,0.038
54497.262726,16.181,0.041
54525.222335,16.271,0.046
54525.234066,16.159,0.046
54525.245442,16.212,0.056
54525.256825,16.143,0.043
54525.268546,16.232,0.046
54570.135541,16.888,0.17
54570.146749,16.749,0.15
54570.157554,17.152,0.221
54570.168357,16.792,0.163
54570.179264,16.676,0.147
54589.144466,16.22,0.046
54589.154947,16.181,0.046
54589.165431,16.193,0.048
54589.175891,16.179,0.048
54589.186446,16.171,0.046
