mjd,m,merr
52651.456735,14.876,0.023
52651.472051,14.903,0.023
52651.48719,14.886,0.02
52651.502605,15.01,0.021
52665.45661,14.939,0.015
52665.470901,14.885,0.013
52665.485203,14.84,0.013
52665.4996,14.815,0.013
52665.513918,14.835,0.013
52677.452797,15.226,0.02
52677.467048,15.255,0.02
52677.481342,15.032,0.017
52677.495621,14.903,0.015
52677.509947,14.839,0.013
52697.407898,14.949,0.036
52706.379929,14.914,0.015
52706.393029,15.068,0.016
52706.406135,15.274,0.02
52706.419577,15.177,0.018
52706.43269,15.009,0.016
52712.322682,15.005,0.028
52712.335908,14.871,0.031
52712.349447,14.816,0.018
52712.363725,14.806,0.018
52712.377356,14.855,0.018
52724.363289,14.896,0.011
52724.37492,14.85,0.011
52724.386476,14.818,0.011
52724.39803,14.804,0.011
52724.409638,14.836,0.011
52753.261808,15.021,0.017
52753.274583,15.236,0.018
52753.291007,15.167,0.017
52753.303318,14.966,0.015
52753.31628,14.912,0.013
52771.268709,14.814,0.02
52771.280695,14.834,0.02
52771.29244,14.895,0.02
52771.304115,14.97,0.022
52771.315916,15.112,0.026
52787.222946,15.036,0.013
52787.233705,15.199,0.015
52787.244294,15.336,0.017
52787.25487,15.201,0.015
52787.265434,15.029,0.013
52797.221458,14.861,0.017
52797.231473,14.889,0.018
52797.241443,14.905,0.018
52797.251418,15.052,0.022
52797.261378,15.165,0.024
52811.221218,14.88,0.017
52811.230995,14.858,0.015
52811.240846,14.831,0.015
52811.250623,14.83,0.015
52811.2604,14.866,0.015
52826.176676,14.813,0.021
52826.186609,14.836,0.023
52826.196725,14.909,0.023
52826.216726,15.135,0.028
52842.175347,14.914,0.02
52842.185987,14.85,0.02
52847.16207,15.26,0.028
52847.182404,14.934,0.02
52847.192532,14.848,0.018
52847.203009,14.802,0.018
53034.459174,14.822,0.013
53034.471643,14.861,0.013
53034.483963,14.904,0.013
53034.496567,15.047,0.015
53034.50893,15.232,0.017
53050.387168,14.881,0.02
53050.398886,14.941,0.018
53050.410534,15.044,0.013
53050.42229,15.234,0.015
53050.434033,15.293,0.015
53078.336339,14.864,0.013
53078.347096,14.932,0.013
53078.368728,15.215,0.018
53109.296716,14.919,0.013
53109.307454,14.993,0.013
53109.318165,15.137,0.015
53109.329018,15.31,0.017
53109.339823,15.206,0.017
53137.249929,14.89,0.013
53137.259721,15.032,0.015
53137.269597,15.153,0.017
53137.279383,15.25,0.018
53137.289203,15.159,0.018
53165.232334,15.267,0.028
53165.242334,15.098,0.017
53165.252431,14.958,0.015
53165.26243,14.891,0.015
53441.447396,15.284,0.018
53441.459015,15.105,0.015
53441.472321,14.941,0.013
53441.48459,14.88,0.013
53441.496315,14.831,0.013
53473.437335,14.904,0.015
53473.447028,14.857,0.015
53473.456704,14.837,0.015
53500.250507,14.936,0.015
53500.261861,14.889,0.013
53500.272874,14.842,0.013
53500.283898,14.835,0.013
53500.294626,14.844,0.013
53528.226827,14.809,0.017
53528.237758,14.827,0.017
53528.248826,14.823,0.017
53528.259669,14.877,0.017
53528.270047,14.97,0.018
53539.219229,15.029,0.035
53539.228802,14.916,0.031
53539.238392,14.885,0.03
53539.247941,14.796,0.028
53539.257518,14.848,0.03
53552.223156,15.172,0.022
53552.233098,15.308,0.026
53552.243041,15.177,0.024
53552.25297,15.007,0.02
53552.262982,14.895,0.018
53740.476239,15.286,0.018
53740.489147,15.121,0.017
53740.502102,14.951,0.015
53740.514949,14.867,0.013
53740.527887,14.848,0.013
53770.48707,14.817,0.011
53770.500205,14.833,0.011
53770.513172,14.875,0.013
53787.455817,15.12,0.016
53787.481897,15.146,0.033
53813.413267,15.301,0.031
53813.424284,15.108,0.028
53813.435428,14.979,0.024
53813.446441,14.941,0.024
53813.457483,14.822,0.022
53816.412328,15.249,0.016
53816.424292,15.238,0.016
53816.435827,15.036,0.015
53816.447609,14.904,0.013
53816.459087,14.854,0.016
53844.285192,14.86,0.015
53844.295477,14.836,0.015
53844.305737,14.857,0.015
53844.316306,14.87,0.017
53844.326681,14.896,0.018
53883.219899,15.303,0.028
53883.250784,14.909,0.02
53887.230743,15.269,0.028
53887.241397,15.126,0.024
53887.252101,15.004,0.022
53887.262795,14.917,0.02
53887.273512,14.88,0.018
53902.238431,14.975,0.02
53902.258932,15.224,0.025
53931.217259,15.27,0.038
54098.43273,14.925,0.018
54098.444732,14.845,0.017
54098.459913,14.794,0.015
54098.473283,14.812,0.015
54098.485495,14.847,0.015
54110.458655,14.982,0.036
54110.471507,14.858,0.03
54121.471597,15.198,0.018
54121.496513,14.879,0.013
54155.410276,15.105,0.018
54155.433955,15.176,0.018
54206.313837,15.167,0.018
54206.332507,14.999,0.016
54206.341944,14.898,0.015
54206.351385,14.888,0.015
54529.323729,14.804,0.02
54529.335126,14.819,0.02
54529.346333,14.822,0.018
54529.357604,14.862,0.02
54529.368813,14.959,0.02
54562.223884,15.21,0.038
54562.235426,15.203,0.038
54562.246861,15.035,0.033
54574.290779,14.908,0.026
54574.301462,14.823,0.024
54574.31212,14.818,0.022
54574.322814,14.848,0.022
54574.333495,14.821,0.022
54582.294721,15.089,0.017
54582.305305,14.994,0.015
54582.315873,14.887,0.015
54582.326441,14.878,0.015
54582.33707,14.82,0.015
54613.210747,14.949,0.013
54613.220639,15.083,0.015
54613.230665,15.243,0.017
54613.240698,15.303,0.017
54613.25082,15.142,0.015
