mjd,m,merr
52653.465962,14.625,0.011
52653.481256,14.629,0.011
52653.496594,14.636,0.011
52653.511939,14.704,0.011
52653.527342,14.819,0.011
52722.409632,14.696,0.011
52722.422602,14.66,0.011
52722.435968,14.624,0.011
52722.461978,14.641,0.011
52751.317978,14.669,0.011
52751.32894,14.631,0.011
52751.339641,14.617,0.011
52751.350984,14.624,0.011
52751.36286,14.641,0.011
52801.218583,14.718,0.04
52801.229029,14.638,0.04
52801.250091,14.586,0.04
52801.260493,14.588,0.038
52809.222929,14.991,0.018
52809.232929,14.957,0.018
52809.242899,14.863,0.016
52809.252958,14.788,0.016
52809.263182,14.716,0.03
52830.174942,14.598,0.023
52830.185305,14.66,0.023
52830.195231,14.666,0.023
52830.205363,14.699,0.025
52830.215343,14.822,0.028
53008.465119,14.608,0.015
53008.477653,14.573,0.013
53008.49025,14.582,0.011
53008.502787,14.605,0.011
53008.51546,14.636,0.011
53038.405624,14.692,0.02
53038.430131,14.859,0.023
53038.442247,14.963,0.023
53045.407731,14.674,0.015
53045.419632,14.697,0.015
53045.431512,14.645,0.015
53045.443391,14.669,0.015
53045.455807,14.711,0.015
53096.319227,14.599,0.016
53096.328914,14.591,0.016
53096.357977,14.683,0.016
53125.288181,14.894,0.021
53125.297861,15.05,0.025
53125.317292,15.037,0.025
53134.244805,14.619,0.013
53134.253647,14.56,0.01
53134.262509,14.563,0.01
53134.27149,14.567,0.01
53134.280556,14.612,0.012
53155.253837,14.629,0.018
53155.262252,14.62,0.018
53155.270657,14.616,0.02
53155.279035,14.626,0.018
53155.287307,14.593,0.02
53163.250179,14.974,0.074
53163.259798,14.864,0.031
53169.2229,14.61,0.013
53169.241731,14.605,0.013
53169.25115,14.634,0.013
53169.260491,14.649,0.012
53193.182039,14.653,0.013
53193.200486,14.621,0.012
53244.141195,14.675,0.018
53244.162321,14.763,0.021
53359.49301,14.833,0.013
53359.505821,14.737,0.011
53359.518546,14.659,0.011
53359.5317,14.63,0.011
53421.406486,14.729,0.015
53421.418805,14.678,0.013
53421.432475,14.637,0.013
53421.446903,14.616,0.015
53421.459384,14.633,0.013
53430.422892,14.866,0.015
53430.42301,14.821,0.015
53430.425488,14.798,0.015
53430.434692,14.736,0.015
53430.434809,14.707,0.013
53430.436624,14.735,0.015
53430.445835,14.74,0.013
53430.448259,14.689,0.013
53430.457551,14.663,0.013
53430.459469,14.666,0.013
53430.468692,14.655,0.013
53430.471136,14.624,0.013
53480.274601,14.764,0.02
53480.283647,14.807,0.02
53480.292809,14.906,0.022
53480.301896,15.043,0.026
53480.311881,15.046,0.026
53491.25633,14.627,0.013
53491.268742,14.676,0.013
53491.282149,14.752,0.013
53491.293323,14.844,0.015
53491.306492,14.997,0.015
53536.221447,14.565,0.018
53536.231409,14.598,0.018
53536.241386,14.618,0.018
53536.251353,14.629,0.02
53536.261411,14.675,0.02
53565.170166,14.729,0.017
53565.180802,14.827,0.017
53565.191453,14.947,0.018
53565.20212,15.016,0.02
53565.212802,15.034,0.02
53610.132192,14.583,0.013
53610.143423,14.608,0.013
53610.154683,14.645,0.013
53757.444297,14.716,0.015
53757.456798,14.823,0.015
53757.471206,14.964,0.018
53757.483922,15.073,0.018
53757.496451,14.999,0.017
53773.42336,14.946,0.015
53773.435931,14.827,0.013
53773.448571,14.751,0.011
53773.46136,14.677,0.011
53773.474118,14.642,0.011
53802.373508,14.605,0.012
53802.385865,14.578,0.01
53802.398019,14.577,0.013
53802.410048,14.621,0.01
53802.422182,14.646,0.01
53806.385619,14.796,0.02
53806.408121,15.015,0.024
53806.419452,15.06,0.024
53826.337715,14.628,0.01
53826.348455,14.608,0.01
53827.35772,14.594,0.01
53827.36838,14.619,0.01
53827.379573,14.668,0.01
53827.390211,14.692,0.012
53827.400895,14.773,0.012
53842.314538,14.62,0.018
53842.32626,14.644,0.02
53842.339304,14.725,0.02
53842.35084,14.8,0.022
53856.275832,14.648,0.013
53856.2857,14.666,0.013
53856.295661,14.758,0.015
53856.305584,14.82,0.015
53856.315475,14.917,0.016
53877.28184,14.64,0.021
53877.292465,14.641,0.013
53877.303086,14.706,0.015
53877.31366,14.769,0.016
53904.220288,14.609,0.015
53904.230169,14.661,0.015
53904.240026,14.675,0.015
53904.249919,14.747,0.017
53904.259843,14.852,0.017
53933.171521,14.998,0.017
53933.182204,15.055,0.02
53933.192917,14.992,0.024
54098.488427,14.678,0.013
54124.400158,14.604,0.012
54140.418195,14.973,0.015
54140.430635,14.828,0.013
54140.443298,14.729,0.013
54140.455748,14.68,0.011
54140.469257,14.641,0.011
54188.319473,14.787,0.021
54188.329298,14.88,0.023
54188.339076,15.0,0.025
54198.3276,14.729,0.02
54198.346907,14.87,0.037
54198.356552,14.954,0.065
54212.298884,14.85,0.016
54498.394024,14.78,0.016
54498.406485,14.665,0.016
54498.41831,14.622,0.016
54498.430122,14.582,0.016
54498.441901,14.589,0.016
54526.390888,14.687,0.015
54526.436428,14.995,0.018
54559.303137,14.837,0.021
54559.314767,14.744,0.018
54559.326294,14.667,0.018
54559.337763,14.632,0.018
54559.349221,14.619,0.016
54570.320672,14.716,0.016
54570.331539,14.692,0.016
54570.342783,14.638,0.016
54585.28601,14.578,0.02
54585.296295,14.563,0.016
54585.306528,14.547,0.018
54585.316795,14.566,0.018
54585.327017,14.615,0.018
54599.246691,14.601,0.012
54618.217754,14.91,0.026
54618.238513,14.933,0.026
54618.249368,14.819,0.025
54618.259863,14.738,0.023
