mjd,m,merr
52650.438812,16.484,0.057
52650.452707,16.386,0.052
52650.466759,16.194,0.039
52650.480841,16.05,0.033
52650.494749,15.966,0.03
52665.457468,16.068,0.037
52665.471763,16.073,0.035
52665.486063,16.095,0.037
52665.500459,16.143,0.037
52665.514779,16.184,0.037
52677.453654,16.48,0.054
52677.467908,16.456,0.055
52677.482199,16.45,0.052
52677.496476,16.542,0.055
52677.510805,16.327,0.048
52697.449609,15.929,0.048
52706.372169,16.069,0.031
52706.385047,16.179,0.035
52706.398079,16.221,0.037
52706.41125,16.226,0.037
52706.424369,16.278,0.039
52712.323041,16.173,0.078
52712.336265,16.031,0.094
52712.349805,15.943,0.049
52712.364082,15.926,0.048
52712.377713,16.056,0.051
52724.364127,16.53,0.044
52724.375762,16.497,0.044
52724.387313,16.523,0.046
52724.398871,16.532,0.046
52724.410481,16.518,0.048
52753.262143,15.993,0.035
52753.27492,15.972,0.035
52753.291409,16.084,0.037
52753.303653,16.051,0.035
52753.316615,16.13,0.037
52771.269031,16.728,0.12
52771.280818,16.636,0.111
52771.292636,16.622,0.111
52771.304048,16.62,0.112
52771.315553,16.578,0.106
52797.221818,16.664,0.085
52797.231832,16.576,0.08
52797.241798,16.6,0.081
52797.251773,16.539,0.08
52797.261733,16.513,0.078
52811.221659,15.918,0.037
52811.231453,15.925,0.037
52811.241287,15.953,0.039
52811.25107,15.982,0.039
52811.260843,16.039,0.041
52826.176855,16.005,0.046
52826.176946,16.069,0.061
52826.186788,16.058,0.049
52826.186877,16.043,0.063
52826.196995,16.053,0.063
52826.207106,16.149,0.073
52826.216905,16.124,0.048
52826.216996,16.054,0.056
52848.160839,16.426,0.061
52848.171144,16.498,0.067
52848.191669,16.23,0.057
52848.201862,16.134,0.054
53034.459706,16.193,0.043
53034.472175,16.235,0.041
53034.484495,16.235,0.039
53034.497098,16.267,0.041
53034.509462,16.302,0.041
53051.393982,16.568,0.044
53051.405585,16.549,0.043
53051.417342,16.505,0.043
53051.428949,16.401,0.035
53051.440588,16.254,0.03
53065.350744,16.069,0.036
53065.364972,16.115,0.036
53065.379828,16.174,0.036
53065.395289,16.198,0.036
53065.412899,16.166,0.033
53078.407717,16.665,0.096
53078.418392,16.63,0.091
53109.303616,16.543,0.056
53109.313742,16.513,0.056
53109.323963,16.474,0.053
53109.334131,16.518,0.054
53109.344185,16.595,0.059
53122.29715,16.208,0.035
53122.30758,16.279,0.037
53122.317911,16.264,0.035
53122.328402,16.344,0.037
53122.338931,16.38,0.037
53137.25676,16.402,0.051
53137.266512,16.416,0.051
53137.276377,16.41,0.051
53137.286197,16.431,0.058
53137.296058,16.383,0.053
53153.252684,16.346,0.048
53153.261696,16.355,0.048
53153.270482,16.319,0.048
53153.279267,16.353,0.048
53153.288201,16.415,0.052
53165.238219,16.025,0.041
53165.248023,15.923,0.04
53165.260544,15.939,0.04
53165.270351,15.915,0.04
53165.280442,15.945,0.041
53178.224031,16.456,0.043
53178.234014,16.283,0.157
53178.244086,16.4,0.096
53178.25407,16.62,0.104
53441.447641,15.939,0.03
53441.45926,16.002,0.031
53441.472565,16.045,0.033
53441.48543,16.065,0.033
53441.496931,16.1,0.035
53500.295784,16.544,0.052
53500.306951,16.543,0.054
53500.318941,16.576,0.054
53500.329585,16.495,0.052
53500.34089,16.526,0.054
53529.215847,15.822,0.035
53529.226729,15.815,0.035
53529.238107,15.847,0.037
53529.249503,15.867,0.039
53529.260376,15.966,0.043
53540.221049,16.305,0.137
53540.230879,16.282,0.122
53540.240463,16.13,0.107
53540.25016,16.078,0.102
53540.259841,15.947,0.094
53551.220716,16.553,0.065
53551.230669,16.56,0.067
53551.2406,16.499,0.067
53551.250607,16.517,0.07
53551.260649,16.443,0.063
53770.48734,16.478,0.046
53770.500476,16.46,0.046
53770.513442,16.529,0.05
53773.413343,16.157,0.043
53773.426395,16.199,0.041
53773.439036,16.254,0.043
53773.451619,16.208,0.039
53773.4646,16.246,0.041
53774.412958,16.438,0.065
53774.425459,16.219,0.05
53774.438163,16.146,0.044
53774.450909,16.014,0.037
53774.463706,16.057,0.033
53775.501834,16.335,0.134
53775.503738,16.553,0.181
53775.529402,16.295,0.098
53787.43076,16.537,0.058
53787.443612,16.598,0.058
53787.456553,16.565,0.056
53787.469558,16.576,0.058
53813.413753,16.545,0.1
53813.424885,16.553,0.1
53813.435916,16.599,0.104
53813.44693,16.486,0.094
53813.45797,16.547,0.1
53815.402508,16.109,0.043
53815.413913,16.167,0.045
53815.425525,16.164,0.046
53815.4372,16.107,0.043
53815.448665,16.194,0.046
53823.304476,16.532,0.049
53823.315419,16.499,0.048
53823.32632,16.542,0.049
53823.337423,16.524,0.048
53823.348425,16.551,0.049
53844.285518,16.476,0.061
53844.295801,16.574,0.068
53844.306291,16.517,0.068
53844.316629,16.578,0.078
53844.327003,16.538,0.078
53853.293356,16.693,0.084
53853.304168,16.639,0.083
53853.314653,16.675,0.078
53853.325112,16.775,0.087
53853.335521,16.636,0.078
53883.230637,16.251,0.054
53883.240948,16.093,0.048
53883.261564,15.938,0.043
53887.231137,16.214,0.063
53887.241794,16.273,0.065
53887.252497,16.245,0.063
53887.263195,16.27,0.063
53887.273908,16.297,0.061
53902.22855,16.289,0.064
53902.238764,16.326,0.059
53902.248753,16.358,0.064
53902.259276,16.397,0.069
53902.270866,16.504,0.083
53931.172173,16.455,0.074
53931.182634,16.505,0.078
53931.193021,16.493,0.085
53931.203393,16.572,0.083
53931.213846,16.574,0.094
53940.165099,16.092,0.061
53940.175651,15.995,0.087
53940.186196,15.958,0.101
53940.197104,16.095,0.076
53940.211111,16.155,0.087
54098.433154,16.49,0.065
54098.445154,16.493,0.063
54098.460337,16.393,0.057
54098.473708,16.458,0.057
54098.48592,16.461,0.057
54110.459121,16.362,0.119
54110.471973,16.338,0.114
54110.484656,16.504,0.155
54121.447493,16.241,0.039
54121.459799,16.315,0.041
54121.472046,16.205,0.035
54121.484718,16.316,0.035
54121.496963,16.315,0.035
54155.410894,16.545,0.063
54155.422543,16.59,0.064
54155.434566,16.516,0.059
54155.446467,16.54,0.063
54155.458636,16.526,0.061
54205.314841,16.157,0.045
54205.324146,16.175,0.045
54205.333794,16.198,0.045
54205.343575,16.187,0.041
54205.35315,16.285,0.046
54529.325357,16.757,0.079
54529.336749,16.617,0.068
54529.347958,16.605,0.066
54529.359224,16.588,0.066
54529.370439,16.664,0.069
54582.295215,16.518,0.054
54582.305799,16.601,0.061
54582.316372,16.595,0.063
54582.326937,16.566,0.065
54582.337566,16.571,0.068
54613.211162,16.466,0.043
54613.221052,16.502,0.046
54613.231078,16.52,0.048
54613.241109,16.488,0.052
54613.251232,16.4,0.048
