mjd,m,merr
52651.441277,16.759,0.086
52651.456477,16.603,0.073
52651.471794,16.458,0.064
52651.486933,16.397,0.061
52665.456985,16.292,0.048
52665.471278,16.28,0.046
52665.485579,16.276,0.044
52665.499975,16.378,0.048
52665.514295,16.544,0.055
52677.453173,16.373,0.054
52677.467425,16.635,0.07
52677.481718,16.725,0.072
52677.495997,16.723,0.072
52677.510325,16.519,0.059
52697.449467,16.241,0.078
52697.462708,16.294,0.051
52697.475951,16.443,0.059
52706.380289,16.397,0.051
52706.393389,16.412,0.051
52706.406497,16.606,0.061
52706.419938,16.774,0.073
52706.43305,16.823,0.073
52724.375285,16.337,0.041
52724.386839,16.367,0.043
52724.398393,16.419,0.048
52724.410004,16.528,0.052
52753.262486,16.385,0.054
52753.275263,16.356,0.052
52753.291752,16.245,0.044
52753.304,16.242,0.044
52753.316957,16.272,0.044
52771.268452,16.469,0.087
52771.280475,16.461,0.085
52771.292222,16.321,0.074
52771.303897,16.258,0.07
52771.315651,16.317,0.074
52787.222739,16.74,0.061
52787.233498,16.58,0.052
52787.244087,16.51,0.048
52787.254663,16.391,0.044
52787.265226,16.296,0.041
52811.222974,16.307,0.066
52811.232777,16.419,0.074
52811.242589,16.481,0.078
52811.252396,16.647,0.089
52811.262228,16.793,0.097
52826.177261,16.389,0.072
52826.18725,16.338,0.068
52826.197251,16.443,0.076
52826.207105,16.37,0.07
52826.216959,16.42,0.07
52842.175174,16.41,0.078
52842.185814,16.42,0.081
52847.162341,16.492,0.085
52847.18268,16.356,0.07
52847.192851,16.341,0.068
52847.203282,16.259,0.07
53024.411528,16.767,0.278
53024.424646,16.586,0.074
53024.450405,16.324,0.037
53034.459284,16.74,0.072
53034.471753,16.925,0.083
53034.484073,16.844,0.076
53034.496675,16.723,0.067
53034.50904,16.536,0.055
53050.38696,16.454,0.105
53050.398677,16.336,0.061
53050.410326,16.339,0.041
53050.422081,16.402,0.041
53050.433824,16.532,0.044
53078.336142,16.312,0.044
53078.346899,16.393,0.046
53094.385483,16.749,0.05
53094.396173,16.643,0.043
53094.406491,16.47,0.037
53094.416882,16.448,0.035
53094.427163,16.399,0.033
53109.2969,16.27,0.039
53109.307639,16.345,0.043
53109.318349,16.372,0.044
53109.329202,16.449,0.048
53109.340006,16.624,0.055
53137.250099,16.374,0.05
53137.25989,16.423,0.052
53137.269767,16.559,0.057
53137.279553,16.687,0.065
53137.289373,16.805,0.08
53138.266982,16.494,0.053
53138.285867,16.744,0.063
53165.232506,16.831,0.113
53165.242506,16.729,0.065
53165.252603,16.598,0.063
53165.262602,16.468,0.059
53442.267625,16.529,0.059
53442.278931,16.645,0.065
53442.290766,16.86,0.076
53442.302684,16.783,0.068
53443.437704,16.718,0.107
53443.448826,16.809,0.083
53443.459619,16.815,0.218
53443.470424,16.515,0.072
53443.481235,16.415,0.05
53473.43714,16.377,0.055
53473.446833,16.38,0.057
53473.456508,16.303,0.054
53500.296094,16.408,0.05
53500.307259,16.496,0.054
53500.319248,16.652,0.061
53500.329892,16.749,0.068
53500.3412,16.637,0.063
53528.226686,16.47,0.07
53528.237617,16.496,0.072
53528.248686,16.618,0.078
53528.259529,16.721,0.087
53528.269906,16.702,0.083
53539.219391,16.791,0.168
53539.228968,16.59,0.139
53539.238555,16.606,0.141
53539.248102,16.53,0.131
53539.257684,16.351,0.113
53552.222965,16.376,0.065
53552.232906,16.283,0.059
53552.252777,16.279,0.061
53552.262791,16.312,0.063
53570.170402,16.704,0.154
53570.181007,16.739,0.152
53570.191586,16.537,0.131
53570.212821,16.175,0.102
53576.167069,16.333,0.052
53576.177987,16.311,0.05
53576.188931,16.465,0.065
53582.161312,16.379,0.1
53582.195009,16.249,0.063
53582.206234,16.214,0.072
53740.476902,16.311,0.05
53740.515524,16.553,0.055
53740.528461,16.718,0.067
53786.435681,16.381,0.057
53786.447725,16.555,0.067
53843.350683,16.512,0.081
53848.296392,16.283,0.043
53848.31803,16.329,0.046
53848.328795,16.292,0.043
53848.33967,16.352,0.045
53882.21898,16.661,0.073
53882.229594,16.749,0.084
53882.240266,16.702,0.086
53882.250869,16.591,0.069
53882.261378,16.499,0.063
53886.231004,16.515,0.07
53886.241897,16.621,0.08
53886.252798,16.692,0.089
53886.263703,16.802,0.096
53886.274629,16.696,0.089
53903.223123,16.458,0.08
53903.233086,16.53,0.083
53903.243054,16.643,0.096
53903.252964,16.812,0.113
53903.262993,16.798,0.113
53916.242682,16.505,0.073
53916.252428,16.53,0.084
53931.197371,16.761,0.081
54123.394322,16.416,0.061
54123.406658,16.437,0.059
54123.419183,16.575,0.065
54123.431706,16.731,0.07
54123.444008,16.917,0.081
54156.385044,16.425,0.049
54156.396084,16.552,0.051
54206.3142,16.301,0.051
54206.323529,16.291,0.049
54206.332868,16.252,0.046
54206.342397,16.328,0.051
54206.351747,16.418,0.054
54529.324025,16.367,0.058
54529.335421,16.298,0.054
54529.346627,16.393,0.058
54529.357897,16.427,0.059
54529.369108,16.536,0.063
54562.211496,16.814,0.023
54574.312488,16.727,0.12
54574.323182,16.643,0.109
54574.333863,16.547,0.102
54613.213723,16.686,0.063
54613.22459,16.704,0.068
54613.245259,16.485,0.058
54613.255495,16.38,0.053
