mjd,m,merr
52652.461466,15.588,0.026
52652.476711,15.622,0.028
52652.494905,15.711,0.03
52652.509991,15.841,0.031
52664.424448,15.965,0.109
52722.358014,15.69,0.028
52722.35813,15.649,0.026
52722.37004,15.705,0.03
52722.38205,15.752,0.03
52722.382164,15.745,0.028
52722.394228,15.809,0.033
52722.394344,15.752,0.03
52722.40631,15.91,0.036
52722.406425,15.888,0.033
52751.306988,15.674,0.03
52751.307103,15.696,0.028
52751.317719,15.733,0.031
52751.317833,15.706,0.03
52751.328441,15.829,0.035
52751.328555,15.811,0.031
52751.339164,15.951,0.041
52751.339277,15.948,0.038
52751.34989,16.022,0.045
52751.350004,16.11,0.045
52772.278132,15.616,0.058
52800.22157,15.568,0.057
52800.231776,15.673,0.063
52800.241908,15.687,0.061
52800.252029,15.735,0.067
52810.224386,15.783,0.031
52810.234198,15.721,0.031
52812.227522,15.64,0.026
52812.237577,15.625,0.026
52812.247737,15.582,0.026
52812.257826,15.594,0.026
52812.267788,15.627,0.026
52827.177527,15.691,0.063
52839.171449,15.67,0.052
52990.471164,15.642,0.033
52990.484353,15.601,0.03
52990.497515,15.567,0.026
52990.510584,15.583,0.026
52990.523611,15.628,0.028
53023.411003,15.617,0.022
53023.423683,15.675,0.022
53023.436361,15.742,0.024
53023.449051,15.88,0.026
53023.461773,15.882,0.026
53046.411174,15.85,0.041
53046.423682,15.92,0.043
53046.435652,15.925,0.043
53046.447552,15.821,0.039
53046.460131,15.699,0.035
53107.300467,15.642,0.022
53107.311628,15.576,0.022
53107.322771,15.563,0.02
53107.333807,15.589,0.02
53127.291947,15.603,0.044
53127.301982,15.62,0.044
53127.31207,15.579,0.041
53127.322257,15.544,0.041
53127.33245,15.581,0.041
53136.247994,15.575,0.026
53136.257358,15.565,0.026
53136.26673,15.593,0.026
53136.275999,15.632,0.028
53154.253531,15.569,0.031
53154.262295,15.557,0.031
53154.271107,15.599,0.033
53154.279917,15.602,0.033
53154.288716,15.628,0.033
53164.23435,15.833,0.028
53164.244582,15.934,0.031
53164.254763,16.037,0.037
53164.264943,15.936,0.031
53181.257994,15.87,0.049
53194.197744,15.834,0.052
53194.217963,15.686,0.055
53359.493428,15.846,0.035
53359.506237,15.989,0.039
53359.518963,15.924,0.037
53359.532117,15.773,0.033
53421.406962,15.565,0.031
53421.419285,15.639,0.033
53421.432953,15.653,0.033
53421.447384,15.822,0.041
53421.459863,15.932,0.041
53430.426087,15.757,0.037
53430.437223,15.645,0.033
53430.448858,15.581,0.031
53430.460068,15.596,0.031
53430.471736,15.552,0.031
53451.389692,15.844,0.039
53451.400499,15.782,0.037
53451.411265,15.679,0.033
53451.422032,15.616,0.031
53451.432791,15.553,0.03
53452.376514,15.918,0.065
53452.376623,16.117,0.087
53452.376732,16.432,0.115
53452.376841,16.037,0.078
53452.387775,16.349,0.083
53452.387884,16.009,0.055
53452.387993,15.982,0.054
53452.419804,15.491,0.068
53452.420131,15.58,0.081
53491.306901,15.566,0.024
53491.316806,15.574,0.024
53491.326935,15.638,0.024
53491.337767,15.713,0.028
53491.347714,15.808,0.03
53537.223269,15.617,0.061
53566.213562,15.772,0.048
53566.224238,15.815,0.055
53566.234871,15.922,0.057
53566.24549,15.957,0.059
53566.256125,15.826,0.052
53605.169199,15.639,0.043
53757.444811,15.552,0.035
53757.457312,15.567,0.035
53757.471719,15.635,0.035
53757.484437,15.695,0.037
53757.496965,15.805,0.043
53773.423894,15.728,0.03
53773.436539,15.69,0.03
53773.449106,15.593,0.026
53773.461898,15.557,0.024
53773.474656,15.573,0.026
53825.351865,15.598,0.045
53825.363633,15.586,0.045
53825.374863,15.648,0.101
53842.303487,16.104,0.081
53842.326499,15.893,0.068
53842.3495,15.67,0.056
53856.286102,15.643,0.03
53856.296063,15.616,0.028
53877.271408,15.536,0.107
53877.282179,15.63,0.119
53877.292803,15.672,0.079
53877.303422,15.7,0.097
53877.314016,16.033,0.129
53904.220028,15.638,0.033
53904.229909,15.698,0.035
53904.239766,15.751,0.037
53904.249661,15.867,0.041
53904.259583,15.963,0.044
53932.184544,15.846,0.059
53932.208295,15.998,0.061
53944.173971,15.673,0.092
53960.189302,15.611,0.098
54098.43956,15.589,0.033
54140.399751,15.627,0.036
54140.412019,15.62,0.035
54140.436375,15.582,0.031
54140.448749,15.63,0.033
54198.328032,15.866,0.089
54198.337688,15.972,0.087
54210.268526,15.857,0.035
54210.295156,15.65,0.028
54218.271996,15.598,0.044
54218.280614,15.669,0.046
54218.289255,15.682,0.044
54218.297876,15.632,0.043
54218.306482,15.712,0.046
54481.452664,15.635,0.035
54481.464873,15.663,0.035
54481.491016,15.872,0.04
54481.503307,16.005,0.045
54498.394202,15.908,0.04
54498.406663,15.749,0.035
54498.418489,15.658,0.031
54498.430298,15.611,0.03
54498.442081,15.605,0.03
54526.391061,15.615,0.031
54526.402422,15.582,0.031
54526.413773,15.677,0.033
54526.425117,15.729,0.035
54526.4366,15.863,0.038
54537.360746,15.853,0.069
54537.37166,16.068,0.106
54559.303288,15.686,0.035
54559.314917,15.75,0.036
54559.326445,15.846,0.038
54559.337913,15.997,0.043
54559.349371,15.985,0.043
54569.295822,15.837,0.038
54569.306821,15.696,0.035
54569.317732,15.648,0.033
54569.328644,15.629,0.033
54569.339537,15.562,0.03
54584.290072,15.794,0.043
54584.3002,15.909,0.046
54584.310287,15.973,0.049
54584.320453,15.782,0.045
54584.330959,15.7,0.04
54599.24686,15.683,0.073
54599.256148,15.585,0.068
54599.265432,15.615,0.068
54599.27477,15.648,0.069
54615.26318,15.609,0.063
