mjd,m,merr
52676.443017,15.745,0.037
52676.45923,15.745,0.035
52676.474647,15.722,0.033
52676.4939,15.783,0.035
52676.512227,15.781,0.033
52707.436558,15.67,0.033
52707.437158,15.732,0.031
52707.449734,15.728,0.035
52707.450334,15.755,0.031
52707.462839,15.67,0.035
52707.463444,15.763,0.035
52707.476322,15.777,0.036
52707.476924,15.777,0.033
52707.489846,15.756,0.036
52707.490564,15.812,0.035
52710.380665,15.776,0.03
52710.393865,15.86,0.03
52710.40689,15.837,0.03
52710.419925,15.913,0.031
52710.433179,15.933,0.031
52737.381,15.724,0.026
52737.395114,15.737,0.026
52737.407387,15.734,0.028
52737.42003,15.731,0.028
52737.432512,15.749,0.03
52756.262185,15.805,0.033
52756.274127,15.796,0.033
52756.286066,15.811,0.033
52756.298099,15.822,0.033
52756.310035,15.787,0.031
52761.26707,15.781,0.036
52761.267179,15.831,0.036
52761.279984,15.776,0.036
52761.280093,15.835,0.035
52761.292137,15.757,0.033
52761.292246,15.781,0.033
52761.304042,15.757,0.035
52761.304151,15.881,0.038
52761.315937,15.785,0.038
52761.316046,15.84,0.036
52768.27041,15.551,0.031
52768.282512,15.553,0.031
52768.294674,15.554,0.031
52768.30652,15.568,0.03
52768.318494,15.598,0.03
52792.271536,15.692,0.04
52792.282314,15.685,0.038
52792.293112,15.709,0.041
52792.303951,15.73,0.04
52792.314958,15.743,0.041
52793.259669,15.692,0.04
52793.269998,15.685,0.038
52793.280762,15.709,0.041
52793.29103,15.73,0.04
52793.301757,15.743,0.041
52819.216733,15.472,0.035
52824.179628,15.497,0.033
52824.189524,15.546,0.036
52824.199587,15.629,0.038
52824.209576,15.541,0.036
52824.219535,15.627,0.036
53033.45667,15.217,0.02
53033.468747,15.188,0.018
53033.480756,15.198,0.018
53033.493007,15.247,0.02
53033.505197,15.33,0.02
53054.440932,15.798,0.028
53054.456904,15.563,0.022
53054.4688,15.427,0.02
53054.481805,15.341,0.018
53054.494439,15.225,0.017
53062.437875,15.573,0.07
53080.394127,15.849,0.028
53080.40501,15.837,0.028
53080.416005,15.851,0.03
53080.426979,15.929,0.033
53080.437844,15.928,0.031
53087.397994,15.667,0.02
53087.409234,15.668,0.02
53087.442006,15.697,0.036
53091.379652,15.78,0.021
53091.380223,15.762,0.02
53091.390497,15.78,0.022
53091.400773,15.774,0.022
53091.40913,15.777,0.023
53091.411088,15.79,0.024
53091.421377,15.824,0.022
53111.295262,15.716,0.033
53111.306064,15.725,0.031
53111.316905,15.707,0.03
53111.327713,15.743,0.03
53111.338704,15.78,0.031
53119.29826,15.22,0.015
53119.308693,15.189,0.015
53119.319189,15.185,0.015
53119.329739,15.206,0.015
53119.340173,15.249,0.015
53139.252188,15.237,0.02
53139.261676,15.269,0.02
53139.271192,15.291,0.02
53139.280663,15.324,0.02
53139.290161,15.346,0.02
53149.252217,15.269,0.017
53149.261147,15.279,0.017
53149.270067,15.352,0.017
53149.278989,15.365,0.017
53149.287915,15.379,0.017
53169.22346,15.373,0.02
53169.233405,15.389,0.022
53169.243406,15.413,0.022
53169.253326,15.421,0.022
53169.263259,15.44,0.024
53440.483564,15.885,0.037
53440.494701,15.79,0.035
53440.505918,15.624,0.03
53469.332732,15.39,0.02
53469.342366,15.283,0.018
53469.352185,15.217,0.018
53469.36173,15.208,0.018
53469.372217,15.242,0.018
53496.295039,15.759,0.037
53496.305151,15.757,0.037
53496.315262,15.724,0.033
53496.32531,15.785,0.035
53496.335549,15.761,0.035
53530.218234,15.83,0.041
53530.228806,15.786,0.039
53530.239247,15.651,0.035
53530.250906,15.492,0.03
53530.261431,15.411,0.03
53791.418358,15.737,0.03
53791.430228,15.732,0.03
53791.442105,15.74,0.03
53791.45405,15.771,0.033
53791.465987,15.742,0.03
53815.419095,15.779,0.052
53815.430447,15.807,0.054
53815.441762,15.792,0.052
53833.325769,15.384,0.028
53833.335803,15.398,0.03
53833.345729,15.406,0.03
53833.355656,15.436,0.03
53833.36559,15.482,0.03
53846.292967,15.761,0.036
53846.303647,15.753,0.036
53846.314292,15.787,0.036
53846.324943,15.8,0.036
53846.335565,15.826,0.038
53890.209094,16.066,0.066
53890.227666,16.053,0.066
53890.243976,16.005,0.063
53890.273897,15.583,0.045
53905.21434,15.925,0.048
53905.224397,15.85,0.044
53905.234391,15.609,0.037
53905.244385,15.521,0.035
53905.254479,15.397,0.031
53910.175079,15.934,0.046
53910.185694,15.936,0.046
53910.196214,15.911,0.043
53910.206715,15.766,0.04
53910.217228,15.593,0.038
54113.476006,15.827,0.057
54113.488539,15.607,0.044
54113.505908,15.455,0.033
54113.518768,15.343,0.03
54147.455268,15.522,0.03
54147.467234,15.558,0.031
54147.47907,15.577,0.033
54147.491901,15.576,0.031
54147.503806,15.624,0.031
54156.385904,15.564,0.026
54156.404054,15.606,0.024
54156.415937,15.618,0.024
54156.427486,15.652,0.024
54156.43905,15.673,0.024
54175.402986,15.806,0.035
54175.42462,15.813,0.033
54175.425391,15.776,0.026
54175.433212,15.807,0.033
54175.43625,15.826,0.028
54175.446021,15.882,0.036
54175.447136,15.847,0.028
54175.456878,15.807,0.033
54175.458191,15.869,0.028
54175.467718,15.928,0.038
54175.469088,15.896,0.03
54175.478551,15.941,0.04
54198.359291,15.565,0.079
54477.468023,15.271,0.02
54477.480973,15.303,0.018
54477.493894,15.354,0.018
54477.50698,15.412,0.022
54484.470944,15.667,0.041
54484.483807,15.76,0.033
54484.496672,15.796,0.028
54484.509517,15.794,0.028
54484.522454,15.846,0.028
54533.392082,15.19,0.011
54533.403384,15.224,0.011
54533.414925,15.281,0.011
54533.426181,15.299,0.013
54533.437547,15.354,0.011
54539.373125,15.882,0.02
54539.384001,15.875,0.02
54539.394869,15.89,0.02
54539.405691,15.859,0.02
54539.416535,15.85,0.02
54567.297071,15.492,0.02
54567.308258,15.519,0.02
54567.319539,15.503,0.02
54567.330694,15.534,0.02
54567.341855,15.549,0.02
54568.354352,15.404,0.028
54568.365451,15.415,0.028
54568.376266,15.462,0.03
54568.387165,15.465,0.03
54568.397983,15.455,0.028
54587.303253,15.587,0.026
54587.313639,15.628,0.028
54587.323945,15.661,0.028
54587.334319,15.715,0.03
54587.344634,15.661,0.028
54589.297387,15.427,0.018
54589.307992,15.31,0.017
54589.318535,15.235,0.015
54589.329095,15.233,0.017
54589.339611,15.235,0.017
54595.292821,15.834,0.03
54595.302895,15.813,0.03
54595.312961,15.811,0.028
54595.322941,15.913,0.033
54595.332899,15.921,0.041
54619.216437,15.329,0.022
54619.226726,15.211,0.022
54619.236966,15.226,0.022
54619.247406,15.225,0.018
54619.257629,15.264,0.02
