mjd,m,merr
52676.444423,16.417,0.063
52676.460583,16.444,0.065
52676.476001,16.531,0.063
52676.495254,16.576,0.065
52676.513583,16.667,0.07
52701.452916,16.451,0.058
52701.471607,16.377,0.058
52701.471962,16.379,0.068
52701.486024,16.464,0.063
52701.486377,16.424,0.069
52701.502114,16.335,0.056
52701.502469,16.328,0.064
52701.516789,16.444,0.066
52701.517145,16.318,0.069
52708.442237,16.394,0.056
52708.455302,16.521,0.061
52708.468361,16.433,0.061
52708.481428,16.401,0.061
52708.494491,16.477,0.066
52708.494848,16.279,0.074
52729.35892,16.395,0.054
52729.371076,16.413,0.054
52729.371191,16.443,0.073
52729.382979,16.522,0.059
52729.383094,16.479,0.073
52729.394884,16.582,0.066
52729.394999,16.534,0.091
52729.407116,16.871,0.084
52729.407231,16.687,0.097
52732.365501,16.838,0.087
52732.377576,16.669,0.076
52732.389571,16.544,0.073
52732.401812,16.491,0.066
52732.41386,16.443,0.064
52737.383599,16.315,0.041
52737.396752,16.308,0.041
52737.408923,16.315,0.043
52737.421754,16.353,0.044
52737.434307,16.348,0.046
52756.312438,16.461,0.057
52756.324402,16.626,0.063
52756.336286,16.657,0.07
52756.348193,16.562,0.063
52756.360131,16.597,0.067
52761.268204,16.766,0.079
52761.281116,16.688,0.071
52761.29327,16.702,0.069
52761.305172,16.627,0.069
52761.317068,16.66,0.073
52768.271316,16.608,0.08
52768.283756,16.51,0.07
52768.295644,16.455,0.063
52768.307434,16.316,0.054
52768.319409,16.303,0.054
52792.272521,16.527,0.074
52792.283296,16.454,0.073
52792.294139,16.796,0.097
52792.304942,16.641,0.089
52792.315937,16.636,0.092
52793.302701,16.527,0.074
52793.313074,16.454,0.073
52793.323484,16.796,0.097
52793.333751,16.641,0.089
52793.344075,16.636,0.092
52819.21852,16.334,0.063
52819.228445,16.225,0.057
52819.238372,16.224,0.057
52819.248316,16.181,0.057
52819.25828,16.251,0.057
52824.220761,16.356,0.064
52824.240636,16.467,0.086
52824.250547,16.393,0.076
52824.260587,16.468,0.101
53032.460487,16.264,0.044
53032.472826,16.303,0.046
53032.485082,16.37,0.044
53032.497372,16.435,0.046
53032.509668,16.565,0.054
53054.46812,16.581,0.053
53054.479867,16.695,0.058
53054.491804,16.686,0.054
53054.503609,16.748,0.058
53062.416413,16.463,0.17
53062.450693,16.175,0.133
53080.414232,16.378,0.046
53080.425424,16.432,0.048
53087.399235,16.364,0.036
53087.410473,16.376,0.04
53087.443248,16.486,0.048
53089.346882,16.526,0.061
53089.392625,16.373,0.079
53091.378923,16.307,0.035
53091.379104,16.546,0.036
53091.379532,16.234,0.033
53091.379705,17.465,0.035
53091.388678,16.378,0.035
53091.388859,16.455,0.035
53091.389806,16.245,0.033
53091.389979,17.23,0.037
53091.398575,16.286,0.035
53091.398756,16.309,0.036
53091.400082,16.118,0.033
53091.400254,16.838,0.039
53091.408402,16.29,0.035
53091.408582,16.276,0.035
53091.410397,16.192,0.035
53091.41057,17.0,0.039
53091.41824,16.388,0.036
53091.418422,16.272,0.035
53091.420686,16.253,0.035
53091.420859,17.046,0.039
53111.306529,16.465,0.058
53111.317877,16.361,0.051
53111.3287,16.462,0.053
53111.339991,16.417,0.053
53111.351118,16.384,0.048
53118.312758,16.365,0.033
53118.323484,16.34,0.035
53118.344623,16.392,0.036
53148.288615,16.589,0.058
53148.297274,16.532,0.053
53148.306012,16.549,0.053
53148.31619,16.435,0.048
53168.221241,16.643,0.072
53168.231383,16.583,0.07
53168.241459,16.612,0.07
53168.251559,16.442,0.063
53168.261635,16.402,0.063
53175.221478,16.661,0.079
53175.240915,16.445,0.056
53175.25123,16.465,0.061
53175.261757,16.394,0.064
53469.334006,16.498,0.054
53469.343608,16.455,0.052
53469.353432,16.387,0.048
53469.362971,16.315,0.046
53469.373592,16.369,0.048
53504.285474,16.655,0.072
53504.294258,16.643,0.074
53504.304219,16.559,0.068
53504.314981,16.487,0.065
53504.324707,16.454,0.063
53530.219952,16.438,0.067
53530.230036,16.392,0.065
53530.240427,16.557,0.07
53530.252017,16.558,0.074
53530.262556,16.723,0.089
53556.178164,16.416,0.055
53556.188786,16.359,0.052
53556.199618,16.316,0.05
53556.21012,16.354,0.054
53556.220657,16.348,0.052
53797.366371,16.501,0.054
53797.378514,16.381,0.056
53797.390578,16.367,0.074
53797.402667,16.342,0.185
53797.414704,16.463,0.068
53815.432206,16.803,0.117
53815.443338,16.781,0.137
53833.32658,16.499,0.072
53833.336617,16.457,0.07
53833.346538,16.535,0.074
53833.35647,16.558,0.076
53833.366401,16.67,0.083
53846.294674,16.397,0.059
53846.305335,16.393,0.058
53846.315973,16.419,0.058
53846.326637,16.492,0.059
53890.211976,16.384,0.084
53890.229176,16.215,0.071
53890.245255,16.293,0.076
53890.275118,16.362,0.081
53905.215564,16.374,0.07
53905.225602,16.411,0.072
53905.235594,16.369,0.072
53905.245606,16.313,0.072
53905.255683,16.397,0.078
53910.218395,16.34,0.069
53910.228239,16.409,0.076
54147.456174,16.655,0.076
54147.468139,16.633,0.078
54147.480977,16.792,0.087
54147.492808,16.616,0.074
54147.50471,16.568,0.066
54157.438574,16.293,0.039
54157.45029,16.193,0.037
54157.462004,16.205,0.037
54157.473753,16.289,0.037
54157.485493,16.287,0.037
54175.382704,16.426,0.056
54175.393434,16.343,0.053
54175.404565,16.418,0.056
54175.41524,16.426,0.053
54484.486883,16.216,0.05
54484.499753,16.104,0.044
54484.51259,16.034,0.041
54485.501887,16.235,0.091
54485.527289,16.471,0.072
54533.39362,16.181,0.026
54533.404926,16.201,0.026
54533.416465,16.095,0.024
54533.427719,16.151,0.026
54539.375544,16.585,0.041
54539.386421,16.541,0.039
54539.39728,16.586,0.039
54539.408102,16.481,0.037
54539.418955,16.419,0.033
54567.298494,16.283,0.041
54567.309682,16.273,0.039
54567.320956,16.227,0.037
54567.332122,16.363,0.039
54567.343291,16.392,0.039
54568.356198,16.462,0.063
54568.3673,16.506,0.064
54568.378202,16.384,0.061
54568.389016,16.378,0.059
54568.399832,16.392,0.058
54587.304807,16.317,0.046
54587.315115,16.392,0.052
54587.325416,16.461,0.052
54587.335796,16.459,0.055
54587.346104,16.57,0.059
54595.294225,16.258,0.039
54595.304321,16.207,0.039
54595.314379,16.229,0.037
54595.324343,16.295,0.043
54595.334309,16.391,0.057
54619.217705,16.634,0.07
54619.228001,16.514,0.07
54619.23824,16.725,0.093
54619.248673,16.466,0.055
54619.258896,16.422,0.054
54622.232959,16.277,0.119
54622.243108,16.321,0.122
54622.253094,16.327,0.129
54622.26307,16.397,0.125
