mjd,m,merr
52676.456043,15.151,0.023
52676.471317,15.111,0.021
52676.486569,15.126,0.021
52676.502409,15.105,0.021
52707.43883,15.114,0.02
52707.452003,15.101,0.02
52707.46511,15.095,0.02
52707.465859,15.055,0.023
52707.478592,15.091,0.02
52707.478978,15.04,0.021
52707.492598,15.061,0.023
52710.382337,15.16,0.021
52710.382452,15.116,0.026
52710.395532,15.189,0.021
52710.395647,15.104,0.023
52710.408555,15.232,0.021
52710.40867,15.163,0.025
52710.421652,15.306,0.023
52710.421767,15.195,0.026
52710.434846,15.354,0.023
52734.320462,15.125,0.096
52737.384086,15.206,0.017
52737.397099,15.182,0.017
52737.40931,15.16,0.017
52737.4221,15.16,0.017
52737.434655,15.117,0.017
52756.265815,15.3,0.025
52756.277852,15.303,0.025
52756.29011,15.272,0.025
52756.30235,15.297,0.023
52756.314608,15.312,0.025
52768.268919,15.334,0.031
52768.280635,15.286,0.03
52768.292202,15.339,0.028
52768.30378,15.294,0.028
52768.31582,15.331,0.028
52794.225022,15.266,0.026
52794.23532,15.217,0.026
52794.245764,15.167,0.023
52794.256322,15.18,0.023
52794.267079,15.164,0.025
52819.218343,15.127,0.022
52819.228268,15.109,0.022
52819.238195,15.102,0.022
52819.248138,15.082,0.02
52819.258102,15.065,0.02
52824.221126,15.359,0.028
52824.241001,15.329,0.035
52824.25091,15.218,0.031
52824.26095,15.128,0.049
53033.457961,15.067,0.017
53033.470039,15.083,0.017
53033.482049,15.096,0.017
53033.494374,15.091,0.017
53033.506489,15.095,0.017
53080.395791,15.323,0.018
53080.406679,15.293,0.017
53080.417671,15.236,0.017
53080.439515,15.203,0.017
53089.392351,15.095,0.03
53089.402699,15.101,0.03
53089.413136,15.118,0.022
53096.375439,15.171,0.028
53096.385574,15.188,0.028
53096.395611,15.215,0.028
53096.405648,15.24,0.028
53096.415767,15.285,0.03
53111.296646,15.321,0.022
53111.307513,15.327,0.022
53111.318282,15.295,0.02
53111.32909,15.322,0.02
53111.340082,15.314,0.02
53119.299783,15.158,0.015
53119.310217,15.147,0.013
53119.331261,15.112,0.013
53119.341695,15.086,0.013
53138.24824,15.177,0.018
53138.257771,15.14,0.017
53138.267348,15.115,0.017
53138.276938,15.097,0.017
53138.286517,15.095,0.017
53139.253512,15.129,0.018
53139.262955,15.121,0.018
53139.272471,15.11,0.017
53139.28194,15.115,0.017
53139.291437,15.116,0.017
53149.253531,15.316,0.017
53149.262461,15.274,0.017
53149.27138,15.274,0.015
53149.280303,15.207,0.015
53149.289268,15.187,0.015
53169.224709,15.125,0.017
53169.234671,15.121,0.017
53169.24462,15.102,0.017
53169.254537,15.091,0.017
53169.26456,15.073,0.017
53478.372512,15.325,0.028
53478.381519,15.368,0.028
53478.390588,15.324,0.026
53478.399613,15.305,0.026
53478.408631,15.3,0.024
53496.296881,15.217,0.022
53496.307008,15.274,0.022
53496.317144,15.282,0.022
53496.327138,15.368,0.024
53496.337372,15.342,0.022
53527.218358,15.121,0.02
53527.228222,15.126,0.02
53527.238049,15.154,0.022
53527.247993,15.175,0.022
53527.257871,15.2,0.022
53791.42039,15.332,0.02
53791.432263,15.385,0.021
53791.444149,15.319,0.02
53791.456099,15.265,0.02
53791.468037,15.241,0.02
53815.409752,15.406,0.055
53815.421011,15.426,0.055
53815.432558,15.332,0.035
53815.443689,15.414,0.037
53817.329822,15.355,0.023
53817.341428,15.312,0.021
53817.352981,15.286,0.021
53817.36491,15.254,0.02
53846.29445,15.248,0.021
53846.305113,15.288,0.023
53846.31575,15.302,0.023
53846.326417,15.335,0.023
53846.337065,15.325,0.023
53850.29828,15.086,0.021
53850.308977,15.102,0.02
53850.319576,15.098,0.02
53850.330089,15.108,0.02
53850.340909,15.119,0.02
53884.275618,15.334,0.026
53884.287193,15.304,0.026
53884.298767,15.3,0.026
53884.310384,15.296,0.026
53884.321937,15.284,0.024
53901.230885,15.14,0.033
53901.260932,15.183,0.052
53911.237886,15.059,0.048
53911.247711,15.098,0.073
53911.257419,15.076,0.041
53911.2671,15.031,0.049
53954.14501,15.242,0.048
53954.167993,15.199,0.049
53954.17942,15.165,0.049
54155.417673,15.109,0.015
54155.42952,15.092,0.015
54155.441393,15.09,0.015
54155.453378,15.09,0.015
54155.46531,15.091,0.015
54156.387647,15.082,0.017
54156.405797,15.08,0.015
54156.417679,15.076,0.015
54156.429234,15.102,0.015
54156.440797,15.117,0.015
54174.389548,15.078,0.026
54174.400405,15.077,0.056
54174.411228,15.1,0.043
54174.422094,15.106,0.02
54180.382155,15.107,0.018
54180.392497,15.081,0.02
54180.402936,15.1,0.02
54180.413419,15.098,0.018
54180.423814,15.088,0.018
54200.314313,15.112,0.025
54200.324011,15.081,0.023
54200.333608,15.104,0.023
54200.342998,15.108,0.023
54200.352386,15.121,0.023
54484.475236,15.25,0.03
54484.488093,15.232,0.02
54484.500961,15.176,0.017
54484.526739,15.13,0.017
54539.386884,15.317,0.013
54539.408565,15.36,0.015
54539.419418,15.342,0.015
54567.298907,15.109,0.015
54567.310097,15.1,0.015
54567.321369,15.072,0.015
54567.332532,15.076,0.013
54567.343702,15.078,0.013
54568.368001,15.183,0.025
54568.389719,15.283,0.028
54568.400537,15.292,0.026
54580.299917,15.068,0.03
54580.310511,15.083,0.03
54580.321132,15.098,0.028
54580.331736,15.115,0.03
54580.342332,15.119,0.024
54588.297638,15.264,0.017
54588.318897,15.353,0.018
54590.292432,15.302,0.038
54590.302118,15.245,0.048
54590.31222,15.226,0.045
54590.332259,15.121,0.058
54597.302647,15.14,0.022
54597.313121,15.135,0.02
54597.323587,15.122,0.02
54597.333998,15.115,0.02
54597.344412,15.1,0.02
54611.259994,15.089,0.013
54611.279611,15.089,0.015
54611.289383,15.11,0.017
54611.299182,15.12,0.017
54620.264968,15.391,0.024
54620.275119,15.388,0.028
54620.285343,15.388,0.035
54620.295468,15.329,0.03
54620.305677,15.341,0.043
