mjd,m,merr
52651.444635,15.356,0.028
52651.459838,15.471,0.031
52651.475152,15.642,0.035
52651.490285,15.799,0.04
52651.505703,15.611,0.031
52665.459676,14.759,0.013
52665.473974,14.77,0.011
52665.488271,14.792,0.011
52665.502672,14.859,0.013
52665.516996,14.974,0.013
52677.455861,15.205,0.018
52677.47012,15.243,0.018
52677.484409,15.263,0.018
52677.498689,15.184,0.017
52677.513012,14.966,0.015
52706.382913,14.8,0.013
52706.396012,14.779,0.013
52706.409115,14.785,0.013
52706.422561,14.842,0.015
52706.435669,14.905,0.015
52707.438394,14.833,0.011
52707.45164,14.798,0.011
52707.465433,14.777,0.011
52707.479362,14.804,0.011
52707.4927,14.839,0.011
52708.438106,15.197,0.017
52708.451968,15.218,0.017
52708.465606,15.119,0.015
52708.47949,14.96,0.013
52708.493455,14.868,0.013
52724.366338,14.788,0.011
52724.377906,14.803,0.011
52724.389461,14.819,0.011
52724.401015,14.869,0.011
52724.41263,14.911,0.013
52753.319784,15.076,0.015
52753.331801,14.927,0.013
52753.343827,14.866,0.013
52753.355865,14.803,0.011
52753.367932,14.786,0.011
52754.320997,15.012,0.015
52754.332951,15.13,0.015
52754.344928,15.226,0.017
52754.356868,15.243,0.017
52754.368872,15.243,0.017
52755.321029,14.819,0.013
52755.333004,14.782,0.013
52755.344999,14.809,0.013
52755.357095,14.849,0.013
52755.369162,14.881,0.013
52771.270853,15.229,0.028
52771.282938,15.176,0.026
52771.294622,15.05,0.022
52771.306315,14.976,0.02
52771.318082,14.869,0.02
52787.267257,15.168,0.015
52787.278039,15.203,0.017
52787.288641,15.218,0.017
52787.299277,15.178,0.017
52787.310017,15.068,0.015
52797.223449,15.085,0.03
52797.23343,15.187,0.022
52797.243411,15.244,0.024
52797.253389,15.238,0.024
52797.263357,15.222,0.024
52811.223724,14.784,0.013
52811.233508,14.804,0.013
52811.243355,14.807,0.015
52811.253151,14.848,0.015
52811.262911,14.89,0.015
52812.170189,15.016,0.017
52812.180574,15.142,0.018
52812.19083,15.2,0.02
52812.20113,15.217,0.018
52812.211471,15.214,0.02
52826.219277,14.933,0.017
52826.229186,14.999,0.018
52826.239081,15.125,0.02
52826.248964,15.217,0.022
52826.258914,15.219,0.022
52842.177507,14.797,0.017
52842.188062,14.78,0.02
52847.164493,14.79,0.026
52847.184882,14.764,0.017
52847.195026,14.801,0.017
52847.205625,14.84,0.017
53034.461635,15.006,0.015
53034.474102,15.155,0.017
53034.486424,15.239,0.017
53034.499011,15.234,0.017
53034.511391,15.248,0.017
53050.389373,14.913,0.028
53050.401094,14.857,0.017
53050.412777,14.819,0.011
53050.424597,14.797,0.009
53050.436239,14.824,0.009
53078.338551,14.857,0.011
53078.349281,14.818,0.011
53094.388312,14.824,0.009
53094.398912,14.852,0.009
53094.409232,14.848,0.007
53094.419639,14.884,0.009
53094.429903,14.969,0.009
53109.299427,14.874,0.011
53109.310139,14.811,0.011
53109.320847,14.806,0.011
53109.331701,14.786,0.011
53109.342503,14.788,0.011
53137.252406,14.781,0.013
53137.262259,14.774,0.013
53137.272073,14.775,0.013
53137.281893,14.767,0.013
53137.29168,14.802,0.013
53165.224841,14.821,0.03
53165.234843,14.828,0.017
53165.244843,14.882,0.015
53165.25494,14.935,0.015
53165.264936,15.004,0.015
53242.133131,14.835,0.017
53242.142938,14.891,0.018
53242.152746,14.919,0.018
53242.162551,15.011,0.022
53242.17236,15.12,0.024
53442.319379,14.788,0.011
53442.330203,14.785,0.011
53442.341042,14.804,0.011
53442.351877,14.835,0.011
53442.36298,14.878,0.013
53473.439439,14.853,0.013
53473.449129,14.82,0.013
53473.458801,14.801,0.013
53500.298693,14.993,0.013
53500.310703,14.914,0.013
53500.321538,14.891,0.013
53500.331884,14.873,0.013
53500.343186,14.846,0.013
53528.229406,15.056,0.018
53528.24021,14.922,0.017
53528.250777,14.862,0.015
53528.261619,14.826,0.015
53528.271997,14.776,0.015
53539.221565,15.269,0.041
53539.231141,15.258,0.041
53539.240734,15.285,0.041
53539.250293,15.234,0.039
53539.259856,15.131,0.035
53552.225112,15.262,0.022
53552.235049,15.221,0.022
53552.244991,15.186,0.022
53552.255004,15.074,0.018
53552.264935,14.991,0.018
53582.185772,14.879,0.017
53582.197019,14.846,0.017
53582.208243,14.817,0.018
53740.479048,14.859,0.013
53740.491911,14.953,0.015
53740.504823,15.09,0.015
53740.517671,15.221,0.017
53740.530613,15.253,0.018
53770.49184,14.836,0.011
53770.505006,14.816,0.011
53770.517967,14.807,0.011
53787.433492,14.821,0.013
53787.472285,14.988,0.013
53813.415951,14.805,0.02
53813.427083,14.856,0.022
53813.43811,14.894,0.022
53813.449128,14.962,0.024
53813.460245,15.02,0.026
53823.306416,15.213,0.016
53823.317295,15.058,0.013
53823.328181,14.964,0.013
53823.339278,14.888,0.012
53823.350296,14.85,0.012
53844.287614,15.281,0.022
53844.297894,15.237,0.022
53844.30838,15.163,0.022
53844.31883,15.03,0.02
53844.329096,14.972,0.02
53853.295069,14.867,0.018
53853.305883,14.913,0.018
53853.316408,14.952,0.016
53853.326832,15.035,0.02
53853.337248,15.156,0.021
53883.273938,15.287,0.033
53883.294586,15.067,0.026
53883.304917,14.974,0.025
53887.275573,14.806,0.017
53887.286564,14.833,0.018
53887.297544,14.856,0.018
53887.308588,14.918,0.018
53887.319549,14.975,0.02
53931.179073,15.043,0.023
53931.189312,14.964,0.021
53971.13417,14.812,0.04
53971.145302,14.915,0.023
53971.156295,15.027,0.026
53971.166935,15.161,0.033
54098.435045,15.198,0.026
54098.447047,15.272,0.024
54098.462244,15.244,0.022
54098.475598,15.005,0.018
54098.487811,14.926,0.017
54110.474075,14.798,0.026
54110.486735,14.838,0.033
54121.449508,14.91,0.013
54121.461803,14.818,0.013
54121.474052,14.765,0.011
54121.486721,14.773,0.011
54121.498969,14.789,0.011
54155.413024,15.132,0.018
54155.425038,14.99,0.015
54155.436705,14.895,0.015
54155.448617,14.844,0.015
54155.460758,14.829,0.013
54529.329301,15.184,0.023
54529.340692,15.118,0.023
54529.351876,15.013,0.02
54529.363078,14.892,0.02
54529.374295,14.856,0.018
54574.293351,14.857,0.022
54574.304029,14.903,0.022
54574.314695,15.015,0.026
54574.325384,15.121,0.026
54574.336068,15.158,0.028
54582.296942,14.82,0.013
54582.307524,14.854,0.015
54582.318094,14.959,0.015
54582.328666,15.084,0.018
54582.339293,15.199,0.02
54613.252892,14.774,0.013
54613.263011,14.798,0.011
54613.27316,14.841,0.011
54613.283492,14.898,0.013
54613.293471,15.002,0.013
