mjd,m,merr
52619.462064,15.794,0.035
52619.477495,15.741,0.033
52619.493035,15.707,0.033
52619.508522,15.737,0.033
52619.524007,15.703,0.031
52644.479645,15.778,0.026
52644.494472,15.771,0.035
52644.509499,15.788,0.033
52644.524227,15.796,0.044
52648.330255,15.811,0.037
52648.344868,15.759,0.035
52648.37452,15.778,0.033
52648.389253,15.784,0.031
52666.390422,15.79,0.033
52671.391784,15.75,0.028
52671.40701,15.805,0.028
52671.422308,15.728,0.028
52671.437492,15.741,0.028
52671.452831,15.735,0.028
52674.391985,15.775,0.028
52674.40587,15.766,0.028
52674.419859,15.801,0.03
52674.433854,15.78,0.028
52674.447822,15.771,0.028
52698.327959,15.799,0.03
52698.328546,15.786,0.028
52698.341133,15.8,0.031
52698.34172,15.793,0.028
52698.354787,15.795,0.03
52698.355405,15.795,0.028
52698.367836,15.832,0.035
52704.308192,15.805,0.03
52704.321679,15.774,0.026
52704.335032,15.803,0.028
52704.348617,15.813,0.03
52704.362095,15.803,0.03
52725.310113,15.795,0.028
52725.32169,15.78,0.044
52725.333513,15.829,0.044
52725.345394,15.776,0.044
52725.356998,15.803,0.059
52728.233852,15.804,0.028
52728.245872,15.78,0.028
52728.258361,15.812,0.028
52728.270647,15.792,0.028
52728.283077,15.779,0.028
52731.253743,15.768,0.157
52738.241229,15.811,0.036
52738.241587,15.801,0.035
52738.253743,15.823,0.036
52738.254101,15.807,0.035
52738.265566,15.803,0.035
52738.265925,15.764,0.033
52738.277234,15.838,0.035
52738.277591,15.763,0.033
52738.289098,15.82,0.035
52738.289457,15.775,0.033
52755.201013,15.794,0.03
52755.218424,15.803,0.03
52755.231561,15.78,0.03
52755.24359,15.783,0.03
52755.255718,15.782,0.03
52760.201015,15.799,0.026
52760.213048,15.792,0.028
52760.224968,15.828,0.03
52760.236915,15.785,0.028
52760.248841,15.816,0.031
52789.167082,15.771,0.035
52789.17742,15.814,0.035
52789.187743,15.802,0.035
52789.19811,15.832,0.037
52789.208569,15.816,0.037
52794.166555,15.801,0.037
52794.176587,15.786,0.037
52794.186501,15.822,0.041
52794.196435,15.783,0.041
52794.206373,15.819,0.043
52967.443567,15.783,0.033
52967.456278,15.803,0.033
52967.468958,15.827,0.033
52967.481839,15.775,0.031
52967.494388,15.858,0.031
52973.456982,15.78,0.031
52973.469934,15.781,0.03
52973.4828,15.746,0.031
52973.495767,15.755,0.031
52973.508705,15.729,0.03
52993.395337,15.759,0.022
52993.408386,15.747,0.022
52993.421813,15.769,0.022
52993.434879,15.752,0.02
52993.448132,15.77,0.02
52995.408823,15.784,0.022
52995.422081,15.74,0.02
52995.435248,15.759,0.02
52995.44834,15.782,0.018
52995.461482,15.736,0.018
53000.417843,15.764,0.018
53000.431009,15.687,0.018
53000.444193,15.732,0.018
53000.457402,15.738,0.018
53000.471126,15.72,0.017
53026.361131,15.796,0.018
53026.373878,15.769,0.018
53026.386806,15.757,0.018
53026.399749,15.759,0.017
53026.412576,15.733,0.031
53033.337892,15.795,0.031
53033.350114,15.809,0.031
53033.362444,15.792,0.031
53033.387258,15.805,0.036
53053.348084,15.714,0.024
53053.359699,15.739,0.024
53053.371369,15.756,0.044
53053.383017,15.778,0.039
53053.395222,15.731,0.028
53054.364971,15.764,0.022
53054.37968,15.709,0.02
53054.391674,15.691,0.022
53054.404337,15.715,0.022
53054.41627,15.727,0.022
53055.366175,15.81,0.04
53055.378328,15.796,0.025
53055.390432,15.792,0.036
53058.337734,15.719,0.017
53058.350145,15.735,0.017
53058.362506,15.751,0.017
53058.374787,15.757,0.017
53058.392926,15.715,0.018
53079.308326,15.777,0.024
53079.319056,15.766,0.026
53079.329862,15.764,0.026
53079.340567,15.759,0.026
53079.351369,15.75,0.026
53083.286856,15.811,0.022
53083.297636,15.77,0.018
53083.30858,15.706,0.02
53083.319356,15.776,0.02
53083.330468,15.728,0.024
53086.224916,15.685,0.07
53086.236493,15.765,0.046
53086.247555,15.727,0.057
53086.259083,15.751,0.039
53086.270584,15.742,0.028
53086.338741,15.761,0.028
53086.349417,15.845,0.026
53086.360287,15.985,0.028
53086.371138,16.235,0.031
53086.382167,16.263,0.035
53087.227821,15.774,0.02
53087.238676,15.75,0.02
53087.238855,15.768,0.02
53087.249763,15.751,0.018
53087.249942,15.723,0.018
53087.261197,15.765,0.02
53087.261376,15.756,0.02
53087.27234,15.746,0.018
53087.272519,15.76,0.02
53092.281993,15.774,0.024
53092.292335,15.723,0.024
53092.302831,15.784,0.024
53092.31324,15.731,0.024
53092.323705,15.747,0.024
53110.192573,15.774,0.031
53110.203263,15.733,0.031
53110.213948,15.752,0.031
53110.224697,15.734,0.031
53110.235456,15.761,0.031
53114.248105,15.767,0.02
53114.259395,15.774,0.02
53114.270684,15.668,0.018
53114.281753,15.662,0.02
53114.293062,15.701,0.022
53117.250357,15.742,0.02
53117.261128,15.774,0.02
53117.271997,15.718,0.022
53117.282782,15.76,0.022
53117.293565,15.726,0.022
53138.200488,15.763,0.028
53138.210215,15.773,0.03
53138.220063,15.775,0.03
53138.229817,15.778,0.031
53138.239543,15.769,0.03
53142.207988,15.752,0.039
53142.217518,15.737,0.022
53142.227046,15.737,0.022
53142.236665,15.794,0.054
53142.246209,15.763,0.03
53146.20625,15.789,0.022
53146.215482,15.711,0.022
53146.22466,15.756,0.022
53146.233704,15.716,0.026
53146.242783,15.721,0.024
53166.177844,15.782,0.035
53166.187198,15.802,0.039
53166.19655,15.782,0.041
53166.205929,15.766,0.041
53166.215291,15.784,0.041
53346.441294,15.714,0.038
53346.453586,15.678,0.04
53346.466051,15.639,0.036
53346.478273,15.718,0.04
53346.490567,15.683,0.04
53348.452132,16.02,0.043
53348.465047,16.287,0.055
53348.477503,16.621,0.128
53348.491326,16.217,0.052
53348.50425,16.006,0.041
53351.490369,15.773,0.041
53351.504919,15.792,0.041
53351.519283,15.774,0.04
53351.53362,15.744,0.038
53354.395762,15.85,0.037
53354.40888,15.813,0.033
53354.422039,15.828,0.031
53354.435177,15.817,0.03
53354.448324,15.798,0.028
53355.403348,15.769,0.033
53377.405534,15.756,0.028
53377.418742,15.764,0.026
53377.43193,15.764,0.026
53377.44636,15.779,0.028
53377.460418,15.792,0.028
53382.499349,15.753,0.03
53382.513704,15.784,0.03
53382.529753,15.773,0.028
53404.369777,15.78,0.022
53404.382568,15.768,0.024
53404.3954,15.767,0.024
53404.408244,15.776,0.026
53404.421682,15.791,0.028
53410.476081,15.778,0.024
53410.489227,15.788,0.024
53410.501687,15.829,0.024
53410.514123,15.797,0.026
53415.357587,15.756,0.028
53415.370045,15.849,0.03
53415.382477,15.981,0.033
53415.395529,16.219,0.043
53415.407985,16.37,0.05
53433.358647,15.766,0.026
53433.370095,15.784,0.026
53433.381534,15.727,0.026
53433.394149,15.775,0.03
53433.405882,15.756,0.031
53441.281356,15.748,0.026
53441.292734,15.75,0.024
53441.304137,15.744,0.024
53441.315576,15.755,0.026
53441.326975,15.743,0.026
53445.286579,15.774,0.026
53445.298058,15.785,0.026
53445.310059,15.801,0.026
53445.321414,15.783,0.024
53445.332631,15.782,0.026
53465.282541,15.81,0.031
53465.293905,15.797,0.031
53465.305846,15.82,0.031
53465.316493,15.785,0.031
53465.327805,15.819,0.033
53468.234715,15.746,0.052
53468.244371,15.789,0.039
53468.255783,15.808,0.063
53468.265347,15.778,0.065
53468.274962,15.814,0.08
53493.247111,15.837,0.041
53493.257365,15.803,0.039
53493.26857,15.786,0.043
53493.279149,15.778,0.044
53493.289377,15.784,0.044
53502.192352,15.794,0.035
53502.203529,15.814,0.037
53502.213995,15.788,0.037
53502.2256,15.774,0.039
53502.238043,15.798,0.039
53522.164833,15.779,0.035
53522.175055,15.797,0.035
53522.185301,15.766,0.037
53522.195624,15.759,0.037
53522.206198,15.794,0.037
53526.188094,15.78,0.063
53526.209138,15.817,0.05
53709.445453,15.842,0.035
53709.459007,15.762,0.031
53709.471851,15.769,0.031
53709.484531,15.749,0.028
53709.497368,15.784,0.026
53733.39744,15.782,0.033
53733.410265,15.78,0.031
53733.422944,15.804,0.033
53733.435716,15.774,0.031
53733.448513,15.794,0.031
53737.414587,15.787,0.028
53737.42794,15.8,0.028
53737.441329,15.791,0.028
53737.454676,15.781,0.028
53737.467992,15.796,0.028
53747.456371,15.821,0.078
53788.467446,15.788,0.033
53788.479379,15.786,0.035
53788.491337,15.788,0.037
53788.503347,15.815,0.041
53788.515442,15.796,0.043
53789.351305,15.801,0.084
53789.364135,15.794,0.059
53789.376603,15.796,0.036
53789.389013,15.784,0.028
53789.401629,15.762,0.028
53791.361145,16.18,0.041
53791.372882,15.973,0.033
53791.384626,15.851,0.031
53791.396381,15.805,0.03
53791.408135,15.783,0.03
53794.343659,15.793,0.028
53794.355283,15.801,0.028
53794.367114,15.777,0.028
53794.378753,15.762,0.028
53794.390381,15.794,0.028
53799.287018,15.79,0.025
53799.299079,15.824,0.023
53799.310896,15.803,0.023
53799.322699,15.8,0.023
53799.334458,15.822,0.025
53818.280672,15.854,0.035
53818.283707,15.798,0.03
53818.291285,15.796,0.033
53818.29477,15.722,0.028
53818.301908,15.826,0.033
53818.305854,15.793,0.03
53818.312598,15.803,0.033
53818.317006,15.763,0.03
53818.323407,15.8,0.033
53818.32808,15.762,0.028
53823.261744,16.181,0.043
53823.27235,15.978,0.035
53823.28333,15.831,0.03
53823.293962,15.821,0.031
53823.306462,15.815,0.031
53825.279358,15.802,0.033
53825.290429,15.803,0.033
53825.302876,15.812,0.037
53825.313198,15.818,0.033
53825.324911,15.844,0.039
53829.232075,15.853,0.1
53829.274953,15.985,0.111
53845.193792,15.799,0.039
53845.204495,15.823,0.039
53845.215356,15.799,0.039
53845.226091,15.787,0.041
53845.236836,15.879,0.081
53848.241429,15.929,0.044
53848.251874,16.116,0.059
53848.262615,16.239,0.067
53848.283969,16.147,0.059
53849.248925,15.794,0.033
53849.259661,15.783,0.033
53849.270355,15.804,0.035
53849.281048,15.766,0.035
53849.291962,15.781,0.037
53851.193232,15.781,0.038
53851.203463,15.796,0.038
53851.213739,15.754,0.036
53851.224039,15.772,0.04
53851.234378,15.783,0.04
53852.253388,15.775,0.041
53852.263748,15.764,0.041
53852.27456,15.786,0.043
53852.284938,15.777,0.043
53852.296608,15.758,0.043
53855.20125,15.817,0.037
53855.211922,15.78,0.037
53855.222623,15.778,0.037
53855.233274,15.815,0.039
53855.243969,15.799,0.039
53858.20537,15.833,0.102
53858.215487,15.796,0.065
53858.22564,15.806,0.068
53858.235926,15.835,0.068
53880.157607,16.247,0.067
53880.165405,16.429,0.066
53880.168754,16.451,0.081
53880.176866,16.599,0.081
53880.179933,16.454,0.08
53880.187541,16.277,0.059
53880.191108,16.19,0.063
53880.198233,16.076,0.051
53880.20229,16.034,0.057
53880.209284,15.927,0.046
53883.167644,15.766,0.043
53883.180697,15.795,0.044
53883.193123,15.827,0.046
53883.204526,15.772,0.044
53883.216031,15.776,0.046
53884.162085,15.801,0.038
53884.172809,15.827,0.04
53884.184053,15.874,0.043
53884.19478,15.786,0.04
53884.205631,15.857,0.045
53885.159582,16.165,0.059
53885.171761,16.434,0.078
53885.183848,16.467,0.081
53885.195973,16.147,0.065
53885.208104,15.986,0.057
54058.447497,16.323,0.073
54058.47313,16.021,0.053
54058.485615,15.808,0.041
54058.498012,15.76,0.038
54061.441858,15.791,0.033
54061.454402,15.784,0.033
54061.466958,15.812,0.031
54061.479507,15.791,0.031
54061.492061,15.802,0.031
54064.443997,15.783,0.041
54064.459001,15.758,0.04
54064.473106,15.78,0.04
54064.486184,15.756,0.035
54064.498751,15.712,0.033
54066.43281,15.833,0.041
54066.457676,15.811,0.035
54084.478778,15.745,0.03
54084.492506,15.764,0.033
54084.506238,15.754,0.033
54084.519965,15.794,0.035
54087.462438,15.802,0.028
54112.434541,15.825,0.04
54112.447258,15.87,0.041
54112.460139,15.808,0.063
54112.472688,15.776,0.04
54112.485404,15.821,0.04
54121.392344,15.804,0.028
54121.405085,15.799,0.028
54121.417595,15.808,0.03
54121.430162,15.825,0.031
54121.442615,15.812,0.031
54124.333396,15.768,0.022
54124.350426,15.776,0.022
54124.364865,15.763,0.022
54124.379406,15.756,0.02
54124.394534,15.781,0.022
54149.336119,15.788,0.031
54149.348134,15.796,0.031
54149.360553,15.807,0.03
54149.372618,15.809,0.033
54149.384656,15.791,0.033
54152.289819,16.132,0.03
54152.301712,15.966,0.024
54152.313605,15.813,0.022
54152.32551,15.788,0.022
54152.337429,15.762,0.022
54173.267344,15.802,0.03
54173.278056,15.768,0.03
54173.289155,15.787,0.031
54173.299802,15.78,0.03
54175.318934,15.824,0.026
54175.329705,15.788,0.026
54175.34035,15.803,0.026
54175.351081,15.803,0.026
54175.361765,15.793,0.026
54185.271743,15.831,0.045
54185.28199,15.742,0.043
54185.292308,15.781,0.054
54201.247355,15.789,0.036
54201.256587,15.74,0.033
54201.265844,15.742,0.035
54201.275129,15.738,0.035
54207.225004,15.772,0.03
54207.234152,15.742,0.03
54207.243389,15.777,0.028
54207.252538,15.769,0.028
54207.262079,15.777,0.028
54210.223455,15.8,0.03
54210.23238,15.774,0.03
54210.241266,15.797,0.03
54210.250184,15.803,0.03
54210.259096,15.774,0.03
54422.474586,15.802,0.024
54422.487197,15.999,0.03
54422.499849,16.267,0.035
54422.512508,16.274,0.037
54424.454313,15.786,0.026
54424.466985,15.797,0.024
54424.479613,15.781,0.024
54424.492361,15.789,0.024
54424.505122,15.756,0.024
54447.450034,15.749,0.02
54447.463135,15.755,0.022
54447.476192,15.737,0.018
54447.489964,15.861,0.035
54447.50301,15.996,0.024
54454.395033,16.272,0.046
54454.408328,16.507,0.052
54454.421492,16.245,0.035
54454.434771,16.008,0.026
54454.448199,15.824,0.02
54474.396097,16.036,0.033
54474.409106,16.312,0.037
54474.422111,16.539,0.041
54474.435123,16.242,0.028
54474.448136,16.004,0.028
54483.275432,15.715,0.059
54483.288469,15.728,0.05
54483.301696,15.735,0.044
54483.314677,15.73,0.041
54483.327709,15.743,0.039
54495.458506,15.802,0.026
54495.471156,15.785,0.026
54495.483753,15.8,0.026
54495.496368,15.76,0.028
54495.508969,15.833,0.03
54508.350334,15.773,0.02
54508.362535,15.761,0.018
54508.374722,15.744,0.018
54508.38707,15.751,0.02
54508.399417,15.796,0.02
54524.338657,15.812,0.018
54524.350314,15.825,0.02
54524.361848,15.801,0.02
54524.373401,15.783,0.02
54524.384882,15.789,0.02
54537.271003,15.786,0.022
54537.282039,15.784,0.026
54537.293097,15.765,0.026
54537.304107,15.806,0.022
54537.315169,15.778,0.018
54555.295776,15.794,0.018
54555.307581,15.749,0.018
54555.319406,15.772,0.02
54555.331336,15.791,0.02
54555.3434,15.806,0.02
54559.178921,15.812,0.022
54559.190482,15.804,0.022
54559.202052,15.811,0.022
54559.213618,15.814,0.022
54559.225339,15.797,0.022
54564.244017,15.809,0.02
54564.255332,15.781,0.02
54564.266643,15.779,0.02
54564.277956,15.805,0.02
54564.289288,15.768,0.02
54580.222413,15.949,0.049
54580.24421,15.865,0.049
54585.241679,15.861,0.065
54585.251961,15.781,0.026
54585.262235,15.786,0.028
54585.272533,15.776,0.024
54585.282831,15.79,0.026
54592.196027,15.775,0.026
54592.206662,15.754,0.028
54592.217182,15.807,0.028
54592.227705,15.801,0.028
54592.23824,15.75,0.026
54611.161765,15.861,0.053
54611.170067,15.883,0.053
54611.1783,15.838,0.051
54611.186513,15.863,0.053
54611.194761,15.801,0.049
54615.166317,16.379,0.048
54615.17682,16.276,0.044
54615.187271,16.033,0.035
54615.197742,15.916,0.031
54615.208213,15.787,0.03
