mjd,m,merr
52665.488619,15.595,0.035
52677.485556,15.599,0.046
52677.501356,15.594,0.038
52677.516243,15.559,0.036
52723.36525,16.228,0.067
52752.291286,15.53,0.024
52752.301483,15.505,0.022
52752.311675,15.51,0.022
52752.321871,15.529,0.022
52752.332189,15.534,0.022
52772.271375,15.526,0.044
52772.295127,15.508,0.043
52772.318695,15.52,0.059
52787.267681,15.53,0.02
52787.278471,15.527,0.02
52787.289069,15.526,0.02
52787.299707,15.542,0.022
52787.310447,15.526,0.022
52811.225048,15.532,0.023
52811.234854,15.505,0.021
52811.244665,15.505,0.021
52811.254471,15.517,0.02
52811.264304,15.505,0.02
52826.219633,15.491,0.026
52826.229548,15.557,0.028
52826.239442,15.561,0.028
52826.249319,15.53,0.026
52826.259269,15.507,0.026
52842.177881,15.542,0.033
52842.188422,15.516,0.039
52847.164951,15.846,0.043
52847.185338,16.132,0.05
52847.195474,15.945,0.043
52847.206082,15.727,0.035
53035.475091,15.95,0.028
53035.487849,15.691,0.022
53035.500532,15.538,0.02
53035.513258,15.483,0.02
53035.52648,15.503,0.018
53050.389796,15.579,0.046
53050.401518,15.491,0.03
53050.4132,15.527,0.018
53050.425019,15.633,0.018
53050.436662,15.752,0.02
53078.338951,15.529,0.02
53078.349682,15.518,0.02
53109.299152,15.485,0.018
53109.309863,15.494,0.018
53109.320572,15.476,0.018
53109.331426,15.494,0.018
53109.342228,15.486,0.018
53137.252152,16.088,0.037
53137.262005,16.11,0.037
53137.271819,15.898,0.03
53137.28162,15.722,0.026
53137.291426,15.587,0.024
53165.224584,15.527,0.068
53165.234585,15.518,0.03
53165.244586,15.502,0.022
53165.254682,15.519,0.022
53165.264678,15.483,0.024
53242.134511,15.503,0.03
53242.144611,15.508,0.031
53242.155136,15.53,0.035
53242.165097,15.563,0.036
53242.175061,15.511,0.036
53347.499679,15.517,0.035
53347.513576,15.523,0.031
53442.319843,15.85,0.03
53442.330665,16.059,0.035
53442.341506,16.04,0.031
53442.352339,15.885,0.028
53442.363443,15.673,0.024
53443.440175,15.458,0.03
53443.451307,15.484,0.026
53443.472905,15.489,0.022
53443.483698,15.455,0.018
53473.43985,15.497,0.022
53473.449538,15.502,0.024
53473.459207,15.504,0.024
53498.375751,15.471,0.02
53498.388076,15.464,0.02
53498.399423,15.454,0.022
53498.410359,15.499,0.024
53498.420465,15.488,0.024
53499.333657,15.506,0.022
53499.349371,15.502,0.02
53499.360155,15.51,0.022
53499.370138,15.524,0.022
53499.380191,15.537,0.022
53528.229713,15.507,0.028
53528.240522,15.516,0.028
53528.251109,15.5,0.026
53528.261917,15.461,0.026
53528.272295,15.497,0.026
53539.221329,15.489,0.046
53539.230905,15.539,0.048
53539.240499,15.485,0.046
53539.250057,15.551,0.048
53539.259621,15.493,0.046
53553.182985,15.47,0.026
53553.193676,15.478,0.026
53553.204221,15.476,0.026
53553.214768,15.489,0.026
53553.225379,15.492,0.026
53570.172796,15.512,0.046
53570.183394,15.467,0.043
53570.19399,15.515,0.048
53570.204598,15.482,0.046
53570.215209,15.504,0.05
53576.16954,15.526,0.057
53576.202351,15.456,0.024
53576.213311,15.49,0.028
53582.163615,15.642,0.054
53582.186067,15.516,0.028
53582.197313,15.524,0.03
53582.208536,15.488,0.033
53771.49407,15.499,0.08
53786.414311,15.516,0.03
53786.426352,15.499,0.039
53786.438576,15.51,0.026
53786.450615,15.512,0.024
53843.318965,15.53,0.033
53843.330272,15.523,0.033
53843.341843,15.554,0.035
53843.353614,15.573,0.035
53843.364989,15.558,0.035
53844.333185,15.467,0.031
53844.343582,15.506,0.033
53844.353939,15.501,0.033
53844.364279,15.476,0.033
53844.374609,15.453,0.033
53882.264114,15.463,0.025
53882.27478,15.473,0.025
53882.285608,15.445,0.025
53882.307058,15.474,0.025
53886.277203,15.49,0.028
53886.288273,15.475,0.028
53886.299363,15.453,0.028
53886.310393,15.451,0.028
53886.32144,15.448,0.028
53903.225567,15.452,0.03
53903.235465,15.453,0.03
53903.245451,15.45,0.03
53903.255443,15.458,0.03
53903.26542,15.465,0.03
53916.215573,15.93,0.132
53916.235141,16.084,0.079
53916.245029,15.874,0.036
53916.25478,15.716,0.033
53931.179496,15.464,0.033
53931.189735,15.441,0.033
53931.199853,15.608,0.038
53931.209911,15.671,0.043
53931.219988,15.935,0.056
53970.13507,15.659,0.031
53970.154347,16.032,0.046
53970.163977,16.144,0.051
53970.173544,16.015,0.046
54123.472361,15.456,0.017
54156.377086,15.527,0.026
54156.388087,15.5,0.023
54156.410105,15.531,0.021
54156.421413,15.51,0.021
54207.364278,15.486,0.053
54216.303485,15.488,0.024
54216.312621,15.485,0.024
54216.321641,15.476,0.022
54216.330376,15.476,0.024
54529.328865,15.515,0.03
54529.340256,15.515,0.03
54529.351441,15.488,0.028
54529.362642,15.48,0.028
54562.251744,15.476,0.035
54562.263634,15.477,0.035
54562.277236,15.459,0.033
54562.28915,15.441,0.031
54562.3006,15.482,0.033
54573.296807,16.14,0.057
54573.307628,15.922,0.046
54573.318472,15.709,0.039
54573.340125,15.499,0.031
54582.294885,15.516,0.04
54582.305088,15.505,0.041
54582.315897,15.482,0.038
54582.326059,15.519,0.04
54582.336224,15.447,0.04
54613.257866,15.529,0.036
54613.268163,15.557,0.036
54613.27857,15.536,0.036
54613.289071,15.543,0.036
54613.299355,15.53,0.035
