mjd,m,merr
52653.469333,15.137,0.015
52653.484624,15.186,0.017
52653.499968,15.19,0.017
52653.51531,15.269,0.017
52653.530716,15.291,0.017
52722.413692,15.448,0.02
52722.426599,15.453,0.02
52722.43959,15.405,0.02
52722.452528,15.355,0.018
52722.465704,15.292,0.018
52751.321169,15.419,0.02
52751.33213,15.419,0.02
52751.342849,15.438,0.022
52751.354182,15.449,0.022
52751.366058,15.439,0.022
52781.265914,15.384,0.02
52781.27668,15.369,0.02
52781.287357,15.398,0.02
52781.298181,15.431,0.022
52781.309079,15.422,0.02
52809.22553,15.274,0.03
52809.235514,15.36,0.03
52809.2455,15.356,0.033
52809.255597,15.338,0.031
52830.237852,15.181,0.059
52848.160234,15.159,0.021
52848.17027,15.103,0.021
52848.180309,15.066,0.021
52848.190357,15.089,0.021
52848.200331,15.092,0.022
53008.467944,15.485,0.03
53008.480539,15.456,0.028
53008.493074,15.389,0.024
53008.505611,15.3,0.02
53008.518285,15.236,0.018
53038.458422,15.309,0.028
53038.470783,15.251,0.03
53038.483622,15.161,0.038
53038.496315,15.171,0.025
53038.509056,15.142,0.036
53045.410558,15.107,0.023
53045.422438,15.139,0.023
53045.434336,15.179,0.023
53045.446754,15.238,0.025
53045.458863,15.248,0.025
53078.465637,15.253,0.031
53096.321571,15.401,0.035
53096.331236,15.43,0.035
53096.340859,15.317,0.03
53096.35064,15.295,0.03
53096.360307,15.208,0.026
53125.290406,15.263,0.03
53125.300057,15.231,0.028
53125.309833,15.196,0.026
53125.319468,15.153,0.028
53125.329444,15.13,0.026
53134.246913,15.063,0.016
53134.255751,15.097,0.016
53134.264618,15.103,0.015
53134.273715,15.105,0.016
53134.282658,15.123,0.016
53155.25596,15.324,0.033
53155.264301,15.242,0.031
53155.272727,15.181,0.03
53155.281089,15.12,0.028
53155.28934,15.099,0.028
53163.232206,15.103,0.094
53163.242656,15.135,0.061
53163.252216,15.212,0.069
53163.26188,15.236,0.058
53169.22488,15.191,0.02
53169.234321,15.186,0.02
53169.243782,15.121,0.02
53169.253132,15.103,0.018
53169.262521,15.094,0.016
53193.220987,15.204,0.02
53193.24873,15.315,0.025
53193.25819,15.39,0.03
53244.133122,15.271,0.028
53244.143616,15.275,0.03
53244.15408,15.184,0.026
53244.164744,15.129,0.025
53244.176339,15.145,0.028
53359.497686,15.446,0.022
53359.510429,15.455,0.022
53359.523152,15.429,0.02
53359.536306,15.449,0.022
53451.392145,15.397,0.026
53451.402947,15.396,0.024
53451.413711,15.428,0.024
53451.424478,15.397,0.024
53451.435232,15.424,0.026
53480.276409,15.225,0.03
53480.285513,15.24,0.03
53480.294684,15.29,0.031
53480.303703,15.329,0.033
53480.313698,15.338,0.031
53490.304592,15.39,0.018
53490.315443,15.329,0.017
53490.327307,15.268,0.017
53490.338837,15.186,0.017
53490.349893,15.15,0.017
53536.223565,15.411,0.039
53536.23352,15.411,0.039
53536.243497,15.423,0.039
53536.253462,15.392,0.039
53536.263527,15.418,0.039
53565.172678,15.451,0.03
53565.183321,15.396,0.028
53565.193979,15.442,0.028
53565.204645,15.455,0.03
53565.215347,15.383,0.028
53610.134741,15.351,0.048
53610.145988,15.426,0.024
53610.157221,15.417,0.024
53610.168451,15.376,0.024
53610.179661,15.325,0.024
53629.109407,15.232,0.037
53629.121733,15.252,0.039
53629.134257,15.332,0.044
53629.146705,15.299,0.046
53629.159007,15.261,0.05
53774.42281,15.117,0.02
53774.435411,15.107,0.018
53774.448214,15.14,0.017
53774.460976,15.18,0.017
53774.47384,15.23,0.018
53802.424991,15.29,0.016
53802.437267,15.335,0.018
53802.449519,15.334,0.018
53802.461548,15.361,0.02
53802.473936,15.404,0.02
53806.376698,15.078,0.028
53806.38794,15.039,0.024
53806.399195,15.065,0.026
53806.41046,15.054,0.024
53806.42178,15.102,0.026
53828.336358,15.372,0.018
53828.346911,15.368,0.028
53828.357458,15.437,0.03
53828.368013,15.446,0.025
53828.378608,15.409,0.046
53834.324901,15.056,0.021
53834.334856,15.063,0.02
53834.344854,15.053,0.02
53834.355034,15.073,0.02
53834.365069,15.076,0.02
53842.304943,15.355,0.037
53842.316849,15.365,0.037
53842.329138,15.35,0.037
53842.341748,15.396,0.039
53842.353008,15.382,0.039
53857.31924,15.461,0.026
53857.329242,15.459,0.025
53857.339552,15.473,0.03
53857.34972,15.445,0.025
53857.359696,15.398,0.026
53877.273731,15.125,0.026
53877.284494,15.192,0.033
53877.295121,15.126,0.023
53877.305739,15.194,0.028
53904.226301,15.24,0.018
53904.23619,15.296,0.02
53904.246158,15.316,0.02
53904.25638,15.355,0.02
53904.266663,15.332,0.02
53933.173749,15.251,0.018
53933.184388,15.304,0.02
53933.195107,15.341,0.026
53933.205872,15.369,0.026
53933.216701,15.394,0.022
53954.151605,15.112,0.037
53954.163628,15.114,0.039
53954.17567,15.048,0.037
53990.110084,15.436,0.03
53990.122117,15.435,0.026
53990.145824,15.493,0.028
53990.157455,15.472,0.033
53995.113243,15.169,0.02
53995.12514,15.158,0.02
53995.137138,15.174,0.021
53995.149097,15.216,0.023
53995.161223,15.278,0.025
54108.457634,15.116,0.035
54108.469898,15.081,0.035
54108.481968,15.075,0.033
54108.494136,15.15,0.035
54108.506329,15.168,0.033
54125.436963,15.105,0.023
54125.449029,15.093,0.025
54125.461034,15.099,0.023
54125.473144,15.103,0.023
54125.485154,15.101,0.023
54140.421039,15.072,0.017
54140.433758,15.066,0.017
54140.446304,15.06,0.015
54140.458795,15.082,0.017
54140.472094,15.087,0.015
54158.392719,15.369,0.03
54158.404196,15.311,0.028
54158.414984,15.259,0.028
54158.425999,15.193,0.023
54158.43681,15.149,0.021
54188.32239,15.437,0.038
54188.332145,15.467,0.038
54188.341921,15.416,0.035
54188.351662,15.4,0.035
54188.361346,15.41,0.046
54212.301142,15.072,0.02
54212.309798,15.061,0.02
54212.318213,15.066,0.02
54212.326892,15.081,0.02
54212.335307,15.101,0.02
54525.397984,15.415,0.028
54525.409631,15.402,0.028
54525.421237,15.429,0.03
54525.432865,15.412,0.03
54525.447318,15.391,0.041
54558.305314,15.148,0.03
54570.300096,15.344,0.026
54570.312126,15.356,0.026
54570.323006,15.376,0.026
54570.334149,15.387,0.026
54570.345202,15.4,0.026
54586.289967,15.253,0.028
54586.300035,15.302,0.03
54586.310078,15.308,0.03
54586.320203,15.347,0.031
54586.330239,15.383,0.031
54598.249959,15.387,0.046
54598.25934,15.392,0.048
54598.26872,15.377,0.045
54598.278148,15.424,0.048
54598.287593,15.349,0.043
54619.217735,15.052,0.023
54619.22794,15.088,0.025
54619.238124,15.1,0.026
54619.248619,15.115,0.025
