mjd,m,merr
52676.441834,15.599,0.04
52676.457277,15.55,0.033
52676.472351,15.549,0.033
52676.487601,15.532,0.033
52676.503437,15.548,0.031
52707.440138,15.383,0.025
52707.453309,15.425,0.025
52707.466804,15.445,0.025
52707.479932,15.451,0.025
52707.493547,15.494,0.028
52710.383765,15.172,0.021
52710.396601,15.211,0.016
52710.396959,15.234,0.021
52710.40962,15.285,0.016
52710.409978,15.263,0.021
52710.422717,15.283,0.016
52710.423076,15.278,0.021
52710.436269,15.292,0.021
52737.385612,14.63,0.009
52737.39829,14.685,0.011
52737.410454,14.739,0.011
52737.423169,14.826,0.013
52737.435729,14.893,0.013
52756.313784,15.544,0.026
52756.325744,15.562,0.026
52756.337634,15.541,0.026
52756.34959,15.534,0.026
52756.36148,15.568,0.026
52768.270037,15.458,0.035
52768.281763,15.482,0.035
52768.293324,15.522,0.035
52768.304903,15.507,0.033
52768.316942,15.56,0.033
52792.273841,15.24,0.02
52792.274608,15.255,0.028
52792.284649,15.286,0.02
52792.285427,15.257,0.026
52792.295451,15.302,0.021
52792.296225,15.361,0.033
52792.306253,15.338,0.023
52792.307042,15.352,0.033
52792.317253,15.37,0.025
52792.318024,15.351,0.035
52793.30385,15.24,0.02
52793.304502,15.255,0.028
52793.314199,15.286,0.02
52793.314876,15.257,0.026
52793.324593,15.302,0.021
52793.32525,15.361,0.033
52793.33486,15.338,0.023
52793.335515,15.352,0.033
52793.34536,15.37,0.025
52793.346011,15.351,0.035
52819.219348,15.715,0.037
52819.229268,15.666,0.035
52819.239196,15.569,0.033
52819.249135,15.324,0.026
52819.2591,15.006,0.02
52824.221687,15.547,0.023
52824.222236,15.511,0.031
52824.241551,15.642,0.035
52824.2421,15.566,0.045
52824.251459,15.648,0.03
52824.252008,15.602,0.043
53033.459009,15.215,0.02
53033.471055,15.255,0.02
53033.483065,15.252,0.02
53033.495398,15.305,0.02
53033.507507,15.342,0.02
53064.407082,15.709,0.074
53064.418484,15.642,0.035
53080.396934,15.55,0.022
53080.407872,15.549,0.022
53080.418816,15.593,0.022
53080.42979,15.561,0.022
53080.440712,15.564,0.022
53089.393132,15.604,0.055
53089.403479,15.604,0.039
53089.413916,15.588,0.026
53111.297534,15.114,0.018
53111.308402,15.151,0.018
53111.319173,15.179,0.018
53111.330019,15.213,0.018
53111.340973,15.242,0.018
53119.300539,14.96,0.011
53119.310973,14.998,0.013
53119.321468,15.057,0.013
53119.332016,15.094,0.013
53119.34245,15.132,0.013
53139.254331,15.606,0.028
53139.263783,15.638,0.028
53139.273298,15.628,0.026
53139.282767,15.597,0.024
53139.292261,15.487,0.022
53149.254186,15.556,0.022
53149.263113,15.555,0.02
53149.272031,15.532,0.02
53149.280958,15.525,0.02
53149.289919,15.527,0.02
53169.225485,15.504,0.022
53169.235466,15.517,0.024
53169.245399,15.535,0.024
53169.255315,15.541,0.024
53169.265337,15.565,0.026
53469.33578,15.501,0.022
53469.345369,15.591,0.024
53469.355208,15.615,0.024
53469.364732,15.619,0.024
53469.375365,15.63,0.026
53496.297993,15.462,0.028
53496.308175,15.501,0.028
53496.318267,15.493,0.028
53496.328307,15.558,0.028
53496.338501,15.538,0.028
53530.221719,14.639,0.015
53530.232068,14.63,0.015
53530.242171,14.652,0.015
53530.253706,14.739,0.015
53530.264229,14.798,0.017
53791.46949,15.145,0.018
53791.481321,14.807,0.015
53791.493116,14.636,0.012
53791.505355,14.637,0.012
53815.422101,15.503,0.055
53815.433645,15.523,0.057
53815.444775,15.609,0.046
53833.328068,15.201,0.026
53833.338109,15.253,0.024
53833.348026,15.285,0.026
53833.35796,15.269,0.024
53833.367892,15.323,0.026
53846.295645,14.783,0.016
53846.306294,14.844,0.018
53846.316906,14.904,0.018
53846.327584,14.957,0.018
53846.338216,15.023,0.02
53890.214522,15.402,0.036
53890.23102,15.525,0.04
53890.247132,15.479,0.038
53890.261947,15.503,0.04
53890.27712,15.514,0.04
53905.217305,15.353,0.028
53905.227299,15.31,0.028
53905.237267,15.352,0.03
53905.247286,15.347,0.03
53905.257384,15.395,0.031
53910.22004,15.245,0.026
53910.229887,15.247,0.026
53910.239692,15.276,0.028
53910.249476,15.279,0.028
53910.259237,15.346,0.031
54147.457841,15.494,0.031
54147.469789,15.514,0.031
54147.48263,15.509,0.031
54147.494462,15.565,0.031
54147.506367,15.568,0.03
54156.388954,15.204,0.018
54156.407098,15.248,0.017
54156.418984,15.282,0.017
54156.430539,15.305,0.017
54156.442108,15.329,0.017
54175.384433,14.733,0.013
54175.39516,14.81,0.015
54175.406289,14.871,0.015
54175.417136,14.935,0.016
54175.427932,14.98,0.016
54539.377626,15.512,0.015
54539.388499,15.516,0.017
54539.399346,15.558,0.017
54539.410171,15.548,0.017
54539.421025,15.581,0.017
54567.299762,14.865,0.011
54567.31095,14.921,0.011
54567.322227,14.972,0.013
54567.33339,15.025,0.013
54567.344556,15.068,0.013
54568.401817,15.241,0.026
54568.41265,15.233,0.026
54568.4236,15.32,0.028
54568.434521,15.334,0.028
54568.445417,15.354,0.028
54588.298741,15.599,0.024
54588.309368,15.559,0.022
54588.319988,15.386,0.018
54588.330501,15.002,0.015
54588.341059,14.724,0.011
54597.303725,15.522,0.03
54597.314201,15.572,0.03
54597.324654,15.618,0.03
54597.335071,15.625,0.03
54597.345496,15.6,0.03
54620.265767,15.515,0.026
54620.275913,15.526,0.028
54620.286136,15.561,0.033
54620.296266,15.596,0.046
54620.306473,15.572,0.026
54622.2242,15.425,0.051
54622.234345,15.416,0.053
54622.244437,15.427,0.053
54622.264393,15.506,0.053
