mjd,m,merr
52665.461149,15.282,0.02
52665.475445,15.294,0.02
52665.489744,15.263,0.018
52665.504148,15.23,0.018
52665.518469,15.144,0.017
52677.457325,14.729,0.013
52677.471591,14.708,0.013
52677.485878,14.677,0.013
52677.500199,14.722,0.013
52677.514484,14.724,0.013
52697.453254,14.968,0.022
52706.375214,15.263,0.018
52706.388189,15.297,0.018
52706.401135,15.317,0.018
52706.414323,15.281,0.018
52706.427479,15.214,0.017
52712.382414,15.056,0.023
52712.382529,15.092,0.021
52712.395965,14.908,0.018
52712.396081,14.911,0.018
52712.409155,14.823,0.018
52712.422313,14.765,0.016
52712.422428,14.79,0.016
52712.435372,14.708,0.015
52724.367771,14.717,0.011
52724.379341,14.732,0.011
52724.390895,14.749,0.011
52724.402467,14.77,0.011
52724.414069,14.778,0.011
52753.320673,14.869,0.013
52753.332689,14.822,0.013
52753.344715,14.726,0.011
52753.356752,14.681,0.011
52753.368821,14.642,0.011
52771.271762,14.774,0.018
52771.283873,14.807,0.018
52771.295525,14.813,0.018
52771.307217,14.863,0.02
52771.318985,14.885,0.02
52797.224517,15.047,0.024
52797.234499,15.072,0.02
52797.244481,15.116,0.022
52797.254451,15.073,0.02
52797.264432,15.097,0.022
52811.224347,15.133,0.018
52811.234125,15.152,0.018
52811.243984,15.156,0.02
52811.25377,15.174,0.02
52811.263536,15.181,0.02
52812.170739,14.736,0.013
52812.181109,14.777,0.013
52812.191354,14.794,0.013
52812.201663,14.812,0.013
52812.211998,14.83,0.015
52826.21994,14.96,0.025
52826.230172,15.007,0.023
52826.240358,14.993,0.023
52826.250457,14.981,0.023
52826.260487,15.01,0.025
52848.16366,15.196,0.02
52848.17395,15.138,0.02
52848.194412,15.147,0.022
52848.204723,15.177,0.024
53034.462909,15.178,0.018
53034.475375,14.995,0.015
53034.487746,14.884,0.015
53034.500301,14.821,0.013
53034.512664,14.705,0.011
53051.397284,15.127,0.015
53051.408885,15.15,0.015
53051.420643,15.168,0.015
53051.432254,15.143,0.013
53051.444017,15.152,0.013
53078.410777,15.118,0.021
53109.306179,14.935,0.015
53109.316496,14.953,0.015
53109.326519,14.97,0.015
53109.336673,14.982,0.016
53109.346735,15.003,0.016
53137.25931,15.156,0.018
53137.269083,15.159,0.018
53137.278991,15.147,0.018
53137.298592,15.161,0.018
53165.240733,14.698,0.013
53165.250542,14.717,0.013
53165.263061,14.71,0.016
53165.272869,14.713,0.015
53165.282955,14.728,0.018
53242.134213,15.104,0.022
53242.144022,15.112,0.022
53242.15383,15.153,0.024
53242.163636,15.102,0.024
53242.173443,15.141,0.026
53347.486174,14.814,0.026
53347.50012,14.847,0.023
53347.513992,14.883,0.021
53347.527803,14.887,0.02
53441.451003,15.101,0.015
53441.464222,15.108,0.015
53441.47595,15.11,0.015
53441.488774,15.129,0.017
53500.299485,15.138,0.017
53500.311925,15.163,0.017
53500.322374,15.204,0.017
53500.332675,15.201,0.018
53500.343976,15.243,0.018
53529.218978,15.084,0.018
53529.230309,15.101,0.02
53529.241011,15.141,0.02
53529.252073,15.122,0.02
53529.262933,15.131,0.02
53552.225596,15.02,0.018
53552.235534,15.072,0.02
53552.245472,15.051,0.02
53552.255484,15.075,0.02
53552.265417,15.07,0.022
53770.492387,14.688,0.011
53770.505555,14.735,0.011
53770.518593,14.752,0.011
53787.434228,15.187,0.018
53787.447072,15.203,0.018
53787.460163,15.223,0.018
53787.473025,15.259,0.018
53813.417411,14.741,0.02
53813.428551,14.785,0.02
53813.439568,14.776,0.022
53813.450585,14.8,0.022
53813.461706,14.814,0.022
53823.307746,14.681,0.012
53823.318613,14.718,0.012
53823.329506,14.744,0.012
53823.340588,14.749,0.012
53823.351611,14.776,0.012
53844.288161,15.269,0.022
53844.298439,15.22,0.022
53844.308924,15.11,0.022
53844.319376,14.949,0.02
53844.32964,14.878,0.02
53853.296216,15.092,0.021
53853.307032,15.106,0.021
53853.317561,15.095,0.02
53853.327982,15.123,0.021
53853.338407,15.156,0.021
53887.27673,14.669,0.017
53887.28771,14.66,0.017
53887.298696,14.659,0.017
53887.309735,14.692,0.017
53887.320789,14.711,0.017
53902.23107,15.177,0.023
53902.241287,15.156,0.023
53902.251303,15.16,0.023
53902.26216,15.132,0.025
53931.174797,15.135,0.028
53931.185281,15.115,0.028
53931.195684,15.11,0.028
53931.216461,15.115,0.03
53940.167734,14.758,0.018
53940.17828,14.851,0.035
53940.189163,14.83,0.03
53940.199737,14.805,0.021
53940.213743,14.823,0.025
53971.146087,14.696,0.015
53971.15708,14.74,0.02
53971.167721,14.807,0.02
53971.178368,14.781,0.02
54110.47546,14.881,0.028
54110.488136,14.902,0.033
54121.45086,15.255,0.022
54121.463151,15.285,0.022
54121.475398,15.297,0.02
54121.488067,15.295,0.018
54121.50031,15.256,0.018
54155.41455,14.957,0.015
54155.42657,14.952,0.015
54155.438239,14.949,0.015
54155.450145,14.967,0.015
54155.462293,14.973,0.016
54205.317871,15.258,0.02
54205.327487,15.183,0.018
54205.336741,15.055,0.016
54205.346518,14.935,0.015
54205.356101,14.868,0.013
54529.376684,15.282,0.025
54529.388185,15.258,0.025
54529.399439,15.166,0.023
54529.410682,15.082,0.021
54529.423278,14.893,0.018
54582.298183,14.667,0.011
54582.30876,14.669,0.013
54582.319331,14.696,0.013
54582.329902,14.72,0.015
54582.340531,14.734,0.015
54613.254001,14.885,0.013
54613.264049,14.848,0.013
54613.274205,14.791,0.013
54613.284524,14.722,0.011
54613.294629,14.665,0.011
