mjd,m,merr
52707.444659,14.818,0.013
52707.458001,14.804,0.013
52707.471774,14.805,0.013
52707.485674,14.808,0.013
52711.389932,14.775,0.015
52711.404411,14.762,0.013
52711.44728,14.756,0.011
52738.369226,14.794,0.011
52738.392248,14.777,0.011
52738.403806,14.791,0.011
52739.355654,15.038,0.02
52739.368547,14.928,0.016
52739.379884,14.846,0.016
52739.391197,14.824,0.016
52739.40253,14.804,0.015
52755.31761,14.866,0.018
52755.329762,14.821,0.016
52755.342526,14.817,0.016
52755.354994,14.815,0.016
52755.367728,14.796,0.016
52769.278147,14.774,0.017
52769.290893,14.758,0.017
52769.302598,14.742,0.017
52769.326661,14.755,0.017
52819.223276,14.866,0.02
52819.233124,14.952,0.021
52819.242954,14.825,0.02
52819.252779,14.883,0.02
52819.262618,14.812,0.02
52824.242145,14.748,0.018
52824.252216,14.766,0.018
53033.460492,14.768,0.015
53033.472538,14.776,0.013
53033.484549,14.77,0.013
53033.496907,14.754,0.013
53033.509077,14.761,0.013
53053.466592,14.756,0.026
53053.482432,14.77,0.02
53053.494226,14.753,0.017
53053.508356,14.782,0.017
53064.348358,14.866,0.016
53064.360272,14.846,0.015
53064.371855,14.864,0.013
53079.419422,14.766,0.011
53079.431131,14.768,0.011
53079.441882,14.775,0.011
53079.45304,14.781,0.011
53079.46381,14.772,0.013
53092.33618,14.799,0.012
53092.346133,14.795,0.012
53092.355973,14.791,0.01
53092.365882,14.8,0.01
53092.37571,14.808,0.01
53110.30203,14.759,0.013
53110.312834,14.749,0.013
53110.323634,14.746,0.013
53110.334435,14.754,0.013
53110.345251,14.749,0.011
53121.300251,14.788,0.012
53138.297291,14.962,0.015
53138.316626,14.86,0.013
53138.326311,14.821,0.013
53138.335938,14.794,0.013
53166.248833,14.759,0.013
53166.258282,14.761,0.013
53166.267733,14.768,0.013
53166.286723,14.751,0.013
53177.236563,14.783,0.012
53177.246048,14.752,0.012
53177.255525,14.792,0.012
53414.416351,14.82,0.037
53414.456171,14.771,0.013
53437.479503,14.823,0.013
53437.490743,14.829,0.013
53437.50195,14.812,0.013
53437.513221,14.815,0.013
53437.524455,14.83,0.031
53447.407904,14.913,0.013
53447.418839,14.849,0.011
53447.429148,14.796,0.017
53447.449759,14.787,0.039
53468.437197,14.807,0.013
53468.449365,14.793,0.015
53468.459222,14.804,0.015
53468.46921,14.81,0.013
53478.410326,14.802,0.015
53478.419386,14.795,0.015
53478.428675,14.796,0.015
53478.438292,14.808,0.015
53478.44738,14.826,0.015
53496.298602,14.767,0.015
53496.308782,14.769,0.015
53496.318877,14.777,0.015
53496.329075,14.78,0.015
53496.339187,14.774,0.015
53503.373263,14.769,0.022
53503.381991,14.788,0.017
53503.391277,14.771,0.017
53503.399975,14.764,0.022
53503.408704,14.756,0.031
53527.229825,14.861,0.017
53527.239731,14.886,0.017
53527.249657,14.886,0.017
53527.259471,14.885,0.017
53579.194833,14.805,0.015
53579.206176,14.794,0.015
53790.414748,14.761,0.018
53790.426641,14.764,0.013
53790.438359,14.757,0.013
53790.450612,14.761,0.013
53790.462594,14.764,0.013
53845.304342,14.749,0.016
53845.315609,14.783,0.016
53845.327007,14.771,0.016
53845.33821,14.797,0.016
53845.34948,14.783,0.02
53850.299767,14.754,0.016
53850.310486,14.764,0.015
53850.32105,14.763,0.015
53850.331563,14.741,0.015
53850.34238,14.737,0.015
53884.277161,15.206,0.022
53884.288737,15.342,0.026
53884.300307,15.452,0.028
53884.311927,15.539,0.03
53884.323474,15.582,0.031
53901.222401,14.847,0.043
53901.232388,14.838,0.028
53901.242413,14.773,0.031
53901.262444,14.83,0.031
53911.23935,14.776,0.045
53911.258854,14.748,0.04
53911.268513,14.753,0.033
53912.223412,14.784,0.024
53937.178856,14.759,0.02
53937.188983,14.77,0.02
53937.209404,14.729,0.02
53954.146415,14.735,0.033
53954.169398,14.738,0.033
53954.180815,14.771,0.033
54155.420336,15.192,0.017
54155.43219,15.076,0.015
54155.444056,14.99,0.013
54155.456083,14.917,0.013
54155.467987,14.863,0.013
54174.423855,14.838,0.016
54180.384555,14.786,0.013
54180.394908,14.776,0.015
54180.405378,14.767,0.015
54180.415827,14.794,0.015
54180.426205,14.816,0.015
54200.315947,14.879,0.02
54200.325635,14.823,0.018
54200.335253,14.815,0.018
54200.344613,14.796,0.018
54200.354038,14.806,0.018
54544.32909,14.822,0.02
54544.339677,14.875,0.022
54544.350252,14.859,0.02
54544.360878,14.87,0.018
54544.371703,14.856,0.018
54558.30028,14.768,0.028
54558.335163,14.79,0.054
54558.346712,14.753,0.017
54568.299936,14.778,0.013
54568.310873,14.774,0.013
54568.321851,14.768,0.011
54568.332797,14.764,0.011
54568.343757,14.763,0.011
54580.301601,14.798,0.018
54580.312195,14.808,0.018
54580.322817,14.765,0.017
54580.333423,14.798,0.02
54580.344009,14.8,0.02
54589.30255,15.509,0.018
54589.313105,15.548,0.02
54589.323664,15.56,0.02
54589.334183,15.531,0.02
54589.344703,15.475,0.02
54611.262291,14.789,0.011
54611.27209,14.799,0.011
54611.281891,14.785,0.011
54611.291657,14.794,0.013
54611.301457,14.805,0.013
54621.258878,15.323,0.018
54621.269081,15.395,0.02
54621.279239,15.488,0.022
54621.289402,15.526,0.022
54621.299565,15.572,0.024
