mjd,m,merr
52707.444659,14.991,0.015
52707.458001,14.989,0.015
52707.485674,15.046,0.015
52711.389932,15.055,0.018
52711.404411,15.015,0.017
52711.44728,15.026,0.015
52738.369226,15.285,0.017
52738.392248,15.156,0.015
52738.403806,15.093,0.015
52739.355654,15.013,0.02
52739.368547,15.012,0.018
52739.379884,15.045,0.02
52739.391197,15.088,0.02
52739.391311,15.148,0.025
52739.40253,15.125,0.02
52739.402644,15.19,0.026
52755.31761,15.212,0.023
52755.329762,15.142,0.021
52755.342526,15.044,0.02
52755.354994,15.037,0.02
52755.367728,15.007,0.02
52769.278147,15.026,0.02
52769.290893,15.089,0.022
52769.302598,15.092,0.022
52769.326661,15.267,0.026
52819.223276,15.15,0.025
52819.233124,15.256,0.028
52819.242954,15.381,0.031
52819.252779,15.368,0.031
52819.262618,15.451,0.033
52824.242145,15.026,0.024
52824.252216,15.059,0.022
52824.262173,15.187,0.048
53033.460492,15.12,0.018
53033.472538,15.204,0.018
53033.484549,15.256,0.018
53033.496907,15.265,0.018
53033.509077,15.262,0.018
53053.466592,15.225,0.037
53053.482432,15.409,0.033
53053.494226,15.418,0.028
53053.508356,15.405,0.028
53064.348358,15.142,0.02
53064.360272,15.063,0.016
53079.419422,15.371,0.018
53079.431131,15.412,0.018
53079.441882,15.397,0.018
53079.45304,15.424,0.02
53079.46381,15.322,0.018
53092.33618,14.981,0.013
53092.346133,15.001,0.013
53092.355973,15.085,0.013
53092.365882,15.092,0.013
53092.37571,15.168,0.013
53110.30203,15.063,0.017
53110.312834,15.047,0.017
53110.323634,15.01,0.015
53110.334435,15.004,0.015
53110.345251,15.002,0.015
53121.300251,15.048,0.013
53121.343537,14.984,0.013
53138.297291,15.062,0.015
53138.316626,15.115,0.017
53138.335938,15.254,0.017
53166.248833,15.187,0.018
53166.258282,15.285,0.018
53166.267733,15.374,0.02
53166.286723,15.426,0.022
53177.236563,15.131,0.015
53177.246048,15.171,0.015
53177.255525,15.252,0.015
53177.264995,15.234,0.015
53414.416351,15.279,0.041
53414.456171,15.058,0.015
53437.479503,15.257,0.017
53437.513221,15.067,0.015
53437.524455,15.107,0.037
53447.407904,15.186,0.015
53447.418839,15.114,0.015
53447.429148,15.07,0.024
53447.439447,14.992,0.041
53447.449759,15.018,0.052
53468.437197,15.298,0.018
53468.449365,15.254,0.018
53468.459222,15.294,0.02
53468.46921,15.238,0.018
53478.410326,15.072,0.018
53478.419386,15.034,0.017
53478.438292,15.005,0.017
53478.44738,14.987,0.017
53496.298602,15.019,0.018
53496.308782,15.057,0.018
53496.318877,15.082,0.018
53496.329075,15.137,0.018
53496.339187,15.198,0.02
53503.373263,15.161,0.028
53503.381991,15.225,0.024
53503.391277,15.296,0.026
53503.399975,15.251,0.031
53503.408704,15.29,0.048
53527.239731,15.057,0.02
53527.259471,14.979,0.018
53579.194833,15.037,0.018
53579.206176,15.061,0.018
53790.414748,15.351,0.028
53790.426641,15.394,0.023
53790.438359,15.373,0.021
53790.450612,15.37,0.02
53790.462594,15.202,0.016
53845.304342,14.978,0.018
53845.315609,15.026,0.02
53845.327007,15.024,0.02
53845.33821,15.074,0.021
53845.34948,15.14,0.026
53850.299767,15.062,0.02
53850.310486,15.016,0.018
53850.32105,15.011,0.018
53850.331563,14.996,0.018
53850.34238,14.995,0.018
53884.277161,15.232,0.022
53884.288737,15.303,0.024
53884.300307,15.285,0.024
53884.311927,15.287,0.024
53884.323474,15.248,0.024
53901.222401,15.162,0.055
53901.232388,15.303,0.041
53901.242413,15.232,0.046
53901.262444,15.265,0.044
53911.23935,15.023,0.058
53911.249218,14.975,0.049
53911.258854,14.98,0.051
53911.268513,14.993,0.041
53937.168735,15.01,0.021
53937.178856,14.927,0.025
53937.188983,14.978,0.023
53937.199126,14.99,0.025
53937.209404,15.008,0.023
53954.169398,15.024,0.04
53954.180815,15.123,0.045
54155.420336,15.085,0.015
54155.43219,15.135,0.015
54155.444056,15.22,0.017
54155.456083,15.357,0.018
54155.467987,15.416,0.018
54174.423855,15.155,0.021
54180.384555,15.099,0.018
54180.394908,15.069,0.018
54180.405378,15.04,0.018
54180.415827,15.008,0.016
54180.426205,14.954,0.016
54200.315947,15.195,0.025
54200.325635,15.237,0.026
54200.335253,15.27,0.026
54200.344613,15.257,0.026
54200.354038,15.261,0.026
54544.32909,15.306,0.031
54544.360878,15.004,0.022
54558.30028,15.065,0.035
54558.335163,15.314,0.085
54558.346712,15.414,0.033
54568.299936,15.173,0.017
54568.310873,15.123,0.017
54568.321851,15.064,0.015
54568.332797,15.033,0.015
54568.343757,15.023,0.013
54580.301601,15.213,0.026
54580.312195,15.264,0.028
54580.322817,15.364,0.03
54580.333423,15.397,0.035
54580.344009,15.364,0.035
54589.30255,15.106,0.013
54589.313105,15.184,0.015
54589.323664,15.283,0.015
54589.334183,15.371,0.017
54589.344703,15.388,0.017
54590.304724,15.029,0.043
54590.324614,15.067,0.053
54611.262291,15.034,0.013
54611.27209,15.072,0.015
54611.281891,15.134,0.015
54611.291657,15.15,0.017
54611.301457,15.257,0.018
54621.258878,15.27,0.017
54621.269081,15.178,0.017
54621.279239,15.116,0.015
54621.289402,15.075,0.015
54621.299565,15.046,0.015
