mjd,m,merr
52698.471759,16.689,0.076
52698.472343,16.869,0.086
52698.484766,16.736,0.076
52698.485352,16.89,0.083
52698.49934,16.97,0.092
52711.390368,16.56,0.067
52711.404844,16.604,0.065
52711.419178,16.627,0.061
52711.433592,16.608,0.055
52711.447758,16.634,0.055
52725.43858,16.581,0.054
52725.450273,16.601,0.057
52725.462028,16.656,0.059
52725.473729,16.666,0.061
52725.485457,16.668,0.059
52738.363678,16.728,0.064
52738.375356,16.738,0.066
52738.375471,16.975,0.083
52738.386941,16.725,0.066
52738.387056,17.038,0.089
52738.398553,16.715,0.063
52738.398668,17.046,0.083
52738.410604,16.712,0.063
52739.355878,16.903,0.085
52739.36717,16.928,0.078
52739.378473,16.688,0.067
52739.389938,16.666,0.067
52739.401242,16.726,0.068
52755.323634,16.872,0.083
52755.335609,16.887,0.083
52755.347642,16.966,0.089
52755.359707,16.876,0.08
52755.371776,16.923,0.087
52770.272736,16.951,0.117
52770.284537,16.995,0.118
52770.296456,17.03,0.117
52770.308272,16.936,0.107
52770.320072,16.96,0.111
52797.225833,16.741,0.111
52797.246975,16.759,0.111
52797.257267,16.682,0.107
52797.267632,16.774,0.116
52813.22852,16.937,0.117
52813.248667,16.919,0.112
52813.258784,16.96,0.119
52813.269132,17.019,0.122
52825.221789,16.682,0.091
52825.231824,16.695,0.087
52825.24186,16.704,0.091
52825.251923,16.618,0.083
52825.262008,16.65,0.081
52849.162017,16.729,0.08
52849.172526,16.846,0.089
52849.182914,16.744,0.083
52849.19481,16.777,0.091
52849.205657,16.749,0.089
53033.462244,16.816,0.083
53033.474417,16.758,0.076
53033.486615,16.748,0.071
53033.498861,16.861,0.078
53033.511317,16.867,0.079
53053.466932,16.718,0.148
53053.482772,16.78,0.115
53053.494566,16.838,0.1
53053.508696,16.887,0.102
53065.393491,16.775,0.076
53065.404756,16.904,0.089
53065.41603,16.933,0.076
53065.427562,16.875,0.076
53065.438927,16.882,0.093
53079.419022,16.801,0.063
53079.43073,16.863,0.07
53079.441481,16.897,0.072
53079.452639,16.784,0.067
53079.46341,16.855,0.072
53093.333407,16.731,0.052
53093.343972,16.711,0.048
53093.354218,16.727,0.048
53093.364764,16.688,0.043
53093.375142,16.694,0.043
53110.301654,16.65,0.067
53110.312457,16.722,0.068
53110.323258,16.694,0.065
53110.334058,16.748,0.065
53110.344875,16.757,0.067
53121.302271,16.598,0.052
53121.312763,16.568,0.054
53121.323262,16.573,0.044
53121.333846,16.583,0.054
53121.344338,16.593,0.055
53138.297574,16.63,0.063
53138.307203,16.677,0.059
53138.3169,16.556,0.055
53138.326584,16.562,0.055
53138.336212,16.61,0.057
53166.2491,17.019,0.091
53166.25855,17.007,0.087
53166.268,16.918,0.081
53166.277538,17.077,0.094
53166.286989,17.009,0.087
53177.225028,16.945,0.083
53177.234805,16.916,0.072
53177.24467,17.042,0.081
53177.254449,17.014,0.078
53177.264227,16.967,0.07
53468.436801,16.684,0.065
53468.44897,16.766,0.074
53468.458827,16.685,0.068
53468.468814,16.683,0.067
53502.385552,16.619,0.068
53502.395747,16.569,0.067
53502.406419,16.572,0.065
53502.416616,16.636,0.067
53502.426863,16.641,0.072
53522.265135,16.734,0.078
53522.27536,16.696,0.074
53522.285642,16.673,0.07
53522.295964,16.735,0.072
53522.30618,16.649,0.068
53550.235238,16.869,0.126
53550.245175,17.008,0.111
53580.161354,16.626,0.078
53580.172751,16.816,0.089
53580.184153,16.667,0.087
53580.195554,16.84,0.146
53580.206957,16.758,0.154
53789.476078,16.554,0.135
53799.405382,16.88,0.064
53799.417351,16.912,0.066
53799.429268,16.907,0.063
53799.44124,16.879,0.064
53799.453179,16.919,0.066
53818.396217,16.61,0.058
53818.407395,16.665,0.061
53818.418547,16.661,0.063
53818.429761,16.754,0.071
53818.440995,16.637,0.066
53845.301218,16.9,0.107
53845.312265,17.036,0.146
53845.323192,16.897,0.113
53845.334159,17.033,0.131
53845.345506,16.88,0.122
53851.296243,16.84,0.097
53851.306546,16.803,0.094
53851.317008,16.858,0.097
53851.327459,16.939,0.104
53851.338352,16.911,0.104
53880.267235,16.971,0.102
53880.27842,16.977,0.104
53880.289607,16.963,0.105
53880.300787,17.015,0.107
53880.311973,16.875,0.098
53885.278007,16.774,0.098
53885.289826,16.796,0.102
53885.301596,16.906,0.105
53885.313395,16.959,0.117
53885.325216,16.873,0.111
53912.223118,16.961,0.231
53955.172487,16.88,0.214
54112.508597,16.788,0.122
54112.521182,17.019,0.149
54112.533837,16.933,0.139
54152.411599,16.832,0.065
54152.423546,16.884,0.067
54152.435453,16.819,0.059
54152.447378,16.821,0.057
54152.459313,16.906,0.059
54173.374745,17.093,0.112
54173.385396,17.06,0.101
54173.396263,17.036,0.096
54173.40747,16.975,0.087
54173.418096,16.974,0.086
54185.375576,16.672,0.081
54185.385733,16.616,0.069
54185.399364,16.649,0.069
54185.409439,16.732,0.071
54185.419672,16.726,0.073
54201.332233,16.897,0.089
54201.341521,16.888,0.089
54201.351058,16.984,0.091
54201.360688,16.963,0.087
54201.370053,16.865,0.079
54559.300874,16.827,0.054
54559.312527,16.811,0.052
54559.324178,16.802,0.048
54559.33594,16.877,0.05
54559.347628,16.837,0.048
54580.304876,16.997,0.15
54580.315209,17.051,0.157
54580.325459,16.941,0.14
54580.335684,17.026,0.15
54580.345933,17.142,0.172
54611.244379,17.014,0.142
54611.252658,16.79,0.109
54611.260878,17.025,0.135
54611.269175,16.913,0.125
54611.277423,17.026,0.137
