mjd,m,merr
52665.462877,16.168,0.044
52665.47717,16.092,0.041
52665.491468,16.06,0.037
52665.505878,16.077,0.037
52665.520197,16.054,0.035
52677.459047,16.375,0.055
52677.473317,16.312,0.05
52677.487601,16.388,0.055
52677.501924,16.243,0.044
52677.51621,16.259,0.044
52706.442978,16.43,0.054
52706.458343,16.434,0.054
52706.472731,16.436,0.054
52706.487754,16.404,0.053
52706.503723,16.429,0.056
52724.415957,16.123,0.035
52724.427722,16.117,0.037
52724.439256,16.119,0.037
52724.450838,16.168,0.039
52724.462391,16.177,0.043
52753.32236,16.387,0.052
52753.334375,16.306,0.044
52753.346401,16.215,0.039
52753.358439,16.14,0.039
52753.370515,16.129,0.037
52772.273496,16.02,0.07
52772.285434,15.874,0.124
52772.297076,16.099,0.072
52787.269339,16.398,0.044
52787.280068,16.38,0.044
52787.290671,16.317,0.043
52787.301309,16.245,0.043
52787.31205,16.193,0.041
52798.303694,15.938,0.066
52798.31406,15.979,0.069
52798.324533,16.009,0.064
52811.227122,16.103,0.051
52811.23693,16.094,0.051
52811.246739,16.186,0.054
52811.256546,16.187,0.054
52811.266382,16.203,0.054
52826.22132,16.098,0.05
52826.231227,16.091,0.046
52826.241131,16.052,0.044
52826.251099,16.033,0.044
52826.260959,16.065,0.048
52842.179676,16.227,0.059
52847.166143,16.365,0.096
52847.17637,16.388,0.067
52847.186512,16.509,0.076
52847.196657,16.489,0.074
52847.207261,16.45,0.068
53024.510257,16.704,0.174
53034.464482,16.086,0.041
53034.476879,15.982,0.035
53034.48932,16.009,0.035
53034.501823,16.009,0.033
53034.514153,16.056,0.035
53050.391873,15.987,0.074
53050.403522,16.118,0.046
53050.415204,16.157,0.035
53050.427021,16.144,0.031
53050.438665,16.186,0.035
53078.340849,16.181,0.039
53078.351705,16.181,0.057
53109.301006,16.24,0.039
53109.311715,16.202,0.037
53109.322424,16.301,0.041
53109.333278,16.31,0.041
53109.344079,16.325,0.043
53137.293601,16.4,0.052
53137.30308,16.421,0.054
53137.312564,16.443,0.054
53137.322099,16.409,0.048
53137.331585,16.432,0.048
53165.226316,16.59,0.196
53165.236318,16.426,0.054
53165.24632,16.417,0.054
53165.256415,16.428,0.052
53165.266411,16.476,0.055
53242.136302,16.337,0.066
53242.146462,16.368,0.069
53242.156925,16.45,0.076
53242.166885,16.486,0.081
53242.176866,16.394,0.078
53439.385164,16.14,0.033
53439.396273,16.181,0.035
53439.407351,16.149,0.031
53439.418585,16.146,0.033
53439.429737,16.241,0.035
53442.322349,16.064,0.039
53442.333171,16.086,0.037
53442.344013,16.046,0.035
53442.354847,16.073,0.035
53442.365949,16.072,0.035
53473.44176,16.373,0.052
53473.451457,16.379,0.052
53473.461116,16.321,0.05
53500.300979,16.469,0.05
53500.313613,16.423,0.048
53500.323997,16.372,0.046
53500.334877,16.359,0.046
53500.345482,16.399,0.048
53528.274176,16.356,0.057
53528.28568,16.248,0.054
53528.297185,16.206,0.05
53528.30841,16.123,0.05
53528.319559,16.032,0.046
53539.222944,16.289,0.098
53539.232515,16.315,0.098
53539.242118,16.217,0.089
53539.251675,16.232,0.093
53539.261233,16.236,0.091
53553.227196,16.127,0.05
53553.237552,16.119,0.048
53553.24798,16.104,0.048
53553.258337,16.119,0.046
53553.2687,16.073,0.046
53570.217415,16.039,0.087
53570.22808,16.146,0.094
53570.238736,15.986,0.087
53570.249397,16.185,0.104
53576.171629,16.41,0.052
53576.193499,16.328,0.055
53576.204436,16.433,0.07
53576.2154,16.183,0.054
53582.165452,16.498,0.072
53582.176661,16.416,0.067
53582.187888,16.526,0.07
53582.199126,16.469,0.068
53582.210353,16.333,0.072
53771.535892,16.548,0.154
53786.416622,16.116,0.076
53786.428758,16.4,0.133
53786.44089,16.052,0.043
53786.452928,16.049,0.044
53843.390114,16.094,0.059
53843.401825,15.996,0.058
53882.265875,16.084,0.045
53882.2765,16.05,0.045
53882.287322,16.099,0.045
53882.298147,16.109,0.045
53882.308769,16.095,0.045
53886.279033,16.399,0.065
53886.290156,16.385,0.067
53886.301164,16.371,0.067
53886.312191,16.364,0.067
53886.323247,16.29,0.061
53903.227205,16.42,0.07
53903.237124,16.437,0.074
53903.247112,16.502,0.078
53903.257092,16.508,0.078
53903.267077,16.414,0.074
53916.217188,15.805,0.125
53916.236754,16.035,0.064
53916.246646,16.075,0.045
53916.256396,16.085,0.048
53931.221086,16.253,0.081
53931.231202,16.357,0.092
53931.241401,16.173,0.084
53971.136511,16.624,0.158
53971.147554,16.371,0.086
53971.158571,16.455,0.079
53971.169187,16.386,0.083
53971.179831,16.371,0.083
54123.449776,16.227,0.043
54123.462182,16.389,0.044
54123.474574,16.369,0.043
54123.486994,16.358,0.037
54123.499418,16.349,0.037
54156.379553,16.37,0.063
54156.390559,16.42,0.058
54156.401626,16.43,0.054
54156.412732,16.449,0.051
54156.423892,16.425,0.051
54206.318773,16.104,0.043
54206.328085,16.098,0.041
54206.337402,16.11,0.043
54206.346939,16.107,0.041
54206.356301,16.087,0.041
54529.378022,16.158,0.046
54529.389526,16.199,0.048
54529.400778,16.189,0.049
54529.412023,16.258,0.049
54529.424618,16.382,0.054
54574.295784,16.31,0.078
54574.306458,16.339,0.08
54574.317136,16.274,0.072
54574.327818,16.412,0.078
54574.338508,16.352,0.078
54582.296451,16.553,0.094
54582.306656,16.365,0.083
54582.317462,16.459,0.091
54582.327623,16.388,0.083
54582.337792,16.37,0.091
54613.259293,16.471,0.074
54613.269738,16.476,0.078
54613.279988,16.464,0.078
54613.290493,16.455,0.076
54613.300779,16.418,0.071
