mjd,m,merr
52676.445053,15.779,0.051
52676.460489,15.923,0.054
52676.475565,15.952,0.054
52676.490812,15.922,0.053
52676.506644,15.891,0.049
52708.446745,16.13,0.048
52708.459812,16.077,0.046
52708.47286,16.087,0.046
52708.485933,16.094,0.048
52708.499007,15.974,0.043
52710.438536,15.92,0.038
52710.451711,15.937,0.038
52710.466396,16.028,0.041
52710.479598,16.048,0.041
52710.492809,16.144,0.045
52737.388452,15.985,0.03
52737.400648,16.043,0.031
52737.41299,16.081,0.033
52737.425466,16.091,0.033
52737.440712,16.038,0.033
52756.31613,16.067,0.041
52756.328088,16.101,0.041
52756.339973,15.97,0.037
52756.351926,15.91,0.035
52756.363823,15.913,0.033
52768.271739,16.132,0.061
52768.283474,16.097,0.058
52768.295012,16.031,0.051
52768.306592,16.005,0.049
52768.318618,15.935,0.045
52792.276154,15.918,0.048
52792.286965,15.981,0.051
52792.297761,16.026,0.054
52792.308591,15.953,0.049
52792.319574,15.94,0.054
52793.305803,15.918,0.048
52793.31617,15.981,0.051
52793.326542,16.026,0.054
52793.336844,15.953,0.049
52793.347302,15.94,0.054
52819.221349,15.855,0.039
52819.231284,15.8,0.037
52819.241218,15.868,0.039
52819.251157,15.863,0.039
52819.26111,15.963,0.043
52824.223047,15.928,0.031
52824.223678,15.831,0.04
52824.242912,15.872,0.04
52824.243544,15.841,0.061
52824.252818,15.818,0.04
52824.253449,15.739,0.043
52824.263573,15.793,0.079
52882.143683,15.937,0.077
52882.155732,15.93,0.077
53032.465122,16.103,0.039
53032.477378,16.07,0.035
53032.489635,15.987,0.03
53032.501923,15.922,0.028
53032.514223,15.917,0.03
53064.372902,16.101,0.055
53064.409192,16.102,0.037
53064.420596,16.095,0.059
53080.39914,15.855,0.028
53080.410062,15.82,0.026
53080.421003,15.9,0.03
53080.431981,15.869,0.03
53080.442987,15.864,0.028
53089.416487,15.96,0.043
53089.426939,15.955,0.033
53111.299454,15.93,0.037
53111.310275,15.997,0.037
53111.321044,16.033,0.037
53111.332093,16.078,0.037
53111.342846,16.12,0.041
53119.302354,15.844,0.024
53119.312844,15.852,0.024
53119.323287,15.858,0.022
53119.333836,15.946,0.026
53119.344273,15.955,0.026
53139.296529,15.861,0.03
53139.306112,15.842,0.03
53139.31571,15.892,0.03
53139.325325,15.897,0.03
53139.335123,15.932,0.031
53149.255762,15.93,0.028
53149.264682,15.963,0.028
53149.273603,15.995,0.028
53149.282528,16.058,0.03
53149.291488,16.078,0.031
53169.227129,15.855,0.031
53169.23711,15.861,0.031
53169.247042,15.932,0.035
53169.256977,15.917,0.031
53169.266985,15.939,0.033
53469.3378,15.99,0.033
53469.347336,16.006,0.033
53469.357168,16.032,0.033
53469.366693,16.047,0.035
53469.377328,16.143,0.039
53504.329544,16.095,0.043
53504.338802,16.123,0.046
53504.350504,16.105,0.046
53504.360339,16.088,0.055
53504.37037,16.028,0.041
53530.22354,15.899,0.041
53530.233952,15.881,0.039
53530.245411,15.874,0.039
53530.255704,15.857,0.039
53530.266061,15.92,0.041
53797.418817,15.874,0.036
53797.430859,15.926,0.073
53797.454955,15.972,0.074
53797.467155,16.002,0.083
53833.330472,15.94,0.048
53833.340417,15.917,0.044
53833.350331,16.024,0.048
53833.360269,16.029,0.048
53833.3702,16.094,0.05
53846.298007,16.063,0.046
53846.308626,16.098,0.046
53846.319216,16.014,0.043
53846.329901,15.98,0.041
53846.340519,15.926,0.038
53890.218983,16.211,0.068
53890.236528,16.208,0.064
53890.250583,16.105,0.059
53890.265774,16.036,0.054
53890.280601,15.911,0.049
53905.219192,16.078,0.052
53905.22919,16.041,0.05
53905.239172,15.991,0.048
53905.249189,15.931,0.046
53905.259274,15.891,0.046
53910.2219,16.108,0.051
53910.231743,16.093,0.049
53910.241533,16.059,0.049
53910.25133,16.122,0.054
53910.261098,16.007,0.056
54147.460411,16.046,0.051
54147.47236,16.125,0.051
54147.485194,16.168,0.051
54147.497033,16.142,0.051
54147.50894,16.092,0.049
54156.444589,16.067,0.028
54156.456116,16.158,0.03
54156.46764,16.132,0.03
54156.479178,16.148,0.03
54156.490696,16.066,0.028
54175.38659,15.968,0.04
54175.397332,15.973,0.04
54175.408444,15.922,0.036
54175.419293,15.891,0.035
54175.430094,15.879,0.035
54198.325447,16.208,0.119
54539.426239,15.915,0.022
54539.43733,15.874,0.022
54539.448409,15.863,0.022
54539.459552,15.867,0.02
54539.470616,15.877,0.02
54567.346977,15.945,0.026
54567.3583,15.968,0.026
54567.369531,15.981,0.026
54567.380773,16.058,0.028
54567.391973,16.114,0.03
54568.404518,15.889,0.038
54568.415468,15.906,0.041
54568.426391,15.883,0.041
54568.437217,15.88,0.041
54568.44811,15.92,0.041
54588.300786,16.02,0.031
54588.311409,16.008,0.033
54588.322024,16.093,0.035
54588.33254,16.135,0.037
54588.343104,16.21,0.037
54597.305712,16.173,0.044
54597.316203,16.169,0.041
54597.326645,16.172,0.039
54597.337056,16.136,0.037
54597.347495,16.015,0.033
54620.267459,15.911,0.028
54620.277603,15.98,0.03
54620.287825,16.03,0.03
54620.29796,16.072,0.033
54620.308166,16.058,0.033
54622.226259,16.017,0.079
54622.236499,15.966,0.078
54622.246499,15.967,0.074
54622.256481,15.967,0.073
54622.266489,15.948,0.071
