mjd,m,merr
52722.416708,15.855,0.03
52722.430057,15.987,0.035
52722.443048,16.032,0.037
52722.456012,15.972,0.033
52722.468738,15.858,0.031
52751.380411,15.9,0.037
52751.391098,15.974,0.039
52751.413033,16.066,0.043
52830.219563,15.914,0.066
52830.229453,15.815,0.061
52830.239739,16.043,0.078
52830.249676,16.122,0.084
52830.259563,16.052,0.079
52848.162745,16.001,0.043
52848.172754,15.796,0.036
52848.192744,16.001,0.045
52848.202733,16.026,0.05
52897.133534,15.966,0.041
52897.157104,16.068,0.055
53008.469681,15.915,0.05
53008.482277,15.954,0.048
53008.494812,16.096,0.052
53008.507431,16.131,0.05
53008.520024,16.038,0.043
53038.460845,16.243,0.092
53038.473206,15.816,0.048
53038.498748,15.995,0.051
53096.323625,16.023,0.064
53096.33323,15.992,0.058
53096.342858,15.82,0.048
53096.352645,15.842,0.048
53096.362307,15.981,0.054
53125.292325,16.08,0.061
53125.301945,15.885,0.051
53125.311714,15.834,0.048
53125.321688,16.115,0.084
53125.331323,16.051,0.058
53134.284468,15.899,0.033
53134.293509,15.919,0.036
53134.302544,15.964,0.038
53134.320333,16.045,0.046
53155.257746,15.795,0.048
53155.266069,15.822,0.051
53155.274495,15.942,0.056
53155.282875,15.987,0.058
53155.29109,16.017,0.061
53163.263626,15.937,0.111
53169.226591,16.068,0.045
53169.236024,16.013,0.043
53169.245488,15.773,0.038
53169.254837,15.815,0.033
53169.264244,15.999,0.038
53193.250662,15.864,0.04
53193.259882,15.832,0.043
53214.164683,15.925,0.089
53244.135199,15.862,0.045
53244.14569,16.021,0.054
53244.156153,16.076,0.058
53244.16682,15.972,0.053
53244.178412,15.939,0.054
53451.394498,15.8,0.037
53451.405256,15.922,0.041
53451.416043,16.014,0.044
53451.426813,15.976,0.041
53451.4376,15.968,0.043
53480.278361,16.048,0.067
53480.287434,16.075,0.065
53480.296618,15.839,0.05
53480.305607,15.808,0.05
53480.315686,15.941,0.055
53490.306336,16.053,0.035
53490.317099,15.771,0.028
53490.328969,15.888,0.028
53490.340786,16.0,0.035
53490.352185,16.025,0.035
53536.224883,15.993,0.063
53565.174333,16.032,0.048
53565.184968,16.107,0.052
53565.19564,15.991,0.046
53565.206304,15.842,0.039
53565.217012,15.998,0.046
53610.148252,16.0,0.039
53610.159473,16.103,0.044
53610.170702,16.487,0.076
53610.181914,15.777,0.035
53629.111771,15.941,0.065
53629.124114,15.686,0.055
53629.13663,15.882,0.067
53629.149089,15.978,0.078
53629.161398,16.023,0.085
53774.4765,16.102,0.043
53774.489668,16.071,0.039
53774.502467,15.813,0.031
53774.515561,15.961,0.033
53802.427395,15.861,0.03
53802.43962,15.962,0.033
53802.451837,16.106,0.038
53802.46422,15.989,0.035
53802.476262,15.823,0.03
53806.423975,16.016,0.059
53828.338316,16.019,0.048
53828.348866,15.867,0.035
53828.359411,15.805,0.028
53828.369969,15.86,0.102
53828.380631,16.079,0.054
53834.326349,16.046,0.049
53834.336302,16.116,0.053
53834.346299,15.989,0.048
53834.356495,15.82,0.04
53834.366516,15.949,0.045
53842.307536,15.921,0.063
53842.319035,15.925,0.065
53842.331194,15.917,0.061
53842.343795,15.794,0.055
53842.35506,15.92,0.063
53857.32087,15.848,0.038
53857.330884,15.981,0.041
53857.341199,16.051,0.048
53857.351386,16.026,0.045
53857.36133,15.777,0.036
53876.263262,15.856,0.045
53876.274225,16.041,0.054
53876.295992,16.033,0.053
53904.227772,15.798,0.03
53904.237661,15.899,0.033
53904.247885,16.03,0.036
53904.25785,16.045,0.038
53904.268131,15.998,0.036
53922.244034,16.031,0.087
53933.215545,16.013,0.049
53933.225811,15.978,0.058
53933.236141,15.801,0.049
53933.246536,15.861,0.045
53933.256806,15.983,0.049
53954.153544,15.996,0.081
53954.165553,15.792,0.067
53954.177613,15.946,0.08
53990.111904,15.956,0.04
53990.123938,15.801,0.036
53990.135603,15.987,0.045
53990.147647,16.09,0.048
53990.159325,16.087,0.051
53995.115214,15.988,0.04
53995.12711,15.803,0.035
53995.139108,15.924,0.038
53995.163394,15.989,0.043
54108.459628,15.912,0.076
54108.471892,15.823,0.073
54108.483962,16.044,0.083
54108.496132,16.001,0.073
54108.508326,16.059,0.074
54125.439123,15.977,0.058
54125.451188,16.084,0.063
54125.463272,16.1,0.061
54125.475302,15.934,0.051
54125.487323,15.909,0.049
54140.423762,16.018,0.041
54140.436333,16.059,0.041
54140.448763,15.88,0.035
54140.46174,15.813,0.033
54140.474573,15.986,0.037
54157.38983,16.067,0.053
54157.401144,16.037,0.048
54157.412099,15.783,0.036
54157.423065,15.911,0.04
54157.434023,16.029,0.043
54212.303337,15.751,0.038
54212.311747,15.804,0.038
54212.320169,15.937,0.043
54212.328844,16.066,0.048
54212.337258,15.993,0.043
54483.482297,15.968,0.051
54483.494343,15.723,0.041
54525.400176,15.896,0.041
54525.411819,15.982,0.046
54525.423427,16.046,0.061
54525.435053,16.149,0.064
54525.44951,15.843,0.071
54558.38945,15.869,0.157
54570.302282,16.167,0.053
54570.314315,16.007,0.045
54570.32519,15.821,0.04
54570.336331,15.939,0.043
54570.3476,15.963,0.04
54586.291796,15.71,0.045
54586.301863,15.794,0.048
54586.311907,15.968,0.054
54586.32203,16.023,0.058
54586.332065,15.879,0.049
54598.289203,15.773,0.059
54598.298625,15.761,0.058
54598.308119,15.865,0.058
54598.317522,16.026,0.066
54598.326976,16.08,0.063
54619.260572,16.049,0.053
54619.270875,15.812,0.045
54619.291421,16.027,0.049
54619.30192,15.973,0.049
