mjd,m,merr
52680.501285,16.801,0.079
52680.515996,16.726,0.081
52680.530695,16.543,0.064
52698.472927,16.737,0.081
52698.485935,16.446,0.059
52698.49994,16.432,0.058
52712.380799,16.357,0.063
52712.394017,16.484,0.067
52712.407241,16.656,0.078
52712.420755,16.786,0.083
52712.434091,16.782,0.078
52725.439542,16.81,0.063
52725.451238,16.803,0.063
52725.46299,16.592,0.052
52725.474691,16.512,0.05
52725.48642,16.447,0.046
52738.364391,16.358,0.046
52738.376067,16.323,0.046
52738.387652,16.255,0.045
52738.399263,16.297,0.045
52738.411314,16.295,0.045
52754.323248,16.639,0.057
52754.335194,16.818,0.067
52754.347171,16.774,0.065
52754.359144,16.704,0.061
52754.371139,16.548,0.054
52770.285336,16.333,0.063
52770.297339,16.391,0.063
52770.32088,16.412,0.063
52797.26827,16.499,0.087
52797.278595,16.446,0.084
52797.289101,16.405,0.078
52797.299589,16.387,0.074
52797.310276,16.515,0.079
52813.229149,16.693,0.091
52813.239256,16.831,0.107
52813.249298,16.889,0.106
52813.259411,16.791,0.101
52813.269763,16.649,0.083
52825.222044,16.444,0.087
52825.23216,16.363,0.073
52825.242265,16.438,0.081
52825.252743,16.325,0.071
52825.262965,16.559,0.084
52849.162429,16.664,0.068
52849.172895,16.557,0.063
52849.183276,16.524,0.063
52849.195179,16.429,0.059
52849.206076,16.375,0.057
52886.123376,16.786,0.152
52886.136159,16.85,0.183
53033.463396,16.398,0.056
53033.47555,16.428,0.056
53033.487799,16.431,0.056
53033.500045,16.376,0.051
53033.512449,16.618,0.064
53052.448777,16.78,0.063
53052.460463,16.621,0.054
53052.472141,16.474,0.046
53052.483841,16.412,0.044
53052.495497,16.36,0.043
53065.394561,16.334,0.05
53065.405825,16.386,0.048
53065.417101,16.476,0.048
53065.428634,16.634,0.057
53065.439999,16.693,0.078
53079.389285,16.441,0.053
53079.400425,16.652,0.061
53079.411273,16.819,0.071
53079.422149,16.808,0.069
53079.433355,16.817,0.071
53093.334492,16.358,0.035
53093.344947,16.365,0.033
53093.355192,16.4,0.033
53093.365739,16.469,0.035
53093.376118,16.61,0.037
53110.30192,16.397,0.054
53110.312508,16.357,0.053
53110.32313,16.401,0.053
53110.333821,16.413,0.051
53110.34447,16.477,0.054
53122.29632,16.72,0.059
53122.308996,16.811,0.063
53122.319252,16.722,0.056
53122.329442,16.526,0.046
53122.339565,16.442,0.041
53138.297131,16.429,0.051
53138.306748,16.588,0.058
53138.316283,16.736,0.066
53138.32585,16.76,0.068
53138.335455,16.806,0.068
53153.253737,16.725,0.066
53153.262349,16.785,0.069
53153.271625,16.823,0.073
53153.280287,16.614,0.059
53153.288857,16.604,0.059
53166.225129,16.342,0.058
53166.234883,16.332,0.056
53166.244536,16.403,0.059
53166.254239,16.599,0.069
53166.263939,16.655,0.073
53178.223402,16.553,0.048
53178.232934,16.489,0.14
53178.242294,16.363,0.097
53178.251934,16.454,0.086
53471.368862,16.703,0.07
53471.379282,16.582,0.061
53471.389011,16.454,0.054
53471.399541,16.361,0.05
53471.409452,16.391,0.052
53502.385868,16.377,0.052
53502.396058,16.411,0.052
53502.406746,16.442,0.054
53502.417018,16.462,0.052
53502.427175,16.586,0.063
53523.271031,16.78,0.068
53523.281468,16.729,0.067
53523.291786,16.667,0.061
53523.30223,16.446,0.052
53523.312579,16.379,0.044
53550.23572,16.5,0.098
53550.245656,16.586,0.07
53580.161841,16.538,0.072
53580.173239,16.432,0.057
53580.184644,16.368,0.057
53580.19604,16.395,0.07
53789.477099,16.548,0.139
53799.406685,16.414,0.045
53799.418654,16.428,0.045
53799.430581,16.577,0.049
53799.442531,16.825,0.063
53799.45447,16.785,0.059
53845.313074,16.397,0.072
53845.334968,16.616,0.083
53851.297001,16.357,0.059
53851.307299,16.396,0.061
53851.317775,16.281,0.056
53851.328231,16.481,0.066
53851.339106,16.388,0.059
53880.268002,16.768,0.083
53880.279185,16.699,0.076
53880.30155,16.578,0.068
53880.312743,16.437,0.059
53885.278806,16.316,0.059
53885.290622,16.3,0.061
53885.3024,16.32,0.059
53885.314205,16.405,0.065
53885.326019,16.497,0.072
53901.224114,16.497,0.112
53901.234077,16.807,0.144
53912.223805,16.515,0.129
53955.149973,16.434,0.13
53978.124937,16.49,0.106
53978.147072,16.355,0.087
53978.158091,16.28,0.089
53978.169251,16.284,0.097
54112.509501,16.652,0.109
54112.522088,16.447,0.091
54112.534742,16.421,0.087
54144.449075,16.474,0.064
54144.460989,16.506,0.066
54144.484841,16.475,0.063
54144.496723,16.503,0.083
54153.453644,16.616,0.252
54153.477393,16.521,0.157
54153.490812,16.32,0.084
54153.502606,16.366,0.134
54201.333329,16.45,0.068
54201.342608,16.425,0.068
54201.352128,16.459,0.066
54201.361751,16.703,0.081
54201.371183,16.71,0.081
54559.302144,16.436,0.037
54559.313797,16.506,0.037
54559.325452,16.647,0.039
54559.337213,16.789,0.044
54559.348894,16.802,0.044
54581.303389,16.515,0.083
54581.313954,16.357,0.07
54581.324587,16.395,0.072
54581.335157,16.372,0.074
54581.345701,16.362,0.072
54592.287547,16.283,0.063
54592.297227,16.316,0.063
54592.30701,16.332,0.063
54592.317195,16.422,0.071
54592.326874,16.566,0.078
