mjd,m,merr
52665.462995,15.987,0.039
52665.477289,16.041,0.039
52665.491588,16.081,0.039
52665.505997,16.132,0.039
52665.520317,16.187,0.039
52677.459165,16.626,0.068
52677.473435,16.554,0.061
52677.48772,16.202,0.048
52677.502043,15.978,0.035
52677.51633,15.709,0.026
52706.443214,16.402,0.049
52706.45858,16.085,0.04
52706.472966,15.838,0.031
52706.487998,15.786,0.03
52706.504417,15.89,0.035
52724.416073,15.863,0.028
52724.427841,15.88,0.03
52724.439374,15.897,0.03
52724.450956,15.952,0.031
52724.462508,16.067,0.037
52753.322471,16.582,0.059
52753.334487,16.251,0.041
52753.346512,15.965,0.031
52753.35855,15.782,0.028
52753.370626,15.7,0.026
52772.273727,16.691,0.122
52772.297305,16.278,0.083
52772.309157,15.965,0.118
52787.269653,16.347,0.043
52787.280382,16.332,0.043
52787.290992,16.388,0.046
52787.301626,16.42,0.048
52787.312364,16.426,0.05
52797.26687,16.346,0.063
52797.276922,16.404,0.067
52797.286948,16.348,0.061
52797.297015,16.459,0.067
52797.307059,16.42,0.061
52811.226327,16.529,0.063
52811.236182,16.592,0.065
52811.245964,16.643,0.068
52811.255753,16.602,0.065
52811.265517,16.484,0.059
52826.221413,16.282,0.054
52826.231315,16.311,0.052
52826.241224,16.335,0.054
52826.251187,16.291,0.052
52826.261047,16.317,0.054
52842.179958,16.454,0.072
52842.220708,16.241,0.194
52847.176903,15.853,0.039
52847.187051,15.949,0.043
52847.197228,15.998,0.044
52847.207795,16.013,0.046
53024.510794,16.659,0.187
53034.464588,16.552,0.059
53034.476985,16.557,0.059
53034.489426,16.533,0.057
53034.501928,16.653,0.059
53034.514259,16.488,0.052
53050.392298,16.755,0.161
53050.403946,16.602,0.078
53050.415682,16.488,0.048
53050.427444,16.122,0.033
53050.439087,15.859,0.026
53109.301373,16.524,0.05
53109.312082,16.5,0.048
53109.322791,16.53,0.05
53109.333645,16.551,0.05
53109.344446,16.594,0.052
53137.293945,16.641,0.061
53137.303425,16.692,0.067
53137.31291,16.624,0.061
53137.322443,16.43,0.048
53137.33193,16.208,0.037
53165.22666,16.554,0.126
53165.236662,16.34,0.046
53165.246663,16.124,0.046
53165.256759,15.954,0.033
53165.266755,15.785,0.03
53242.136721,16.39,0.066
53242.146881,16.19,0.058
53242.157344,16.013,0.049
53242.167306,15.837,0.045
53242.177285,15.78,0.043
53264.107746,16.551,0.061
53264.119288,16.53,0.059
53264.130777,16.534,0.061
53264.142307,16.605,0.068
53264.153782,16.542,0.068
53439.385664,16.358,0.041
53439.396774,16.377,0.041
53439.407952,16.416,0.039
53439.419081,16.472,0.041
53439.430236,16.452,0.041
53440.474083,16.376,0.052
53440.484876,16.427,0.054
53440.496015,16.488,0.055
53442.322462,15.991,0.037
53442.333285,15.805,0.03
53442.344127,15.712,0.026
53442.35496,15.756,0.028
53442.366062,15.79,0.028
53473.442163,15.731,0.028
53473.451862,15.811,0.031
53473.46152,15.802,0.031
53500.301078,15.778,0.028
53500.313711,15.864,0.03
53500.324132,15.894,0.03
53500.335408,15.957,0.031
53500.345584,16.015,0.033
53528.274544,15.985,0.041
53528.286048,16.063,0.044
53528.297551,16.105,0.044
53528.308779,16.121,0.048
53528.319926,16.156,0.05
53539.223259,16.267,0.094
53539.232858,16.086,0.08
53539.242436,15.957,0.07
53539.251992,15.858,0.063
53539.26155,15.773,0.057
53553.227568,16.424,0.065
53553.237926,16.471,0.067
53553.248352,16.471,0.067
53553.258711,16.478,0.063
53553.269071,16.465,0.063
53570.2176,16.523,0.126
53570.228264,16.486,0.128
53570.23892,16.595,0.146
53570.249581,16.543,0.144
53576.17182,15.897,0.031
53576.19369,16.03,0.05
53576.204628,16.082,0.041
53576.215591,16.139,0.05
53582.165546,16.402,0.102
53582.176755,16.352,0.061
53582.187982,16.434,0.063
53582.199219,16.374,0.063
53582.210447,16.477,0.08
53626.112687,16.751,0.109
53626.124316,16.757,0.115
53626.135817,16.594,0.104
53626.147282,16.394,0.087
53626.158816,16.063,0.068
53771.536165,16.107,0.085
53786.416907,16.127,0.076
53786.429044,16.292,0.08
53786.441175,16.263,0.052
53786.453214,16.22,0.05
53813.419481,16.454,0.089
53813.430621,16.395,0.085
53813.441639,16.52,0.094
53813.452676,16.507,0.094
53813.46378,16.585,0.104
53823.309509,16.225,0.041
53823.320345,16.203,0.04
53823.33123,16.21,0.038
53823.342358,16.229,0.04
53823.353342,16.299,0.041
53824.466987,16.413,0.05
53844.290147,15.87,0.039
53844.300421,15.876,0.041
53844.31091,15.945,0.046
53844.321358,15.997,0.052
53844.331622,16.105,0.059
53853.297846,16.151,0.054
53853.308654,16.187,0.054
53853.319187,16.17,0.049
53853.329608,16.194,0.053
53853.340032,16.198,0.056
53883.266116,15.917,0.04
53883.276473,15.956,0.041
53883.286778,15.999,0.041
53883.297143,16.019,0.043
53883.307467,16.043,0.045
53887.278297,16.574,0.078
53887.289281,16.565,0.078
53887.300264,16.572,0.08
53887.311304,16.489,0.072
53887.322379,16.621,0.081
53902.232506,15.892,0.043
53902.242742,15.907,0.043
53902.252781,15.996,0.048
53902.263608,16.021,0.049
53902.274926,16.05,0.054
53931.221593,16.015,0.064
53931.231705,16.094,0.073
53931.241903,16.198,0.081
53971.13661,16.638,0.155
53971.147653,16.525,0.094
53971.158669,16.459,0.074
53971.169286,16.245,0.068
53971.17993,16.01,0.054
54110.477435,16.315,0.109
54110.490114,16.317,0.122
54110.502806,16.34,0.177
54110.515484,16.507,0.157
54121.452767,16.182,0.044
54121.465045,16.282,0.048
54121.477294,16.255,0.043
54121.489963,16.27,0.041
54121.502203,16.338,0.037
54155.416534,16.639,0.071
54155.428544,16.548,0.063
54155.440214,16.568,0.064
54155.452131,16.579,0.068
54155.464501,16.654,0.069
54206.318894,16.431,0.056
54206.328206,16.42,0.054
54206.337523,16.489,0.058
54206.347059,16.444,0.054
54206.356423,16.45,0.056
54529.379203,16.611,0.069
54529.39071,16.557,0.064
54529.401958,16.549,0.063
54529.413207,16.549,0.061
54529.425799,16.52,0.061
54562.2562,16.047,0.059
54562.268849,16.015,0.058
54562.293459,16.109,0.056
54562.304841,16.353,0.064
54574.29591,15.763,0.048
54574.306584,15.724,0.044
54574.317262,15.823,0.048
54574.327945,15.831,0.048
54574.338634,15.898,0.052
54582.299797,16.068,0.039
54582.310373,16.091,0.041
54582.320946,16.105,0.044
54582.331557,16.144,0.046
54582.342144,16.166,0.052
54613.255342,16.104,0.035
54613.26538,15.951,0.03
54613.275622,15.831,0.024
54613.285855,15.814,0.028
54613.295968,15.838,0.028
