mjd,m,merr
52641.45711,15.693,0.028
52641.472499,15.724,0.028
52641.487813,15.721,0.03
52641.502623,15.775,0.03
52641.518104,15.782,0.028
52646.456481,15.599,0.031
52646.472181,15.485,0.026
52646.486843,15.228,0.02
52646.501867,15.021,0.017
52646.516696,14.924,0.015
52647.455237,15.569,0.03
52647.469765,15.591,0.03
52647.484284,15.616,0.03
52647.49912,15.66,0.033
52647.513729,15.668,0.048
52667.397644,15.655,0.028
52667.413056,15.632,0.026
52667.428343,15.495,0.024
52667.44366,15.27,0.02
52667.459007,15.063,0.018
52672.39183,15.42,0.022
52672.406572,15.401,0.022
52672.420646,15.425,0.022
52672.434957,15.514,0.026
52672.44883,15.556,0.061
52673.36486,15.793,0.031
52673.40966,15.635,0.026
52673.425215,15.656,0.03
52704.351443,15.774,0.035
52704.364325,15.759,0.033
52704.377213,15.809,0.035
52704.390212,15.761,0.035
52704.403129,15.745,0.035
52705.307081,15.358,0.018
52705.320993,15.08,0.015
52705.343216,14.942,0.013
52705.356329,14.924,0.015
52705.370667,14.975,0.015
52708.312178,15.579,0.028
52708.325237,15.598,0.03
52708.338278,15.612,0.028
52708.351337,15.645,0.03
52708.364413,15.721,0.033
52729.285988,15.569,0.024
52729.297735,15.603,0.026
52729.309282,15.612,0.026
52729.320929,15.64,0.028
52729.332532,15.643,0.028
52734.259542,15.589,0.024
52734.271908,15.599,0.03
52734.296222,15.638,0.104
52734.308383,15.554,0.122
52737.247695,15.306,0.022
52737.260463,15.306,0.022
52737.272132,15.33,0.022
52737.283991,15.354,0.022
52737.295812,15.369,0.022
52756.195269,15.298,0.02
52756.207104,15.308,0.02
52756.218969,15.342,0.022
52756.230804,15.375,0.022
52756.242645,15.407,0.024
52758.206498,15.252,0.021
52758.218435,15.305,0.021
52758.230371,15.311,0.021
52758.242516,15.335,0.023
52758.254487,15.363,0.025
52788.172591,15.506,0.073
52788.18323,15.742,0.041
52788.194002,15.654,0.061
52790.163998,15.564,0.058
52790.175069,15.557,0.056
52790.185651,15.636,0.051
52790.196312,15.652,0.048
52790.207021,15.673,0.045
52972.451706,14.86,0.015
52972.464562,14.91,0.013
52972.477403,14.939,0.013
52972.490153,14.955,0.013
52972.503028,15.022,0.015
52986.456745,15.66,0.044
52986.469706,15.621,0.041
52986.482736,15.553,0.037
52986.49588,15.598,0.037
52986.508977,15.596,0.035
52994.46595,15.723,0.021
52994.478474,15.728,0.018
52994.491016,15.702,0.018
52994.503601,15.706,0.018
52994.516166,15.734,0.018
52996.395507,15.601,0.023
52996.408325,15.648,0.023
52996.421335,15.629,0.021
52996.434105,15.646,0.021
53025.34903,15.37,0.015
53025.360501,15.485,0.058
53025.372531,15.455,0.02
53028.432126,15.588,0.018
53028.447392,15.65,0.035
53028.459788,15.644,0.048
53028.474193,15.702,0.026
53032.341211,15.722,0.026
53032.353548,15.723,0.026
53032.365878,15.752,0.026
53032.378217,15.708,0.026
53032.390607,15.686,0.024
53054.367506,15.213,0.015
53054.382068,15.272,0.017
53054.394063,15.281,0.017
53054.40673,15.309,0.017
53054.418663,15.338,0.017
53058.335824,14.767,0.007
53058.360597,14.871,0.009
53058.372876,15.023,0.009
53058.391015,15.018,0.011
53060.301713,15.428,0.015
53060.302133,15.413,0.015
53060.314322,15.228,0.012
53060.314547,15.214,0.011
53060.326456,15.022,0.01
53060.326662,15.026,0.009
53060.338561,14.943,0.01
53060.338628,14.917,0.009
53060.350653,14.912,0.01
53060.35188,14.907,0.009
53080.282674,15.659,0.024
53080.294256,15.666,0.026
53080.306208,15.719,0.026
53080.317553,15.742,0.026
53080.328836,15.74,0.026
53082.347092,15.65,0.02
53082.358278,15.722,0.021
53082.369461,15.728,0.021
53082.381232,15.713,0.023
53082.393219,15.708,0.023
53084.346967,15.649,0.018
53084.35822,15.68,0.018
53084.369369,15.717,0.02
53084.381159,15.717,0.02
53084.392282,15.723,0.02
53091.284114,15.617,0.018
53091.294174,15.601,0.016
53091.304843,15.618,0.018
53091.314921,15.605,0.016
53091.324961,15.56,0.016
53111.191291,15.298,0.022
53111.202066,15.313,0.024
53111.212818,15.333,0.024
53111.223555,15.34,0.024
53111.23438,15.391,0.024
53115.25469,15.28,0.016
53115.265492,15.285,0.016
53115.276279,15.304,0.016
53115.287613,15.318,0.016
53115.298327,15.373,0.018
53139.199188,15.748,0.033
53139.208502,15.779,0.035
53139.217806,15.774,0.035
53139.227105,15.764,0.037
53139.236565,15.754,0.037
53141.218557,15.783,0.026
53141.228684,15.758,0.028
53141.238104,15.759,0.028
53141.24836,15.784,0.028
53141.257786,15.715,0.028
53143.229348,15.766,0.03
53143.238464,15.707,0.028
53143.247514,15.794,0.03
53143.267072,15.804,0.028
53143.281326,15.791,0.031
53327.446273,14.908,0.03
53346.453046,15.11,0.031
53346.466379,15.214,0.033
53346.480059,15.226,0.033
53346.49271,15.129,0.035
53346.504852,15.148,0.035
53347.494477,15.736,0.038
53347.5084,15.741,0.038
53347.522261,15.736,0.04
53353.484619,15.807,0.04
53353.499105,15.771,0.036
53353.513355,15.762,0.036
53383.412827,15.593,0.03
53383.426154,15.564,0.028
53383.439477,15.556,0.028
53383.452813,15.579,0.028
53383.467138,15.626,0.028
53403.36618,15.452,0.026
53403.379237,15.469,0.026
53403.392851,15.492,0.028
53403.406984,15.525,0.03
53403.420495,15.515,0.03
53440.422037,15.074,0.018
53440.432531,15.124,0.022
53440.443031,15.148,0.022
53440.454036,15.144,0.024
53440.46579,15.243,0.031
53469.230811,15.73,0.03
53469.240351,15.724,0.03
53469.250219,15.714,0.028
53469.260242,15.67,0.028
53469.271965,15.647,0.026
53504.14837,15.507,0.037
53504.157647,15.495,0.033
53504.166449,15.491,0.03
53504.175171,15.567,0.033
53504.183889,15.54,0.033
53734.473226,15.347,0.022
53734.486339,15.116,0.018
53734.499756,14.968,0.015
53734.512909,14.927,0.015
53734.525879,14.932,0.015
53758.404068,15.505,0.028
53758.416615,15.53,0.028
53758.429252,15.558,0.03
53758.4419,15.569,0.03
53758.454926,15.592,0.03
53789.362048,15.122,0.05
53789.37393,15.213,0.035
53789.385802,15.237,0.02
53789.397665,15.267,0.02
53792.348004,15.711,0.028
53792.359774,15.719,0.037
53792.371548,15.764,0.037
53792.383337,15.761,0.037
53792.39511,15.766,0.035
53797.319899,15.678,0.026
53797.332279,15.619,0.023
53797.344736,15.508,0.02
53802.338693,15.49,0.041
53802.350244,15.471,0.03
53802.361695,15.518,0.03
53802.373381,15.585,0.037
53802.384853,15.59,0.031
53815.287253,15.68,0.055
53815.298415,15.677,0.046
53815.30959,15.674,0.035
53815.320784,15.685,0.037
53815.331974,15.725,0.043
53821.303172,15.536,0.028
53821.3172,15.553,0.052
53821.330819,15.603,0.044
53821.359396,15.616,0.052
53828.354556,15.654,0.037
53828.365671,15.568,0.048
53831.233742,14.984,0.02
53831.244298,14.988,0.02
53831.254536,15.053,0.022
53831.264722,15.094,0.022
53831.27474,15.1,0.022
53833.227713,14.959,0.026
53833.237564,14.904,0.024
53833.267156,14.953,0.026
53846.190926,15.234,0.018
53846.201631,15.248,0.02
53846.212441,15.353,0.021
53846.223156,15.288,0.02
53846.233866,15.359,0.02
53846.247857,15.402,0.033
53846.258657,15.429,0.033
53846.269463,15.438,0.035
53846.280271,15.482,0.035
53846.291073,15.53,0.039
53851.244754,15.775,0.039
53851.256224,15.715,0.037
53851.267147,15.736,0.041
53851.277309,15.727,0.043
53851.287511,15.738,0.041
53854.262723,15.087,0.024
53857.278145,15.788,0.044
53857.290173,16.224,0.093
53857.315575,15.776,0.05
53879.163293,15.526,0.02
53879.174102,15.411,0.02
53879.184838,15.258,0.018
53879.195872,15.054,0.015
53879.207199,14.944,0.013
53885.159069,15.659,0.031
53885.170233,15.57,0.03
53885.181022,15.606,0.031
53885.191797,15.671,0.035
53885.203084,15.64,0.033
54082.483444,15.662,0.052
54082.496255,15.643,0.05
54082.509057,15.665,0.046
54113.391109,15.432,0.022
54113.403649,15.454,0.024
54113.430305,15.544,0.03
54113.442845,15.536,0.03
54147.337369,15.727,0.03
54147.349605,15.717,0.03
54147.361662,15.716,0.03
54147.374595,15.73,0.03
54147.386821,15.791,0.031
54153.331851,15.565,0.022
54153.343437,15.573,0.022
54153.354998,15.591,0.022
54153.366559,15.607,0.033
54153.378133,15.629,0.033
54156.32092,15.543,0.024
54156.332528,15.599,0.024
54156.344042,15.632,0.024
54156.355563,15.669,0.024
54156.367096,15.625,0.024
54174.319281,15.597,0.024
54174.33001,15.636,0.043
54174.340725,15.658,0.026
54174.35141,15.674,0.028
54174.362089,15.643,0.026
54175.273709,15.642,0.03
54175.284865,15.685,0.03
54175.295822,15.697,0.03
54175.306704,15.673,0.03
54175.317526,15.643,0.03
54176.320512,15.598,0.026
54176.320518,15.548,0.02
54176.33127,15.548,0.028
54176.331346,15.603,0.022
54176.342071,15.599,0.028
54176.342233,15.57,0.022
54176.352906,15.611,0.028
54176.353235,15.626,0.024
54176.363798,15.633,0.03
54176.364198,15.654,0.024
54177.351589,15.555,0.022
54177.363859,15.508,0.03
54177.375852,15.336,0.02
54177.38755,15.12,0.018
54180.336141,15.476,0.018
54180.34671,15.483,0.018
54180.357362,15.507,0.02
54180.367961,15.525,0.02
54180.37854,15.521,0.022
54185.21975,15.722,0.045
54185.230017,15.748,0.045
54185.240233,15.764,0.048
54185.250432,15.768,0.046
54185.260646,15.779,0.046
54198.255103,15.73,0.041
54198.26481,15.714,0.04
54205.268634,15.303,0.018
54205.278032,15.295,0.018
54205.287462,15.311,0.018
54205.296854,15.387,0.02
54205.306418,15.385,0.022
54208.263296,15.773,0.028
54208.272472,15.784,0.028
54208.281649,15.749,0.028
54208.290798,15.737,0.03
54208.299964,15.765,0.03
54212.271082,15.74,0.031
54212.280189,15.75,0.031
54212.289261,15.719,0.033
54212.298344,15.794,0.033
54212.307451,15.748,0.033
54477.455519,15.774,0.018
54477.46782,15.747,0.018
54477.480404,15.705,0.018
54477.492923,15.708,0.018
54477.505572,15.69,0.015
54481.3422,15.6,0.026
54481.355129,15.629,0.026
54481.368198,15.643,0.024
54481.381108,15.642,0.022
54481.394002,15.679,0.024
54498.395344,15.689,0.02
54498.408035,15.674,0.018
54498.420664,15.638,0.018
54498.433347,15.605,0.018
54498.445993,15.575,0.018
54506.337769,15.604,0.018
54506.34987,15.63,0.018
54506.361963,15.619,0.018
54506.374056,15.651,0.02
54506.386173,15.66,0.02
54506.455721,15.758,0.035
54506.467624,15.738,0.035
54506.479468,15.781,0.035
54506.491382,15.724,0.035
54506.503235,15.799,0.036
54522.396954,15.224,0.02
54522.408602,15.232,0.02
54522.420269,15.305,0.02
54522.431925,15.301,0.022
54522.443558,15.313,0.022
54527.333031,15.665,0.018
54527.344428,15.71,0.02
54527.355877,15.66,0.02
54527.367331,15.674,0.02
54527.378718,15.678,0.02
54534.391538,15.518,0.03
54535.328183,15.441,0.013
54535.33942,15.448,0.015
54535.350658,15.493,0.015
54535.361936,15.498,0.015
54535.373276,15.534,0.015
54553.306623,15.641,0.031
54553.318519,15.567,0.02
54553.330394,15.432,0.018
54553.342465,15.269,0.017
54553.354401,15.065,0.015
54561.296458,15.707,0.031
54561.308208,15.649,0.02
54561.319866,15.633,0.024
54561.331539,15.574,0.018
54561.343195,15.615,0.022
54568.244081,14.96,0.023
54568.255063,14.904,0.023
54568.265939,14.931,0.023
54568.276897,14.929,0.023
54568.2877,14.963,0.023
54584.251367,15.752,0.026
54584.26203,15.75,0.028
54584.272605,15.764,0.028
54584.283182,15.691,0.026
54584.293813,15.687,0.028
54591.245206,14.906,0.015
54591.255364,14.922,0.017
54591.265529,14.933,0.017
54591.275693,14.976,0.017
54591.285844,15.009,0.018
54614.166036,15.631,0.024
54614.175985,15.607,0.024
54614.18596,15.505,0.022
54614.195966,15.359,0.02
54614.205915,15.201,0.018
