mjd,m,merr
52676.462287,16.395,0.068
52676.477368,16.537,0.078
52676.492614,16.45,0.066
52707.444202,16.271,0.054
52707.44456,16.26,0.051
52707.45737,16.331,0.056
52707.457726,16.308,0.054
52707.470858,16.373,0.056
52707.471214,16.385,0.054
52707.484378,16.362,0.058
52707.484736,16.323,0.053
52707.497604,16.41,0.061
52707.497958,16.313,0.054
52711.376841,16.527,0.086
52711.389916,16.484,0.078
52711.403559,16.601,0.089
52711.417305,16.567,0.071
52711.430821,16.59,0.068
52737.390044,15.952,0.03
52737.402117,15.992,0.033
52737.414794,16.018,0.033
52737.427118,16.068,0.035
52737.442314,16.137,0.039
52739.359319,16.423,0.063
52739.370769,16.478,0.061
52739.382097,16.577,0.069
52739.393422,16.513,0.066
52739.404758,16.597,0.069
52756.318569,16.401,0.063
52756.331071,16.346,0.064
52756.343168,16.39,0.063
52756.355202,16.49,0.066
52756.367595,16.424,0.064
52769.276123,16.53,0.087
52769.287507,16.456,0.084
52769.299034,16.636,0.097
52769.310928,16.596,0.099
52769.322407,16.425,0.081
52794.270987,16.108,0.056
52794.313125,16.232,0.063
52799.268022,16.338,0.117
52799.278049,16.601,0.15
52799.288129,16.686,0.215
52799.308224,16.593,0.218
52819.221997,16.587,0.078
52819.231928,16.542,0.076
52819.241857,16.57,0.076
52819.251805,16.549,0.072
52819.261751,16.591,0.076
52824.224066,16.103,0.046
52824.254028,15.83,0.043
52883.124042,16.488,0.092
52883.148259,16.44,0.083
52883.16037,16.391,0.081
52883.172474,16.34,0.119
53033.462428,15.847,0.037
53033.474474,15.844,0.037
53033.486577,15.937,0.037
53033.498845,15.985,0.039
53033.511014,15.974,0.039
53080.399976,16.59,0.055
53080.410897,16.508,0.05
53080.421836,16.593,0.057
53080.432815,16.597,0.061
53080.443819,16.606,0.059
53092.378968,16.587,0.049
53092.388779,16.616,0.053
53092.398551,16.612,0.054
53092.408454,16.592,0.049
53092.419084,16.475,0.045
53111.300639,16.061,0.044
53111.311462,16.056,0.043
53111.322229,16.109,0.043
53111.333276,16.114,0.041
53111.344087,16.133,0.043
53119.304681,15.771,0.025
53119.315353,15.883,0.026
53119.325493,15.923,0.028
53119.335604,16.04,0.031
53119.345607,16.025,0.031
53139.297259,16.258,0.044
53139.306842,16.277,0.046
53139.31644,16.31,0.046
53139.326059,16.331,0.048
53139.335853,16.381,0.05
53149.250771,16.712,0.066
53149.259406,16.683,0.063
53149.268046,16.636,0.058
53149.276759,16.508,0.049
53149.285744,16.258,0.041
53169.228168,15.983,0.035
53169.238157,15.923,0.035
53169.248087,16.052,0.039
53169.258017,16.015,0.039
53169.26803,16.083,0.043
53172.231356,16.454,0.085
53172.241431,16.478,0.043
53172.251589,16.514,0.044
53172.261667,16.48,0.044
53173.22203,16.479,0.041
53173.232382,16.53,0.044
53173.242565,16.51,0.043
53173.252747,16.503,0.044
53173.262937,16.527,0.043
53174.220132,16.378,0.037
53174.23013,16.439,0.039
53174.240134,16.446,0.039
53174.250144,16.494,0.043
53174.260153,16.579,0.046
53414.458867,16.218,0.046
53414.4716,16.251,0.046
53414.484241,16.243,0.044
53414.496799,16.286,0.046
53414.510601,16.252,0.043
53478.412393,16.39,0.059
53478.421439,16.406,0.061
53478.430734,16.465,0.063
53478.440345,16.469,0.061
53478.449434,16.554,0.068
53496.300952,16.619,0.076
53496.311108,16.714,0.078
53496.321206,16.73,0.083
53496.331429,16.734,0.076
53496.341604,16.574,0.067
53527.221202,16.563,0.078
53527.231053,16.466,0.068
53527.241018,16.586,0.076
53527.250898,16.542,0.072
53527.260728,16.544,0.074
53579.162749,16.464,0.081
53579.174113,16.471,0.061
53579.185485,16.469,0.061
53579.196797,16.471,0.065
53579.208145,16.571,0.072
53791.472842,15.97,0.038
53791.484696,15.99,0.041
53791.496482,16.076,0.041
53791.508809,16.049,0.041
53815.403419,16.351,0.093
53815.414601,16.307,0.091
53846.341247,18.385,0.31
53850.302317,16.771,0.091
53850.344876,18.867,0.581
53884.279796,15.928,0.046
53884.291365,15.984,0.046
53884.302938,16.028,0.046
53884.314552,16.078,0.048
53884.326096,16.116,0.052
53911.261072,16.445,0.101
53911.270655,16.443,0.107
54155.470051,16.484,0.052
54155.481929,16.481,0.052
54155.493761,16.522,0.052
54155.505598,16.505,0.052
54155.517466,16.436,0.048
54156.44546,16.543,0.05
54156.456985,16.532,0.05
54156.468511,16.514,0.048
54156.48005,16.528,0.048
54156.491569,16.555,0.048
54174.426444,16.318,0.064
54180.386415,15.99,0.04
54180.396767,16.089,0.048
54180.407233,16.072,0.048
54180.417737,16.076,0.045
54180.428061,16.14,0.048
54200.318662,16.364,0.079
54200.328069,16.343,0.074
54200.337676,16.33,0.074
54200.347036,16.262,0.069
54200.356485,16.445,0.086
54544.333688,16.209,0.076
54544.344269,16.346,0.076
54544.354841,16.267,0.068
54544.36567,16.406,0.072
54544.376375,16.393,0.068
54568.346805,16.291,0.043
54568.357752,16.389,0.043
54568.368681,16.427,0.043
54568.379619,16.409,0.043
54568.390532,16.437,0.043
54568.406217,16.338,0.054
54568.417163,16.324,0.059
54568.428089,16.416,0.063
54568.438914,16.519,0.073
54568.449807,16.533,0.073
54580.304091,16.751,0.118
54580.314679,16.808,0.126
54580.325302,16.675,0.111
54580.335909,16.707,0.111
54589.3052,16.376,0.041
54589.315756,16.472,0.044
54589.326313,16.488,0.046
54589.336837,16.461,0.044
54589.347353,16.513,0.048
54611.264121,16.383,0.044
54611.273924,16.338,0.046
54611.283719,16.332,0.048
54611.293484,16.323,0.05
54611.303292,16.363,0.052
54621.260693,15.854,0.03
54621.270856,15.759,0.028
54621.28102,15.768,0.026
54621.291193,15.792,0.028
54621.301351,15.861,0.03
