mjd,m,merr
52620.441442,15.842,0.036
52620.456634,15.716,0.03
52620.471274,15.637,0.036
52620.485853,15.691,0.063
52620.500494,15.812,0.038
52623.449011,15.767,0.037
52623.464676,15.863,0.043
52623.480379,15.856,0.059
52623.4963,15.879,0.046
52623.512301,15.903,0.046
52650.385415,15.901,0.03
52650.399673,15.919,0.03
52652.383215,16.242,0.044
52652.398383,16.299,0.044
52652.413709,16.285,0.039
52652.428992,16.279,0.039
52652.444154,16.296,0.039
52664.347624,15.672,0.026
52664.362893,15.73,0.033
52664.378121,15.755,0.05
52664.408742,16.074,0.216
52681.282107,15.694,0.041
52681.299232,15.627,0.037
52681.317768,15.688,0.03
52681.336268,15.754,0.028
52695.348628,15.705,0.033
52695.365465,15.812,0.07
52712.25943,15.636,0.084
52712.274238,15.789,0.061
52712.287741,15.659,0.045
52712.301067,15.602,0.041
52722.30662,15.842,0.024
52751.198245,16.257,0.048
52751.210568,16.195,0.055
52751.226134,16.285,0.046
52751.239964,16.243,0.044
52751.251139,16.302,0.046
52782.164924,16.218,0.046
52782.175579,16.205,0.046
52782.186214,16.204,0.046
52782.196999,16.253,0.059
52782.207638,16.173,0.104
52800.178962,15.972,0.117
52800.199067,15.999,0.105
52800.209109,15.878,0.096
52810.172604,16.131,0.054
52810.182597,16.081,0.05
52810.21244,16.19,0.226
52812.17318,16.288,0.061
52812.183478,16.348,0.065
52812.193737,16.29,0.065
52812.204029,16.344,0.068
52812.214361,16.378,0.072
52976.400845,16.286,0.04
52976.411929,16.32,0.04
52976.422991,16.312,0.041
52976.434056,16.367,0.043
52976.445129,16.391,0.043
52990.414547,16.154,0.039
52990.454758,16.166,0.044
53023.343144,16.315,0.033
53023.3567,16.359,0.035
53023.369586,16.415,0.037
53023.38256,16.427,0.037
53023.395329,16.406,0.037
53024.442656,16.347,0.109
53024.45995,16.284,0.041
53026.415541,15.69,0.02
53026.429537,15.743,0.022
53026.442383,15.836,0.031
53026.455394,15.766,0.028
53026.469848,15.749,0.024
53028.460683,16.388,0.13
53028.473572,16.295,0.043
53028.486807,16.522,0.142
53028.514511,16.353,0.098
53046.347506,15.805,0.033
53046.359442,15.807,0.033
53046.371425,15.883,0.035
53046.383567,15.837,0.035
53046.395514,15.877,0.037
53065.234201,16.171,0.041
53065.246155,16.161,0.04
53065.258093,16.225,0.041
53065.269998,16.181,0.038
53065.2819,16.202,0.038
53077.307216,15.691,0.098
53107.241808,15.95,0.028
53107.25308,15.987,0.03
53107.264273,15.988,0.03
53107.275484,16.012,0.031
53107.286754,16.045,0.031
53108.131799,16.358,0.052
53108.142919,16.319,0.046
53108.154079,16.343,0.046
53108.165289,16.367,0.048
53108.176361,16.469,0.052
53122.19724,16.323,0.067
53122.207893,16.413,0.07
53122.218277,16.427,0.067
53122.22876,16.388,0.057
53122.239245,16.339,0.052
53127.198397,16.124,0.094
53127.208301,16.028,0.085
53127.21821,16.18,0.098
53127.228144,16.14,0.094
53127.238048,16.217,0.102
53136.198583,16.259,0.048
53136.207939,16.35,0.052
53136.217244,16.32,0.052
53136.226546,16.344,0.054
53136.235866,16.397,0.059
53153.205772,16.344,0.067
53153.21462,16.331,0.067
53153.223471,16.341,0.067
53153.232338,16.408,0.072
53153.241116,16.302,0.068
53154.169184,16.193,0.083
53154.177938,16.2,0.074
53154.186695,16.227,0.072
53154.195482,16.193,0.074
53154.204283,16.183,0.072
53164.181461,16.233,0.044
53164.191673,16.292,0.046
53164.20189,16.243,0.048
53164.21211,16.234,0.046
53178.172186,16.169,0.043
53178.182264,16.229,0.044
53178.192403,16.152,0.043
53178.202618,16.196,0.048
53178.212696,16.191,0.046
53330.461971,16.664,0.091
53330.475558,16.673,0.087
53330.48983,16.508,0.076
53330.504613,16.123,0.053
53340.516464,15.697,0.049
53356.472951,16.05,0.038
53356.486508,16.136,0.038
53356.500009,16.123,0.038
53356.513361,16.181,0.04
53356.526834,16.155,0.038
53358.405227,16.318,0.052
53358.418248,16.275,0.05
53358.431318,16.302,0.046
53358.444399,16.271,0.046
53358.458263,16.342,0.048
53359.485728,16.222,0.043
53359.498922,16.25,0.043
53359.511663,16.245,0.044
53359.524844,16.236,0.043
53360.423826,15.76,0.039
53360.436969,15.775,0.031
53360.450109,15.846,0.072
53360.463253,16.056,0.139
53386.414121,16.235,0.043
53386.427264,16.219,0.039
53386.440322,16.185,0.039
53386.453468,16.201,0.039
53386.470201,16.222,0.041
53389.48183,16.427,0.05
53389.49773,16.414,0.05
53389.513001,16.438,0.05
53390.397453,16.035,0.044
53390.411671,16.024,0.057
53390.424842,16.077,0.054
53390.440677,16.112,0.043
53390.453757,16.115,0.041
53401.350217,15.651,0.033
53401.362835,15.704,0.035
53401.375458,15.776,0.037
53401.388082,15.777,0.037
53430.318448,16.274,0.05
53430.330187,16.259,0.05
53430.342486,16.249,0.05
53430.35916,16.244,0.052
53431.284014,16.026,0.03
53431.296273,16.009,0.031
53431.308514,16.038,0.033
53431.320536,16.047,0.035
53431.332378,16.08,0.039
53441.350581,16.195,0.037
53441.36162,16.214,0.037
53441.372637,16.197,0.039
53441.384207,16.207,0.039
53479.228956,15.988,0.085
53479.239146,16.002,0.085
53479.251002,15.948,0.081
53479.261953,15.895,0.083
53479.271462,16.068,0.096
53491.197136,16.249,0.063
53491.218566,16.246,0.052
53491.229503,16.266,0.054
53491.240102,16.317,0.061
53537.171622,15.864,0.083
53537.191769,16.167,0.122
53537.201848,16.159,0.109
53685.449967,16.365,0.08
53700.4495,16.089,0.048
53700.462562,16.14,0.052
53700.475318,16.123,0.048
53700.488275,16.164,0.048
53700.500976,16.166,0.044
53727.404829,16.132,0.048
53727.417669,16.155,0.07
53727.430507,16.23,0.052
53727.443351,16.207,0.05
53727.456127,16.258,0.054
53757.32657,16.305,0.05
53757.339306,16.233,0.046
53757.352028,16.207,0.046
53757.364875,16.249,0.05
53757.377628,16.277,0.052
53773.354333,15.69,0.031
53773.367092,15.804,0.033
53773.39319,15.847,0.033
53826.281011,16.226,0.038
53827.255744,15.953,0.028
53827.266454,15.983,0.028
53827.277231,16.041,0.03
53827.287857,16.01,0.03
53827.29867,16.043,0.031
53842.242751,16.254,0.068
53842.254326,16.2,0.068
53842.265904,16.245,0.073
53842.277477,16.282,0.081
53842.2892,16.1,0.068
53843.188818,16.205,0.048
53843.200577,16.241,0.05
53843.211998,16.298,0.054
53843.223313,16.252,0.052
53843.235217,16.185,0.048
53877.205653,16.236,0.153
53904.178556,16.27,0.067
53904.188523,16.3,0.07
53904.198593,16.284,0.072
53904.208669,16.321,0.078
54052.455181,15.929,0.044
54052.467642,15.992,0.05
54052.479898,16.011,0.048
54052.492157,16.052,0.052
54052.504483,16.059,0.057
54071.449223,16.361,0.081
54071.462207,16.65,0.092
54071.475123,16.577,0.074
54071.488025,16.47,0.061
54071.500762,16.51,0.061
54098.375524,16.402,0.061
54098.387725,16.432,0.058
54098.399877,16.446,0.056
54098.412206,16.451,0.056
54098.424495,16.495,0.054
54124.334917,15.814,0.025
54124.34743,15.854,0.026
54124.360134,15.903,0.026
54124.372583,15.878,0.028
54140.335676,16.185,0.048
54140.347846,16.157,0.043
54140.360217,16.187,0.043
54140.372231,16.175,0.045
54140.384398,16.22,0.046
54158.287518,15.688,0.048
54158.309511,15.847,0.051
54158.320653,15.847,0.051
54158.331587,15.855,0.051
54188.267015,16.155,0.101
54188.286668,16.07,0.117
54188.29664,16.068,0.096
54188.306418,16.229,0.107
54198.227153,16.249,0.05
54198.246398,16.281,0.237
54198.256013,16.268,0.046
54210.220465,15.932,0.036
54210.229501,15.883,0.033
54210.23822,15.8,0.031
54210.246918,15.699,0.028
54210.25586,15.64,0.028
54218.225022,16.31,0.144
54218.233662,16.126,0.098
54218.242236,16.155,0.096
54218.250838,16.223,0.105
54218.259438,16.215,0.105
54481.38596,16.301,0.058
54481.398481,16.321,0.059
54481.410581,16.466,0.081
54481.434926,16.434,0.064
54498.329079,16.307,0.054
54498.341513,16.335,0.058
54498.353334,16.332,0.058
54498.365163,16.377,0.056
54498.377029,16.448,0.063
54526.28062,16.081,0.038
54526.291889,16.115,0.04
54526.303269,16.125,0.04
54526.3147,16.141,0.04
54526.325859,16.142,0.041
54537.267652,15.748,0.04
54537.278595,15.783,0.051
54537.289621,15.867,0.058
54537.30068,15.935,0.054
54537.311697,15.85,0.049
54559.242116,16.464,0.071
54559.254347,16.302,0.063
54559.266123,16.448,0.071
54559.277655,16.388,0.066
54559.289052,16.395,0.068
54569.238615,16.342,0.063
54569.249709,16.358,0.064
54569.260631,16.32,0.063
54569.271567,16.366,0.066
54569.282481,16.362,0.066
54585.193062,15.607,0.087
54585.213201,15.687,0.12
54618.164386,16.04,0.079
54618.174985,16.01,0.087
54618.185218,16.099,0.086
54618.195622,16.125,0.078
54618.20644,16.05,0.074
