mjd,m,merr
52653.482865,15.012,0.018
52653.498462,15.019,0.016
52653.514346,15.034,0.018
52653.529246,15.045,0.016
52693.425003,14.888,0.015
52693.441603,14.913,0.017
52693.457071,14.944,0.017
52693.472494,14.975,0.017
52693.487799,14.977,0.017
52721.372675,14.826,0.013
52721.385583,14.79,0.013
52721.39851,14.817,0.013
52721.411387,14.802,0.013
52721.424261,14.829,0.013
52750.295972,15.061,0.018
52750.306566,15.092,0.017
52750.317164,15.078,0.02
52750.327764,15.086,0.02
52750.338362,15.105,0.02
52781.272054,15.263,0.023
52781.282682,15.27,0.023
52781.29344,15.275,0.023
52781.304928,15.257,0.023
52781.316058,15.243,0.023
52801.265304,15.292,0.054
52801.275395,15.3,0.054
52801.285458,15.383,0.055
52801.295623,15.293,0.054
52801.305748,15.286,0.052
52809.227033,15.227,0.018
52809.236897,15.229,0.02
52809.246694,15.255,0.018
52809.256704,15.249,0.02
52830.219033,14.945,0.024
52830.228974,14.977,0.026
52830.23891,14.986,0.026
52830.248824,14.955,0.026
52830.258727,15.025,0.026
52845.168045,15.179,0.027
52845.177867,15.176,0.024
52845.187775,15.207,0.022
52845.197595,15.191,0.022
52845.207411,15.246,0.022
52897.122552,15.154,0.02
52897.134293,15.152,0.02
52897.146041,15.145,0.02
52897.157878,15.17,0.024
52897.169732,15.192,0.028
53045.385772,15.263,0.031
53045.397024,15.233,0.03
53045.408301,15.289,0.03
53045.419563,15.294,0.028
53045.430746,15.29,0.03
53096.377469,14.924,0.02
53096.387556,14.964,0.02
53096.397602,14.958,0.02
53096.407648,14.97,0.02
53096.417753,15.014,0.02
53108.355703,14.934,0.013
53108.366759,14.928,0.013
53108.377851,14.948,0.013
53108.38893,14.957,0.013
53108.400042,14.962,0.015
53125.295822,15.187,0.03
53125.305764,15.209,0.03
53125.325705,15.2,0.028
53125.335732,15.186,0.028
53134.290792,14.83,0.015
53134.300349,14.822,0.017
53134.309878,14.809,0.017
53134.319389,14.835,0.017
53155.257369,15.163,0.028
53155.266162,15.139,0.028
53155.274924,15.163,0.028
53155.283703,15.166,0.03
53155.292472,15.163,0.03
53163.278797,15.221,0.061
53193.24583,15.1,0.028
53193.25593,15.096,0.022
53193.266021,15.084,0.022
53244.139204,15.201,0.028
53244.149406,15.188,0.028
53244.159592,15.214,0.03
53244.169784,15.182,0.028
53244.179985,15.212,0.03
53283.112724,14.855,0.015
53283.122901,14.873,0.015
53283.133093,14.862,0.017
53283.143306,14.851,0.018
53283.153491,14.919,0.017
53390.472392,14.833,0.013
53390.485101,14.805,0.013
53390.497794,14.812,0.013
53390.51049,14.838,0.013
53390.523654,14.847,0.013
53400.435987,14.94,0.02
53400.448489,14.886,0.018
53400.460923,14.858,0.017
53400.473356,14.844,0.031
53429.3875,15.062,0.02
53429.398782,15.06,0.02
53429.410082,15.07,0.02
53429.421367,15.084,0.02
53429.432656,15.124,0.02
53461.384851,15.051,0.017
53461.395209,15.063,0.017
53461.40551,15.061,0.017
53461.415843,15.081,0.017
53461.426188,15.101,0.017
53489.315892,14.926,0.017
53489.340269,14.984,0.017
53489.351576,14.987,0.017
53535.225357,14.887,0.017
53535.235349,14.863,0.017
53535.245377,14.875,0.015
53535.25539,14.884,0.017
53535.265398,14.871,0.017
53563.24266,14.787,0.017
53563.253234,14.812,0.017
53563.263807,14.819,0.015
53599.150426,15.291,0.031
53599.163038,15.269,0.033
53599.175636,15.256,0.031
53599.188239,15.176,0.03
53599.200831,15.109,0.03
53607.134514,15.187,0.024
53607.146007,15.279,0.022
53607.168883,15.279,0.037
53635.108324,15.192,0.022
53635.118901,15.224,0.02
53635.129335,15.262,0.02
53635.139756,15.269,0.02
53635.150175,15.275,0.024
53755.467592,14.913,0.018
53755.480349,14.934,0.018
53755.493153,14.952,0.018
53755.506005,14.944,0.018
53755.518872,14.992,0.018
53803.406183,14.837,0.015
53803.419264,14.849,0.015
53803.443237,14.858,0.013
53803.455218,14.887,0.013
53829.318911,15.314,0.168
53829.33049,15.249,0.096
53829.341102,15.161,0.125
53829.351683,15.118,0.087
53829.362278,15.031,0.107
53833.317767,15.259,0.021
53833.329485,15.252,0.025
53833.340917,15.195,0.018
53833.352012,15.106,0.018
53833.363137,15.036,0.016
53858.297977,15.007,0.018
53858.308086,15.033,0.02
53858.318013,15.053,0.046
53858.327936,15.047,0.071
53876.263915,14.958,0.013
53876.274882,14.982,0.015
53876.296642,14.918,0.018
53876.307517,15.141,0.015
53905.221693,15.205,0.02
53905.231534,15.183,0.02
53905.241263,15.198,0.02
53905.250966,15.205,0.02
53905.264488,15.219,0.02
53933.215901,15.221,0.02
53933.226167,15.204,0.026
53933.246891,15.222,0.02
53933.257162,15.215,0.02
53955.156342,15.116,0.041
53955.168551,15.166,0.044
53955.180784,15.179,0.044
53955.193018,15.209,0.046
53955.205065,15.212,0.048
53991.11555,15.103,0.023
53991.127946,15.119,0.023
53991.139903,15.152,0.021
53991.151514,15.175,0.023
53991.163435,15.146,0.023
54021.076983,15.1,0.02
54108.455425,15.029,0.026
54108.468229,15.098,0.03
54108.480969,15.033,0.026
54108.493759,15.085,0.026
54108.50651,15.057,0.024
54139.393747,15.179,0.054
54139.405534,15.187,0.051
54139.417873,15.252,0.049
54139.429758,15.293,0.043
54139.441861,15.24,0.035
54157.390619,15.157,0.025
54157.401929,15.203,0.023
54157.412883,15.209,0.023
54157.423849,15.189,0.021
54157.434807,15.21,0.021
54524.398387,15.321,0.025
54524.410017,15.352,0.028
54524.421489,15.312,0.025
54524.433522,15.319,0.025
54524.445461,15.304,0.023
54539.370646,15.023,0.02
54539.38146,15.018,0.018
54539.39214,15.019,0.02
54539.403331,15.048,0.02
54539.414853,15.062,0.02
54571.302078,14.903,0.025
54571.313264,14.903,0.023
54571.324391,14.951,0.025
54587.3206,14.833,0.013
54620.264433,15.104,0.025
54620.274766,15.154,0.023
54620.28558,15.198,0.025
54620.295751,15.163,0.025
54620.305944,15.178,0.025
