mjd,m,merr
52707.44772,15.697,0.026
52707.461541,15.739,0.028
52707.475406,15.732,0.026
52707.488802,15.807,0.03
52707.502069,15.82,0.028
52711.451022,15.753,0.024
52711.464768,15.748,0.026
52711.478578,15.639,0.022
52711.492322,15.516,0.02
52738.359225,15.557,0.02
52738.371932,15.576,0.02
52738.383479,15.616,0.022
52738.394965,15.666,0.022
52738.40652,15.714,0.022
52739.357992,15.587,0.026
52739.36927,15.637,0.024
52739.380584,15.711,0.028
52739.392044,15.706,0.028
52739.403346,15.749,0.028
52755.325299,15.615,0.026
52755.337284,15.645,0.028
52755.349317,15.704,0.028
52755.361375,15.718,0.028
52755.373453,15.775,0.03
52756.310396,15.606,0.026
52756.322359,15.642,0.028
52756.334239,15.729,0.031
52756.346145,15.749,0.03
52756.35806,15.767,0.031
52757.324727,15.761,0.031
52757.330201,15.797,0.038
52757.336813,15.772,0.031
52757.342411,15.813,0.036
52757.348749,15.793,0.03
52757.35438,15.763,0.033
52757.360721,15.773,0.03
52757.366998,15.801,0.035
52757.372683,15.773,0.028
52757.379363,15.776,0.033
52770.274662,15.436,0.03
52770.28637,15.504,0.03
52770.298466,15.534,0.03
52770.310108,15.615,0.031
52770.321995,15.599,0.031
52799.268153,15.431,0.056
52799.278423,15.467,0.056
52799.288648,15.48,0.059
52799.309177,15.611,0.066
52819.225166,15.669,0.038
52819.235016,15.656,0.038
52819.24485,15.731,0.038
52819.254676,15.735,0.038
52819.264526,15.8,0.043
52825.223498,15.583,0.031
52825.233523,15.503,0.03
52825.243558,15.429,0.028
52825.253637,15.392,0.026
52825.263709,15.388,0.026
53033.464269,15.66,0.031
53033.476419,15.593,0.028
53033.488674,15.474,0.025
53033.500918,15.423,0.023
53033.513321,15.38,0.023
53053.46906,15.441,0.041
53053.484975,15.466,0.033
53053.496693,15.522,0.026
53053.510823,15.562,0.033
53065.396162,15.683,0.033
53065.407428,15.64,0.024
53065.418704,15.515,0.02
53065.430238,15.445,0.024
53065.441604,15.401,0.028
53079.421313,15.624,0.022
53079.432945,15.533,0.02
53079.443697,15.443,0.02
53079.454853,15.414,0.018
53079.465624,15.403,0.018
53093.3725,15.803,0.021
53093.38232,15.8,0.02
53093.392265,15.811,0.02
53093.402223,15.751,0.02
53093.41416,15.734,0.018
53110.348105,15.76,0.026
53110.358942,15.757,0.026
53110.370007,15.676,0.024
53110.38084,15.626,0.024
53110.391854,15.526,0.022
53121.304037,15.613,0.018
53121.314529,15.648,0.024
53121.325027,15.636,0.022
53121.335613,15.688,0.024
53121.346104,15.74,0.026
53138.299247,15.757,0.028
53138.30891,15.777,0.026
53138.318574,15.781,0.026
53138.328258,15.79,0.026
53138.337885,15.785,0.026
53166.288655,15.621,0.024
53166.298055,15.626,0.026
53166.307519,15.681,0.026
53166.316925,15.696,0.028
53166.326329,15.748,0.03
53177.226536,15.374,0.018
53177.236314,15.373,0.018
53177.24618,15.367,0.018
53177.255958,15.337,0.017
53177.265737,15.333,0.017
53447.410754,15.412,0.018
53447.421145,15.377,0.018
53447.431448,15.355,0.024
53447.441748,15.447,0.067
53447.452069,15.392,0.039
53468.439002,15.747,0.028
53468.451572,15.745,0.028
53468.461026,15.783,0.03
53468.471021,15.779,0.028
53503.375593,15.722,0.046
53503.384299,15.761,0.028
53503.39356,15.753,0.035
53503.40226,15.741,0.05
53503.411016,15.733,0.044
53522.266758,15.791,0.031
53522.277058,15.729,0.03
53522.287324,15.732,0.03
53522.297589,15.691,0.028
53522.307807,15.696,0.028
53550.226913,15.646,0.037
53550.236867,15.738,0.035
53580.163384,15.519,0.026
53580.174784,15.571,0.028
53580.186186,15.648,0.052
53580.197584,15.688,0.039
53580.208987,15.634,0.065
53790.465142,15.767,0.028
53790.476864,15.829,0.031
53790.48877,15.832,0.033
53790.500623,15.802,0.038
53790.513933,15.781,0.031
53799.407547,15.374,0.018
53799.419512,15.354,0.018
53799.431451,15.349,0.018
53799.443403,15.414,0.018
53799.45532,15.419,0.02
53818.398247,15.538,0.023
53818.409425,15.568,0.023
53818.420584,15.61,0.025
53818.431799,15.659,0.026
53818.443027,15.696,0.028
53845.306248,15.531,0.03
53845.317519,15.425,0.03
53845.328904,15.396,0.026
53845.340121,15.407,0.026
53845.35137,15.359,0.033
53851.29837,15.482,0.03
53851.308638,15.524,0.03
53851.319105,15.555,0.03
53851.329566,15.552,0.03
53851.34043,15.637,0.031
53880.269358,15.354,0.024
53880.28054,15.402,0.026
53880.291728,15.429,0.026
53880.302905,15.45,0.026
53880.3141,15.515,0.028
53885.280243,15.768,0.037
53885.292056,15.779,0.039
53885.303837,15.796,0.037
53885.31564,15.821,0.041
53885.327458,15.777,0.039
53901.245204,15.661,0.064
53912.225012,15.445,0.048
53912.264731,15.572,0.089
53937.170339,15.77,0.041
53937.190571,15.674,0.04
53937.210995,15.648,0.038
53955.151336,15.452,0.056
53955.162891,15.434,0.059
53955.174599,15.346,0.054
53955.186416,15.352,0.056
53955.197988,15.312,0.058
53975.133577,15.466,0.03
53975.144009,15.475,0.031
53975.154396,15.511,0.033
53975.16487,15.533,0.035
53975.175964,15.618,0.04
54152.461881,15.564,0.017
54152.473856,15.597,0.017
54152.485901,15.661,0.018
54152.497889,15.689,0.018
54152.509938,15.731,0.018
54173.376727,15.712,0.035
54173.387372,15.755,0.031
54173.398237,15.741,0.033
54173.40944,15.776,0.03
54173.420083,15.757,0.031
54185.377502,15.532,0.03
54185.387657,15.539,0.028
54185.401282,15.603,0.03
54185.411481,15.666,0.03
54185.421593,15.648,0.031
54201.334109,15.587,0.033
54201.34338,15.57,0.033
54201.352901,15.658,0.035
54201.362529,15.676,0.033
54201.371974,15.686,0.033
54558.303601,15.792,0.043
54558.315188,15.757,0.037
54558.338478,15.836,0.091
54558.350259,15.783,0.046
54580.307056,15.434,0.041
54580.31739,15.479,0.043
54580.327639,15.458,0.041
54580.337858,15.536,0.045
54580.348114,15.644,0.048
54591.289825,15.662,0.051
54591.299481,15.5,0.045
54591.309106,15.476,0.046
54591.318692,15.432,0.041
54591.328278,15.415,0.041
54611.245933,15.349,0.035
54611.254212,15.398,0.036
54611.262437,15.407,0.036
54611.270727,15.424,0.036
54611.278971,15.455,0.04
