mjd,m,merr
52698.448252,15.101,0.017
52698.461821,14.984,0.015
52698.475073,14.751,0.013
52698.488383,14.526,0.009
52698.501908,14.45,0.009
52712.386934,15.065,0.025
52712.400482,15.073,0.023
52712.401084,15.156,0.03
52712.413689,15.115,0.023
52712.414291,15.151,0.03
52712.426748,15.122,0.023
52712.427352,15.149,0.028
52712.439807,15.147,0.021
52754.338705,14.997,0.018
52754.351003,15.031,0.018
52754.351116,15.062,0.026
52754.363447,15.066,0.018
52754.375918,15.061,0.018
52754.376031,15.107,0.028
52754.388757,15.073,0.02
52771.275396,15.162,0.03
52771.287275,15.154,0.03
52771.298688,15.168,0.03
52771.310209,15.188,0.03
52771.321863,15.143,0.028
52820.22573,15.181,0.02
52820.235681,15.202,0.02
52820.245633,15.194,0.02
52820.255564,15.196,0.02
52820.265462,15.216,0.02
52826.22314,14.844,0.018
52826.232633,14.854,0.013
52826.233344,14.866,0.018
52826.24282,14.883,0.013
52826.243463,14.939,0.018
52826.252914,14.929,0.013
52826.253556,14.945,0.02
52826.262942,14.956,0.013
52826.263716,14.976,0.02
52848.166795,15.167,0.02
52848.177134,15.143,0.02
52848.197637,14.932,0.018
52848.20791,14.806,0.017
53034.456601,15.288,0.026
53034.468483,15.316,0.025
53034.480298,15.281,0.023
53034.492331,15.315,0.023
53034.504181,15.279,0.023
53052.450682,15.018,0.015
53052.46236,15.042,0.015
53052.47401,15.054,0.015
53052.485706,15.067,0.015
53052.497362,15.087,0.015
53065.421028,15.158,0.015
53065.432689,15.114,0.016
53065.444262,15.088,0.018
53065.46743,14.996,0.023
53079.390999,15.096,0.018
53079.402142,15.074,0.016
53079.413016,15.119,0.016
53079.435074,15.153,0.018
53110.346607,15.073,0.016
53110.357279,15.082,0.016
53110.368526,15.093,0.018
53110.37987,15.132,0.018
53110.39034,15.163,0.018
53122.302738,15.245,0.017
53122.31317,15.259,0.017
53122.323668,15.27,0.017
53122.334099,15.271,0.017
53122.344515,15.293,0.017
53138.295919,15.234,0.018
53138.295937,15.232,0.02
53138.299048,15.235,0.02
53138.30552,15.266,0.02
53138.305559,15.265,0.018
53138.308602,15.281,0.02
53138.315037,15.284,0.02
53138.315251,15.271,0.018
53138.318121,15.304,0.02
53138.324593,15.269,0.02
53138.324935,15.27,0.018
53138.32775,15.283,0.02
53138.334564,15.262,0.018
53139.293436,14.384,0.008
53139.294661,14.389,0.009
53139.30334,14.381,0.008
53139.304247,14.404,0.009
53139.313059,14.422,0.01
53139.313845,14.428,0.009
53139.323054,14.467,0.01
53139.32344,14.482,0.009
53139.332954,14.522,0.01
53139.33322,14.545,0.011
53153.257733,15.176,0.017
53153.266612,15.179,0.017
53153.275396,15.164,0.017
53153.284182,15.173,0.017
53153.293235,15.161,0.017
53166.226451,14.542,0.013
53166.236205,14.569,0.013
53166.245859,14.589,0.013
53166.255564,14.611,0.013
53166.265262,14.637,0.013
53178.228693,14.787,0.022
53178.238674,14.86,0.037
53178.248746,14.902,0.018
53178.268723,14.93,0.026
53241.15921,15.142,0.031
53441.468992,14.638,0.011
53441.481242,14.722,0.011
53441.492987,14.788,0.013
53471.371274,15.044,0.017
53471.381706,14.908,0.015
53471.391429,14.766,0.013
53471.401964,14.631,0.011
53471.411972,14.544,0.011
53501.317479,15.146,0.018
53501.333634,15.12,0.018
53501.346399,15.083,0.018
53501.357293,14.971,0.017
53501.367966,14.88,0.015
53502.318132,14.597,0.013
53502.334967,14.629,0.013
53502.349782,14.684,0.013
53502.361054,14.738,0.013
53502.371446,14.784,0.015
53503.322117,15.015,0.013
53503.331167,15.023,0.013
53503.340398,15.02,0.013
53503.35054,15.066,0.015
53503.361394,15.08,0.015
53504.27927,15.11,0.018
53504.288051,15.165,0.02
53504.297274,15.167,0.02
53504.308008,15.184,0.02
53504.317633,15.187,0.02
53529.266377,14.866,0.017
53529.276779,14.648,0.013
53529.287871,14.444,0.011
53529.299163,14.385,0.011
53529.312124,14.4,0.011
53531.2019,14.959,0.02
53531.212182,15.004,0.024
53531.224144,15.011,0.022
53531.237858,15.088,0.054
53531.251391,15.092,0.043
53532.212502,15.177,0.026
53532.243648,15.304,0.024
53532.254519,15.27,0.024
53533.21424,15.206,0.024
53533.224193,15.144,0.022
53533.254111,14.576,0.015
53534.25777,14.837,0.017
53534.267468,14.866,0.017
53534.277174,14.911,0.017
53534.287066,14.949,0.018
53534.296978,14.999,0.018
53551.225752,15.176,0.02
53551.235713,15.195,0.02
53551.245641,15.21,0.022
53551.255758,15.2,0.02
53551.265721,15.187,0.02
53581.198138,15.246,0.018
53581.209698,15.246,0.018
53581.22125,15.253,0.02
53581.232777,15.26,0.02
53581.244343,15.246,0.022
53625.113215,14.7,0.018
53625.124601,14.599,0.017
53625.136009,14.519,0.017
53625.147379,14.557,0.017
53625.158744,14.539,0.018
53788.426362,15.239,0.02
53788.438883,15.248,0.02
53788.451492,15.253,0.02
53788.464161,15.188,0.02
53788.476627,15.079,0.018
53813.43111,15.048,0.025
53813.442545,15.094,0.026
53813.454024,15.062,0.026
53813.465456,15.103,0.026
53813.477105,15.147,0.028
53844.347035,14.991,0.023
53844.35814,15.032,0.023
53844.369152,15.054,0.025
53844.380217,15.056,0.025
53844.391435,15.073,0.025
53852.300482,15.04,0.021
53852.311068,15.067,0.021
53852.332844,15.112,0.021
53852.343572,15.096,0.021
53881.274526,14.594,0.015
53881.285564,14.608,0.015
53881.29661,14.64,0.017
53881.307685,14.646,0.017
53881.318774,14.666,0.015
53887.268126,15.165,0.023
53887.278449,15.221,0.025
53887.288762,15.237,0.025
53887.299133,15.287,0.026
53887.309495,15.246,0.025
53902.226684,15.084,0.024
53902.236498,15.102,0.024
53902.246356,15.11,0.024
53902.25655,15.126,0.026
53902.266485,15.153,0.026
53914.224452,15.144,0.048
53931.21883,14.594,0.018
53931.250009,14.718,0.024
53940.170111,14.994,0.025
53940.180653,15.094,0.051
53940.191548,15.067,0.031
53940.202112,15.105,0.031
53940.216127,15.138,0.03
53979.131729,15.121,0.028
53979.142909,15.148,0.028
54154.445328,15.084,0.018
54154.456933,15.106,0.018
54154.468637,15.121,0.018
54154.480055,15.135,0.02
54154.491475,15.128,0.02
54169.385163,15.058,0.028
54169.396102,15.045,0.028
54169.407055,15.059,0.028
54169.417978,15.083,0.028
54169.428901,15.131,0.035
54208.304675,15.157,0.021
54208.31331,15.191,0.023
54208.322059,15.176,0.021
54208.330683,15.182,0.02
54208.339674,15.202,0.02
54560.310727,15.096,0.011
54560.322131,15.128,0.011
54560.333642,15.137,0.011
54560.345033,15.162,0.011
54560.356406,15.165,0.011
54581.289755,14.597,0.026
54581.299522,14.477,0.025
54581.309293,14.393,0.023
54581.318965,14.412,0.023
54581.328679,14.429,0.023
54594.31901,15.163,0.035
54594.3286,15.18,0.036
54594.338003,15.218,0.036
54594.347623,15.222,0.036
54594.357937,15.167,0.035
54612.253957,14.526,0.018
54612.262513,14.554,0.018
54612.271783,14.619,0.02
54612.280483,14.641,0.02
54612.28903,14.657,0.021
