mjd,m,merr
52665.464104,14.088,0.007
52665.4784,14.126,0.007
52665.492695,14.154,0.007
52665.507107,14.204,0.007
52665.521429,14.214,0.007
52677.460269,13.301,0.006
52677.47454,13.313,0.006
52677.488827,13.383,0.006
52677.503151,13.463,0.006
52677.517437,13.54,0.006
52706.444527,14.015,0.008
52706.445129,14.63,0.015
52706.459892,13.68,0.007
52706.474276,13.313,0.005
52706.474878,14.111,0.01
52706.489309,13.319,0.005
52706.50889,13.358,0.005
52724.41715,14.072,0.007
52724.428915,14.077,0.007
52724.440479,14.091,0.007
52724.45203,14.076,0.007
52724.463589,14.093,0.007
52753.323477,13.944,0.007
52753.335494,13.993,0.007
52753.34752,14.02,0.007
52753.359594,14.026,0.007
52753.371635,14.043,0.007
52772.274427,13.745,0.009
52772.297998,13.843,0.009
52787.270191,14.083,0.007
52787.28092,14.11,0.007
52787.291528,14.153,0.007
52787.302157,14.156,0.007
52787.3129,14.102,0.007
52798.293654,13.115,0.005
52798.304955,13.147,0.005
52798.315254,13.167,0.005
52798.325722,13.262,0.005
52811.228021,13.565,0.007
52811.237831,13.586,0.007
52811.247639,13.636,0.007
52811.257446,13.652,0.007
52811.267282,13.688,0.007
52826.222215,14.072,0.009
52826.232157,14.068,0.007
52826.242025,14.089,0.009
52826.251984,14.084,0.007
52826.261847,14.067,0.009
52842.251736,13.89,0.009
52847.177268,14.083,0.009
52847.187412,14.054,0.009
52847.197595,14.068,0.009
52847.208163,14.071,0.009
53034.46559,14.027,0.007
53034.477955,14.113,0.007
53034.490488,14.077,0.007
53034.5029,14.114,0.007
53034.515249,14.143,0.007
53050.392931,14.173,0.015
53050.40458,14.044,0.009
53050.416316,13.816,0.006
53053.516957,14.084,0.009
53109.301939,14.099,0.007
53109.323356,14.084,0.007
53109.334211,14.09,0.007
53109.345011,14.112,0.007
53137.294462,14.085,0.007
53137.303942,14.073,0.007
53137.313427,14.066,0.007
53137.322961,14.104,0.007
53137.332446,14.093,0.007
53138.295821,14.058,0.007
53138.30546,14.064,0.007
53138.315153,14.088,0.007
53138.324837,14.086,0.007
53138.334465,14.104,0.007
53139.294292,14.105,0.007
53139.303878,14.112,0.007
53139.313474,14.155,0.007
53139.323068,14.185,0.007
53139.332848,14.212,0.007
53165.267281,13.892,0.007
53165.2774,13.919,0.007
53165.287509,13.953,0.007
53165.297619,14.001,0.007
53165.307777,13.99,0.007
53242.137354,13.678,0.007
53242.147515,13.4,0.005
53242.157977,13.343,0.005
53242.167939,13.287,0.005
53264.108172,13.684,0.005
53264.119714,13.796,0.005
53264.131202,13.806,0.007
53264.142734,13.821,0.007
53264.154208,13.682,0.007
53439.386165,14.126,0.007
53439.397273,14.103,0.007
53439.408452,14.109,0.007
53439.419582,14.116,0.007
53439.430735,14.123,0.007
53442.323607,14.091,0.007
53442.334429,14.09,0.007
53442.345272,14.094,0.007
53442.356104,14.109,0.007
53442.367209,14.166,0.007
53473.44277,13.584,0.006
53473.452467,13.63,0.006
53473.462124,13.665,0.006
53500.30197,14.069,0.007
53500.314606,14.067,0.007
53500.325026,14.067,0.007
53528.275546,13.905,0.007
53528.28663,13.918,0.007
53528.298137,13.958,0.007
53528.30936,13.998,0.009
53528.320506,13.999,0.009
53539.223755,13.941,0.011
53539.233361,13.993,0.011
53539.242936,14.058,0.011
53539.252496,13.972,0.013
53539.262053,14.092,0.013
53553.228153,14.183,0.009
53553.238525,14.115,0.009
53553.248944,14.015,0.007
53553.259296,13.695,0.006
53553.269651,13.436,0.006
53570.218375,14.158,0.017
53570.229035,14.283,0.018
53570.239693,14.284,0.018
53570.250356,14.259,0.018
53576.172626,13.446,0.004
53576.216396,13.644,0.006
53583.166203,14.072,0.007
53583.17752,14.098,0.007
53583.18878,14.159,0.007
53583.200053,14.167,0.007
53583.21134,14.157,0.007
53626.113727,13.465,0.006
53626.125251,13.571,0.007
53626.13674,13.622,0.007
53626.148206,13.683,0.007
53626.15974,13.794,0.009
53771.524575,14.077,0.013
53771.537581,14.049,0.009
53786.417778,13.391,0.006
53786.442049,13.581,0.006
53786.454084,13.593,0.006
53843.368217,14.147,0.012
53843.379568,14.087,0.012
53843.391177,14.157,0.012
53843.402891,14.161,0.012
53843.414517,14.234,0.012
53882.277403,14.061,0.008
53882.28822,14.087,0.008
53882.299046,14.079,0.008
53882.309664,14.11,0.008
53886.279994,13.408,0.006
53886.291108,13.212,0.006
53886.30212,13.212,0.006
53886.313144,13.212,0.006
53886.324206,13.259,0.006
53903.228076,14.049,0.009
53903.237989,14.056,0.009
53903.247994,14.046,0.011
53903.257963,14.05,0.009
53903.267947,14.078,0.009
53916.237605,13.824,0.012
53916.247491,13.501,0.007
53916.257246,13.246,0.005
53931.221933,13.961,0.01
53931.232044,13.915,0.012
53931.242239,13.942,0.012
53971.137496,13.783,0.013
53971.148625,13.841,0.01
53971.159548,13.868,0.008
53971.170175,13.889,0.01
53971.180817,13.957,0.01
54123.450948,13.995,0.009
54123.463354,14.054,0.007
54123.47574,14.069,0.007
54123.488163,14.09,0.007
54123.500585,14.114,0.007
54156.380733,14.108,0.008
54156.39174,14.082,0.008
54156.402788,14.081,0.008
54156.413897,14.085,0.007
54156.425061,14.081,0.007
54206.319736,14.089,0.008
54206.329042,14.038,0.008
54206.338369,14.116,0.008
54206.347907,14.078,0.008
54206.357252,14.056,0.008
54529.380158,14.04,0.012
54529.391603,14.093,0.012
54529.402852,14.095,0.012
54529.4141,14.158,0.012
54529.426689,14.17,0.012
54562.257458,14.127,0.016
54562.282739,13.729,0.012
54562.3061,13.182,0.008
54574.296762,13.743,0.007
54574.307433,13.772,0.007
54574.318115,13.776,0.007
54574.328797,13.773,0.007
54574.339489,13.801,0.007
54582.297414,13.1,0.01
54582.307623,13.253,0.01
54582.318426,13.341,0.01
54582.328588,13.339,0.012
54582.338755,13.456,0.012
54613.260173,13.48,0.01
54613.270615,13.517,0.01
54613.280864,13.523,0.012
54613.291369,13.566,0.012
54613.301653,13.703,0.012
