mjd,m,merr
52681.426848,17.132,0.112
52681.442076,17.105,0.114
52681.456949,17.173,0.119
52681.471697,17.073,0.106
52681.486406,16.955,0.104
52723.367654,16.756,0.069
52723.417625,16.82,0.076
52752.346914,16.459,0.063
52752.358273,16.423,0.059
52752.369083,16.513,0.069
52752.379668,16.489,0.068
52752.390568,16.468,0.069
52800.26824,16.358,0.109
52800.278321,16.416,0.118
52800.288329,16.347,0.105
52800.298338,16.541,0.118
52800.30838,16.48,0.111
52810.22934,16.71,0.109
52810.239143,16.966,0.113
52810.268506,16.894,0.089
52812.27348,16.966,0.08
52812.283398,16.881,0.076
52812.293297,16.948,0.08
52812.303127,16.963,0.08
52812.313003,16.967,0.083
52839.167155,16.368,0.055
52839.177181,16.415,0.094
52839.187269,16.452,0.059
52872.141155,16.461,0.083
52872.153234,16.103,0.118
53023.458618,17.132,0.092
53023.470713,17.018,0.079
53023.482855,16.959,0.068
53023.494881,16.966,0.068
53023.506957,16.955,0.066
53035.477477,16.388,0.053
53035.489619,16.472,0.054
53035.501865,16.494,0.058
53035.514045,16.518,0.056
53035.526446,16.545,0.056
53037.478562,16.694,0.064
53037.490933,16.702,0.061
53037.503919,16.801,0.068
53037.516946,16.821,0.064
53037.529585,16.736,0.061
53046.467366,16.202,0.052
53046.480473,16.266,0.054
53046.492473,16.209,0.05
53046.504405,16.317,0.057
53046.51641,16.245,0.054
53107.35073,16.477,0.043
53107.361742,16.311,0.037
53107.373315,16.276,0.037
53107.384387,16.238,0.037
53107.395412,16.315,0.043
53127.297403,17.119,0.163
53127.307491,16.849,0.122
53127.317609,16.988,0.137
53127.327832,17.009,0.137
53127.337903,16.959,0.131
53136.290341,16.884,0.098
53136.299633,16.958,0.078
53136.308985,16.912,0.076
53136.31842,16.943,0.078
53136.327756,16.946,0.08
53154.294785,16.817,0.093
53154.303623,16.721,0.081
53154.312395,16.777,0.083
53154.321164,16.81,0.087
53154.329997,16.726,0.081
53164.27008,16.907,0.068
53164.280226,17.009,0.083
53164.29037,17.052,0.093
53164.300587,17.036,0.096
53164.310733,17.007,0.102
53181.233276,16.236,0.045
53181.243011,16.266,0.045
53181.262505,16.269,0.054
53181.272192,16.288,0.043
53194.223036,16.332,0.068
53194.233053,16.289,0.061
53194.243073,16.324,0.065
53194.253151,16.416,0.072
53194.263185,16.391,0.065
53264.11125,17.013,0.087
53264.122702,16.961,0.083
53264.134142,16.919,0.081
53264.145582,16.66,0.067
53264.157025,16.456,0.057
53422.405025,16.912,0.229
53422.416977,16.781,0.174
53422.428901,16.703,0.159
53422.441451,16.739,0.167
53422.453368,16.76,0.102
53450.384818,16.922,0.107
53450.395432,16.765,0.089
53450.405951,16.775,0.091
53450.416496,16.896,0.102
53450.427059,16.86,0.096
53475.32172,16.976,0.089
53475.331535,17.027,0.091
53475.341345,17.134,0.1
53475.351709,17.043,0.089
53475.362543,17.07,0.093
53520.28482,16.62,0.074
53520.295415,16.631,0.072
53520.305934,16.657,0.074
53520.316589,16.689,0.076
53537.228229,16.769,0.15
53537.238114,16.867,0.155
53537.268271,16.647,0.131
53605.142196,16.59,0.063
53605.153219,16.608,0.07
53605.164248,16.601,0.08
53605.175281,16.591,0.091
53605.186328,16.516,0.098
53628.112979,17.024,0.167
53628.125165,16.987,0.163
53628.137392,16.923,0.155
53628.149533,16.761,0.139
53628.161688,16.882,0.163
53772.481832,16.875,0.087
53772.494814,16.917,0.091
53772.507653,16.988,0.093
53772.520482,16.869,0.083
53772.533435,16.929,0.089
53807.392513,16.673,0.133
53825.34697,16.188,0.107
53825.358711,16.264,0.059
53825.370039,16.269,0.066
53825.381308,16.375,0.081
53825.392538,16.445,0.078
53843.361423,17.1,0.163
53843.372617,17.025,0.152
53843.383844,16.988,0.148
53843.395068,16.939,0.144
53843.406313,16.901,0.144
53855.296639,16.642,0.074
53855.307672,16.748,0.084
53855.318015,16.661,0.078
53855.328341,16.763,0.078
53855.3385,16.738,0.074
53878.293506,16.904,0.104
53878.304102,16.859,0.106
53878.314693,17.044,0.12
53878.325366,16.937,0.109
53878.335995,17.042,0.12
53892.264817,16.853,0.17
53892.304643,16.855,0.244
53903.239808,16.717,0.087
53903.249539,16.771,0.092
53903.25923,16.605,0.079
53903.268852,16.807,0.096
53903.278459,16.718,0.091
53917.221976,17.261,0.19
53917.231663,17.25,0.292
53917.241604,17.066,0.19
53917.251362,17.196,0.175
53917.261089,17.274,0.19
53932.222954,16.54,0.076
53932.233291,16.471,0.102
53932.243701,16.434,0.084
53932.25407,16.303,0.083
53932.264354,16.304,0.084
53997.112613,16.43,0.056
53997.124648,16.439,0.058
53997.136703,16.404,0.059
53997.149445,16.506,0.073
53997.161539,16.553,0.076
54169.384182,16.408,0.055
54169.395264,16.23,0.046
54169.406354,16.259,0.046
54169.417582,16.231,0.044
54169.428687,16.302,0.055
54200.328832,16.905,0.068
54200.339838,16.968,0.072
54200.350074,16.968,0.072
54200.360748,16.905,0.072
54200.370803,16.936,0.076
54209.308597,16.856,0.244
54209.317566,16.979,0.116
54209.326349,16.907,0.188
54209.335432,16.943,0.162
54209.344292,17.055,0.135
54217.294259,16.96,0.115
54217.302994,16.89,0.105
54217.311831,16.599,0.081
54217.320559,16.478,0.07
54217.329268,16.416,0.067
54218.316613,16.948,0.153
54218.325915,16.865,0.14
54218.334894,16.926,0.149
54218.343691,16.975,0.158
54218.352762,17.011,0.155
54509.446765,17.032,0.086
54509.459124,16.985,0.086
54509.471897,17.147,0.096
54509.484794,17.065,0.089
54509.496912,17.114,0.094
54536.380513,16.721,0.068
54536.391384,16.798,0.073
54536.402234,16.783,0.069
54536.413093,16.806,0.071
54536.424072,16.829,0.073
54560.359976,16.854,0.101
54560.371405,16.74,0.089
54560.382789,17.032,0.114
54560.394182,16.923,0.104
54560.405795,16.889,0.099
54584.295611,16.788,0.094
54584.305835,16.874,0.101
54584.315999,16.896,0.102
54584.326505,16.808,0.097
54584.336646,16.802,0.094
