mjd,m,merr
52693.425831,16.56,0.065
52693.442419,16.421,0.057
52693.457862,16.191,0.046
52693.473345,16.23,0.048
52693.488578,16.075,0.043
52721.373483,16.484,0.055
52721.386392,16.694,0.065
52721.399315,16.569,0.059
52721.412207,16.368,0.05
52721.425065,16.269,0.046
52750.339078,16.153,0.046
52750.349895,16.158,0.061
52750.360644,16.108,0.054
52750.371495,16.109,0.098
52781.269216,16.138,0.039
52781.279923,16.167,0.039
52781.290601,16.254,0.041
52781.301515,16.249,0.043
52781.312329,16.469,0.052
52801.265572,16.592,0.167
52801.275662,16.537,0.161
52801.285728,16.36,0.135
52801.29589,16.276,0.128
52801.306086,16.103,0.105
52809.227306,16.13,0.041
52809.237171,16.11,0.041
52809.246964,16.193,0.043
52809.256979,16.239,0.044
52830.219312,16.167,0.07
52830.229246,16.12,0.068
52830.239183,16.075,0.067
52830.249095,16.125,0.068
52830.258996,16.109,0.068
52846.166977,16.15,0.053
52846.177037,16.176,0.052
52846.187129,16.252,0.055
52846.197178,16.367,0.06
52846.207208,16.494,0.071
52897.123315,16.106,0.044
52897.135069,16.097,0.044
52897.146801,16.14,0.048
52897.158783,16.209,0.059
52897.170492,16.262,0.07
53045.386063,16.162,0.065
53045.397315,16.171,0.065
53045.408592,16.237,0.065
53045.419853,16.382,0.072
53045.431037,16.605,0.089
53096.377741,16.152,0.059
53096.387828,16.27,0.065
53096.397874,16.29,0.065
53096.407921,16.503,0.078
53096.418026,16.639,0.087
53108.355982,16.279,0.037
53108.367037,16.213,0.035
53108.378124,16.174,0.037
53108.389202,16.109,0.033
53108.400331,16.12,0.035
53125.296074,16.385,0.081
53125.306016,16.454,0.089
53125.315965,16.627,0.1
53125.325957,16.665,0.1
53125.335985,16.401,0.078
53134.291038,16.654,0.068
53134.300595,16.429,0.061
53134.310125,16.294,0.055
53134.319636,16.214,0.054
53155.257604,16.29,0.074
53155.266397,16.294,0.078
53155.275158,16.479,0.089
53155.283939,16.495,0.093
53155.292706,16.555,0.098
53193.246066,16.117,0.074
53193.256165,16.265,0.061
53193.266257,16.379,0.07
53244.139463,16.471,0.085
53244.149664,16.372,0.08
53244.159851,16.269,0.074
53244.170042,16.156,0.068
53244.180243,16.194,0.072
53283.113018,16.151,0.043
53283.123196,16.156,0.044
53283.133386,16.098,0.043
53283.143598,16.092,0.046
53283.153785,16.178,0.05
53451.395664,16.323,0.059
53451.406434,16.245,0.054
53451.417211,16.16,0.05
53451.427976,16.127,0.046
53451.438753,16.071,0.046
53461.385161,16.296,0.046
53461.395519,16.451,0.054
53461.405821,16.59,0.061
53461.416154,16.6,0.061
53461.426499,16.45,0.054
53489.316201,16.171,0.068
53489.340577,16.254,0.048
53489.351885,16.46,0.059
53535.225673,16.205,0.048
53535.235668,16.225,0.048
53535.245694,16.365,0.054
53535.255708,16.503,0.061
53535.265717,16.614,0.067
53563.232334,16.864,0.122
53563.24295,16.659,0.087
53563.253522,16.383,0.061
53563.264098,16.466,0.113
53599.150829,16.211,0.078
53599.163443,16.148,0.081
53599.176041,16.202,0.076
53599.188645,16.219,0.083
53599.201236,16.546,0.118
53607.13481,16.345,0.055
53607.146317,16.256,0.048
53607.169179,16.243,0.104
53635.108664,16.305,0.055
53635.11924,16.153,0.046
53635.129676,16.075,0.041
53635.140095,16.086,0.043
53635.150515,16.075,0.05
53755.467982,16.388,0.067
53755.48074,16.56,0.076
53755.493543,16.564,0.076
53755.506396,16.423,0.065
53755.519263,16.243,0.054
53774.478211,16.493,0.052
53774.491402,16.558,0.054
53774.504171,16.393,0.046
53774.517346,16.214,0.039
53803.40643,16.329,0.056
53803.419516,16.139,0.045
53803.431522,16.12,0.045
53803.443489,16.088,0.04
53803.455469,16.042,0.036
53829.33096,16.517,0.063
53829.341575,16.562,0.101
53829.352154,16.498,0.069
53829.362749,16.328,0.089
53833.318259,16.241,0.049
53833.329988,16.266,0.066
53833.341577,16.469,0.056
53833.35252,16.571,0.063
53833.363763,16.441,0.056
53858.298278,16.082,0.051
53858.308383,16.095,0.051
53858.318325,16.119,0.117
53864.291372,16.228,0.087
53864.301006,16.244,0.086
53864.310628,16.098,0.076
53864.320462,16.165,0.079
53864.33017,16.109,0.073
53876.26457,16.225,0.061
53876.275529,16.439,0.078
53905.264919,16.146,0.046
53905.274553,16.147,0.046
53905.284464,16.116,0.045
53905.294087,16.162,0.048
53905.303709,16.218,0.048
53933.216347,16.108,0.053
53933.226609,16.059,0.068
53933.236954,16.117,0.071
53933.247336,16.204,0.059
53933.257609,16.186,0.056
53954.166496,16.876,0.183
53954.178577,16.682,0.15
53991.115896,16.521,0.091
53991.128292,16.303,0.068
53991.14025,16.289,0.064
53991.151862,16.241,0.063
53991.163784,16.184,0.063
54108.455823,16.315,0.08
54108.468627,16.155,0.076
54108.481366,16.205,0.074
54108.494156,16.135,0.063
54108.506909,16.064,0.055
54125.4402,16.473,0.091
54125.452268,16.302,0.073
54125.464378,16.213,0.064
54125.476382,16.132,0.061
54125.488401,16.117,0.058
54139.405951,16.208,0.124
54139.41868,16.222,0.106
54139.430175,16.338,0.13
54139.442272,16.316,0.089
54157.391282,16.552,0.076
54157.402589,16.459,0.068
54157.413548,16.333,0.058
54157.424512,16.245,0.051
54157.43547,16.195,0.046
54524.399056,16.558,0.061
54524.410681,16.384,0.056
54524.422155,16.297,0.051
54524.434188,16.185,0.046
54524.446126,16.13,0.045
54539.371096,16.707,0.064
54539.381907,16.523,0.054
54539.392587,16.393,0.049
54539.403781,16.241,0.045
54539.415296,16.165,0.041
54571.302471,16.227,0.064
54571.313652,16.179,0.061
54571.324783,16.346,0.069
54571.335646,16.383,0.073
54571.346512,16.603,0.086
54587.300742,16.171,0.078
54587.31089,16.189,0.079
54587.321101,16.155,0.078
54587.331532,16.077,0.073
54587.34159,16.02,0.068
54620.264878,16.186,0.061
54620.275209,16.248,0.064
54620.286023,16.236,0.063
54620.296194,16.565,0.083
54620.306387,16.441,0.074
