mjd,m,merr
52641.448242,15.985,0.036
52641.463968,15.961,0.038
52641.478751,16.009,0.038
52641.493614,15.904,0.035
52641.509275,15.714,0.031
52646.457103,15.485,0.026
52646.472803,15.481,0.024
52646.487465,15.487,0.024
52646.502489,15.489,0.022
52646.51732,15.582,0.024
52647.455363,15.773,0.036
52647.469893,15.829,0.038
52647.484411,15.837,0.038
52647.499248,15.856,0.041
52647.513857,15.829,0.056
52668.393264,15.62,0.133
52668.455025,15.693,0.335
52671.388102,15.807,0.031
52671.403445,15.819,0.033
52671.418747,15.874,0.033
52671.427353,15.884,0.036
52671.433928,15.839,0.031
52671.442984,15.863,0.036
52671.449266,15.874,0.033
52671.45758,15.91,0.038
52671.472261,15.912,0.04
52671.486969,15.947,0.041
52672.392423,15.348,0.028
52672.407165,15.376,0.02
52672.421242,15.432,0.022
52672.43555,15.434,0.024
52672.449422,15.497,0.057
52673.364991,15.786,0.033
52673.379901,15.744,0.031
52673.394708,15.758,0.031
52673.409788,15.791,0.031
52673.425345,15.777,0.033
52705.300955,15.548,0.025
52705.306825,15.562,0.02
52705.313887,15.603,0.026
52705.320739,15.572,0.022
52705.326292,15.958,0.02
52705.326889,15.584,0.026
52705.339928,15.617,0.03
52705.342961,15.59,0.022
52705.352893,15.617,0.028
52705.356072,15.626,0.024
52705.370409,15.652,0.024
52708.311819,15.808,0.035
52708.324881,15.822,0.036
52708.33792,15.845,0.035
52708.350979,15.866,0.038
52708.364055,15.911,0.04
52709.306804,15.384,0.024
52709.320151,15.426,0.024
52709.333711,15.47,0.024
52709.347307,15.477,0.024
52709.360675,15.469,0.024
52729.286332,15.645,0.024
52729.298081,15.654,0.026
52729.309629,15.641,0.026
52729.321273,15.687,0.028
52729.332878,15.675,0.028
52734.259305,15.8,0.028
52734.27167,15.772,0.031
52734.295986,15.949,0.105
52734.308148,15.849,0.168
52737.246437,15.275,0.025
52737.25816,15.283,0.025
52737.269965,15.284,0.025
52737.281814,15.334,0.025
52737.294068,15.316,0.025
52756.195047,15.861,0.031
52756.206882,15.907,0.033
52756.218748,15.918,0.033
52756.230584,15.897,0.035
52756.242424,15.932,0.037
52760.205837,15.76,0.033
52760.21803,15.758,0.033
52760.23008,15.791,0.035
52760.242133,15.788,0.036
52760.254332,15.788,0.04
52765.2063,15.57,0.033
52765.230298,15.394,0.04
52765.242582,15.344,0.04
52765.254781,15.27,0.025
52788.172927,15.852,0.177
52790.164331,15.682,0.071
52790.175401,15.73,0.066
52790.185985,15.638,0.053
52790.196642,15.703,0.056
52790.207357,15.546,0.049
52986.456441,15.713,0.046
52986.469458,15.8,0.046
52986.482488,15.796,0.046
52986.495632,15.836,0.044
52986.508728,15.807,0.044
52995.393685,15.873,0.028
52995.406379,15.95,0.03
52995.418786,15.94,0.028
52995.431182,15.878,0.025
52995.444144,15.905,0.025
52997.50296,15.991,0.063
52997.51644,16.016,0.049
53027.497532,15.862,0.021
53027.510492,15.855,0.021
53027.523601,15.913,0.023
53032.340972,15.919,0.028
53032.353309,15.909,0.028
53032.365639,15.952,0.028
53032.377978,15.844,0.026
53032.390368,15.8,0.024
53033.390222,15.663,0.028
53033.403016,15.584,0.024
53033.415192,15.609,0.024
53033.427579,15.651,0.026
53033.439677,15.596,0.024
53054.350373,15.287,0.015
53054.362308,15.288,0.015
53054.374078,15.319,0.016
53054.385993,15.335,0.016
53054.398225,15.362,0.016
53058.349967,15.878,0.018
53058.362348,15.731,0.018
53058.374578,15.563,0.015
53058.386748,15.485,0.015
53058.398938,15.449,0.015
53061.345565,15.516,0.015
53061.35754,15.566,0.016
53061.370069,15.58,0.016
53061.382275,15.599,0.02
53061.394135,15.59,0.02
53080.281065,15.355,0.02
53080.292506,15.304,0.018
53080.303693,15.28,0.018
53080.314894,15.292,0.018
53080.326114,15.297,0.018
53083.346218,15.744,0.021
53083.357711,15.745,0.023
53083.369052,15.742,0.021
53083.38034,15.792,0.023
53083.392247,15.74,0.025
53085.390176,15.718,0.045
53085.401937,15.781,0.076
53085.413018,15.811,0.137
53085.424094,15.723,0.066
53085.435264,15.796,0.083
53111.191996,15.448,0.026
53111.202942,15.52,0.028
53111.213651,15.538,0.028
53111.224514,15.524,0.028
53111.235586,15.547,0.028
53114.252263,15.801,0.023
53114.264895,15.788,0.023
53114.275745,15.747,0.021
53114.286565,15.822,0.025
53114.297722,15.849,0.025
53116.256572,15.684,0.033
53116.267458,15.7,0.058
53116.278442,15.69,0.079
53116.289253,15.795,0.051
53116.300422,15.786,0.048
53139.158097,15.413,0.025
53139.168086,15.417,0.023
53139.177398,15.41,0.023
53139.186698,15.47,0.025
53139.196071,15.495,0.026
53142.211156,15.739,0.023
53142.220411,15.797,0.025
53142.230194,15.793,0.035
53142.250207,15.805,0.061
53144.236696,15.818,0.068
53144.246141,15.777,0.046
53144.255436,15.717,0.05
53327.446487,15.784,0.059
53346.453335,15.737,0.041
53346.466669,15.698,0.041
53346.48035,15.756,0.043
53346.493001,15.743,0.041
53346.505142,15.771,0.039
53347.494255,15.297,0.025
53347.508178,15.271,0.023
53347.522044,15.286,0.023
53353.484399,15.895,0.041
53353.498886,15.877,0.04
53353.513136,15.926,0.041
53383.412569,15.748,0.033
53383.425897,15.723,0.031
53383.439219,15.754,0.031
53383.452554,15.747,0.03
53383.46688,15.791,0.03
53403.36593,15.91,0.038
53403.378988,15.891,0.036
53403.392602,15.912,0.038
53403.406735,15.964,0.043
53403.420245,15.96,0.043
53436.262666,15.83,0.028
53436.274343,15.738,0.026
53436.286001,15.536,0.02
53436.298372,15.505,0.024
53436.310021,15.402,0.018
53466.313569,15.965,0.037
53466.322788,15.938,0.039
53466.332107,15.834,0.037
53466.342019,15.752,0.035
53466.351483,15.618,0.031
53469.231124,15.378,0.02
53469.240663,15.404,0.02
53469.25082,15.421,0.022
53469.260553,15.481,0.022
53469.272276,15.483,0.022
53504.148167,15.502,0.035
53504.157447,15.537,0.033
53504.166232,15.54,0.031
53504.174971,15.502,0.031
53504.183684,15.537,0.031
53734.47295,15.526,0.026
53734.486047,15.524,0.026
53734.499464,15.562,0.026
53734.512633,15.55,0.026
53734.525599,15.596,0.028
53758.403806,15.571,0.028
53758.416349,15.594,0.028
53758.428988,15.579,0.028
53758.441635,15.586,0.028
53758.454666,15.642,0.03
53789.349924,15.825,0.15
53789.36179,15.73,0.089
53789.373674,15.746,0.068
53789.385546,15.748,0.033
53789.397409,15.765,0.033
53792.347751,15.439,0.02
53792.359522,15.339,0.024
53792.371298,15.273,0.024
53792.383084,15.278,0.024
53792.39486,15.289,0.022
53797.242924,15.371,0.02
53797.255367,15.417,0.021
53797.268237,15.575,0.086
53797.280534,15.457,0.02
53797.293031,15.6,0.074
53802.338447,15.809,0.054
53802.349997,15.796,0.037
53802.361449,15.81,0.039
53802.373136,15.769,0.05
53802.384607,15.811,0.039
53815.290569,15.735,0.043
53815.302187,15.745,0.03
53815.313908,15.743,0.03
53815.325901,15.81,0.031
53815.337488,15.772,0.033
53821.302927,15.586,0.026
53821.316955,15.646,0.054
53821.330572,15.597,0.041
53824.363134,15.822,0.3
53824.399853,16.065,0.24
53828.35431,15.831,0.037
53828.365425,15.815,0.065
53828.37742,15.787,0.113
53831.233462,15.946,0.048
53831.244019,15.965,0.048
53831.254255,15.875,0.046
53831.264441,15.806,0.041
53831.274458,15.687,0.037
53833.228264,15.856,0.063
53833.238116,15.95,0.059
53833.267708,15.936,0.059
53834.254788,15.348,0.061
53834.264631,15.514,0.068
53846.247698,15.945,0.052
53846.258498,15.945,0.052
53846.269302,15.962,0.054
53846.280111,15.885,0.048
53846.290913,15.791,0.048
53848.196609,15.856,0.031
53848.207194,15.856,0.033
53848.217816,15.859,0.033
53848.228411,15.87,0.033
53848.238993,15.922,0.036
53850.189066,15.803,0.04
53850.199542,15.78,0.038
53850.210027,15.844,0.041
53850.220506,15.839,0.041
53850.231104,15.813,0.041
53851.13409,15.315,0.035
53851.144544,15.313,0.026
53851.155278,15.326,0.051
53851.165768,15.299,0.028
53851.176194,15.316,0.026
53851.244542,15.391,0.028
53851.256019,15.396,0.028
53851.266934,15.451,0.031
53851.2771,15.48,0.033
53851.287304,15.498,0.031
53857.27791,15.389,0.031
53857.303295,15.304,0.033
53857.315333,15.285,0.031
54082.457597,15.741,0.055
54082.470382,15.8,0.054
54082.483171,15.815,0.052
54082.495981,15.836,0.052
54082.508784,15.834,0.05
54085.471146,15.938,0.033
54085.484107,15.816,0.026
54085.497074,15.698,0.024
54085.510037,15.521,0.02
54085.523005,15.459,0.018
54113.391493,15.865,0.033
54113.404032,15.905,0.035
54113.417769,15.872,0.065
54113.443228,15.95,0.043
54147.337968,15.649,0.031
54147.350203,15.666,0.031
54147.36226,15.674,0.031
54147.375194,15.705,0.031
54147.387421,15.736,0.033
54153.331618,15.471,0.018
54153.343203,15.483,0.018
54153.354763,15.509,0.02
54153.366323,15.457,0.028
54153.377897,15.502,0.024
54157.323835,15.277,0.018
54157.335474,15.299,0.018
54157.347116,15.284,0.018
54157.35876,15.328,0.018
54157.370416,15.34,0.018
54174.319043,15.842,0.028
54174.329763,15.706,0.035
54174.340478,15.543,0.022
54174.351162,15.492,0.022
54174.361843,15.442,0.02
54175.274145,15.566,0.026
54175.285469,15.621,0.026
54175.296257,15.624,0.026
54175.307138,15.565,0.026
54175.317959,15.59,0.026
54177.339205,15.533,0.087
54177.351328,15.561,0.024
54177.363602,15.597,0.035
54177.375596,15.601,0.028
54177.387293,15.607,0.028
54180.335906,15.829,0.028
54180.346473,15.87,0.028
54180.357125,15.853,0.028
54180.367723,15.866,0.03
54180.378304,15.895,0.031
54198.254885,15.683,0.04
54198.264593,15.477,0.035
54205.268396,15.445,0.02
54205.277793,15.479,0.02
54205.287222,15.49,0.02
54205.296615,15.515,0.022
54205.306087,15.52,0.024
54208.263053,15.747,0.028
54208.272229,15.736,0.028
54208.281404,15.746,0.028
54208.290554,15.765,0.03
54208.29972,15.763,0.03
54212.270832,15.643,0.026
54212.279948,15.717,0.028
54212.289018,15.691,0.028
54212.2981,15.686,0.028
54212.307207,15.694,0.028
54477.455165,15.722,0.051
54477.467466,15.68,0.049
54477.48005,15.699,0.049
54477.492567,15.725,0.051
54477.505218,15.732,0.049
54481.341765,15.395,0.02
54481.354694,15.396,0.02
54481.367767,15.431,0.018
54481.380677,15.49,0.018
54481.39357,15.494,0.018
54485.403269,15.382,0.033
54485.415964,15.379,0.033
54485.428646,15.418,0.035
54485.441373,15.405,0.033
54485.454045,15.441,0.035
54498.395549,15.339,0.015
54498.408241,15.407,0.015
54498.420869,15.437,0.013
54498.433553,15.463,0.015
54498.4462,15.479,0.015
54506.338118,15.872,0.022
54506.350214,15.889,0.022
54506.362308,15.883,0.022
54506.3744,15.928,0.024
54506.386531,15.952,0.024
54506.456252,15.682,0.031
54506.468152,15.538,0.028
54506.491914,15.382,0.026
54506.503767,15.33,0.025
54527.333232,15.694,0.017
54527.344629,15.72,0.018
54527.356077,15.717,0.018
54527.367533,15.741,0.018
54527.37892,15.746,0.02
54534.39207,15.952,0.036
54535.328526,15.437,0.013
54535.339764,15.455,0.015
54535.351001,15.473,0.015
54535.362279,15.498,0.015
54535.37362,15.521,0.015
54540.225868,15.626,0.022
54540.236905,15.593,0.02
54540.247979,15.594,0.02
54540.258996,15.637,0.02
54540.270017,15.598,0.02
54552.360781,15.35,0.018
54552.373113,15.371,0.02
54552.38536,15.421,0.022
54552.397675,15.455,0.026
54561.296657,15.397,0.024
54561.308405,15.464,0.017
54561.320068,15.502,0.026
54561.33174,15.512,0.018
54561.343394,15.492,0.02
54568.244508,15.53,0.041
54568.255491,15.509,0.036
54568.266365,15.529,0.036
54568.277324,15.535,0.038
54568.288127,15.638,0.04
54569.183053,15.831,0.03
54569.194035,15.826,0.03
54569.205056,15.865,0.031
54569.216029,15.885,0.03
54569.226992,15.907,0.03
54583.262337,15.456,0.093
54583.283556,15.613,0.03
54583.294135,15.61,0.031
54590.251003,15.759,0.024
54590.261287,15.772,0.033
54590.271621,15.864,0.081
54590.281895,15.764,0.037
54622.164701,15.434,0.093
54622.164899,15.381,0.127
54622.175246,15.379,0.091
54622.185314,15.542,0.033
54622.185364,15.357,0.068
54622.195336,15.376,0.069
54622.20547,15.365,0.074
