mjd,m,merr
52620.402363,15.685,0.085
52620.418241,15.67,0.033
52620.433872,15.679,0.028
52620.448981,15.691,0.03
52636.359606,15.661,0.035
52636.373736,15.721,0.035
52636.387909,15.711,0.035
52636.402126,15.736,0.033
52636.416312,15.729,0.033
52650.285186,15.507,0.026
52650.302276,15.308,0.02
52650.316826,15.199,0.018
52650.331149,15.17,0.017
52650.345426,15.183,0.017
52653.344838,15.698,0.031
52653.36021,15.702,0.033
52653.375677,15.673,0.033
52680.244116,15.677,0.03
52680.260731,15.724,0.031
52680.276907,15.768,0.035
52680.292695,15.77,0.035
52693.267395,15.342,0.017
52693.283549,15.401,0.018
52693.299368,15.427,0.018
52693.315047,15.46,0.02
52693.33046,15.497,0.022
52712.181924,15.757,0.074
52712.195406,15.755,0.072
52712.222345,15.721,0.078
52712.236048,15.749,0.076
52721.238732,15.227,0.017
52721.251492,15.274,0.017
52721.264256,15.3,0.017
52721.27706,15.339,0.018
52721.289875,15.373,0.02
52750.180976,15.875,0.031
52750.191715,15.834,0.03
52750.202519,15.775,0.031
52750.213281,15.697,0.028
52750.224044,15.515,0.024
52927.436325,15.781,0.07
52927.448181,15.83,0.068
52927.459924,15.799,0.063
52927.471323,15.837,0.063
52927.482951,15.792,0.059
52977.390945,15.881,0.036
52977.402069,15.843,0.033
52977.41322,16.018,0.036
52977.424488,16.162,0.036
52977.435798,16.571,0.051
52978.385517,15.587,0.033
52978.398345,15.61,0.031
52978.411112,15.662,0.033
52978.423917,15.651,0.031
52978.436548,15.689,0.031
52988.333011,15.627,0.03
52988.346046,15.65,0.031
52988.358981,15.655,0.031
52988.371954,15.627,0.03
52988.384856,15.66,0.03
53008.333868,15.29,0.028
53008.365411,15.123,0.022
53008.37796,15.111,0.02
53038.292689,15.649,0.039
53038.306436,15.667,0.041
53038.321182,15.685,0.039
53038.337034,15.648,0.041
53038.350255,15.681,0.043
53045.266982,15.483,0.028
53045.278628,15.487,0.028
53045.290412,15.549,0.031
53045.302759,15.541,0.031
53045.31412,15.562,0.031
53108.1958,15.81,0.031
53108.207064,15.825,0.031
53108.218284,15.832,0.033
53108.22966,15.801,0.031
53108.240875,15.75,0.031
53122.201733,15.448,0.031
53122.212259,15.506,0.039
53122.233222,15.59,0.043
53125.232227,15.815,0.102
53134.154396,15.289,0.024
53134.163868,15.32,0.024
53134.17335,15.342,0.026
53134.182835,15.382,0.024
53134.192318,15.373,0.026
53153.163475,15.741,0.041
53153.172487,15.721,0.039
53153.181637,15.73,0.039
53153.190701,15.747,0.041
53153.199737,15.752,0.041
53155.16579,15.524,0.067
53155.174582,15.645,0.072
53155.18338,15.586,0.07
53155.192177,15.646,0.074
53155.201083,15.583,0.072
53290.437496,15.719,0.045
53290.448611,15.765,0.045
53290.470993,15.92,0.048
53303.437246,15.627,0.044
53303.449108,15.625,0.037
53312.431181,15.705,0.061
53312.443438,15.751,0.061
53312.455721,15.807,0.065
53312.467998,15.782,0.061
53312.480239,15.81,0.063
53319.405235,15.671,0.033
53319.417326,15.71,0.033
53319.429432,15.672,0.031
53319.441527,15.743,0.033
53319.453613,15.711,0.031
53330.423322,15.716,0.033
53330.437397,15.803,0.038
53330.452478,15.927,0.041
53340.37055,15.684,0.063
53340.38288,15.672,0.063
53340.395207,15.673,0.063
53340.407542,15.732,0.067
53356.406065,16.074,0.036
53356.419692,16.313,0.045
53356.434156,16.271,0.043
53356.447834,16.671,0.066
53356.46269,17.868,0.191
53358.395923,15.662,0.028
53358.408955,15.664,0.028
53358.421982,15.681,0.03
53358.435079,15.734,0.03
53358.448737,15.749,0.03
53360.354234,15.017,0.018
53360.368069,15.076,0.018
53360.381513,15.121,0.018
53360.396013,15.193,0.018
53360.413161,15.264,0.024
53362.35281,16.088,0.102
53362.366422,16.282,0.15
53362.380675,16.26,0.089
53362.40827,17.924,0.399
53389.422599,15.144,0.018
53389.435572,15.203,0.018
53389.448599,15.209,0.02
53389.461624,15.239,0.02
53389.475243,15.303,0.022
53390.334598,15.734,0.035
53390.347338,15.692,0.035
53390.360083,15.744,0.035
53390.372909,15.721,0.031
53390.386378,15.756,0.033
53441.224916,15.554,0.02
53441.236498,15.543,0.02
53441.247959,15.607,0.022
53441.260111,15.592,0.022
53441.271537,15.608,0.022
53461.227043,15.793,0.031
53461.237462,15.805,0.033
53461.248372,15.823,0.035
53461.25876,15.836,0.035
53461.269213,15.838,0.035
53490.202248,15.687,0.03
53490.21253,15.704,0.03
53490.222904,15.726,0.031
53490.233454,15.715,0.031
53686.446267,15.639,0.024
53686.459472,15.444,0.02
53686.472312,15.303,0.018
53686.485547,15.215,0.017
53686.498424,15.136,0.015
53697.408,15.859,0.054
53697.420741,15.848,0.048
53697.434003,15.769,0.072
53697.448,15.595,0.039
53726.352928,15.745,0.037
53726.366933,15.724,0.033
53726.380418,15.726,0.033
53726.398587,15.672,0.031
53726.412395,15.693,0.031
53756.336468,15.33,0.03
53756.362562,15.383,0.031
53756.375504,15.431,0.043
53756.389098,15.401,0.035
53774.28971,15.582,0.037
53774.302155,15.36,0.03
53774.314829,15.185,0.026
53774.327531,15.134,0.024
53774.339992,15.156,0.024
53802.24949,16.638,0.081
53802.261786,17.497,0.178
53828.227956,16.645,0.064
53828.238482,16.233,0.054
53842.187676,15.718,0.031
53842.199412,15.71,0.033
53842.210658,15.749,0.035
53842.222249,15.746,0.041
53842.233514,15.719,0.046
53876.154202,16.382,0.145
53876.165172,16.102,0.109
53876.176257,16.102,0.106
54051.457612,15.697,0.041
54072.386383,18.075,0.533
54080.361061,15.432,0.03
54080.373146,15.463,0.031
54080.385106,15.591,0.057
54080.39706,15.495,0.043
54108.333772,15.578,0.041
54108.346073,15.732,0.046
54108.358174,15.902,0.054
54108.370315,15.955,0.058
54108.382476,15.957,0.069
54125.291759,15.481,0.023
54125.303352,15.599,0.028
54125.315047,15.405,0.025
54157.319149,16.777,0.112
54167.245248,15.775,0.041
54167.256319,15.746,0.041
54167.267504,15.787,0.054
54407.457846,15.16,0.023
54407.470113,15.101,0.021
54407.48238,15.101,0.021
54416.433763,16.687,0.066
54416.446608,15.526,0.026
54416.460791,16.829,0.073
54416.473473,15.587,0.028
54416.485802,15.631,0.028
54483.324191,15.6,0.036
54483.336308,15.557,0.036
54483.349314,15.734,0.041
54483.361538,15.778,0.043
54483.374089,15.815,0.045
54497.270699,15.779,0.03
54497.282911,15.763,0.033
54497.294803,15.888,0.038
54497.306754,15.816,0.043
54497.319925,15.939,0.064
54525.229911,15.842,0.036
54525.241565,16.124,0.048
54525.252853,16.163,0.046
54525.264249,16.551,0.069
54525.276076,16.115,0.045
54539.212186,15.772,0.059
54539.222954,15.585,0.051
54539.233504,15.36,0.043
54539.244047,15.401,0.045
54539.254894,15.421,0.045
54558.18739,15.687,0.049
54558.198941,15.788,0.051
54558.2224,15.854,0.063
54558.233981,15.75,0.066
54571.221656,16.004,0.083
54571.232587,15.759,0.059
54586.186226,15.57,0.051
54598.153297,16.37,0.198
54598.162773,16.202,0.167
54598.17218,15.925,0.13
54598.181581,15.816,0.12
54598.190977,16.051,0.149
54619.157674,15.693,0.046
54619.167907,15.73,0.049
54619.178314,15.698,0.048
54619.188512,15.736,0.045
54619.198779,15.752,0.049
