mjd,m,merr
52608.455811,15.988,0.052
52608.470767,16.018,0.046
52608.485654,16.039,0.096
52608.500532,15.982,0.054
52619.449037,15.903,0.04
52619.464022,15.867,0.038
52619.478998,15.882,0.04
52619.494411,15.902,0.04
52619.509401,15.903,0.041
52640.383591,16.441,0.051
52640.398651,16.166,0.041
52640.41367,16.047,0.036
52640.429103,15.926,0.033
52640.444774,15.922,0.033
52646.386214,16.01,0.035
52646.401024,16.006,0.037
52646.415467,15.957,0.035
52646.430037,15.994,0.035
52646.444546,15.963,0.035
52647.382934,15.983,0.041
52647.397427,15.952,0.04
52647.412312,15.96,0.041
52647.427148,15.977,0.043
52647.441847,15.999,0.043
52667.318304,15.992,0.035
52667.332996,16.022,0.036
52667.347674,16.03,0.036
52667.362351,16.084,0.038
52667.377079,16.113,0.041
52672.322294,15.9,0.035
52672.336233,15.928,0.033
52672.350392,15.891,0.033
52672.364253,15.957,0.031
52672.378226,15.949,0.035
52673.289242,15.965,0.036
52673.304292,15.923,0.035
52673.320087,15.916,0.033
52673.336521,15.883,0.035
52673.351523,15.915,0.035
52705.234967,15.914,0.021
52705.235324,15.926,0.033
52705.238737,15.909,0.028
52705.247931,15.932,0.021
52705.24829,15.947,0.033
52705.25191,15.918,0.026
52705.260888,15.929,0.021
52705.261246,15.932,0.033
52705.266873,15.925,0.026
52705.274289,15.91,0.033
52705.279913,15.877,0.026
52705.286888,15.943,0.023
52705.287247,15.944,0.035
52705.293065,15.897,0.028
52706.165669,15.951,0.037
52706.179023,15.957,0.035
52706.192381,15.967,0.035
52706.205555,15.975,0.035
52706.218847,15.971,0.031
52707.244563,15.937,0.028
52707.257958,15.96,0.03
52707.271127,15.921,0.028
52707.284405,15.958,0.03
52707.297694,15.941,0.03
52708.170183,16.596,0.068
52708.183219,16.562,0.067
52708.196617,16.498,0.065
52708.209495,16.252,0.059
52708.222519,16.091,0.041
52729.227756,16.004,0.031
52729.23939,16.046,0.031
52729.25086,15.993,0.031
52729.262346,16.049,0.033
52729.274515,15.974,0.031
52734.19606,15.961,0.03
52734.20833,15.944,0.03
52734.221529,15.971,0.031
52734.233768,16.001,0.033
52734.246934,15.954,0.033
52738.181366,15.862,0.037
52738.192785,15.884,0.039
52738.204321,15.897,0.039
52738.21575,15.894,0.039
52738.227223,15.888,0.039
52755.144464,15.815,0.03
52755.156596,15.823,0.03
52755.168658,15.842,0.03
52755.180748,15.878,0.031
52755.19281,15.851,0.033
52760.145963,16.06,0.045
52760.158257,15.911,0.04
52760.170278,15.918,0.04
52760.182319,15.91,0.04
52760.194386,15.926,0.04
52765.180518,16.022,0.051
52765.19248,15.998,0.048
52938.42572,15.952,0.043
52938.437756,15.952,0.04
52938.461707,15.936,0.036
52938.473613,15.923,0.035
52965.466058,16.133,0.155
52973.379044,15.904,0.036
52973.390134,15.978,0.038
52973.401231,15.958,0.038
52973.412341,15.921,0.036
52973.423542,15.911,0.035
52995.38315,15.955,0.023
52995.395673,15.966,0.023
52995.408373,15.975,0.023
52995.420748,15.955,0.023
52995.433175,15.924,0.021
52997.438776,16.618,0.114
53027.399019,15.96,0.021
53027.411847,15.964,0.021
53027.424849,15.94,0.021
53027.437668,15.962,0.023
53027.450445,15.976,0.023
53029.340381,16.0,0.046
53029.352923,15.94,0.084
53033.278782,15.96,0.033
53033.290976,15.946,0.031
53033.303033,15.983,0.033
53033.315233,15.941,0.031
53033.327388,15.986,0.031
53053.288066,15.958,0.039
53053.299866,15.869,0.037
53053.312597,15.923,0.041
53053.326679,15.949,0.074
53053.338414,15.892,0.026
53058.28882,15.969,0.02
53058.301799,15.976,0.02
53058.313959,15.995,0.021
53058.326258,16.011,0.021
53058.338559,16.042,0.021
53061.28589,16.002,0.02
53061.297868,15.997,0.021
53061.30995,16.003,0.021
53061.322081,16.009,0.021
53061.333996,16.027,0.021
53062.216351,16.004,0.067
53062.228556,16.03,0.096
53062.253387,15.985,0.1
53079.248274,15.944,0.028
53079.258964,15.979,0.03
53079.269652,15.999,0.03
53079.28046,15.962,0.028
53079.291195,15.989,0.03
53083.28986,16.501,0.04
53083.301161,16.279,0.031
53083.312467,16.186,0.033
53083.323748,16.099,0.033
53083.334889,16.068,0.03
53085.280258,16.056,0.025
53085.291492,16.055,0.026
53085.302733,15.993,0.031
53085.31407,15.985,0.03
53085.327699,16.038,0.028
53110.184779,15.967,0.037
53110.195468,15.927,0.037
53110.206157,15.902,0.037
53110.216843,15.993,0.041
53110.227595,15.989,0.041
53114.197665,15.957,0.025
53114.208745,15.949,0.025
53114.219846,15.936,0.025
53114.230528,15.938,0.025
53114.241155,16.008,0.026
53116.20091,15.931,0.049
53116.211718,15.952,0.068
53116.222475,16.01,0.061
53116.233157,16.049,0.059
53138.152954,15.974,0.037
53138.162824,15.952,0.035
53138.172706,15.958,0.037
53138.182538,15.982,0.037
53138.192339,15.949,0.037
53142.158229,15.973,0.031
53142.171384,15.951,0.031
53142.180913,16.008,0.035
53142.190453,15.961,0.031
53142.200387,15.982,0.083
53144.168367,16.063,0.043
53144.17776,16.081,0.043
53144.187151,16.104,0.057
53292.430006,16.103,0.079
53292.439612,15.998,0.066
53292.449812,15.954,0.061
53292.459898,15.976,0.058
53292.469578,16.018,0.059
53316.46011,16.046,0.096
53327.385008,16.007,0.051
53327.39797,15.933,0.053
53327.410472,15.97,0.048
53327.422706,16.015,0.049
53327.435169,16.006,0.053
53346.382676,16.032,0.041
53346.394934,16.02,0.041
53346.40758,16.041,0.043
53346.42005,16.039,0.041
53346.432266,16.034,0.04
53347.439004,16.009,0.036
53347.452748,15.954,0.038
53347.466828,15.975,0.04
53347.4806,15.952,0.038
53351.421813,15.931,0.041
53351.436068,16.07,0.049
53351.450548,16.045,0.046
53351.465479,16.027,0.048
53351.480144,16.001,0.048
53352.446878,16.049,0.048
53352.461915,16.006,0.046
53352.476661,15.999,0.053
53352.491332,15.926,0.048
53352.506158,15.988,0.049
53353.415075,16.03,0.045
53353.429135,16.199,0.051
53353.443322,16.413,0.063
53353.457521,16.474,0.066
53383.346304,15.913,0.028
53383.360456,15.94,0.03
53383.373536,15.901,0.03
53383.387186,15.916,0.03
53383.400816,15.902,0.031
53403.299235,16.103,0.03
53403.312793,15.982,0.028
53403.353169,15.961,0.035
53466.262061,15.98,0.039
53466.271927,15.994,0.041
53466.281277,16.083,0.044
53466.291477,16.066,0.046
53466.302485,16.133,0.05
53468.214272,15.976,0.109
53468.223774,15.973,0.055
53704.449689,15.962,0.031
53704.462205,15.979,0.033
53704.474633,15.98,0.033
53704.487211,15.994,0.033
53704.499957,16.006,0.033
53707.45032,16.016,0.037
53707.46312,15.996,0.031
53707.475726,15.967,0.033
53707.488371,16.01,0.033
53707.50098,15.999,0.031
53710.445779,16.036,0.037
53710.45831,16.072,0.043
53710.471696,16.011,0.041
53710.484356,16.087,0.044
53710.496938,16.268,0.052
53734.408503,16.024,0.035
53734.42145,15.988,0.033
53734.434383,15.965,0.033
53734.447529,15.95,0.035
53734.460706,15.962,0.035
53746.34134,16.038,0.059
53746.354821,15.982,0.055
53746.367337,16.056,0.057
53746.380184,15.98,0.052
53746.392655,15.979,0.054
53758.341214,15.997,0.03
53758.353725,15.99,0.031
53758.366242,15.977,0.033
53758.378977,15.955,0.031
53758.391488,15.981,0.035
53787.416058,16.029,0.044
53787.427978,15.962,0.043
53787.439992,16.005,0.048
53787.452072,15.918,0.046
53789.290364,16.024,0.055
53789.302296,15.954,0.044
53789.314225,16.04,0.078
53789.338328,15.954,0.1
53790.287158,15.924,0.031
53790.299073,15.946,0.035
53790.31104,15.956,0.033
53790.323068,15.984,0.035
53790.334983,15.96,0.033
53792.288545,15.928,0.031
53792.300462,15.953,0.031
53792.312374,15.958,0.044
53792.324269,15.966,0.033
53792.33622,15.932,0.035
53802.281854,16.011,0.048
53802.293226,16.019,0.048
53802.304615,16.012,0.07
53802.327435,16.01,0.08
53818.229771,16.028,0.038
53818.24089,16.016,0.036
53818.251985,16.006,0.036
53818.263121,16.059,0.04
53818.274386,15.977,0.036
53821.235847,16.086,0.048
53821.249853,16.142,0.048
53821.262783,16.07,0.041
53821.276032,16.102,0.043
53821.287221,16.054,0.055
53824.286337,15.93,0.052
53824.300652,16.03,0.144
53824.330582,15.975,0.061
53828.235313,15.951,0.046
53828.245706,15.941,0.048
53828.256765,15.944,0.076
53828.280733,15.949,0.061
53845.184166,15.996,0.043
53845.195272,16.008,0.046
53845.206434,15.991,0.045
53845.217498,15.942,0.045
53845.228587,15.962,0.049
53846.194454,16.161,0.061
53846.205109,16.021,0.055
53846.215781,15.989,0.054
53846.226523,16.041,0.057
53846.237246,16.014,0.059
53850.145064,15.925,0.092
53850.15535,15.996,0.097
53850.165725,16.021,0.049
53850.176036,15.784,0.12
53850.18643,16.021,0.046
53851.193063,16.018,0.048
53851.203104,15.973,0.046
53851.213722,16.002,0.048
53851.223614,15.915,0.044
53851.233502,15.999,0.05
53854.208267,15.956,0.113
53854.222563,15.943,0.048
53854.233864,16.013,0.052
53854.247537,15.962,0.055
54030.430986,15.949,0.063
54030.446944,15.958,0.056
54030.45882,15.971,0.054
54030.474814,16.0,0.051
54030.487293,16.156,0.056
54035.437687,15.928,0.053
54035.44992,15.988,0.051
54035.462451,15.949,0.048
54035.474598,15.938,0.046
54035.486307,15.97,0.045
54039.449927,15.981,0.058
54039.461939,16.037,0.059
54039.473862,15.943,0.053
54039.485698,16.033,0.056
54039.497922,16.05,0.054
54053.426727,15.921,0.07
54053.43852,15.885,0.078
54053.450296,16.018,0.057
54053.462235,15.907,0.048
54053.474087,15.979,0.041
54056.428088,15.947,0.033
54056.440341,15.994,0.033
54056.452595,16.008,0.033
54056.465036,16.06,0.035
54056.477284,16.052,0.033
54059.434342,15.931,0.033
54059.442292,15.938,0.041
54059.446841,15.955,0.031
54059.459156,15.936,0.031
54059.466016,15.961,0.041
54059.471553,15.951,0.031
54059.479804,15.952,0.038
54059.484916,15.938,0.03
54059.492356,15.935,0.036
54059.504944,15.947,0.035
54064.442577,16.551,0.05
54064.45544,16.303,0.041
54064.468299,16.104,0.033
54064.481164,15.977,0.03
54064.494038,15.933,0.026
54082.393633,15.967,0.044
54082.406523,16.087,0.048
54082.419766,16.349,0.059
54082.432649,16.39,0.061
54082.445549,16.552,0.068
54085.458666,15.96,0.03
54085.471628,15.946,0.028
54085.484593,15.929,0.024
54085.497561,15.937,0.026
54085.510523,15.945,0.026
54091.347931,15.957,0.046
54091.361109,16.01,0.045
54091.373742,15.991,0.043
54091.385646,15.987,0.045
54091.397547,16.025,0.045
54114.356711,15.914,0.038
54152.281085,15.964,0.02
54152.292992,15.943,0.02
54152.304879,15.982,0.022
54152.31678,16.024,0.024
54152.328687,16.103,0.026
54153.274655,15.915,0.022
54153.286149,15.942,0.024
54153.297643,15.953,0.024
54153.309148,15.959,0.024
54153.320719,15.961,0.024
54173.215111,15.935,0.033
54173.22578,15.931,0.033
54173.23667,15.954,0.033
54173.247484,15.933,0.033
54173.258376,15.917,0.033
54174.265878,15.919,0.028
54174.276588,15.915,0.028
54174.28729,15.912,0.03
54174.297992,15.859,0.05
54174.308697,15.952,0.035
54180.281963,15.91,0.028
54180.292499,15.909,0.028
54180.30371,15.923,0.028
54180.314359,15.936,0.028
54180.32496,15.895,0.028
54185.222191,16.65,0.127
54185.232452,16.563,0.117
54185.242667,16.275,0.091
54185.252866,16.181,0.083
54185.26308,16.017,0.073
54200.173017,15.92,0.049
54200.182789,15.991,0.064
54200.192237,15.948,0.056
54200.21143,15.946,0.048
54205.220824,15.951,0.033
54205.230016,15.925,0.033
54205.239291,15.946,0.033
54205.248481,15.95,0.033
54205.257691,15.958,0.035
54208.216415,15.889,0.033
54208.22544,15.909,0.033
54208.234496,15.906,0.033
54208.24357,15.901,0.033
54208.252652,15.901,0.031
54212.224265,16.07,0.043
54212.233305,16.029,0.041
54212.242314,16.052,0.043
54212.25147,16.062,0.046
54212.260613,16.036,0.044
54416.437631,15.898,0.026
54416.450321,15.894,0.026
54416.462649,15.915,0.026
54416.474968,15.875,0.024
54416.487307,15.88,0.026
54438.447313,16.506,0.035
54438.460551,16.568,0.037
54438.473893,16.419,0.033
54438.487323,16.182,0.028
54438.500582,15.982,0.022
54448.441399,15.965,0.035
54448.453734,15.956,0.035
54448.466061,15.933,0.035
54448.479062,16.004,0.036
54448.491435,16.009,0.036
54478.461872,15.923,0.064
54478.474144,15.945,0.081
54478.486424,15.921,0.066
54478.498724,15.92,0.064
54481.216633,15.843,0.041
54481.230001,15.893,0.039
54481.243159,15.85,0.037
54481.256168,15.845,0.033
54481.26911,15.868,0.033
54498.333061,16.018,0.022
54498.345591,15.984,0.022
54498.358142,15.936,0.022
54498.370789,15.91,0.022
54498.383404,15.87,0.02
54506.276368,16.523,0.035
54506.288728,16.342,0.031
54506.300885,16.135,0.024
54506.313348,15.992,0.022
54506.325554,15.933,0.022
54507.38991,15.982,0.036
54507.403834,15.934,0.035
54507.415734,15.943,0.036
54507.427721,15.961,0.036
54507.439618,15.929,0.038
54521.345334,15.953,0.031
54521.356986,15.9,0.041
54521.368697,15.897,0.031
54521.380408,15.909,0.043
54521.392113,15.941,0.037
54527.309094,15.907,0.02
54527.320506,15.924,0.02
54535.271739,15.937,0.02
54535.282808,15.964,0.02
54535.293905,15.968,0.02
54535.304994,15.971,0.02
54535.316077,15.969,0.02
54535.333106,15.933,0.035
54535.344092,15.914,0.033
54535.35606,15.984,0.036
54535.367453,16.007,0.038
54535.378466,16.035,0.04
54540.161284,16.506,0.054
54540.172194,16.531,0.052
54540.183201,16.505,0.052
54540.194171,16.324,0.043
54540.205194,16.198,0.039
54552.297979,15.969,0.028
54552.310093,15.963,0.03
54552.322161,16.002,0.035
54552.334419,16.027,0.035
54552.346618,16.032,0.037
54558.120783,15.967,0.028
54558.13251,16.026,0.026
54558.14407,16.113,0.028
54558.155612,16.275,0.031
54558.167195,16.437,0.039
54561.239221,15.919,0.022
54561.250708,15.897,0.018
54561.262157,15.954,0.02
54561.273634,15.966,0.028
54561.285108,15.956,0.039
54580.144801,15.997,0.054
54580.15503,16.0,0.053
54580.165586,15.954,0.053
54580.183912,15.941,0.051
54580.194483,15.97,0.053
54583.197681,15.981,0.035
54583.208345,15.966,0.039
54590.198031,15.912,0.03
54590.208337,15.909,0.028
54590.218682,15.9,0.03
54590.229047,15.91,0.031
54590.239398,15.96,0.033
