mjd,m,merr
52621.372859,16.694,0.074
52621.3878,16.696,0.074
52621.40279,16.725,0.076
52621.418245,16.64,0.073
52621.433391,16.664,0.071
52635.383742,16.036,0.045
52635.398182,16.061,0.046
52635.413354,16.144,0.051
52635.427997,16.212,0.053
52635.44285,16.286,0.056
52636.379629,17.032,0.114
52636.394021,16.837,0.087
52636.408624,16.519,0.068
52636.42317,16.204,0.049
52654.314411,16.914,0.228
52654.329397,16.713,0.116
52654.344441,16.912,0.155
52654.359981,16.605,0.135
52654.375858,16.372,0.122
52662.315392,16.206,0.049
52662.331454,16.014,0.041
52662.347576,16.038,0.043
52662.36243,16.099,0.046
52662.38018,16.142,0.048
52693.24973,16.713,0.066
52693.250429,16.654,0.073
52693.264962,16.679,0.063
52693.265565,16.608,0.071
52693.279565,16.703,0.066
52693.294797,16.765,0.069
52693.295399,16.638,0.078
52693.308496,16.659,0.063
52721.183441,16.504,0.058
52721.19557,16.531,0.059
52721.207724,16.582,0.059
52721.21987,16.585,0.059
52721.232066,16.623,0.061
52750.136247,16.197,0.081
52750.147838,16.236,0.049
52750.159639,16.277,0.051
52750.170806,16.403,0.058
52750.181954,16.362,0.058
52771.151411,16.928,0.142
52771.163385,16.832,0.13
52771.175432,16.721,0.118
52771.187524,16.528,0.104
52771.19944,16.231,0.08
52926.453049,16.958,0.181
52926.464663,16.919,0.174
52926.476706,16.899,0.165
52926.489038,16.898,0.159
52926.500984,16.778,0.144
52948.456525,16.671,0.086
52948.46894,16.726,0.087
52948.481353,16.615,0.078
52948.493808,16.798,0.092
52979.382823,17.103,0.226
52979.39403,16.852,0.181
52979.405251,16.834,0.19
52979.425749,16.621,0.183
53009.355831,16.889,0.117
53009.372849,16.861,0.112
53009.38735,16.949,0.122
53009.401873,16.884,0.114
53009.417759,16.807,0.107
53017.426743,16.893,0.094
53044.281593,16.682,0.092
53074.228408,16.632,0.073
53074.239846,16.533,0.068
53074.251452,16.59,0.073
53074.26298,16.621,0.076
53074.274465,16.72,0.084
53094.191161,16.113,0.044
53094.201521,16.119,0.043
53094.212195,16.175,0.046
53094.222498,16.214,0.046
53104.198393,15.967,0.035
53104.209272,15.995,0.035
53104.230933,16.123,0.04
53104.241739,16.195,0.045
53133.154303,17.026,0.256
53133.163588,16.845,0.096
53133.172811,16.927,0.097
53133.181941,16.842,0.134
53156.164862,16.601,0.119
53156.173215,16.673,0.125
53156.181606,16.63,0.124
53156.190034,16.698,0.135
53156.198456,16.705,0.139
53162.184998,16.918,0.16
53162.194604,16.941,0.135
53280.441728,16.76,0.165
53280.452718,16.76,0.155
53280.463696,16.816,0.17
53290.420154,16.733,0.109
53290.43134,16.592,0.096
53330.439486,16.153,0.05
53330.451992,16.2,0.054
53330.464517,16.263,0.063
53330.477023,16.413,0.076
53330.489531,16.438,0.072
53356.443658,16.395,0.061
53356.45667,16.472,0.067
53356.469692,16.477,0.063
53356.482682,16.509,0.065
53356.49597,16.501,0.063
53358.331978,16.887,0.078
53358.344943,16.946,0.083
53358.358608,16.857,0.078
53358.373341,16.815,0.074
53358.38832,16.477,0.056
53362.366552,16.659,0.213
53362.381738,16.605,0.178
53362.398655,16.717,0.113
53390.279072,16.433,0.074
53390.291825,16.457,0.076
53390.305495,16.506,0.078
53390.318364,16.473,0.076
53390.33177,16.496,0.074
53429.269564,16.034,0.044
53429.280796,16.059,0.046
53429.315066,16.249,0.055
53442.170138,16.721,0.061
53442.18105,16.703,0.057
53442.191969,16.713,0.057
53442.202868,16.761,0.061
53442.2266,16.848,0.067
53452.230326,17.035,0.226
53460.221055,16.793,0.074
53460.231484,16.794,0.074
53460.241967,16.778,0.072
53460.252907,16.886,0.08
53460.263565,16.845,0.08
53488.191246,16.771,0.07
53488.201313,16.778,0.074
53488.211314,16.822,0.078
53488.221563,16.863,0.081
53488.232491,16.897,0.085
53637.451012,16.638,0.163
53637.461848,16.544,0.141
53665.487158,16.273,0.098
53665.499083,16.042,0.076
53687.385414,16.664,0.107
53687.397826,16.684,0.107
53687.410517,16.721,0.105
53687.422985,16.689,0.1
53687.435685,16.744,0.096
53724.335789,16.619,0.098
53724.34874,16.538,0.089
53724.361726,16.551,0.1
53754.343287,16.222,0.065
53754.355878,16.231,0.067
53775.292056,16.738,0.111
53775.304583,16.893,0.128
53775.317441,16.914,0.126
53775.326846,16.868,0.117
53775.330741,16.969,0.133
53775.340829,16.966,0.129
53775.344282,16.968,0.131
53775.3549,17.039,0.19
53775.368915,17.44,0.229
53860.192662,16.62,0.099
53860.205338,16.643,0.104
53860.215217,16.675,0.107
54013.438577,16.873,0.228
54013.452599,16.692,0.19
54013.466775,16.5,0.101
54013.479854,16.597,0.101
54021.434334,16.78,0.175
54021.44668,16.695,0.157
54021.459156,16.801,0.172
54021.483059,16.72,0.153
54050.377444,16.406,0.08
54050.389631,16.368,0.087
54050.401825,16.368,0.089
54050.414038,16.394,0.089
54050.426483,16.409,0.089
54107.384541,16.005,0.104
54126.270349,16.837,0.102
54139.271001,16.636,0.055
54139.282955,16.677,0.065
54139.29469,16.674,0.091
54139.306376,16.752,0.072
54139.318053,16.738,0.085
54167.236811,16.565,0.068
54167.247972,16.525,0.055
54167.259172,16.614,0.065
54167.270396,16.63,0.072
54419.467189,16.787,0.069
54419.479483,16.728,0.068
54419.491733,16.775,0.069
54419.504143,16.86,0.078
54464.323436,16.623,0.071
54464.335947,16.697,0.074
54464.348453,16.642,0.071
54464.361345,16.712,0.076
54464.373928,16.734,0.078
54484.323315,16.411,0.083
54484.335613,16.403,0.083
54484.347903,16.439,0.083
54484.360559,16.502,0.087
54484.37287,16.572,0.092
54495.286869,16.302,0.049
54495.299,16.066,0.041
54495.311212,15.959,0.04
54495.323263,16.042,0.041
54495.335524,16.12,0.045
54523.224088,16.861,0.064
54523.235564,16.854,0.064
54523.247006,16.988,0.071
54523.258505,16.958,0.069
54523.270138,16.924,0.068
54540.22057,16.149,0.049
54540.232108,16.005,0.045
54540.242879,15.994,0.043
54540.253817,16.002,0.043
54540.264634,16.043,0.043
54554.202498,16.781,0.083
54554.214499,16.742,0.081
54554.227436,16.727,0.064
54554.239267,16.808,0.074
54621.158448,16.336,0.081
54621.168917,16.326,0.079
54621.179796,16.366,0.084
54621.190187,16.399,0.087
54621.201004,16.444,0.094
