mjd,m,merr
52619.448779,16.39,0.059
52619.463763,16.515,0.068
52619.47874,16.697,0.084
52619.494154,16.628,0.076
52619.509142,16.497,0.068
52640.38385,16.474,0.051
52640.398911,16.346,0.046
52640.413929,16.361,0.048
52640.429362,16.488,0.051
52640.445034,16.584,0.056
52646.385596,16.689,0.068
52646.400408,16.675,0.068
52646.414848,16.531,0.061
52646.429419,16.366,0.052
52646.44393,16.369,0.055
52647.382306,16.481,0.063
52647.396801,16.539,0.066
52647.411687,17.171,0.116
52647.42652,17.011,0.104
52647.441219,16.533,0.068
52667.318559,16.366,0.048
52667.333251,16.408,0.049
52667.347929,16.445,0.051
52667.362607,16.675,0.064
52667.377334,16.658,0.064
52672.321701,16.401,0.057
52672.335643,16.36,0.046
52672.349801,16.435,0.054
52672.363665,16.456,0.05
52672.377635,16.607,0.065
52673.28887,16.584,0.059
52673.303845,16.75,0.068
52673.319711,16.581,0.058
52673.336143,16.462,0.059
52673.351147,16.442,0.053
52704.286055,16.515,0.056
52704.299145,16.529,0.059
52704.312498,16.684,0.074
52704.325526,16.717,0.074
52704.338536,16.524,0.063
52705.238054,16.688,0.055
52705.251228,16.529,0.048
52705.266198,16.407,0.043
52705.279236,16.383,0.043
52705.292385,16.302,0.041
52707.244712,16.396,0.044
52707.258107,16.526,0.05
52707.27128,16.648,0.057
52707.284555,16.72,0.061
52707.297842,16.63,0.055
52725.276908,16.559,0.1
52725.28864,16.567,0.105
52725.300301,16.795,0.07
52729.227175,16.357,0.044
52729.238807,16.346,0.044
52729.250276,16.417,0.048
52729.261764,16.404,0.046
52729.27393,16.657,0.059
52734.195313,16.694,0.061
52734.207725,16.675,0.059
52734.220924,16.521,0.054
52734.233162,16.396,0.05
52734.246327,16.363,0.05
52738.181484,17.202,0.131
52738.192904,17.172,0.13
52738.204443,16.701,0.083
52738.215872,16.521,0.072
52738.227343,16.481,0.07
52755.144023,16.441,0.052
52755.156153,16.439,0.054
52755.168216,16.589,0.061
52755.180306,16.743,0.072
52755.192368,16.652,0.068
52758.146904,16.721,0.074
52758.159221,16.581,0.069
52758.171421,16.397,0.058
52758.183556,16.395,0.058
52758.195624,16.404,0.056
52937.445256,16.252,0.051
52937.457164,16.254,0.053
52937.468922,16.21,0.046
52937.480708,16.304,0.046
52937.492443,16.358,0.048
52941.428652,16.361,0.056
52941.440242,16.344,0.051
52941.452068,16.314,0.048
52941.463645,16.345,0.048
52941.475485,16.386,0.048
52944.43854,16.438,0.08
52944.450545,16.505,0.08
52944.462486,16.605,0.083
52944.474443,16.732,0.091
52944.486518,16.668,0.083
52973.396046,16.408,0.052
52973.409047,16.521,0.055
52973.422145,16.545,0.057
52973.434944,16.781,0.068
52973.447895,16.609,0.055
52995.382739,16.364,0.03
52995.407958,16.445,0.033
52995.420336,16.608,0.038
52995.432764,16.952,0.051
53027.398606,16.46,0.031
53027.411432,16.391,0.03
53027.424437,16.319,0.028
53027.437256,16.344,0.031
53027.450034,16.385,0.031
53029.339979,16.461,0.071
53033.277797,16.564,0.063
53033.290471,17.122,0.104
53033.302994,17.311,0.12
53033.315484,16.768,0.073
53033.327941,16.593,0.059
53053.286916,16.531,0.102
53053.299309,16.345,0.052
53053.312041,16.358,0.061
53053.326122,16.52,0.142
53053.337857,16.479,0.044
53058.288425,16.56,0.033
53058.313563,16.348,0.031
53058.325862,16.329,0.03
53058.338162,16.347,0.028
53061.297475,16.372,0.031
53061.309556,16.372,0.031
53061.321687,16.461,0.035
53061.333602,16.674,0.04
53079.247775,16.668,0.055
53079.258465,16.743,0.057
53079.269153,16.579,0.05
53079.279961,16.462,0.044
53079.290618,16.399,0.044
53083.289476,16.393,0.036
53083.312083,16.359,0.038
53083.334499,16.448,0.041
53085.279866,16.675,0.043
53085.2911,17.115,0.073
53085.302341,17.387,0.124
53085.313677,16.793,0.061
53085.327307,16.548,0.049
53110.184308,16.618,0.068
53110.194997,16.428,0.059
53110.205686,16.417,0.059
53110.216372,16.368,0.057
53110.227124,16.362,0.059
53114.197302,16.309,0.035
53114.208382,16.317,0.035
53114.219484,16.308,0.035
53114.230165,16.398,0.04
53114.240793,16.484,0.043
53116.200547,16.982,0.124
53116.211355,16.958,0.208
53116.222112,16.871,0.134
53116.232794,16.776,0.16
53116.245503,16.804,0.236
53138.152604,16.334,0.054
53138.162474,16.353,0.054
53138.172355,16.36,0.054
53138.182187,16.428,0.057
53138.191989,16.567,0.065
53142.157873,16.33,0.045
53142.190097,16.491,0.051
53142.20003,16.572,0.091
53144.15849,17.065,0.457
53144.167903,16.61,0.068
53144.177296,16.466,0.065
53144.186686,16.457,0.078
53144.206045,16.318,0.107
53292.429483,16.5,0.114
53292.43909,16.389,0.099
53292.448731,16.296,0.084
53292.459376,16.348,0.084
53292.468977,16.463,0.092
53327.384545,16.656,0.092
53327.397548,16.561,0.102
53327.410051,16.565,0.086
53327.422285,16.416,0.071
53327.43475,16.381,0.079
53346.382034,16.437,0.061
53346.39429,16.478,0.066
53346.406672,16.583,0.071
53346.419408,16.859,0.091
53346.431623,17.179,0.117
53347.438552,16.602,0.066
53347.452338,16.743,0.078
53347.466416,16.667,0.074
53347.480151,16.566,0.066
53351.421398,16.518,0.068
53351.435634,16.799,0.091
53351.450115,17.349,0.152
53351.465028,16.969,0.114
53351.479675,16.588,0.083
53352.445996,16.534,0.076
53352.461011,16.744,0.092
53352.475766,17.025,0.122
53352.490447,16.678,0.092
53352.50525,16.642,0.091
53353.414634,16.528,0.071
53353.428694,16.459,0.066
53353.442865,16.391,0.059
53353.457083,16.461,0.068
53353.47112,16.657,0.081
53357.438178,16.406,0.046
53357.451594,16.403,0.046
53357.466109,16.462,0.054
53357.479912,16.653,0.065
53357.494988,16.731,0.068
53383.345654,16.407,0.046
53383.359806,16.732,0.065
53383.372886,17.211,0.102
53383.386392,16.986,0.083
53383.399949,16.608,0.057
53403.298608,16.445,0.043
53403.312165,16.562,0.049
53403.325533,16.744,0.059
53403.352542,16.586,0.061
53468.213778,17.166,0.215
53468.22328,17.05,0.141
53671.445771,16.603,0.137
53671.457823,16.381,0.102
53671.469875,16.39,0.109
53671.494048,16.329,0.137
53674.466496,16.36,0.067
53674.478636,16.504,0.07
53674.490913,16.579,0.074
53674.50304,16.763,0.087
53679.450171,16.365,0.061
53679.462399,16.386,0.059
53679.474543,16.421,0.063
53679.486718,16.465,0.065
53679.499592,16.557,0.067
53704.449291,16.342,0.048
53704.461807,16.466,0.055
53704.474234,16.69,0.067
53704.486813,17.132,0.098
53704.499557,17.012,0.087
53707.449919,17.092,0.107
53707.462718,17.215,0.107
53707.475323,16.607,0.067
53707.487969,16.521,0.059
53707.500578,16.411,0.05
53711.46911,16.58,0.055
53711.4821,16.501,0.052
53711.494975,16.378,0.046
53711.507985,16.341,0.046
53711.520912,16.415,0.052
53734.407811,16.484,0.052
53734.420758,16.381,0.048
53734.433692,16.381,0.046
53734.446836,16.465,0.054
53734.460013,16.596,0.061
53737.404475,16.378,0.044
53737.417991,16.425,0.046
53737.431341,16.552,0.054
53737.444747,16.57,0.17
53737.458078,16.574,0.055
53747.356331,17.097,0.242
53747.369171,17.016,0.207
53747.395709,16.491,0.142
53758.340539,16.502,0.048
53758.353066,16.377,0.046
53758.365582,16.368,0.048
53758.378317,16.435,0.052
53758.390829,16.473,0.055
53787.414611,16.391,0.067
53787.426519,16.466,0.074
53787.438512,16.355,0.065
53787.45058,16.345,0.068
53789.289964,16.546,0.094
53789.301898,16.646,0.085
53789.313828,16.973,0.202
53789.337929,16.952,0.257
53790.286889,16.403,0.051
53790.298797,16.398,0.054
53790.310764,16.382,0.051
53790.322795,16.447,0.056
53790.334709,16.618,0.063
53792.288153,17.288,0.122
53792.300075,17.054,0.093
53792.311984,16.598,0.091
53792.323882,16.506,0.054
53792.33583,16.417,0.057
53799.230181,16.601,0.058
53799.242346,16.814,0.069
53799.25437,16.68,0.058
53799.266306,16.578,0.048
53799.27799,16.475,0.043
53802.281216,16.433,0.072
53802.292588,16.473,0.074
53802.303977,16.527,0.104
53802.326794,17.655,0.401
53818.229236,16.324,0.053
53818.240349,16.356,0.053
53818.251449,16.435,0.058
53818.262587,16.569,0.068
53818.273846,16.726,0.078
53821.235212,16.69,0.081
53821.249217,17.178,0.128
53821.262147,17.301,0.128
53821.275397,16.733,0.074
53821.286588,16.572,0.139
53824.285949,16.431,0.074
53824.300268,16.46,0.183
53824.330194,16.834,0.15
53824.34612,16.722,0.327
53828.234683,16.492,0.078
53828.245076,16.513,0.081
53828.256136,16.367,0.117
53828.280103,16.45,0.094
53845.184274,16.793,0.092
53845.195378,17.529,0.19
53845.206541,17.48,0.178
53845.217605,16.996,0.12
53845.228694,16.625,0.092
53846.193548,16.428,0.081
53846.2042,16.502,0.091
53846.21488,16.754,0.113
53846.225615,16.768,0.117
53846.236336,16.751,0.115
53851.143122,17.15,0.147
53851.15385,16.723,0.094
53851.164309,16.717,0.106
53851.174778,16.446,0.074
53851.185204,16.505,0.094
53851.19274,16.43,0.07
53851.202781,16.371,0.065
53851.213396,16.431,0.072
53851.223289,16.565,0.081
53851.23317,16.651,0.096
53854.19676,16.702,0.259
53854.207652,16.642,0.198
53854.221954,16.738,0.1
53854.232852,16.543,0.085
53854.246741,16.465,0.087
54030.430256,16.351,0.092
54030.458445,16.367,0.081
54030.474437,16.315,0.071
54030.486918,16.439,0.079
54035.437304,16.552,0.087
54035.449545,16.465,0.073
54035.462075,16.37,0.066
54035.474223,16.433,0.068
54035.485924,16.412,0.061
54040.443474,17.019,0.157
54040.455842,16.721,0.122
54040.468206,16.538,0.097
54040.480219,16.602,0.096
54053.426065,17.027,0.194
54053.449631,16.402,0.094
54053.461569,16.408,0.078
54053.473421,16.397,0.065
54056.427426,16.444,0.055
54056.439682,16.419,0.052
54056.451931,16.402,0.05
54056.464374,16.438,0.054
54056.476623,16.525,0.054
54059.433949,16.433,0.054
54059.442004,16.568,0.076
54059.446446,16.506,0.055
54059.458759,16.633,0.061
54059.465595,16.786,0.087
54059.471096,16.763,0.07
54059.479516,16.757,0.083
54059.484521,16.612,0.057
54059.49199,16.552,0.066
54059.504655,16.447,0.056
54064.442165,16.431,0.048
54064.455033,16.495,0.052
54064.467889,16.6,0.054
54064.480751,16.771,0.063
54064.493626,16.743,0.061
54082.372122,16.458,0.135
54082.393217,17.124,0.12
54082.396983,16.663,0.16
54082.406107,16.69,0.08
54082.419015,16.524,0.067
54082.432233,16.406,0.059
54082.445134,16.388,0.057
54085.403861,16.414,0.048
54085.416998,16.419,0.05
54085.430752,16.468,0.068
54085.444395,16.544,0.059
54085.457877,16.662,0.059
54112.387677,16.773,0.078
54112.400386,16.608,0.068
54112.412948,16.574,0.068
54112.425493,16.556,0.071
54114.356314,16.51,0.068
54114.369013,16.485,0.074
54152.280507,16.763,0.05
54152.292418,16.736,0.048
54152.304307,16.582,0.043
54152.316206,16.504,0.041
54152.328115,16.435,0.039
54153.274008,16.449,0.041
54153.285503,16.587,0.048
54153.296999,16.805,0.059
54153.308503,17.234,0.089
54153.320076,17.209,0.081
54173.21472,16.449,0.053
54173.225388,16.427,0.051
54173.236277,16.439,0.053
54173.247092,16.554,0.059
54173.257964,16.705,0.069
54174.265288,16.536,0.048
54174.275992,16.689,0.057
54174.286697,17.048,0.081
54174.297399,17.33,0.157
54174.308104,16.898,0.083
54177.327898,16.457,0.209
54180.281382,16.383,0.039
54180.291917,16.417,0.041
54180.303058,16.437,0.043
54180.313777,16.518,0.046
54180.324377,16.678,0.054
54185.221674,16.562,0.12
54185.231934,17.049,0.188
54185.242148,17.161,0.206
54185.252346,16.852,0.158
54185.262559,16.573,0.127
54201.193023,16.848,0.096
54201.202506,17.292,0.144
54201.211731,17.211,0.127
54201.22096,16.847,0.091
54201.230267,16.655,0.079
54205.220473,16.591,0.061
54205.229666,16.461,0.055
54205.238942,16.488,0.055
54205.248134,16.405,0.054
54205.257341,16.441,0.054
54208.21607,16.445,0.057
54208.225098,16.394,0.052
54208.234152,16.39,0.05
54208.243224,16.442,0.054
54208.252307,16.487,0.054
54212.223652,16.404,0.061
54212.23272,16.463,0.063
54212.24173,16.525,0.07
54212.250887,16.566,0.076
54212.26003,16.728,0.089
54416.4371,16.424,0.044
54416.449854,16.41,0.043
54416.462179,16.428,0.043
54416.474497,16.501,0.046
54416.486837,16.848,0.063
54438.446374,16.429,0.031
54438.459614,16.432,0.033
54438.472955,16.49,0.035
54438.486385,16.575,0.037
54438.499642,16.705,0.041
54448.441578,16.869,0.053
54448.453914,16.637,0.045
54448.46624,16.527,0.041
54448.479241,16.383,0.036
54448.491614,16.506,0.043
54478.46205,16.68,0.03
54478.4866,16.629,0.033
54478.498902,16.677,0.041
54481.215966,16.397,0.067
54481.229335,16.437,0.063
54481.242493,16.597,0.07
54481.255504,17.061,0.102
54481.268444,17.264,0.117
54498.332655,16.467,0.035
54498.345188,16.577,0.039
54498.35774,16.978,0.059
54498.370387,17.44,0.093
54498.382907,16.909,0.055
54506.266756,16.466,0.035
54506.268335,16.409,0.048
54506.276024,16.425,0.031
54506.279096,16.496,0.033
54506.280453,16.432,0.049
54506.288377,16.415,0.033
54506.291278,16.431,0.033
54506.292641,16.409,0.048
54506.300539,16.431,0.031
54506.303567,16.413,0.031
54506.304825,16.431,0.049
54506.313,16.436,0.033
54506.315896,16.531,0.037
54506.317262,16.404,0.048
54506.325207,16.582,0.039
54522.333942,16.788,0.061
54522.345836,16.562,0.052
54522.357777,16.431,0.046
54522.369765,16.341,0.044
54522.381559,16.39,0.048
54527.285901,16.425,0.057
54527.308699,16.58,0.041
54527.320112,16.836,0.046
54535.270871,16.425,0.03
54535.281945,16.497,0.031
54535.293043,16.661,0.037
54535.304131,16.987,0.048
54535.315212,17.226,0.061
54540.160933,16.364,0.046
54540.17184,16.407,0.048
54540.18285,16.489,0.05
54540.193822,16.551,0.052
54540.204844,16.654,0.055
54553.245638,16.544,0.039
54553.257471,16.429,0.037
54553.269404,16.475,0.05
54553.281288,16.426,0.048
54553.293145,16.481,0.07
54558.120928,17.252,0.094
54558.132656,17.024,0.07
54558.144214,16.606,0.048
54558.155758,16.474,0.043
54558.167342,16.415,0.041
54561.238831,16.467,0.043
54561.250315,16.429,0.03
54561.261766,16.397,0.031
54561.273244,16.428,0.041
54561.284715,16.501,0.057
54580.144322,17.03,0.147
54580.15455,16.8,0.114
54580.165105,16.879,0.12
54580.183432,16.729,0.109
54583.197412,16.926,0.087
54583.208076,17.294,0.137
54590.197764,16.488,0.052
54590.208065,16.405,0.048
54590.218408,16.38,0.048
54590.228776,16.398,0.052
54590.239128,16.468,0.055
