mjd,m,merr
52619.449426,16.899,0.097
52619.464409,16.876,0.096
52619.479821,16.995,0.112
52619.494801,16.847,0.101
52619.509789,16.81,0.097
52640.423645,16.018,0.031
52640.43904,15.99,0.03
52640.454545,15.97,0.03
52640.469558,15.977,0.031
52640.484399,15.965,0.031
52646.386588,16.095,0.043
52646.401397,16.024,0.041
52646.415842,16.117,0.043
52646.430412,16.069,0.043
52646.444921,16.096,0.044
52647.38343,16.061,0.043
52647.397924,16.072,0.045
52647.412825,16.067,0.045
52647.427645,16.113,0.048
52647.442344,16.114,0.048
52666.319825,16.765,0.068
52666.335212,16.76,0.068
52666.350139,16.794,0.068
52666.365156,16.711,0.063
52666.379825,16.731,0.068
52669.35295,16.145,0.031
52672.323002,16.688,0.074
52672.33694,16.616,0.061
52672.351099,16.641,0.063
52672.364959,16.599,0.059
52672.378934,16.508,0.059
52673.289627,16.643,0.069
52673.304677,16.657,0.071
52673.320472,16.675,0.069
52673.33691,16.7,0.074
52673.351911,16.74,0.079
52698.253423,16.454,0.162
52698.284966,16.653,0.066
52698.302855,16.642,0.059
52698.303443,16.613,0.056
52698.317184,16.639,0.059
52698.317857,16.559,0.054
52704.286537,16.852,0.071
52704.287138,16.77,0.068
52704.299624,16.795,0.069
52704.300226,16.825,0.071
52704.312978,16.95,0.084
52704.313581,16.727,0.071
52704.326005,16.955,0.084
52704.326613,16.746,0.074
52704.339018,16.869,0.079
52704.339621,16.757,0.076
52705.239278,16.476,0.046
52705.252445,16.51,0.05
52705.267385,16.535,0.05
52705.280448,16.568,0.054
52705.293638,16.601,0.054
52725.265639,16.143,0.094
52725.27738,16.024,0.044
52725.289115,16.114,0.096
52725.300775,15.939,0.033
52729.228341,16.519,0.054
52729.239973,16.511,0.052
52729.251443,16.56,0.054
52729.262932,16.5,0.052
52729.275101,16.494,0.054
52734.249623,16.714,0.07
52734.261974,16.658,0.067
52734.274215,16.615,0.128
52734.286456,16.664,0.233
52738.187187,16.209,0.061
52738.187546,16.167,0.059
52738.198881,16.282,0.069
52738.19924,16.223,0.063
52738.210486,16.264,0.068
52738.210844,16.245,0.064
52738.222532,16.258,0.066
52738.233774,16.305,0.074
52738.234133,16.181,0.063
52755.144809,15.981,0.035
52755.156945,15.991,0.037
52755.169006,16.004,0.037
52755.181099,16.021,0.037
52755.193159,16.042,0.039
52758.147597,16.776,0.074
52758.147706,16.727,0.073
52758.160006,16.753,0.076
52758.160115,16.724,0.073
52758.172113,16.729,0.073
52758.172223,16.856,0.079
52758.184251,16.851,0.083
52758.18436,16.753,0.076
52758.19632,16.804,0.076
52758.196429,16.831,0.079
52940.486237,17.254,0.502
52940.49824,16.863,0.186
52944.438814,15.879,0.054
52944.450819,15.908,0.052
52944.46276,15.966,0.052
52944.474717,15.955,0.05
52944.486792,15.982,0.048
52965.453917,16.509,0.224
52973.396321,16.187,0.048
52973.409321,16.193,0.046
52973.422419,16.177,0.046
52973.435218,16.396,0.05
52973.448169,16.36,0.048
52993.387688,16.763,0.055
52993.400775,16.763,0.055
52993.413867,16.768,0.055
52993.42725,16.714,0.046
52993.440381,16.676,0.043
52994.401135,16.611,0.048
52994.41397,16.638,0.048
52994.427474,16.69,0.061
52994.44057,16.685,0.058
52994.454172,16.709,0.058
52996.385529,16.276,0.035
52996.398298,16.289,0.033
52996.411122,16.445,0.036
52996.424097,16.351,0.035
52996.436877,16.499,0.038
53025.302548,16.588,0.04
53025.314553,16.626,0.04
53025.326022,16.631,0.045
53025.337788,16.725,0.073
53028.370823,16.11,0.025
53028.383027,16.159,0.023
53028.395872,16.221,0.025
53028.408287,16.193,0.026
53028.420512,16.32,0.048
53033.278181,16.59,0.064
53033.290856,16.699,0.069
53033.303379,16.727,0.071
53033.315868,16.609,0.061
53033.328325,16.642,0.061
53053.288518,16.002,0.046
53053.300319,16.028,0.048
53053.313051,16.049,0.057
53053.327133,16.01,0.068
53053.338868,15.938,0.03
53057.338548,17.139,0.591
53057.350751,16.392,0.252
53079.24874,16.637,0.055
53079.259371,16.664,0.055
53079.270059,16.693,0.057
53079.280866,16.641,0.057
53079.2916,16.64,0.057
53082.236899,16.128,0.026
53082.248519,16.069,0.026
53082.260131,16.031,0.026
53082.273481,16.11,0.028
53082.284836,16.124,0.028
53084.239039,15.89,0.023
53084.251505,15.887,0.021
53084.262877,15.856,0.021
53084.274208,15.791,0.021
53084.286015,15.919,0.021
53091.230886,15.957,0.028
53091.250631,15.953,0.028
53091.263247,16.027,0.031
53091.272988,15.993,0.026
53110.185164,16.677,0.076
53110.195853,16.715,0.08
53110.206542,16.675,0.078
53110.217229,16.686,0.078
53110.227979,16.742,0.085
53115.19994,16.025,0.028
53115.210718,15.912,0.026
53115.221943,15.905,0.028
53115.232784,15.9,0.028
53115.243767,15.976,0.03
53138.153403,15.983,0.039
53138.163284,16.006,0.039
53138.173164,15.949,0.037
53138.182987,15.936,0.039
53138.192787,15.979,0.039
53141.171737,16.617,0.068
53141.181198,16.667,0.069
53141.190211,16.584,0.064
53141.1992,16.586,0.064
53141.208219,16.725,0.079
53316.457798,16.438,0.12
53321.466857,16.354,0.214
53327.377303,16.015,0.076
53327.389693,15.951,0.068
53327.402076,16.001,0.063
53327.414524,15.973,0.055
53327.426899,16.02,0.055
53346.383048,16.67,0.073
53346.395306,16.592,0.071
53346.407951,16.685,0.076
53346.420421,16.703,0.078
53346.432637,16.683,0.076
53347.469501,16.512,0.055
53347.485463,16.661,0.065
53347.50094,16.637,0.061
53347.518627,16.652,0.061
53351.422561,15.996,0.043
53351.436892,15.942,0.041
53351.451322,15.986,0.045
53351.466246,15.997,0.046
53351.480898,15.962,0.045
53353.394071,16.689,0.074
53353.407021,16.663,0.076
53353.419951,16.725,0.083
53353.432889,16.661,0.078
53353.445874,16.732,0.081
53357.439134,16.151,0.039
53357.452559,16.126,0.039
53357.467335,16.127,0.039
53357.480909,16.146,0.043
53357.495956,16.215,0.044
53376.415798,16.724,0.068
53376.429322,16.631,0.063
53376.443294,16.696,0.065
53376.45699,16.605,0.061
53376.470564,16.639,0.061
53383.346825,16.712,0.063
53383.360976,16.661,0.061
53383.374058,16.52,0.059
53383.387708,16.528,0.055
53383.401706,16.504,0.057
53403.3558,16.18,0.038
53403.368929,16.208,0.041
53403.382465,16.212,0.043
53403.39672,16.264,0.048
53403.410304,16.202,0.048
53410.417423,16.496,0.044
53410.429784,16.499,0.046
53410.442188,16.487,0.048
53410.454539,16.538,0.052
53410.467593,16.553,0.055
53438.352222,16.782,0.076
53438.364464,16.73,0.074
53438.375989,16.716,0.078
53438.387612,16.669,0.076
53438.399225,16.675,0.081
53464.240691,16.388,0.052
53464.251128,16.367,0.048
53464.261967,16.399,0.052
53464.272536,16.419,0.061
53464.282965,16.425,0.07
53468.214682,16.531,0.144
53468.22419,16.697,0.113
53502.143976,16.434,0.067
53502.154773,16.409,0.065
53502.165318,16.487,0.07
53502.176149,16.485,0.074
53502.186439,16.517,0.076
53674.467537,16.568,0.096
53674.479685,16.654,0.096
53674.491954,16.712,0.089
53679.450394,15.979,0.043
53679.462622,15.971,0.043
53679.474766,15.945,0.041
53679.486942,15.938,0.043
53679.499815,16.02,0.043
53704.450109,16.634,0.063
53704.46262,16.611,0.061
53704.475065,16.585,0.059
53704.487628,16.571,0.059
53704.500375,16.464,0.054
53707.450733,16.639,0.081
53707.463532,16.516,0.059
53707.476155,16.47,0.059
53707.488788,16.569,0.065
53707.501392,16.514,0.055
53711.469646,16.263,0.043
53711.482617,16.208,0.039
53711.4955,16.158,0.039
53711.508518,16.121,0.039
53711.521446,16.031,0.037
53734.409058,16.286,0.043
53734.422006,16.2,0.041
53734.43494,16.1,0.037
53734.448087,16.0,0.035
53734.461261,15.965,0.035
53737.405082,16.63,0.057
53737.418601,16.584,0.054
53737.432029,16.625,0.059
53737.458686,16.645,0.059
53747.343908,16.3,0.124
53747.356792,16.355,0.122
53747.36964,16.248,0.104
53758.341746,16.661,0.057
53758.354256,16.667,0.065
53758.366775,16.648,0.065
53758.379507,16.64,0.065
53758.392134,16.531,0.061
53787.415657,16.077,0.052
53787.427571,16.083,0.052
53787.439579,16.096,0.052
53787.451646,16.13,0.057
53789.290742,16.747,0.117
53789.291151,16.802,0.127
53789.302674,16.769,0.094
53789.303755,16.699,0.089
53789.314607,16.875,0.155
53789.316749,16.773,0.152
53789.329243,16.689,0.177
53789.338705,16.638,0.194
53789.341774,16.607,0.173
53792.288913,16.512,0.055
53792.30083,16.53,0.055
53792.312742,16.48,0.074
53792.324637,16.544,0.057
53792.336588,16.507,0.059
53799.23092,16.471,0.051
53799.243078,16.579,0.058
53799.255079,16.566,0.053
53799.267017,16.528,0.048
53799.278699,16.566,0.048
53802.282344,16.141,0.055
53802.293719,16.169,0.055
53802.305108,16.185,0.087
53802.327929,16.177,0.105
53818.230182,15.967,0.036
53818.241302,15.977,0.036
53818.252397,16.021,0.038
53818.263534,16.038,0.038
53818.274798,16.077,0.04
53821.23634,16.723,0.085
53821.250342,16.775,0.087
53821.263279,16.734,0.078
53821.277071,16.778,0.08
53821.287713,16.7,0.115
53824.286706,16.34,0.07
53824.330953,16.433,0.109
53828.2358,16.728,0.104
53828.246196,16.866,0.118
53828.257257,16.687,0.181
53828.281219,16.738,0.131
53845.186868,16.553,0.081
53845.197573,16.551,0.081
53845.208285,16.574,0.083
53845.219142,16.627,0.089
53845.229886,16.628,0.096
53846.1942,16.488,0.087
53846.204854,16.526,0.093
53846.215527,16.578,0.098
53846.226268,16.51,0.093
53846.236992,16.531,0.094
53851.186369,16.749,0.111
53851.193372,16.777,0.1
53851.196591,16.802,0.106
53851.203412,16.796,0.1
53851.206869,16.772,0.099
53851.214035,16.867,0.105
53851.217165,16.626,0.091
53851.223926,16.759,0.1
53851.227505,16.71,0.099
53851.233808,16.759,0.104
53854.208746,16.482,0.157
53854.223538,16.513,0.08
53854.236461,16.594,0.089
53854.248019,16.61,0.098
53857.230875,15.993,0.067
54030.432298,16.021,0.068
54030.447305,16.002,0.061
54030.463438,16.101,0.059
54030.475176,16.095,0.056
54030.487652,15.997,0.051
54035.438248,16.5,0.089
54035.450284,16.68,0.091
54035.462815,16.548,0.079
54035.474962,16.589,0.079
54035.486671,16.574,0.074
54040.430306,16.924,0.139
54040.443928,16.807,0.117
54040.46865,16.646,0.096
54040.480666,16.512,0.081
54053.427242,16.148,0.096
54053.450869,16.164,0.083
54053.462749,16.136,0.068
54053.4746,16.132,0.05
54056.4286,16.79,0.078
54056.440854,16.804,0.076
54056.453106,16.764,0.072
54056.465547,16.768,0.07
54056.477796,16.782,0.07
54058.438589,16.501,0.068
54058.451744,16.562,0.069
54058.464341,16.631,0.073
54058.476815,16.633,0.073
54058.489237,16.617,0.071
54059.434729,16.346,0.05
54059.447226,16.444,0.054
54059.459541,16.49,0.057
54059.471939,16.503,0.055
54059.485301,16.434,0.048
54064.38432,16.702,0.087
54064.396972,16.926,0.102
54064.409545,16.783,0.086
54064.422278,16.778,0.083
54064.435225,16.675,0.073
54064.442979,16.868,0.074
54064.455841,16.742,0.067
54064.468702,16.825,0.07
54064.481567,16.88,0.072
54064.49444,16.822,0.065
54082.394044,16.439,0.068
54082.406933,16.478,0.07
54082.410114,16.345,0.119
54082.420176,16.515,0.072
54082.422576,16.444,0.125
54082.43306,16.45,0.067
54082.44596,16.599,0.072
54085.458953,16.002,0.033
54085.471914,16.059,0.035
54085.484878,16.027,0.031
54085.497847,16.085,0.031
54085.510809,16.088,0.033
54112.388125,16.606,0.071
54112.400834,16.634,0.073
54112.413394,16.641,0.078
54112.425941,16.741,0.089
54114.357108,16.21,0.049
54114.382668,16.462,0.157
54152.281508,16.3,0.033
54152.293416,16.318,0.033
54152.305304,16.34,0.037
54152.317207,16.381,0.039
54152.329115,16.389,0.039
54153.275139,16.123,0.031
54153.286633,16.147,0.033
54153.298129,16.159,0.033
54153.309632,16.202,0.035
54153.321203,16.209,0.035
54173.215638,16.648,0.063
54173.226308,16.712,0.063
54173.237238,16.68,0.064
54173.248015,16.663,0.063
54173.258909,16.658,0.064
54174.266375,16.596,0.052
54174.277086,16.551,0.052
54174.287787,16.543,0.063
54174.298489,16.562,0.08
54174.309196,16.627,0.078
54180.282436,16.834,0.063
54180.292972,16.843,0.065
54180.304189,16.791,0.061
54180.314834,16.826,0.063
54180.325484,16.688,0.059
54185.222574,15.955,0.068
54185.232834,16.029,0.073
54185.243051,16.049,0.074
54185.253248,16.11,0.078
54185.263462,16.112,0.079
54201.193405,16.059,0.051
54201.202887,15.965,0.048
54201.212114,16.042,0.049
54201.221342,16.042,0.049
54201.23065,16.015,0.049
54205.221191,16.59,0.061
54205.230385,16.555,0.059
54205.239658,16.601,0.063
54205.24885,16.558,0.061
54205.258062,16.645,0.065
54208.216782,16.115,0.044
54208.225808,16.06,0.041
54208.234864,16.071,0.041
54208.243938,16.042,0.041
54208.253019,16.128,0.041
54212.224744,16.71,0.083
54212.233793,16.732,0.085
54212.242801,16.748,0.087
54212.251958,16.769,0.091
54212.261102,16.697,0.087
54418.443229,16.398,0.041
54418.455737,16.455,0.041
54418.468237,16.416,0.041
54418.48074,16.399,0.039
54418.493241,16.367,0.041
54438.447843,16.479,0.033
54438.461083,16.415,0.033
54438.474424,16.447,0.033
54438.487856,16.448,0.033
54438.501116,16.431,0.033
54481.271169,15.988,0.041
54481.28409,16.123,0.044
54481.297017,16.11,0.041
54481.309942,16.072,0.039
54481.32286,16.056,0.035
54506.276989,15.922,0.022
54506.289213,15.939,0.024
54506.301508,15.933,0.022
54506.313832,15.957,0.024
54506.326041,16.004,0.024
54522.335254,15.928,0.031
54522.347266,15.951,0.031
54522.359322,15.895,0.031
54522.37108,15.9,0.033
54522.382872,15.933,0.035
54529.270739,15.984,0.02
54529.282165,16.049,0.022
54529.293794,16.041,0.024
54529.305602,16.042,0.026
54529.316971,16.0,0.026
54535.272229,16.213,0.026
54535.283317,16.235,0.026
54535.294398,16.258,0.026
54535.305486,16.26,0.026
54535.316569,16.274,0.028
54553.246801,16.041,0.026
54553.258654,15.96,0.026
54553.270565,16.018,0.033
54553.282449,15.983,0.033
54553.294309,15.93,0.05
54559.123008,15.975,0.026
54559.134649,15.984,0.028
54559.146232,16.018,0.028
54559.157695,16.033,0.03
54559.169158,16.042,0.028
54562.240128,16.601,0.044
54562.25197,16.539,0.043
54562.26369,16.512,0.043
54562.275388,16.444,0.041
54562.287142,16.427,0.041
54580.205084,16.556,0.087
54584.197023,16.143,0.039
54584.2079,16.051,0.035
54584.218799,16.033,0.035
54584.229681,15.999,0.037
54584.240573,16.008,0.037
54591.19317,15.971,0.035
54591.203581,16.016,0.039
54591.213864,16.076,0.041
54591.224129,16.066,0.044
54591.234411,16.027,0.046
