mjd,m,merr
52619.448652,16.12,0.048
52619.463634,16.362,0.061
52619.478613,16.61,0.078
52619.494024,16.433,0.064
52619.509013,16.206,0.053
52640.42352,15.989,0.03
52640.438828,16.023,0.031
52640.45442,16.044,0.031
52640.469434,16.182,0.037
52640.484276,16.405,0.044
52646.385472,16.193,0.044
52646.400284,16.072,0.039
52646.414724,15.978,0.037
52646.429294,16.022,0.039
52646.443807,16.055,0.041
52647.382431,16.142,0.046
52647.396927,16.38,0.058
52647.411813,16.672,0.074
52647.426646,16.601,0.073
52647.441345,16.24,0.054
52666.319702,16.62,0.059
52666.335089,16.309,0.046
52666.350017,16.14,0.038
52666.365036,16.029,0.036
52666.379704,16.052,0.038
52671.382567,16.358,0.058
52672.321941,16.269,0.052
52672.335881,16.073,0.037
52672.350039,16.064,0.039
52672.363901,16.007,0.033
52672.377873,16.035,0.039
52673.288742,16.043,0.038
52673.303718,16.019,0.036
52673.319584,16.084,0.04
52673.336016,16.189,0.046
52673.35102,16.514,0.059
52698.267128,16.375,0.167
52698.284265,16.136,0.04
52698.284851,16.031,0.049
52698.30215,16.086,0.038
52698.316478,16.067,0.038
52704.285934,16.012,0.038
52704.299024,15.931,0.036
52704.312376,16.055,0.043
52704.325404,16.105,0.045
52704.338415,16.289,0.054
52705.238334,16.05,0.031
52705.251507,16.104,0.033
52705.266474,16.19,0.035
52705.292664,16.613,0.054
52725.276786,16.199,0.12
52725.288516,16.071,0.087
52725.300179,16.022,0.035
52729.22741,16.391,0.044
52729.239043,16.566,0.054
52729.250513,16.572,0.054
52729.262,16.365,0.046
52729.274167,16.178,0.039
52734.195696,16.232,0.041
52734.207969,16.101,0.035
52734.221167,16.089,0.035
52734.233407,16.005,0.035
52734.246572,16.043,0.037
52738.186715,16.262,0.068
52738.198407,16.091,0.059
52738.210014,16.053,0.056
52738.221699,16.022,0.056
52738.233301,16.088,0.059
52755.144135,16.055,0.037
52755.156265,16.136,0.041
52755.168328,16.309,0.048
52755.180417,16.6,0.063
52755.192479,16.67,0.068
52758.147021,16.359,0.054
52758.159339,16.122,0.045
52758.171539,16.105,0.045
52758.183673,16.045,0.043
52758.195741,16.014,0.04
52940.497982,16.211,0.107
52944.438405,16.076,0.055
52944.450409,16.066,0.05
52944.46235,16.055,0.05
52944.474274,16.057,0.046
52944.486383,16.143,0.05
52965.465671,16.128,0.178
52973.395911,16.515,0.055
52973.408912,16.383,0.05
52973.421971,16.176,0.041
52973.43481,16.101,0.037
52973.44776,16.078,0.035
52993.386802,16.11,0.031
52993.39989,16.072,0.028
52993.412937,16.0,0.028
52993.426364,16.009,0.026
52993.439495,16.124,0.026
52994.400736,16.551,0.041
52994.413574,16.616,0.046
52994.427078,16.478,0.061
52994.440175,16.255,0.036
52994.453775,16.094,0.033
52995.444811,16.13,0.026
52995.457537,16.318,0.031
52995.471064,16.535,0.038
52995.483809,16.555,0.038
52995.496546,16.299,0.03
52995.505104,16.095,0.028
52995.518551,16.067,0.028
52996.333558,16.076,0.028
52996.34626,16.072,0.03
52996.358814,16.063,0.028
52996.371607,16.148,0.03
52996.384193,16.29,0.033
52997.432358,16.143,0.076
52997.445472,16.376,0.093
53025.290469,16.428,0.033
53025.302179,16.213,0.028
53025.314184,16.145,0.025
53025.325653,16.097,0.028
53025.337419,16.079,0.028
53028.370227,16.114,0.023
53028.382414,16.035,0.02
53028.395278,16.002,0.02
53028.40769,15.963,0.02
53028.419915,16.018,0.053
53033.277705,16.38,0.053
53033.290379,16.205,0.046
53033.302902,16.114,0.041
53033.315392,16.07,0.038
53033.327849,16.053,0.038
53053.288294,16.06,0.054
53053.300094,16.096,0.054
53053.312826,16.038,0.059
53053.326907,16.212,0.087
53053.338642,16.517,0.046
53079.24848,16.021,0.03
53079.25917,16.092,0.031
53079.269858,16.219,0.035
53079.280665,16.423,0.043
53079.291399,16.585,0.05
53082.236494,16.447,0.035
53082.248115,16.235,0.028
53082.259727,16.104,0.025
53082.273076,16.05,0.025
53082.284431,16.002,0.023
53084.238635,16.296,0.03
53084.251102,16.136,0.025
53084.273806,15.953,0.021
53084.285611,15.948,0.021
53091.23034,16.063,0.03
53091.250081,16.273,0.035
53091.2627,16.54,0.045
53091.272438,16.598,0.045
53110.184973,16.298,0.05
53110.195663,16.11,0.044
53110.206351,16.122,0.044
53110.217038,16.059,0.043
53110.227789,15.96,0.041
53115.199577,16.283,0.035
53115.210338,16.545,0.046
53115.232404,16.486,0.045
53115.243403,16.267,0.038
53138.152693,16.068,0.043
53138.162563,16.045,0.041
53138.172444,16.018,0.039
53138.182276,16.052,0.041
53138.192077,16.09,0.041
53141.171214,16.603,0.063
53141.180657,16.418,0.054
53141.189687,16.229,0.046
53141.198676,16.159,0.043
53141.207679,16.057,0.041
53316.459826,15.951,0.084
53327.384651,16.074,0.053
53327.397654,16.127,0.063
53327.410156,16.213,0.058
53327.422391,16.549,0.079
53327.434854,16.666,0.104
53346.382864,16.059,0.043
53346.395121,16.052,0.043
53346.407768,16.064,0.043
53346.420238,16.132,0.046
53346.432454,16.286,0.053
53347.438655,16.061,0.041
53347.452441,15.949,0.038
53347.466519,15.997,0.04
53347.48027,16.07,0.049
53351.421503,16.073,0.046
53351.435755,15.993,0.046
53351.450235,15.999,0.046
53351.465148,16.058,0.051
53351.479796,16.148,0.056
53352.447112,16.622,0.079
53352.462149,16.366,0.064
53352.476899,16.154,0.054
53352.491568,16.035,0.053
53352.506389,16.002,0.049
53353.414745,16.124,0.048
53353.428805,16.079,0.046
53353.442975,16.017,0.045
53353.457193,16.01,0.045
53353.47123,16.152,0.053
53357.438273,16.052,0.035
53357.451688,16.069,0.035
53357.46622,16.176,0.041
53357.480006,16.347,0.05
53357.495083,16.6,0.061
53383.345917,16.094,0.035
53383.360069,16.016,0.033
53383.373149,16.009,0.033
53383.386658,15.984,0.033
53383.400404,16.072,0.037
53403.298861,16.149,0.033
53403.312419,16.074,0.031
53403.325788,16.036,0.031
53403.352797,16.075,0.036
53410.417296,16.166,0.033
53410.429657,16.331,0.039
53410.44206,16.609,0.054
53410.454412,16.679,0.057
53410.467465,16.449,0.05
53438.351335,16.117,0.039
53438.36354,16.177,0.043
53438.375071,16.371,0.054
53438.38669,16.639,0.07
53438.398309,16.539,0.068
53468.21448,16.338,0.098
53468.223988,16.193,0.065
53502.143262,16.408,0.061
53502.15406,16.225,0.052
53502.164599,16.143,0.05
53502.174955,16.126,0.05
53502.185725,16.04,0.048
53671.4459,16.091,0.091
53671.457952,16.073,0.072
53671.470004,16.142,0.102
53674.466625,16.097,0.052
53674.478765,16.047,0.046
53674.491043,16.004,0.043
53674.50317,16.004,0.043
53679.450059,16.215,0.052
53679.462288,16.354,0.055
53679.474432,16.571,0.07
53679.486607,16.574,0.07
53679.49948,16.359,0.055
53704.449158,16.109,0.039
53704.461673,16.206,0.043
53704.474101,16.384,0.05
53704.486679,16.656,0.063
53704.499423,16.565,0.057
53707.449784,16.202,0.044
53707.462583,16.101,0.039
53707.475188,16.07,0.041
53707.487834,16.017,0.039
53707.500443,16.08,0.035
53711.469383,16.015,0.033
53711.482357,16.025,0.033
53711.49524,16.08,0.035
53711.508259,16.197,0.043
53711.521186,16.398,0.05
53734.408093,16.474,0.052
53734.42104,16.627,0.061
53734.433973,16.583,0.057
53734.447119,16.265,0.046
53734.460296,16.101,0.041
53737.404779,16.042,0.033
53737.418299,15.993,0.031
53737.431727,15.99,0.031
53737.445054,16.016,0.093
53737.458384,16.256,0.041
53747.35622,16.279,0.118
53747.369058,16.187,0.1
53747.382149,16.24,0.118
53747.395595,16.135,0.104
53758.340807,16.172,0.037
53758.353334,16.406,0.05
53758.378585,16.602,0.061
53758.391097,16.371,0.05
53787.414738,16.116,0.052
53787.426647,16.065,0.05
53787.438639,16.01,0.048
53787.450706,16.015,0.05
53789.160603,16.109,0.05
53789.172696,16.037,0.041
53789.184807,16.071,0.05
53789.196921,16.141,0.043
53789.209062,16.149,0.043
53789.223576,16.533,0.056
53789.236248,16.725,0.066
53789.24871,16.579,0.066
53789.261141,16.471,0.099
53789.273702,16.182,0.058
53789.289828,15.983,0.057
53789.291004,16.031,0.058
53789.301763,16.082,0.052
53789.303608,16.066,0.049
53789.313692,15.974,0.083
53789.316601,16.056,0.078
53789.329095,16.039,0.101
53789.337795,16.018,0.104
53790.216965,16.112,0.054
53790.225048,16.019,0.036
53790.228723,15.99,0.039
53790.237035,15.983,0.035
53790.240494,15.947,0.037
53790.248939,16.037,0.038
53790.25228,16.044,0.041
53790.260686,16.081,0.04
53790.26413,16.104,0.041
53790.272454,16.197,0.043
53792.28802,16.498,0.057
53792.299943,16.65,0.063
53792.311852,16.454,0.072
53792.32375,16.258,0.044
53792.335699,16.111,0.039
53799.230042,16.436,0.053
53799.242205,16.193,0.043
53799.254228,16.095,0.038
53799.266167,16.045,0.035
53799.277851,16.022,0.031
53802.281471,16.653,0.087
53802.292843,16.537,0.08
53802.304232,16.33,0.089
53802.32705,16.225,0.113
53818.229375,16.457,0.056
53818.240488,16.674,0.068
53818.251588,16.582,0.063
53818.262724,16.382,0.053
53818.273984,16.213,0.046
53821.235466,16.026,0.044
53821.249471,16.074,0.048
53821.262401,16.173,0.046
53821.27565,16.191,0.046
53821.286839,16.331,0.083
53824.285818,16.021,0.046
53824.300136,16.018,0.094
53824.330062,16.159,0.07
53824.345985,16.378,0.263
53828.234935,16.511,0.078
53828.245328,16.288,0.065
53828.256388,16.187,0.093
53828.280356,16.027,0.061
53845.185967,16.079,0.052
53845.196669,16.044,0.052
53845.207382,16.05,0.052
53845.218238,16.136,0.057
53845.228979,16.28,0.068
53846.193624,16.569,0.091
53846.204277,16.553,0.091
53846.214956,16.168,0.065
53846.225692,16.1,0.063
53846.236412,16.127,0.065
53851.143025,16.156,0.061
53851.153753,16.091,0.053
53851.164213,15.999,0.054
53851.17468,16.022,0.051
53851.185106,16.006,0.058
53851.192629,16.012,0.048
53851.20267,16.111,0.052
53851.213286,16.192,0.057
53851.223178,16.36,0.067
53851.23306,16.635,0.093
53854.207893,16.375,0.198
53854.222197,16.11,0.055
53854.233096,16.069,0.055
53854.247004,16.07,0.061
54030.43013,16.136,0.073
54030.44434,16.386,0.087
54030.458321,16.68,0.104
54030.474313,16.495,0.083
54030.486793,16.355,0.071
54035.437176,16.15,0.064
54035.449417,16.093,0.056
54035.461946,16.044,0.053
54035.474095,16.125,0.056
54035.485796,16.195,0.054
54040.443364,16.753,0.122
54040.468092,16.396,0.084
54053.426329,16.054,0.081
54053.438122,16.095,0.105
54053.449898,16.246,0.076
54053.461837,16.645,0.13
54053.473688,16.729,0.089
54056.427692,16.333,0.048
54056.439947,16.188,0.043
54056.452198,16.107,0.037
54056.464639,16.046,0.037
54056.476888,16.02,0.033
54058.438447,16.115,0.049
54058.451601,16.1,0.046
54058.4642,16.075,0.045
54058.476672,16.051,0.043
54058.489095,16.105,0.046
54059.433815,16.187,0.043
54059.446312,16.357,0.048
54059.458625,16.633,0.061
54059.470962,16.685,0.063
54059.484386,16.361,0.044
54064.383328,16.601,0.081
54064.395981,16.577,0.078
54064.408552,16.261,0.056
54064.421284,16.173,0.049
54064.434232,16.086,0.046
54064.442024,16.08,0.035
54064.454893,16.052,0.035
54064.467749,16.125,0.035
54064.480611,16.137,0.035
54064.493486,16.3,0.041
54082.372235,16.204,0.102
54082.393077,16.045,0.044
54082.405967,15.992,0.043
54082.418876,15.978,0.041
54082.444994,16.151,0.044
54085.403713,16.749,0.063
54085.416849,16.661,0.061
54085.430605,16.358,0.068
54085.444246,16.196,0.041
54085.457729,16.114,0.035
54112.387546,16.268,0.058
54112.400271,16.498,0.071
54112.412832,16.69,0.086
54112.425378,16.6,0.086
54114.35618,16.013,0.043
54114.368878,16.063,0.059
54152.280654,16.093,0.026
54152.292565,16.157,0.028
54152.304454,16.288,0.033
54152.316354,16.528,0.041
54152.328263,16.691,0.048
54153.274258,16.51,0.043
54153.285753,16.291,0.035
54153.297247,16.165,0.033
54153.308753,16.065,0.03
54153.320325,16.051,0.03
54173.215373,16.635,0.061
54173.226044,16.711,0.064
54173.236935,16.412,0.049
54173.24775,16.182,0.041
54173.258643,16.133,0.04
54174.265526,16.492,0.046
54174.27623,16.704,0.059
54174.286937,16.664,0.061
54174.297638,16.495,0.08
54174.308343,16.276,0.044
54180.281615,16.473,0.044
54180.292151,16.264,0.037
54180.303361,16.119,0.031
54180.314011,16.031,0.03
54180.324611,15.998,0.03
54185.221801,16.178,0.089
54185.232062,16.139,0.086
54185.242276,15.989,0.074
54185.252475,16.082,0.081
54185.262689,16.048,0.081
54201.192924,16.164,0.066
54201.202408,16.062,0.059
54201.211632,16.075,0.058
54201.220862,16.063,0.058
54201.230169,16.064,0.058
54205.220356,16.008,0.035
54205.229546,16.007,0.035
54205.238825,16.069,0.037
54205.248015,16.165,0.043
54205.257222,16.251,0.046
54208.215954,16.654,0.07
54208.22498,16.44,0.054
54208.234035,16.325,0.05
54208.243105,16.155,0.044
54208.252189,16.128,0.039
54212.223901,16.334,0.057
54212.232955,16.201,0.05
54212.241966,16.116,0.048
54212.251122,16.056,0.046
54212.260265,16.025,0.046
54416.437932,16.585,0.05
54416.450624,16.459,0.043
54416.462951,16.216,0.033
54416.47527,16.119,0.031
54416.487609,16.054,0.03
54438.446744,16.014,0.022
54438.459983,16.022,0.024
54438.473325,16.051,0.024
54438.486754,16.169,0.028
54438.500012,16.339,0.031
54480.462053,16.154,0.074
54480.474342,15.982,0.064
54480.486956,16.004,0.068
54480.499244,15.987,0.071
54480.511566,16.034,0.079
54481.229107,16.593,0.07
54481.242267,16.337,0.054
54481.268217,16.058,0.039
54498.333446,16.031,0.024
54498.345976,16.069,0.026
54498.358529,16.179,0.03
54498.371175,16.411,0.037
54498.383788,16.583,0.041
54506.275848,16.128,0.026
54506.288202,16.047,0.026
54506.300364,16.014,0.024
54506.312825,16.022,0.024
54506.325033,16.088,0.026
54522.334099,16.664,0.055
54522.345995,16.593,0.054
54522.357933,16.279,0.041
54522.369922,16.137,0.037
54522.381716,16.089,0.037
54527.298084,16.07,0.035
54527.30947,16.037,0.024
54527.320882,16.014,0.022
54535.271213,16.203,0.026
54535.282288,16.085,0.022
54535.293384,16.034,0.022
54535.304475,16.019,0.022
54535.315555,16.039,0.022
54553.245781,16.117,0.026
54553.257611,16.038,0.026
54553.269542,16.006,0.028
54553.281426,16.022,0.031
54553.293288,16.105,0.048
54559.121883,16.025,0.026
54559.133518,16.066,0.028
54559.145089,16.093,0.028
54559.156567,16.13,0.03
54559.168027,16.281,0.031
54561.239594,16.062,0.022
54561.251083,16.046,0.02
54561.262533,16.047,0.024
54561.274009,16.085,0.028
54561.285482,16.161,0.05
54580.144442,16.175,0.063
54580.154671,16.17,0.059
54580.183553,16.26,0.068
54580.194123,16.387,0.073
54584.196121,16.493,0.052
54584.207001,16.648,0.059
54584.217898,16.606,0.057
54584.228784,16.3,0.046
54584.239677,16.166,0.041
54591.145379,16.281,0.081
54591.155139,16.177,0.076
54591.16489,16.102,0.071
54591.174642,16.012,0.068
54591.184225,16.074,0.071
54591.192279,16.028,0.037
54591.202697,16.066,0.039
54591.212979,16.056,0.041
54591.223243,16.16,0.046
54591.233525,16.278,0.057
