mjd,m,merr
52613.443806,16.483,0.052
52613.458953,16.355,0.046
52613.474225,16.445,0.052
52613.489466,16.5,0.054
52613.504678,16.453,0.052
52618.45028,15.641,0.035
52618.465582,15.734,0.046
52618.480847,15.81,0.046
52618.496355,15.855,0.041
52618.511842,15.959,0.041
52640.424747,16.531,0.048
52640.440163,16.522,0.046
52640.455571,16.374,0.041
52640.470585,15.928,0.028
52640.485428,15.684,0.022
52643.376184,16.219,0.039
52643.390456,16.274,0.043
52643.404648,16.302,0.044
52643.418913,16.313,0.043
52643.433032,16.355,0.044
52647.391194,16.461,0.052
52647.406133,16.492,0.055
52647.420509,16.535,0.057
52647.434947,16.481,0.057
52647.44932,16.387,0.052
52666.321243,15.589,0.023
52666.336348,15.614,0.023
52666.351273,15.685,0.025
52670.333017,16.352,0.043
52670.34699,16.34,0.044
52670.360979,16.421,0.048
52670.374983,16.448,0.052
52670.388992,16.432,0.05
52673.296883,15.944,0.03
52673.312237,15.652,0.022
52673.327513,15.646,0.022
52673.342835,15.663,0.024
52673.358019,15.769,0.026
52678.3106,16.197,0.08
52678.324706,16.235,0.074
52678.33862,16.205,0.041
52678.352678,16.22,0.044
52678.366812,16.224,0.043
52698.286142,16.283,0.045
52698.304029,16.276,0.043
52698.318444,16.371,0.048
52703.248442,16.485,0.048
52703.261922,16.556,0.083
52703.275886,16.461,0.07
52703.289352,16.403,0.044
52703.302709,16.407,0.048
52725.266124,16.361,0.115
52725.277856,16.45,0.068
52725.289595,16.291,0.115
52725.301252,16.451,0.048
52730.232753,16.393,0.043
52730.244376,16.441,0.046
52730.256079,16.46,0.048
52730.267805,16.511,0.052
52730.279562,16.462,0.05
52733.244017,16.241,0.043
52733.256658,16.254,0.044
52733.268788,16.302,0.046
52733.28189,16.302,0.05
52733.293909,16.343,0.094
52738.187898,16.452,0.074
52738.199592,16.418,0.076
52738.211197,16.39,0.073
52738.222885,16.445,0.078
52738.234485,16.436,0.078
52754.196281,16.141,0.041
52754.208474,16.126,0.043
52754.220643,16.193,0.046
52754.232936,16.178,0.048
52754.245117,16.265,0.054
52758.148699,16.44,0.048
52758.160698,16.481,0.05
52758.17278,16.464,0.05
52758.184933,16.449,0.048
52758.196976,16.409,0.046
52944.43936,16.501,0.081
52944.451413,16.514,0.078
52944.463307,16.471,0.072
52944.475263,16.581,0.076
52944.487338,16.429,0.065
52964.459668,15.644,0.02
52964.47254,15.695,0.022
52964.48585,15.79,0.022
52964.501357,15.849,0.024
52965.452866,16.759,0.289
52966.406532,16.447,0.05
52966.419286,16.436,0.05
52966.432,16.465,0.05
52966.444671,16.492,0.052
52966.457417,16.444,0.05
52973.396884,16.48,0.052
52973.409874,16.499,0.054
52973.422971,16.494,0.05
52973.435772,16.447,0.048
52973.448724,16.474,0.048
52993.388222,16.419,0.037
52993.401309,16.46,0.039
52993.414401,16.46,0.039
52993.427783,16.535,0.037
52993.440914,16.508,0.033
52994.411602,16.433,0.037
52994.424796,16.507,0.048
52994.437985,16.459,0.037
52994.451105,16.427,0.041
52994.464248,16.389,0.035
52997.412176,16.113,0.089
52997.437917,16.198,0.083
53025.367846,16.077,0.03
53025.393895,16.143,0.026
53028.340446,16.48,0.03
53028.353091,16.426,0.026
53028.365686,16.437,0.028
53028.378173,16.456,0.028
53028.39066,16.539,0.028
53033.278762,16.347,0.049
53033.291436,15.924,0.035
53033.30396,15.733,0.028
53033.316446,15.59,0.025
53033.328899,15.649,0.025
53035.339553,16.379,0.05
53035.353301,16.407,0.052
53035.366443,16.398,0.05
53035.380289,16.45,0.052
53035.39286,16.486,0.054
53052.274456,16.066,0.028
53052.286238,16.09,0.03
53052.298105,16.127,0.03
53052.310089,16.165,0.031
53052.321891,16.182,0.033
53061.275998,15.927,0.018
53061.287288,15.703,0.017
53061.298511,15.606,0.015
53061.309668,15.629,0.015
53061.320832,15.669,0.017
53079.225192,16.201,0.041
53079.236277,16.174,0.038
53079.247329,16.214,0.04
53079.258266,16.271,0.041
53079.269225,16.254,0.041
53082.281493,15.611,0.015
53082.292821,15.579,0.015
53082.304648,15.626,0.017
53082.31607,15.675,0.018
53082.327614,15.769,0.02
53091.231451,16.411,0.037
53091.241953,16.456,0.048
53091.252592,16.411,0.035
53091.263095,16.408,0.035
53091.273841,16.413,0.035
53110.187755,16.614,0.074
53110.198755,16.645,0.076
53110.209634,16.601,0.074
53110.220595,16.579,0.074
53110.23152,16.31,0.059
53116.253772,15.804,0.05
53116.264963,15.918,0.087
53116.287231,15.921,0.087
53116.298475,16.013,0.07
53138.15488,16.425,0.061
53138.16462,16.492,0.063
53138.174983,16.545,0.068
53138.184619,16.594,0.068
53138.19424,16.551,0.068
53141.164004,16.276,0.046
53141.173439,16.339,0.048
53141.183215,16.322,0.046
53141.192729,16.373,0.048
53141.202381,16.379,0.052
53144.174686,15.625,0.031
53144.183638,15.639,0.036
53144.192466,15.746,0.053
53144.201274,15.814,0.051
53316.458005,16.014,0.078
53327.3775,16.338,0.094
53327.38989,16.351,0.104
53327.402273,16.381,0.083
53327.414722,16.358,0.081
53327.427096,16.442,0.078
53347.469709,16.469,0.05
53347.485665,16.471,0.052
53347.501159,16.612,0.055
53347.51883,16.522,0.052
53353.394277,16.451,0.054
53353.407227,16.485,0.057
53353.420157,16.547,0.061
53353.433095,16.468,0.057
53353.44608,16.483,0.057
53357.43951,16.177,0.033
53357.452936,16.218,0.037
53357.467885,16.213,0.037
53357.481899,16.291,0.043
53357.496333,16.326,0.043
53376.416046,16.433,0.046
53376.429868,16.455,0.046
53376.443543,16.449,0.046
53376.457238,16.433,0.046
53376.470812,16.47,0.048
53381.357095,16.448,0.057
53381.370422,16.418,0.054
53381.384404,16.415,0.076
53381.399042,16.54,0.054
53381.412868,16.567,0.065
53403.357651,16.461,0.05
53403.370554,16.468,0.048
53403.384477,16.456,0.05
53403.397372,16.512,0.054
53432.284148,16.256,0.08
53432.298563,16.463,0.135
53432.311136,16.437,0.131
53432.33842,16.494,0.131
53437.233832,16.422,0.044
53437.246328,16.432,0.044
53437.257864,16.422,0.044
53437.269459,16.462,0.044
53437.28092,16.449,0.046
53438.22581,16.372,0.039
53438.237409,16.348,0.039
53438.249005,16.408,0.039
53438.26064,16.415,0.041
53438.272299,16.426,0.041
53438.352468,16.461,0.052
53438.364709,16.475,0.054
53438.376235,16.447,0.054
53438.387858,16.451,0.055
53438.399471,16.44,0.061
53440.239042,16.025,0.031
53440.250777,16.092,0.033
53440.262393,16.101,0.033
53440.27757,16.155,0.035
53440.290267,16.142,0.035
53443.217151,16.375,0.085
53443.228156,16.47,0.131
53443.250547,16.413,0.163
53443.262202,16.444,0.065
53446.219222,16.218,0.043
53446.229779,16.228,0.043
53446.240392,16.227,0.043
53446.251503,16.266,0.043
53446.262704,16.258,0.046
53464.240895,16.436,0.05
53464.251332,16.399,0.046
53464.262171,16.466,0.05
53464.27274,16.568,0.061
53464.28317,16.492,0.063
53495.195175,16.264,0.081
53495.205485,16.214,0.074
53495.215741,16.214,0.078
53495.225973,16.292,0.087
53495.236277,16.361,0.12
53502.144182,16.146,0.046
53502.154981,16.071,0.044
53502.165525,16.095,0.046
53502.176357,16.133,0.05
53502.18665,16.12,0.05
53674.468185,16.298,0.061
53674.480335,16.403,0.065
53674.492602,16.396,0.059
53705.45316,15.718,0.028
53705.466088,15.748,0.028
53705.478814,15.862,0.03
53705.491528,15.893,0.03
53705.504198,15.968,0.031
53708.45083,16.42,0.048
53708.463593,16.435,0.048
53708.476553,16.458,0.05
53708.489385,16.445,0.05
53708.502037,16.431,0.05
53711.470555,16.138,0.033
53711.483516,16.117,0.033
53711.496408,16.169,0.035
53711.509414,16.3,0.041
53711.522344,16.259,0.041
53732.414693,15.97,0.046
53732.427357,16.039,0.05
53732.440134,16.075,0.048
53732.452907,16.093,0.05
53732.465679,16.095,0.054
53735.41852,16.365,0.072
53735.457582,16.494,0.054
53737.40613,16.355,0.041
53737.419641,16.369,0.041
53737.433074,16.421,0.044
53737.459727,16.453,0.046
53747.344373,16.474,0.139
53747.357264,16.079,0.094
53747.370103,15.894,0.074
53759.346699,16.049,0.031
53759.359567,16.126,0.037
53759.372289,16.121,0.037
53759.384966,16.149,0.039
53759.397653,16.214,0.05
53762.350672,16.43,0.046
53762.36339,16.511,0.046
53762.376405,16.538,0.048
53762.389276,16.543,0.048
53762.402318,16.48,0.046
53787.416822,16.239,0.052
53787.428738,16.286,0.054
53787.44075,16.32,0.059
53787.45283,16.39,0.068
53789.292029,16.514,0.081
53789.30463,16.407,0.061
53789.317622,16.393,0.101
53789.330117,15.921,0.074
53789.342644,15.822,0.083
53790.285301,16.48,0.055
53790.29707,16.456,0.055
53790.308851,16.446,0.055
53790.320604,16.41,0.052
53790.332352,16.421,0.052
53793.313345,16.285,0.104
53797.240399,16.494,0.05
53797.251954,16.459,0.048
53797.263595,16.471,0.055
53797.275173,16.489,0.15
53797.286746,16.461,0.052
53799.231913,16.261,0.046
53799.244076,16.246,0.045
53799.256076,16.258,0.043
53799.268014,16.312,0.043
53799.27971,16.299,0.04
53799.280657,16.302,0.041
53799.292141,16.351,0.043
53799.303641,16.364,0.043
53799.315153,16.402,0.055
53799.326859,16.422,0.055
53819.280989,16.425,0.067
53819.291941,16.476,0.07
53819.315894,16.411,0.072
53819.327086,16.474,0.061
53827.244124,16.28,0.05
53827.255104,16.294,0.05
53827.265991,16.316,0.052
53827.276862,16.383,0.055
53827.28738,16.397,0.057
53845.187061,16.475,0.072
53845.197765,16.445,0.072
53845.208478,16.419,0.07
53845.219338,16.489,0.076
53845.230078,16.455,0.078
53846.194922,16.401,0.078
53846.205575,16.404,0.078
53846.216249,16.446,0.081
53846.22699,16.455,0.083
53846.237714,16.393,0.078
53850.220263,15.811,0.035
53850.230895,15.872,0.039
53850.241587,15.907,0.041
53850.252494,15.923,0.041
53850.263615,15.932,0.043
53851.186851,16.87,0.114
53851.197071,16.405,0.074
53851.20735,16.339,0.068
53851.217648,15.988,0.051
53851.227986,15.869,0.046
53853.190673,16.428,0.067
53853.201096,16.461,0.07
53853.212505,16.402,0.067
53853.222912,16.452,0.072
53853.233349,16.46,0.078
54036.436273,15.999,0.058
54036.449038,16.009,0.056
54036.462023,16.015,0.051
54036.474244,16.096,0.054
54036.486116,16.053,0.049
54040.444371,16.556,0.106
54040.469094,16.507,0.091
54057.455192,16.05,0.035
54057.467735,16.066,0.035
54057.480208,16.101,0.035
54057.492704,16.145,0.037
54057.505184,16.186,0.037
54058.439439,15.632,0.031
54058.452591,15.723,0.033
54058.465184,15.8,0.035
54058.47766,15.857,0.035
54058.490081,15.931,0.038
54060.431412,16.435,0.05
54060.445343,16.432,0.05
54060.458262,16.406,0.05
54060.471163,16.455,0.052
54060.484228,16.463,0.052
54064.384601,15.802,0.041
54064.397253,15.818,0.041
54064.409823,15.918,0.041
54064.422558,15.929,0.04
54064.435509,15.972,0.041
54067.39665,16.44,0.041
54067.40962,16.466,0.041
54067.422585,16.468,0.039
54067.43569,16.402,0.033
54067.448815,16.418,0.035
54083.459552,16.376,0.059
54083.473449,16.428,0.08
54083.486743,16.425,0.057
54083.499835,16.471,0.078
54086.364197,16.293,0.054
54086.377402,15.94,0.037
54086.390335,15.653,0.028
54086.403277,15.629,0.026
54086.416216,15.66,0.026
54091.369878,16.051,0.03
54091.382457,16.1,0.031
54091.39504,16.132,0.031
54091.407962,16.149,0.033
54091.420556,16.212,0.035
54112.388789,16.213,0.053
54112.413854,16.256,0.058
54112.426404,16.358,0.066
54113.330203,15.716,0.028
54113.355906,15.862,0.036
54113.381772,15.985,0.038
54115.402874,16.502,0.066
54115.415622,16.49,0.069
54115.428496,15.991,0.045
54115.441489,15.789,0.035
54115.45474,15.64,0.033
54123.335072,16.556,0.068
54123.347541,16.515,0.066
54123.360041,16.543,0.066
54123.372501,16.447,0.061
54123.385145,16.545,0.068
54144.274728,16.37,0.051
54144.286632,16.521,0.059
54144.298613,16.404,0.054
54144.308273,16.481,0.041
54144.310563,16.496,0.058
54144.31939,16.429,0.039
54144.32249,16.471,0.076
54144.330589,16.477,0.041
54144.341691,16.437,0.039
54144.352795,16.468,0.044
54148.282763,15.602,0.026
54148.294921,15.66,0.028
54148.30666,15.672,0.026
54148.318369,15.751,0.03
54148.330196,15.824,0.033
54153.27883,16.192,0.041
54153.290551,16.209,0.041
54153.302737,16.223,0.043
54153.314424,16.211,0.043
54153.326494,16.292,0.048
54154.273001,15.913,0.026
54154.284481,15.936,0.026
54154.295984,15.981,0.024
54154.307457,16.037,0.026
54154.318926,16.068,0.028
54173.263132,16.285,0.037
54173.273973,16.314,0.039
54173.284705,16.364,0.041
54173.29537,16.353,0.041
54173.306015,16.394,0.043
54176.268231,15.6,0.02
54176.278864,15.652,0.022
54176.289449,15.704,0.022
54176.300179,15.761,0.024
54176.310828,15.817,0.026
54179.283798,16.43,0.043
54179.294898,16.442,0.044
54179.306211,16.44,0.048
54179.317368,16.45,0.048
54179.328272,16.385,0.048
54186.295784,16.314,0.039
54186.307331,16.364,0.041
54186.318545,16.352,0.041
54186.329995,16.394,0.043
54201.193798,16.206,0.068
54201.20328,16.348,0.078
54201.212511,16.28,0.069
54201.221737,16.164,0.063
54201.231046,16.279,0.073
54206.218803,16.465,0.048
54206.227946,16.407,0.046
54206.236982,16.416,0.046
54206.24603,16.424,0.048
54206.255078,16.462,0.05
54209.213744,16.156,0.1
54209.222762,15.944,0.089
54209.242166,16.102,0.081
54397.428066,16.117,0.039
54409.443201,16.209,0.041
54409.455446,16.198,0.035
54409.467668,16.274,0.037
54409.479893,16.266,0.035
54418.444042,15.741,0.02
54418.45655,15.766,0.02
54418.469051,15.824,0.02
54418.481553,15.873,0.022
54418.494056,15.942,0.024
54439.388594,15.707,0.017
54439.401462,15.604,0.015
54439.414336,15.663,0.017
54439.427216,15.728,0.017
54439.440091,15.781,0.017
54507.273088,15.94,0.02
54507.28532,15.979,0.022
54507.297589,15.978,0.022
54507.309984,16.043,0.022
54507.322403,16.079,0.024
54522.336068,15.924,0.028
54522.348082,15.952,0.028
54522.360135,16.0,0.03
54522.371899,16.005,0.031
54522.383684,16.078,0.035
54529.27152,15.626,0.015
54529.282957,15.697,0.017
54529.294573,15.78,0.017
54529.30638,15.797,0.018
54529.317751,15.864,0.02
54536.217809,16.264,0.026
54536.2289,15.964,0.02
54536.23983,15.742,0.017
54536.250782,15.62,0.015
54536.261844,15.619,0.015
54553.247521,16.447,0.033
54553.259377,16.458,0.035
54553.27129,16.485,0.05
54553.283172,16.516,0.048
54553.295036,16.427,0.054
54559.123279,16.371,0.033
54559.134924,16.395,0.035
54559.146508,16.408,0.035
54559.157967,16.408,0.037
54559.169428,16.429,0.035
54562.240962,16.149,0.024
54562.252868,16.189,0.026
54562.26452,16.239,0.028
54562.27622,16.229,0.028
54562.287993,16.27,0.03
54581.18993,16.483,0.052
54581.200604,16.423,0.05
54581.211278,16.42,0.048
54581.221952,16.47,0.054
54581.232651,16.486,0.054
54584.197416,15.81,0.028
54584.208291,15.839,0.028
54584.219193,15.883,0.03
54584.230073,15.927,0.031
54584.240963,15.951,0.033
54591.193566,15.831,0.03
54591.203973,15.884,0.033
54591.214256,15.884,0.033
54591.224521,15.943,0.037
54591.234805,15.961,0.041
