mjd,m,merr
52613.443677,15.512,0.024
52613.458824,15.523,0.024
52613.474095,15.502,0.024
52613.489337,15.543,0.024
52613.504548,15.523,0.024
52618.450149,15.523,0.033
52618.465452,15.535,0.041
52618.496224,15.505,0.033
52618.511713,15.478,0.037
52640.424544,15.458,0.018
52640.440034,15.453,0.018
52640.455445,15.421,0.018
52640.470458,15.44,0.018
52640.485301,15.445,0.018
52643.376062,15.491,0.022
52643.390336,15.5,0.022
52643.404529,15.656,0.026
52643.418794,15.794,0.03
52643.432912,15.736,0.028
52647.391074,15.528,0.024
52647.406012,15.533,0.026
52647.420387,15.534,0.026
52647.434826,15.509,0.024
52647.449199,15.502,0.024
52666.3514,15.519,0.023
52666.366418,15.487,0.021
52666.381091,15.485,0.023
52673.29701,15.685,0.026
52673.312364,15.476,0.02
52673.327638,15.487,0.02
52673.342962,15.486,0.02
52673.358148,15.451,0.02
52678.310481,15.986,0.052
52678.324586,15.591,0.039
52678.338501,15.481,0.022
52678.352558,15.473,0.024
52678.366693,15.48,0.024
52698.269031,15.483,0.04
52698.286742,15.489,0.023
52698.304614,15.473,0.023
52698.305203,15.508,0.021
52698.319031,15.532,0.023
52698.319619,15.514,0.021
52703.248304,15.524,0.022
52703.261789,15.494,0.033
52703.27575,15.48,0.031
52703.28922,15.512,0.02
52703.302574,15.527,0.024
52704.30159,15.509,0.02
52704.31497,15.512,0.022
52704.341899,15.515,0.022
52704.355384,15.504,0.022
52725.255303,15.414,0.083
52725.266961,15.505,0.03
52725.278693,15.486,0.061
52725.29043,15.481,0.031
52725.302137,15.46,0.02
52730.232633,15.525,0.022
52730.244258,15.49,0.022
52730.25596,15.459,0.022
52730.267686,15.478,0.022
52730.279444,15.471,0.022
52733.243895,15.529,0.022
52733.256536,15.649,0.028
52733.268667,15.807,0.031
52733.281689,15.71,0.03
52733.293791,15.554,0.048
52754.196171,16.063,0.039
52754.208364,16.09,0.041
52754.220533,15.727,0.031
52754.232826,15.504,0.026
52754.245007,15.488,0.026
52758.148588,15.479,0.02
52758.160588,15.486,0.02
52758.17267,15.47,0.02
52758.184823,15.477,0.02
52758.196866,15.483,0.02
52940.457898,15.494,0.059
52940.470598,15.579,0.07
52940.484079,15.49,0.083
52940.496583,15.505,0.05
52944.440046,15.487,0.035
52944.452125,15.49,0.033
52944.463992,15.502,0.031
52944.475948,15.517,0.031
52944.488023,15.578,0.031
52964.459539,15.502,0.018
52964.472395,15.481,0.018
52964.485705,15.481,0.018
52964.501228,15.491,0.018
52966.406413,15.468,0.022
52966.419167,15.473,0.022
52966.431882,15.456,0.022
52966.444551,15.458,0.022
52966.457298,15.469,0.022
52973.397587,15.472,0.024
52973.410566,15.483,0.022
52973.423664,15.486,0.022
52973.436464,15.492,0.022
52973.449534,15.483,0.022
52993.388398,15.514,0.018
52993.401485,15.496,0.018
52993.414578,15.491,0.018
52993.42796,15.48,0.017
52993.44109,15.498,0.015
52994.411415,15.479,0.017
52994.42461,15.496,0.02
52994.437798,15.602,0.018
52994.450918,15.714,0.026
52994.464062,15.728,0.02
52997.411992,15.476,0.05
52997.437733,15.493,0.05
53025.367665,15.537,0.048
53025.393714,15.515,0.024
53028.340268,15.483,0.015
53028.352907,15.496,0.013
53028.365507,15.51,0.015
53028.377994,15.477,0.015
53028.390481,15.498,0.013
53033.291345,15.469,0.023
53033.303867,15.491,0.023
53033.316354,15.497,0.023
53033.328809,15.465,0.021
53052.274346,15.5,0.018
53052.286129,15.481,0.018
53052.297996,15.479,0.018
53052.30998,15.473,0.018
53052.321782,15.465,0.018
53057.335335,15.539,0.131
53057.346926,15.462,0.07
53061.275829,15.463,0.013
53061.298342,15.465,0.013
53061.309499,15.464,0.015
53061.320662,15.468,0.015
53079.225297,15.477,0.021
53079.236383,15.471,0.021
53079.247435,15.491,0.021
53079.258372,15.52,0.021
53079.26933,15.647,0.025
53082.281843,15.493,0.015
53082.29317,15.529,0.015
53082.304997,15.525,0.015
53082.316426,15.503,0.017
53082.328075,15.633,0.018
53086.177058,15.523,0.023
53086.188338,15.527,0.028
53086.199579,15.488,0.03
53086.210914,15.516,0.054
53086.222293,15.509,0.038
53091.231278,15.518,0.017
53091.24178,15.545,0.022
53091.252419,15.523,0.017
53091.262922,15.657,0.046
53091.273669,15.99,0.024
53110.187664,15.508,0.028
53110.23143,15.552,0.03
53113.207708,15.477,0.078
53116.2536,15.524,0.035
53116.26479,15.496,0.05
53116.275926,15.497,0.072
53116.287058,15.512,0.057
53116.298302,15.47,0.061
53138.154798,15.924,0.04
53138.174901,15.96,0.04
53138.184536,15.702,0.031
53138.194158,15.504,0.026
53141.163853,15.466,0.022
53141.173288,15.482,0.022
53141.183065,15.454,0.02
53141.192578,15.496,0.022
53141.202231,15.486,0.022
53144.174549,15.474,0.026
53144.183501,15.487,0.03
53144.192328,15.477,0.041
53144.201136,15.537,0.036
53316.446007,15.417,0.085
53316.458108,15.529,0.055
53316.470211,15.587,0.104
53327.3776,15.595,0.048
53327.38999,15.515,0.048
53327.402389,15.502,0.037
53327.414822,15.479,0.037
53327.427196,15.486,0.035
53347.469827,15.575,0.024
53347.485783,15.493,0.024
53347.501279,15.488,0.022
53347.518959,15.45,0.022
53353.394381,15.541,0.026
53353.407332,15.54,0.026
53353.420261,15.531,0.026
53353.433199,15.525,0.026
53353.446185,15.53,0.026
53357.439805,15.515,0.024
53357.453232,15.502,0.024
53357.46818,15.659,0.028
53357.482202,16.056,0.041
53357.496622,16.018,0.039
53376.41618,15.491,0.022
53376.429998,15.496,0.022
53376.443676,15.711,0.026
53376.457369,16.095,0.037
53376.470943,15.985,0.033
53381.356967,15.478,0.024
53381.370294,15.498,0.024
53381.384277,15.453,0.041
53381.398914,15.505,0.022
53381.412741,15.484,0.026
53403.358367,15.457,0.022
53403.371259,15.456,0.022
53403.385134,15.485,0.022
53403.39807,15.474,0.022
53432.284029,15.884,0.061
53432.298443,15.548,0.089
53432.311016,15.515,0.065
53432.338299,15.485,0.068
53437.233719,15.489,0.02
53437.246215,15.454,0.018
53437.257751,15.497,0.02
53437.269346,15.594,0.022
53437.280806,15.881,0.028
53438.352752,15.474,0.022
53438.36498,15.49,0.022
53438.376518,15.493,0.024
53438.38814,15.645,0.028
53438.399741,15.981,0.039
53440.238917,15.477,0.02
53440.250652,15.47,0.02
53440.262268,15.447,0.018
53440.277445,15.481,0.02
53440.290142,15.482,0.02
53443.217028,15.504,0.024
53443.228032,15.502,0.037
53443.250425,15.532,0.041
53443.262077,15.479,0.026
53445.35031,15.514,0.024
53445.361739,15.558,0.024
53445.373364,15.717,0.028
53445.385939,15.792,0.03
53445.397666,15.665,0.028
53446.219102,16.069,0.037
53446.22966,15.967,0.035
53446.240273,15.703,0.028
53446.251382,15.489,0.022
53446.262585,15.477,0.024
53464.241001,15.464,0.02
53464.251437,15.461,0.02
53464.262276,15.456,0.022
53464.272846,15.468,0.022
53464.283275,15.469,0.026
53495.195284,15.509,0.039
53495.205593,15.494,0.039
53495.215849,15.542,0.041
53495.226081,15.522,0.041
53495.236385,15.476,0.052
53502.144393,15.472,0.026
53502.155185,15.45,0.026
53502.165737,15.474,0.026
53502.176569,15.483,0.028
53502.18695,15.49,0.028
53674.468322,15.738,0.039
53674.480472,16.091,0.048
53674.492739,15.953,0.041
53705.453028,15.815,0.033
53705.465957,15.731,0.03
53705.478682,15.553,0.026
53705.491397,15.497,0.024
53705.504067,15.492,0.022
53708.450698,15.514,0.022
53708.463462,15.487,0.022
53708.476422,15.504,0.022
53708.489254,15.489,0.024
53708.501906,15.609,0.026
53712.397335,15.507,0.03
53712.411509,15.714,0.033
53712.428158,16.081,0.044
53712.441806,15.913,0.039
53712.45566,15.576,0.03
53732.414563,15.5,0.031
53732.427226,15.504,0.033
53732.440002,15.512,0.031
53732.452777,15.483,0.03
53732.465548,15.493,0.033
53735.405414,15.543,0.057
53735.418387,15.507,0.035
53735.45745,15.495,0.026
53738.402514,15.566,0.026
53738.415625,15.499,0.024
53738.428666,15.486,0.026
53738.441661,15.491,0.024
53738.454853,15.512,0.026
53747.345184,15.349,0.048
53747.35809,15.379,0.05
53747.370913,15.408,0.046
53747.383999,15.392,0.054
53747.397447,15.4,0.046
53759.346567,15.487,0.022
53759.359434,15.524,0.024
53759.372157,15.484,0.022
53759.384833,15.519,0.024
53759.39752,15.499,0.028
53762.350541,15.566,0.022
53762.363258,15.71,0.026
53762.376273,15.822,0.028
53762.389145,15.674,0.024
53762.402187,15.538,0.022
53769.323713,15.53,0.02
53769.337035,15.842,0.026
53769.350595,16.124,0.033
53769.36452,15.844,0.026
53769.378504,15.539,0.02
53787.416949,15.536,0.028
53787.428866,15.528,0.028
53787.440877,15.513,0.028
53787.452957,15.513,0.03
53789.29189,15.482,0.035
53789.304493,15.447,0.028
53789.317485,15.512,0.049
53789.329979,15.485,0.059
53789.342507,15.489,0.059
53790.285168,15.786,0.031
53790.296936,15.604,0.028
53790.308717,15.517,0.026
53790.320471,15.487,0.024
53790.332218,15.478,0.024
53793.31321,15.494,0.041
53797.240792,15.845,0.028
53797.252345,16.102,0.035
53797.26399,16.009,0.048
53797.275565,15.754,0.072
53797.287134,15.523,0.022
53799.280526,15.489,0.024
53799.29201,15.488,0.022
53799.303509,15.479,0.022
53799.315022,15.488,0.024
53799.326728,15.493,0.028
53819.280858,15.586,0.031
53819.291811,15.686,0.041
53819.315763,15.734,0.057
53819.326956,15.544,0.028
53827.243996,15.475,0.024
53827.254975,15.459,0.024
53827.265863,15.505,0.026
53827.276734,15.48,0.024
53827.287252,15.471,0.024
53845.187363,15.494,0.03
53845.198068,15.468,0.03
53845.208783,15.497,0.031
53845.219641,15.525,0.031
53845.230382,15.598,0.037
53846.195,15.466,0.033
53846.205652,15.482,0.033
53846.216328,15.471,0.035
53846.227067,15.489,0.035
53846.237792,15.47,0.035
53850.220131,15.506,0.028
53850.230764,15.487,0.028
53850.241455,15.501,0.033
53850.252363,15.608,0.03
53850.263482,15.897,0.039
53851.186937,15.472,0.033
53851.197157,15.502,0.031
53851.207436,15.481,0.031
53851.217734,15.45,0.031
53851.228073,15.441,0.031
53853.190544,15.474,0.03
53853.200968,15.492,0.03
53853.212376,15.493,0.03
53853.222783,15.473,0.03
53853.23322,15.48,0.031
54036.436145,15.519,0.038
54036.461895,15.496,0.033
54036.474116,15.509,0.033
54036.485989,15.484,0.031
54040.433228,15.519,0.045
54040.44514,15.565,0.045
54040.457723,15.523,0.041
54040.469873,15.535,0.04
54040.481995,15.527,0.038
54057.455059,15.463,0.024
54057.467598,15.467,0.024
54057.480076,15.474,0.022
54057.492571,15.465,0.022
54057.505051,15.467,0.022
54058.439297,16.167,0.054
54058.452449,15.985,0.043
54058.465043,15.683,0.033
54058.477518,15.527,0.028
54058.489939,15.526,0.03
54060.431279,15.468,0.022
54060.445209,15.503,0.024
54060.458129,15.505,0.024
54060.47103,15.485,0.024
54060.484095,15.511,0.024
54064.384888,15.5,0.035
54064.397539,15.488,0.033
54064.410109,15.478,0.03
54064.422844,15.481,0.03
54064.435795,15.468,0.028
54067.397095,15.619,0.022
54067.410062,15.513,0.02
54067.42303,15.499,0.018
54067.44926,15.498,0.018
54082.386199,15.56,0.061
54082.398564,15.582,0.061
54082.423475,15.979,0.083
54083.459407,15.477,0.028
54083.473303,15.48,0.035
54083.486597,15.497,0.026
54083.499688,15.483,0.035
54083.512788,15.531,0.081
54086.364059,15.643,0.028
54086.377264,15.503,0.022
54086.390197,15.503,0.022
54086.403139,15.482,0.02
54086.416078,15.469,0.02
54091.369743,16.128,0.039
54091.382322,15.798,0.028
54091.394905,15.549,0.024
54091.407827,15.509,0.022
54091.420421,15.505,0.022
54112.389581,15.496,0.031
54112.402147,15.491,0.033
54112.414647,15.491,0.031
54112.427198,15.493,0.033
54113.330069,15.493,0.025
54113.381639,15.532,0.026
54115.403008,15.512,0.028
54115.415755,15.508,0.03
54115.428629,15.474,0.028
54115.441622,15.52,0.028
54115.454874,15.5,0.03
54123.33494,15.471,0.026
54123.347409,15.449,0.026
54123.359908,15.438,0.025
54123.372368,15.478,0.026
54123.385014,15.469,0.026
54144.274588,15.47,0.023
54144.286491,15.506,0.023
54144.298473,15.439,0.023
54144.308152,15.5,0.02
54144.310424,15.482,0.023
54144.319269,15.497,0.02
54144.32235,15.475,0.03
54144.330468,15.505,0.02
54144.341568,15.502,0.02
54144.352673,15.546,0.024
54148.282636,16.084,0.043
54148.294795,16.073,0.041
54148.306534,15.732,0.03
54148.318242,15.548,0.026
54148.33007,15.493,0.026
54153.278691,15.524,0.023
54153.290413,15.695,0.028
54153.302598,16.018,0.038
54153.314284,16.157,0.043
54153.326354,15.844,0.033
54154.273137,15.484,0.02
54154.284619,15.512,0.02
54154.296122,15.494,0.018
54154.307595,15.512,0.018
54154.319063,15.513,0.018
54173.263008,15.5,0.017
54173.27385,15.492,0.017
54173.284582,15.504,0.017
54173.295247,15.506,0.017
54173.305892,15.497,0.018
54176.27874,15.477,0.02
54176.289324,15.448,0.018
54176.300054,15.454,0.02
54176.310703,15.439,0.018
54179.283673,15.622,0.02
54179.294772,15.526,0.02
54179.306085,15.544,0.02
54179.317242,15.537,0.022
54179.328146,15.518,0.022
54186.295668,15.494,0.017
54186.307214,15.504,0.018
54186.318429,15.506,0.017
54186.329878,15.497,0.018
54201.194479,15.504,0.036
54201.20396,15.483,0.036
54201.21319,15.495,0.035
54201.222416,15.517,0.035
54201.231727,15.536,0.038
54206.218926,15.523,0.022
54206.228068,15.532,0.022
54206.237104,15.523,0.02
54206.246154,15.537,0.022
54206.2552,15.521,0.02
54209.21362,15.504,0.039
54209.222642,15.482,0.061
54209.232214,15.484,0.081
54209.242046,15.474,0.033
54209.251198,15.435,0.065
54397.428202,15.522,0.026
54409.443,15.481,0.05
54409.455245,15.607,0.022
54409.467467,15.951,0.03
54409.479693,16.085,0.035
54418.444859,15.466,0.017
54418.457364,15.47,0.017
54418.469864,15.461,0.017
54418.482367,15.472,0.017
54418.494872,15.477,0.017
54439.388388,15.512,0.015
54439.401258,15.498,0.015
54439.414131,15.505,0.015
54439.427011,15.514,0.015
54439.439887,15.518,0.015
54507.297405,15.5,0.015
54507.309801,15.558,0.015
54507.322219,15.513,0.015
54522.336247,15.472,0.018
54522.348241,15.492,0.02
54522.360294,15.492,0.02
54522.372056,15.505,0.02
54522.383841,15.553,0.022
54529.272301,15.519,0.013
54529.283736,15.502,0.015
54529.307162,15.497,0.015
54529.318533,15.523,0.015
54536.217625,15.469,0.015
54536.228715,15.493,0.015
54536.239646,15.477,0.015
54536.250598,15.473,0.015
54536.261661,15.485,0.015
54553.247659,15.515,0.017
54553.259516,15.51,0.017
54553.271428,15.52,0.02
54553.283311,15.508,0.022
54553.295174,15.535,0.028
54559.123703,15.489,0.017
54559.135349,15.499,0.017
54559.146932,15.467,0.017
54559.158391,15.486,0.017
54559.169854,15.493,0.017
54562.241976,15.514,0.015
54562.253703,15.503,0.015
54562.265354,15.514,0.015
54562.277129,15.513,0.015
54562.288827,15.499,0.015
54581.190305,15.505,0.024
54581.200974,15.525,0.024
54581.211648,15.497,0.024
54581.222323,15.527,0.024
54581.23302,15.527,0.024
54584.197673,15.501,0.02
54584.208547,15.485,0.02
54584.219447,15.498,0.02
54584.230329,15.501,0.022
54584.241216,15.499,0.022
54591.193816,15.502,0.022
54591.204225,15.502,0.022
54591.214507,15.498,0.022
54591.224773,15.48,0.024
54591.235058,15.474,0.026
54592.142958,15.58,0.038
54592.15287,15.534,0.04
54592.162676,15.495,0.036
54592.172349,15.568,0.04
54592.181873,15.497,0.038
