mjd,m,merr
52608.457865,14.979,0.024
52608.472828,14.96,0.017
52608.487712,14.959,0.031
52608.502663,15.069,0.031
52641.387913,15.309,0.017
52641.402878,15.522,0.02
52641.417761,15.351,0.017
52641.432647,15.154,0.015
52641.447516,15.032,0.013
52646.388684,14.975,0.015
52646.403495,14.945,0.015
52646.417966,14.978,0.015
52646.432507,15.064,0.017
52646.447059,15.235,0.02
52647.385156,15.078,0.02
52647.399722,15.176,0.021
52647.414555,15.418,0.026
52647.429371,15.592,0.031
52647.444363,15.363,0.026
52667.389022,15.134,0.015
52667.404347,15.393,0.018
52667.41983,15.579,0.024
52667.435101,15.329,0.02
52667.450497,15.124,0.018
52672.324886,15.229,0.018
52672.338828,15.524,0.022
52672.352984,15.539,0.022
52672.366904,15.31,0.018
52672.38091,15.136,0.017
52673.292272,15.409,0.023
52673.307223,15.569,0.026
52673.323015,15.397,0.021
52673.339451,15.114,0.018
52673.354458,15.052,0.016
52705.238068,15.22,0.018
52705.241256,15.172,0.015
52705.251037,15.121,0.016
52705.255252,15.068,0.013
52705.263991,15.191,0.018
52705.269348,14.98,0.013
52705.277041,15.066,0.016
52705.282409,14.978,0.013
52705.290007,15.326,0.021
52705.295662,15.015,0.013
52707.246947,15.348,0.017
52707.260325,15.572,0.02
52707.273505,15.565,0.02
52707.286768,15.283,0.017
52707.30005,15.118,0.015
52729.230076,14.991,0.013
52729.241713,14.952,0.013
52729.253181,14.998,0.013
52729.265348,15.008,0.013
52729.276841,15.081,0.015
52734.251288,15.478,0.022
52734.263724,15.255,0.018
52734.27588,15.077,0.033
52738.183474,15.132,0.018
52738.194889,15.328,0.022
52738.206426,15.537,0.026
52738.217862,15.57,0.028
52738.229334,15.383,0.022
52755.195211,15.55,0.031
52755.2071,15.483,0.03
52755.219061,15.189,0.023
52755.230993,15.091,0.023
52755.242965,15.035,0.021
52760.148286,15.239,0.023
52760.160554,15.085,0.02
52760.172581,15.036,0.02
52760.184617,14.976,0.018
52760.196689,14.977,0.018
52765.147293,15.02,0.02
52765.183141,15.461,0.03
52765.195651,15.518,0.03
52938.428034,15.431,0.031
52938.440069,15.21,0.023
52938.452055,15.106,0.018
52938.475921,14.982,0.016
52973.425448,15.051,0.018
52973.437469,15.154,0.02
52973.44963,15.382,0.023
52973.461959,15.617,0.028
52973.473873,15.578,0.026
52995.385306,15.507,0.016
52995.397727,15.223,0.013
52995.410412,15.111,0.012
52995.422802,15.033,0.01
52995.435729,14.969,0.01
52997.440907,15.305,0.036
53027.401067,15.506,0.015
53027.414061,15.615,0.016
53027.426908,15.473,0.015
53027.439733,15.196,0.012
53027.452514,15.102,0.012
53029.369936,15.099,0.015
53033.329669,15.136,0.015
53033.341924,15.044,0.015
53033.354064,14.975,0.013
53033.366186,14.959,0.013
53054.301295,14.954,0.011
53054.314896,14.942,0.011
53054.331526,14.976,0.011
53054.345071,15.033,0.011
53054.357079,15.104,0.013
53058.290828,14.932,0.008
53058.303845,14.992,0.01
53058.31597,15.043,0.01
53058.328272,15.153,0.01
53058.340568,15.364,0.012
53061.287886,15.015,0.01
53061.299903,14.994,0.01
53061.31195,14.985,0.01
53061.32408,15.027,0.01
53061.335994,15.11,0.01
53080.223743,14.987,0.013
53080.23467,15.09,0.015
53080.245599,15.293,0.017
53080.260591,15.533,0.02
53080.271819,15.582,0.022
53083.291812,15.562,0.018
53083.303108,15.29,0.016
53083.314435,15.142,0.013
53083.325697,15.05,0.013
53083.336839,15.018,0.012
53085.333536,15.498,0.025
53085.345764,15.444,0.018
53085.357197,15.23,0.026
53085.370358,15.159,0.028
53085.381568,15.033,0.03
53111.184028,15.082,0.018
53111.194799,15.292,0.02
53111.20555,15.535,0.026
53111.216266,15.621,0.028
53111.227008,15.522,0.028
53114.199514,15.14,0.012
53114.210681,15.283,0.015
53114.221677,15.553,0.018
53114.232356,15.571,0.018
53114.242993,15.487,0.018
53116.20275,14.954,0.02
53116.213605,14.966,0.025
53116.224298,14.926,0.041
53116.247705,15.012,0.028
53139.153951,15.62,0.028
53139.163514,15.597,0.028
53139.173227,15.403,0.022
53139.182823,15.199,0.02
53139.192321,15.089,0.018
53142.160021,15.612,0.023
53142.173175,15.585,0.023
53142.182704,15.396,0.02
53142.192541,15.208,0.016
53142.202183,15.087,0.04
53144.170382,14.997,0.018
53144.17977,15.016,0.018
53144.189161,15.143,0.026
53144.208518,15.44,0.076
53315.462858,15.03,0.033
53316.474531,15.495,0.081
53321.468599,15.064,0.068
53327.437395,15.495,0.036
53346.384704,15.015,0.018
53346.39696,14.988,0.02
53346.409605,14.983,0.018
53346.422077,15.056,0.02
53346.43429,15.079,0.02
53347.441608,15.442,0.023
53347.455428,15.167,0.021
53347.469468,15.072,0.018
53347.483258,14.976,0.018
53351.424655,15.211,0.026
53351.438917,15.068,0.021
53351.453358,15.004,0.02
53351.468283,14.999,0.02
53351.483025,14.991,0.02
53352.449822,15.024,0.021
53352.464778,15.099,0.023
53352.479537,15.372,0.03
53352.494224,15.553,0.04
53352.509051,15.435,0.033
53353.417867,15.09,0.021
53353.431932,15.237,0.023
53353.44608,15.524,0.03
53353.460277,15.523,0.031
53353.474318,15.3,0.025
53383.34876,15.06,0.015
53383.362912,15.012,0.013
53383.375994,14.96,0.013
53383.389645,14.985,0.015
53383.404033,15.051,0.015
53403.356796,14.995,0.015
53403.369928,14.982,0.015
53403.383465,15.034,0.016
53403.397721,15.123,0.018
53403.411304,15.331,0.023
53466.263971,15.235,0.02
53466.273838,15.527,0.024
53466.283476,15.546,0.028
53466.29405,15.448,0.026
53466.304408,15.248,0.022
53496.149632,15.394,0.026
53496.159567,15.216,0.022
53496.169642,15.109,0.02
53496.179592,15.053,0.02
53496.189563,14.987,0.02
53503.181872,14.961,0.018
53503.190605,14.976,0.018
53503.199449,14.966,0.018
53503.209293,15.011,0.02
53503.219685,15.06,0.022
53704.451986,15.058,0.017
53704.464505,14.994,0.015
53704.476945,14.939,0.015
53704.489596,14.968,0.015
53704.502263,15.028,0.015
53707.452625,15.111,0.02
53707.465423,15.025,0.018
53707.478048,14.949,0.018
53707.490681,14.97,0.013
53707.503281,14.973,0.013
53710.447111,15.457,0.024
53710.45975,15.19,0.02
53710.473031,15.074,0.018
53710.485687,14.974,0.017
53710.498276,14.978,0.017
53734.411119,15.339,0.02
53734.424064,15.123,0.017
53734.437017,15.024,0.015
53734.450245,14.977,0.015
53734.463354,14.958,0.015
53746.343372,15.104,0.026
53746.356791,15.009,0.024
53746.369306,14.993,0.022
53746.382154,15.005,0.022
53746.394623,15.031,0.022
53758.343708,15.449,0.018
53758.356216,15.557,0.022
53758.368738,15.457,0.022
53758.381468,15.222,0.017
53758.394095,15.057,0.017
53787.419438,15.097,0.02
53787.431356,15.04,0.018
53787.443388,14.986,0.018
53787.455493,14.963,0.02
53789.340757,15.061,0.046
53789.364497,15.134,0.052
53789.376375,14.971,0.02
53789.388243,14.983,0.017
53791.295695,14.979,0.013
53791.307735,15.032,0.015
53791.320032,15.094,0.015
53791.332117,15.222,0.016
53791.344068,15.437,0.02
53792.338751,15.208,0.018
53792.350532,15.07,0.02
53792.362314,15.014,0.018
53792.374089,14.947,0.02
53792.385869,14.955,0.018
53802.284213,15.168,0.022
53802.295587,15.375,0.028
53802.307009,15.553,0.033
53802.318407,15.516,0.031
53802.329804,15.291,0.059
53817.20987,15.174,0.018
53817.221754,15.413,0.021
53817.233169,15.582,0.025
53817.244655,15.542,0.023
53817.256216,15.331,0.02
53821.289962,14.986,0.017
53821.305387,15.099,0.024
53821.333029,15.503,0.067
53821.348913,15.59,0.039
53824.289603,15.016,0.028
53824.303506,15.064,0.067
53824.335697,15.203,0.041
53824.350245,15.675,0.074
53828.286437,15.084,0.046
53828.298636,15.112,0.024
53828.313379,15.372,0.026
53828.34342,15.429,0.035
53831.184851,15.286,0.03
53831.194406,15.498,0.035
53831.203953,15.563,0.037
53831.213514,15.566,0.037
53831.22308,15.344,0.031
53845.186088,15.434,0.028
53845.197189,15.234,0.023
53845.20835,15.066,0.02
53845.219419,15.008,0.02
53845.230506,14.952,0.02
53846.23984,15.156,0.028
53846.250654,15.346,0.031
53846.26146,15.483,0.037
53846.272265,15.564,0.039
53846.283091,15.438,0.039
53850.146743,15.1,0.028
53850.15703,15.026,0.025
53850.167403,15.001,0.021
53850.177712,14.977,0.031
53850.188107,14.992,0.02
53851.236208,15.073,0.022
53851.247776,15.029,0.022
53851.258425,14.974,0.02
53851.26934,14.985,0.022
53851.279505,14.988,0.026
53854.214473,15.563,0.033
53854.225337,15.43,0.03
53854.238707,15.156,0.028
53854.249817,15.044,0.024
54035.440322,14.992,0.025
54035.452899,14.978,0.023
54035.464694,14.963,0.023
54035.476744,15.024,0.023
54035.488431,15.178,0.025
54053.452825,15.547,0.033
54053.464704,15.392,0.03
54053.476556,15.157,0.031
54056.430542,15.082,0.017
54056.442801,15.237,0.018
54056.455052,15.479,0.022
54056.46749,15.523,0.022
54056.479744,15.297,0.018
54059.436575,15.047,0.017
54059.449072,15.174,0.017
54059.461393,15.378,0.02
54059.474492,15.534,0.024
54059.487149,15.395,0.018
54060.438147,15.618,0.031
54060.45389,15.309,0.023
54060.466728,15.131,0.021
54060.481458,15.038,0.018
54060.494314,14.975,0.018
54064.444906,15.064,0.013
54064.457766,14.958,0.013
54064.470628,14.949,0.013
54064.483499,14.988,0.013
54064.49637,15.005,0.013
54082.39599,14.968,0.018
54082.408876,14.938,0.018
54082.422118,14.994,0.018
54082.435004,15.032,0.018
54082.447903,15.14,0.02
54085.460994,15.132,0.015
54085.473952,15.35,0.017
54085.486914,15.546,0.018
54085.499881,15.467,0.017
54085.512842,15.216,0.015
54091.349821,15.128,0.023
54091.363003,15.392,0.028
54091.375635,15.543,0.031
54091.387542,15.498,0.03
54091.399439,15.254,0.025
54114.358976,15.289,0.023
54114.371724,15.613,0.071
54153.277035,15.606,0.018
54153.288526,15.359,0.015
54153.300024,15.118,0.013
54153.311524,15.053,0.011
54153.323098,14.984,0.011
54154.269726,15.011,0.013
54154.272185,15.007,0.016
54154.281213,14.945,0.013
54154.283709,14.963,0.016
54154.292691,14.94,0.011
54154.295523,14.948,0.015
54154.304186,14.946,0.011
54154.307118,14.966,0.015
54154.315661,14.997,0.011
54154.318634,15.019,0.016
54155.291391,15.102,0.017
54155.293577,15.12,0.017
54155.30299,15.249,0.018
54155.30519,15.287,0.018
54155.31466,15.48,0.022
54155.316872,15.505,0.022
54155.326395,15.515,0.024
54155.328611,15.483,0.022
54155.338418,15.33,0.018
54155.340817,15.261,0.017
54174.219344,15.541,0.028
54174.230089,15.478,0.023
54174.240921,15.28,0.02
54174.251854,15.104,0.016
54174.262679,15.032,0.016
54174.26817,14.994,0.013
54174.278884,14.952,0.013
54174.289578,14.962,0.015
54174.300287,14.964,0.018
54174.311001,15.084,0.028
54180.22924,15.382,0.033
54180.239825,15.502,0.026
54180.250172,15.506,0.026
54180.260666,15.375,0.021
54180.271088,15.157,0.018
54180.284233,15.048,0.013
54180.295001,14.979,0.013
54180.306064,14.967,0.013
54180.316706,14.949,0.013
54180.327399,14.98,0.013
54200.174437,14.937,0.021
54200.193661,14.952,0.058
54200.203457,15.099,0.045
54200.212855,15.137,0.025
54205.222849,14.975,0.015
54205.232036,14.963,0.013
54205.241309,14.974,0.015
54205.250495,14.983,0.015
54205.259718,15.022,0.015
54208.218406,15.049,0.017
54208.227423,14.991,0.015
54208.236485,14.969,0.015
54208.245562,14.942,0.015
54208.254641,14.946,0.015
54212.226317,14.952,0.015
54212.235339,14.944,0.015
54212.244355,15.011,0.017
54212.253511,15.026,0.017
54212.262671,15.113,0.018
54416.44004,15.294,0.017
54416.452499,15.541,0.02
54416.464821,15.577,0.02
54416.477144,15.32,0.017
54416.489488,15.111,0.013
54478.45425,15.171,0.048
54478.46637,15.309,0.038
54478.478785,15.513,0.043
54478.491095,15.507,0.046
54478.503224,15.294,0.04
54481.274287,14.968,0.015
54481.287198,14.896,0.015
54481.300133,14.9,0.013
54481.313053,15.012,0.013
54481.325971,15.048,0.013
54497.337855,15.034,0.013
54497.350427,15.127,0.009
54497.362989,15.316,0.013
54497.375541,15.528,0.02
54497.38806,15.53,0.02
54505.339153,15.338,0.011
54505.351422,15.155,0.009
54505.363728,15.047,0.009
54505.375992,14.989,0.009
54505.388526,14.989,0.009
54507.392516,15.369,0.025
54507.406221,15.147,0.021
54507.418122,15.075,0.02
54507.430112,14.991,0.02
54507.442007,14.989,0.02
54521.39567,14.964,0.017
54521.407427,14.883,0.02
54521.419177,14.885,0.018
54521.442703,15.006,0.02
54526.283982,15.524,0.015
54526.295449,15.239,0.011
54526.30701,15.098,0.011
54526.318504,15.059,0.009
54526.330165,15.012,0.009
54534.287943,14.974,0.009
54534.298895,15.017,0.009
54534.309826,15.046,0.009
54534.320737,15.118,0.009
54535.336882,15.225,0.021
54535.347933,15.097,0.02
54535.359958,15.031,0.02
54535.371234,15.002,0.02
54535.382249,14.993,0.02
54540.165074,14.965,0.013
54540.175973,14.937,0.013
54540.187087,14.974,0.013
54540.19797,14.995,0.013
54540.208976,15.108,0.015
54552.300809,15.523,0.018
54552.312902,15.277,0.015
54552.324975,15.141,0.015
54552.337235,15.045,0.015
54552.349439,14.994,0.015
54558.123469,15.001,0.011
54558.135122,14.992,0.011
54558.146681,15.103,0.013
54558.158242,15.29,0.015
54558.169804,15.494,0.017
54580.189313,15.091,0.015
54580.199937,15.224,0.017
54580.210547,15.407,0.02
54580.221159,15.592,0.026
54580.23183,15.55,0.026
54583.200089,15.086,0.017
54590.149668,15.023,0.031
54590.159339,14.96,0.03
54590.169027,15.009,0.03
54590.178672,15.042,0.031
54590.188325,15.078,0.033
54590.200441,15.219,0.018
54590.210746,15.439,0.02
54590.221104,15.56,0.022
54590.231479,15.47,0.022
54590.241821,15.285,0.018
