mjd,m,merr
52641.44888,16.33,0.049
52641.464602,16.362,0.053
52641.479388,16.366,0.054
52641.494248,16.389,0.058
52641.50991,16.385,0.056
52646.456861,16.369,0.065
52646.472556,16.317,0.057
52646.48722,16.33,0.055
52646.502242,16.287,0.05
52646.517072,16.277,0.052
52648.435376,16.628,0.078
52648.451189,16.589,0.071
52648.466819,16.495,0.068
52648.482092,16.403,0.068
52672.39219,16.266,0.057
52672.406932,16.017,0.037
52672.421007,15.921,0.035
52672.435317,15.953,0.039
52672.449188,15.964,0.089
52700.370338,16.782,0.083
52700.386702,16.854,0.091
52700.402065,16.825,0.094
52700.417459,16.755,0.086
52700.432906,16.809,0.094
52705.300713,16.397,0.051
52705.313646,16.406,0.053
52705.326646,16.534,0.059
52705.339686,16.524,0.066
52705.35265,16.543,0.063
52708.309586,15.909,0.031
52708.323024,15.99,0.033
52708.336173,16.063,0.039
52708.349374,16.169,0.043
52708.362688,16.164,0.043
52728.292803,16.695,0.074
52728.305144,16.592,0.068
52728.317636,16.725,0.074
52728.32962,16.648,0.078
52728.34159,16.634,0.073
52731.313454,16.334,0.112
52731.325898,16.417,0.109
52731.337967,16.047,0.185
52731.350021,16.491,0.079
52737.246194,16.604,0.079
52737.257917,16.647,0.083
52737.269721,16.656,0.081
52737.28157,16.667,0.079
52737.293824,16.747,0.084
52757.208363,16.243,0.048
52757.220386,16.23,0.048
52757.232246,16.289,0.052
52757.244059,16.31,0.055
52757.255918,16.309,0.057
52765.206533,16.66,0.084
52765.230531,16.623,0.096
52765.242815,16.654,0.096
52765.255014,16.516,0.073
52986.456193,16.463,0.094
52986.469209,16.472,0.091
52986.48224,16.5,0.096
52986.495383,16.552,0.093
52986.50848,16.615,0.094
53032.340734,16.581,0.055
53032.35307,16.656,0.059
53032.3654,16.679,0.059
53032.377739,16.724,0.063
53032.390129,16.699,0.061
53054.361688,16.188,0.026
53054.373459,16.209,0.028
53054.385375,16.287,0.031
53054.397605,16.295,0.03
53080.280512,15.767,0.028
53080.291952,15.875,0.031
53080.303141,15.955,0.033
53080.314342,16.047,0.036
53080.325561,16.085,0.036
53084.286526,16.694,0.043
53084.298404,16.682,0.043
53084.309807,16.729,0.046
53084.321399,16.812,0.051
53084.332998,16.741,0.048
53095.225144,16.803,0.106
53095.234793,16.875,0.116
53095.244638,16.796,0.104
53095.255291,16.742,0.099
53111.191592,16.615,0.076
53111.213234,16.649,0.079
53111.224112,16.685,0.083
53111.235182,16.616,0.073
53139.186316,16.537,0.064
53139.195689,16.595,0.073
53144.217687,16.123,0.065
53144.226993,16.133,0.089
53144.236388,16.215,0.141
53144.245833,16.278,0.074
53144.255128,16.2,0.118
53327.446594,16.683,0.137
53347.494033,16.464,0.073
53347.521838,16.565,0.069
53350.484519,16.199,0.064
53350.497428,16.275,0.061
53350.510294,16.301,0.064
53350.523242,16.345,0.064
53353.484163,16.241,0.061
53353.498666,16.03,0.048
53353.512917,15.989,0.041
53436.262322,16.432,0.05
53436.273997,16.457,0.05
53436.285654,16.478,0.05
53436.298026,16.576,0.063
53436.309677,16.562,0.054
53466.313253,16.175,0.05
53466.322472,16.256,0.055
53466.331792,16.317,0.061
53466.341701,16.31,0.063
53466.351168,16.375,0.065
53467.231424,16.742,0.078
53467.241593,16.189,0.046
53467.251706,15.724,0.031
53467.261521,15.584,0.028
53467.273055,15.63,0.033
53504.147669,15.896,0.054
53504.157249,15.959,0.052
53504.166032,15.976,0.048
53504.174773,16.012,0.05
53504.183466,16.058,0.054
53745.393286,16.579,0.1
53745.406363,16.624,0.104
53745.419735,16.676,0.109
53745.432941,16.504,0.091
53745.446259,16.578,0.093
53797.24267,16.447,0.053
53797.255113,16.393,0.049
53797.26798,16.362,0.078
53797.280277,16.586,0.053
53815.289931,15.789,0.041
53815.301548,15.884,0.043
53815.313272,15.941,0.036
53815.325064,16.046,0.041
53815.336858,16.051,0.045
53848.195801,16.491,0.056
53848.206387,16.498,0.058
53848.216994,16.507,0.058
53848.227605,16.553,0.063
53848.238175,16.589,0.064
54114.418699,16.218,0.078
54148.34336,16.459,0.048
54148.355418,16.447,0.05
54148.367549,16.491,0.05
54148.379619,16.538,0.054
54148.391865,16.561,0.057
54157.323533,16.711,0.07
54157.335171,16.716,0.07
54157.346812,16.814,0.078
54157.358455,16.707,0.068
54157.370115,16.77,0.072
54176.269831,15.903,0.036
54176.280404,15.943,0.038
54176.291012,16.012,0.04
54176.301619,16.086,0.041
54176.312216,16.156,0.045
54476.456653,16.371,0.063
54476.469774,16.288,0.059
54476.483216,16.259,0.056
54476.496364,16.3,0.061
54476.509835,16.267,0.058
54480.399648,16.522,0.044
54480.412787,16.475,0.043
54480.426048,16.494,0.046
54480.439139,16.552,0.046
54480.452369,16.546,0.046
54485.402958,16.54,0.105
54485.441063,16.48,0.1
54485.453735,16.517,0.1
54497.398175,16.491,0.081
54497.411092,16.496,0.063
54497.424016,16.513,0.07
54497.436926,16.546,0.055
54497.449823,16.511,0.054
54505.398153,16.551,0.037
54505.410668,16.532,0.037
54505.423152,16.497,0.039
54505.435663,16.468,0.037
54505.442897,16.551,0.061
54505.448183,16.375,0.035
54505.454527,16.35,0.053
54505.466129,16.254,0.051
54505.477676,16.238,0.051
54505.489239,16.183,0.051
54526.339423,16.063,0.026
54526.350871,16.087,0.028
54526.362298,16.117,0.028
54526.373743,16.124,0.03
54526.385185,16.14,0.03
54533.386314,16.81,0.074
54533.397358,16.729,0.069
54533.408423,16.735,0.068
54533.419407,16.717,0.069
54533.43075,16.73,0.069
54534.347538,16.458,0.031
54534.3587,16.498,0.033
54534.369771,16.504,0.033
54534.380998,16.552,0.037
54534.392216,16.586,0.041
54540.224825,16.649,0.059
54540.235866,16.725,0.061
54540.24694,16.645,0.054
54540.257958,16.656,0.052
54540.268976,16.596,0.05
54552.359841,16.079,0.039
54552.372167,16.146,0.043
54552.384419,16.23,0.048
54552.396731,16.348,0.061
54552.409034,16.36,0.067
54567.204979,16.798,0.099
54567.216011,16.756,0.096
54567.227177,16.688,0.091
54567.238407,16.634,0.087
54569.182649,16.687,0.068
54569.193626,16.667,0.067
54569.20465,16.698,0.068
54569.215623,16.622,0.061
54569.226584,16.707,0.065
54583.273045,16.738,0.089
54583.283693,16.67,0.091
54583.294276,16.635,0.083
54590.251138,16.094,0.037
54590.261424,16.111,0.057
54590.271756,16.18,0.15
54590.282047,16.176,0.061
54590.292344,16.156,0.061
54598.155873,16.39,0.105
54598.166428,16.47,0.117
54598.176997,16.495,0.118
54598.187529,16.408,0.113
54598.19821,16.433,0.117
