mjd,m,merr
52698.448572,16.169,0.043
52698.462111,15.874,0.031
52698.475338,15.944,0.033
52698.488749,16.081,0.035
52698.502179,16.215,0.041
52712.387775,16.156,0.063
52712.401321,16.067,0.054
52712.414528,15.958,0.048
52712.427589,16.113,0.053
52712.440649,16.202,0.054
52724.427441,16.15,0.045
52724.43944,16.014,0.04
52724.4519,15.919,0.038
52724.46396,16.05,0.045
52724.476014,16.153,0.049
52754.339073,16.119,0.043
52754.351342,16.121,0.045
52754.363787,15.896,0.036
52754.376259,15.951,0.038
52754.389093,16.123,0.045
52771.276004,15.98,0.054
52771.287884,16.082,0.059
52771.29955,16.142,0.059
52771.31124,16.106,0.059
52771.322948,15.872,0.048
52815.167471,16.296,0.057
52815.167786,16.199,0.056
52815.177396,16.245,0.054
52815.178017,16.215,0.056
52815.187469,16.052,0.044
52815.188556,15.966,0.045
52815.197473,15.989,0.041
52815.198707,15.894,0.04
52815.207458,16.1,0.046
52815.208915,16.029,0.048
52820.226273,15.939,0.039
52820.236233,16.0,0.039
52820.246183,16.11,0.043
52820.256104,16.194,0.046
52820.26625,16.217,0.05
52826.22305,16.09,0.056
52826.233185,16.069,0.054
52826.243373,15.83,0.045
52826.253466,15.942,0.048
52826.263627,16.005,0.051
52848.166892,16.155,0.046
52848.166979,16.126,0.048
52848.177224,15.988,0.041
52848.177311,15.94,0.041
52848.187578,15.98,0.048
52848.19782,16.041,0.046
52848.208092,16.166,0.055
53034.456907,16.213,0.061
53034.468788,16.156,0.054
53034.480603,15.97,0.043
53034.492636,16.02,0.045
53034.504486,16.139,0.048
53051.448095,16.0,0.028
53051.459728,16.107,0.031
53051.471358,16.152,0.035
53051.482965,16.089,0.033
53051.494644,15.855,0.026
53078.457185,16.101,0.073
53078.468178,15.873,0.043
53109.350202,16.166,0.043
53109.360193,15.943,0.035
53109.370088,15.85,0.033
53109.380032,15.998,0.036
53109.389943,16.098,0.04
53125.389421,15.959,0.048
53125.399339,15.93,0.043
53125.409328,16.025,0.043
53125.419253,16.11,0.044
53125.42921,16.069,0.044
53137.30201,16.132,0.043
53137.311579,16.029,0.038
53137.321807,15.953,0.035
53137.331254,16.043,0.036
53137.340904,16.083,0.038
53156.250303,16.031,0.07
53156.259148,16.045,0.072
53156.267875,16.204,0.081
53156.276603,16.18,0.08
53156.285328,16.084,0.074
53165.285897,16.135,0.048
53165.295767,16.183,0.053
53165.305568,16.15,0.054
53165.315393,16.12,0.056
53165.325305,15.964,0.051
53242.137479,15.781,0.039
53242.147284,15.979,0.048
53242.157094,16.002,0.05
53242.166896,16.014,0.054
53242.176707,15.988,0.052
53442.422867,16.021,0.037
53442.433631,15.858,0.031
53442.444619,16.057,0.037
53442.455377,16.153,0.041
53442.466196,16.212,0.043
53443.433721,16.025,0.089
53443.444837,16.224,0.089
53443.466443,15.957,0.091
53443.477247,15.942,0.037
53501.318087,16.167,0.043
53501.334258,16.061,0.041
53501.347179,15.875,0.035
53501.357895,16.03,0.039
53501.368566,16.157,0.044
53529.267076,16.193,0.05
53529.26716,16.152,0.048
53529.27761,16.184,0.048
53529.277904,16.178,0.048
53529.288556,16.113,0.044
53529.288639,16.099,0.044
53529.299841,15.938,0.039
53529.299925,15.928,0.039
53529.312807,16.061,0.043
53529.312891,16.075,0.043
53551.226431,15.91,0.039
53551.236393,15.906,0.044
53551.246392,16.013,0.044
53551.256439,16.083,0.044
53551.266402,16.16,0.046
53552.228345,16.013,0.044
53552.238291,16.11,0.05
53552.24823,16.205,0.055
53552.258238,16.225,0.057
53552.268185,16.001,0.044
53581.198705,16.108,0.039
53581.210265,15.92,0.033
53581.221823,15.977,0.037
53581.233352,16.087,0.043
53581.244919,16.173,0.048
53625.113924,16.049,0.061
53625.11413,16.068,0.061
53625.125311,16.059,0.063
53625.125517,16.134,0.067
53625.136718,15.856,0.052
53625.136924,15.855,0.054
53625.148086,15.82,0.054
53625.148291,15.838,0.054
53625.159451,15.952,0.061
53625.159657,16.085,0.068
53788.42695,16.113,0.043
53788.439473,16.125,0.041
53788.452079,16.093,0.04
53788.464769,15.956,0.035
53788.477206,16.045,0.038
53813.431673,16.099,0.064
53813.443119,16.174,0.071
53813.454581,15.869,0.053
53813.466014,15.833,0.049
53813.477663,16.107,0.063
53844.358829,15.934,0.051
53844.380907,16.242,0.068
53844.392126,16.167,0.061
53881.275089,16.081,0.05
53881.286129,15.973,0.046
53881.297174,16.026,0.052
53881.308247,16.124,0.055
53881.319336,16.195,0.054
53887.268661,16.102,0.051
53887.27899,16.151,0.053
53887.289301,16.285,0.061
53887.299662,15.994,0.048
53902.227103,16.061,0.055
53902.236918,15.813,0.043
53902.246775,16.02,0.052
53902.256968,16.089,0.057
53902.266962,16.147,0.063
53914.224796,15.963,0.096
53931.219525,16.195,0.07
53931.229926,15.937,0.063
53931.250695,16.007,0.087
53940.170807,16.16,0.064
53940.192237,16.05,0.073
53940.2028,15.871,0.063
53940.216817,16.029,0.063
54205.321189,15.909,0.038
54205.330825,16.003,0.04
54205.340568,16.142,0.043
54205.349821,16.165,0.043
54205.359393,16.136,0.043
54208.304893,16.192,0.046
54208.31353,16.198,0.049
54208.322278,15.925,0.036
54208.330902,15.845,0.033
54208.339893,15.963,0.033
54560.311033,16.006,0.024
54560.322434,15.878,0.022
54560.333946,16.023,0.024
54560.345337,16.123,0.026
54560.356708,16.152,0.026
54560.357178,16.134,0.028
54560.368648,15.929,0.02
54560.380079,15.869,0.02
54560.391493,16.073,0.024
54560.4029,16.151,0.024
