mjd,m,merr
52693.426348,16.797,0.089
52693.442845,16.91,0.096
52693.45829,16.871,0.093
52693.473777,16.848,0.091
52693.488996,16.911,0.094
52721.373905,16.603,0.067
52721.386809,16.253,0.048
52721.399733,16.058,0.041
52721.412626,16.083,0.041
52721.425481,16.137,0.043
52750.339422,16.768,0.083
52750.35024,16.795,0.1
52750.360989,16.823,0.128
52750.37184,16.57,0.161
52750.382608,16.545,0.205
52781.270187,17.055,0.094
52781.280914,17.106,0.094
52781.291648,16.938,0.081
52781.302489,17.006,0.087
52781.313303,17.001,0.087
52801.266203,16.978,0.248
52801.276299,17.134,0.292
52801.286366,17.25,0.318
52801.296525,17.162,0.29
52801.30674,17.087,0.276
52809.228004,16.646,0.068
52809.237804,16.668,0.07
52809.247669,16.654,0.067
52809.257618,16.643,0.068
52830.219943,16.445,0.094
52830.229882,16.575,0.105
52830.239828,16.472,0.096
52830.249737,16.529,0.102
52830.259641,16.661,0.117
52846.167592,16.714,0.081
52846.177671,16.697,0.085
52846.187748,16.721,0.084
52846.197794,16.73,0.083
52846.207827,16.637,0.077
52897.123598,17.137,0.113
52897.135351,17.147,0.118
52897.147083,17.129,0.126
52897.159064,17.058,0.133
52897.170774,17.183,0.167
52927.080855,16.693,0.093
52927.092168,16.444,0.074
52927.104579,16.19,0.057
52927.116901,16.217,0.059
52927.12884,16.238,0.063
53045.386744,17.135,0.176
53045.398023,17.0,0.15
53045.409275,16.998,0.141
53045.420537,17.242,0.174
53045.431721,17.051,0.139
53096.378417,16.239,0.065
53096.388468,16.096,0.055
53096.398513,16.113,0.057
53096.408561,16.165,0.059
53096.418665,16.236,0.061
53108.356626,16.796,0.063
53108.367675,16.777,0.063
53108.378763,16.867,0.072
53108.389841,16.832,0.072
53108.40097,16.857,0.074
53125.296668,16.78,0.12
53125.306611,16.831,0.126
53125.316559,16.89,0.133
53125.326551,16.831,0.122
53125.336579,16.865,0.12
53134.291619,17.192,0.117
53134.301176,16.99,0.105
53134.310704,16.816,0.094
53134.320216,16.525,0.074
53155.258156,16.948,0.141
53155.266948,16.955,0.146
53155.275707,16.822,0.124
53155.28449,17.002,0.15
53155.293258,16.824,0.128
53163.279596,17.099,0.35
53193.256717,16.868,0.113
53193.266808,17.051,0.13
53244.140067,16.029,0.057
53244.15027,16.032,0.059
53244.160455,16.163,0.067
53244.170648,16.323,0.078
53244.180849,16.241,0.074
53283.113704,16.08,0.043
53283.123883,16.094,0.044
53283.134074,16.165,0.057
53283.144285,16.133,0.048
53283.154472,16.217,0.054
53451.396718,16.12,0.05
53451.407468,16.203,0.054
53451.418255,16.251,0.054
53451.429011,16.288,0.055
53451.439793,16.395,0.061
53461.385888,16.869,0.085
53461.39625,16.872,0.087
53461.406549,16.909,0.087
53461.41688,16.782,0.078
53461.427229,16.814,0.078
53489.306157,16.365,0.091
53489.32905,16.052,0.048
53489.341211,16.066,0.044
53489.352501,16.413,0.118
53535.266301,16.879,0.093
53535.276232,16.855,0.093
53535.28618,16.856,0.089
53535.296127,16.846,0.085
53535.306145,16.87,0.087
53563.264677,16.299,0.055
53599.151533,16.209,0.078
53599.164147,16.206,0.085
53599.176747,16.361,0.085
53599.189349,16.283,0.087
53599.201938,16.384,0.1
53607.147011,16.839,0.102
53607.169872,16.713,0.154
53608.126105,16.837,0.078
53608.13747,16.935,0.083
53608.148784,16.904,0.076
53608.160236,16.947,0.08
53608.171545,16.858,0.08
53609.128906,16.852,0.081
53609.140313,16.813,0.081
53609.151685,16.805,0.083
53609.163049,16.972,0.093
53609.174791,16.941,0.093
53635.109342,16.54,0.072
53635.119916,16.59,0.068
53635.130353,16.594,0.067
53635.140772,16.545,0.067
53635.151191,16.552,0.081
53755.468762,16.787,0.105
53755.48152,16.94,0.117
53755.494358,16.857,0.111
53755.507179,16.933,0.113
53755.520046,16.847,0.1
53774.478644,17.13,0.111
53774.491835,17.017,0.098
53774.504603,16.938,0.089
53774.517777,16.6,0.063
53803.407188,16.604,0.073
53803.420287,16.603,0.074
53803.432295,16.694,0.079
53803.444258,16.78,0.076
53803.456236,16.874,0.081
53807.448404,16.671,0.163
53829.3316,16.98,0.474
53829.342215,16.934,0.446
53829.352796,17.131,0.518
53833.319187,17.001,0.106
53833.330682,17.113,0.152
53833.342231,16.888,0.086
53833.353389,17.053,0.097
53833.364612,16.952,0.091
53858.298884,16.648,0.084
53858.308986,16.654,0.079
53858.318935,16.991,0.248
53876.264815,16.679,0.056
53905.265239,17.151,0.114
53905.274876,17.216,0.119
53905.284785,17.187,0.117
53905.294409,17.053,0.107
53905.30403,17.11,0.109
53933.21679,16.662,0.073
53933.227052,16.742,0.099
53933.237396,16.893,0.114
53933.247778,16.822,0.081
53933.25805,16.88,0.089
53954.155333,16.324,0.111
53954.179539,16.474,0.13
53991.116579,16.538,0.089
53991.128976,16.627,0.084
53991.140932,16.745,0.092
53991.152625,16.678,0.089
53991.164467,16.771,0.101
54022.076913,16.704,0.078
54022.088267,16.855,0.087
54022.099724,16.894,0.091
54022.111073,16.892,0.094
54022.123095,17.018,0.139
54108.456617,16.77,0.137
54108.46942,16.599,0.124
54108.482158,16.26,0.083
54108.494949,16.08,0.065
54108.507701,16.076,0.059
54125.441169,16.289,0.076
54125.453237,16.322,0.083
54125.465348,16.414,0.084
54125.477351,16.528,0.094
54125.489371,16.507,0.083
54139.394951,16.768,0.236
54139.419372,17.005,0.224
54139.442962,16.932,0.165
54157.40311,16.502,0.074
54157.414071,16.554,0.074
54157.425033,16.65,0.076
54157.435994,16.66,0.074
54524.399556,16.974,0.091
54524.411178,17.097,0.106
54524.422652,17.12,0.102
54524.434686,17.221,0.111
54524.446623,17.325,0.122
54539.371845,16.518,0.058
54539.382653,16.265,0.046
54539.393415,16.143,0.043
54539.404717,16.158,0.043
54539.416041,16.201,0.043
54571.303119,16.663,0.094
54571.314656,16.68,0.096
54571.325433,16.733,0.097
54571.336292,16.729,0.099
54571.347259,16.748,0.099
54587.301366,17.055,0.078
54587.311518,17.036,0.069
54587.321727,17.116,0.073
54620.265437,16.978,0.096
54620.275763,16.873,0.084
54620.286574,17.048,0.101
54620.296749,16.964,0.094
54620.306941,17.162,0.111
