mjd,m,merr
52707.447068,17.079,0.111
52707.460227,16.957,0.101
52707.473709,16.865,0.087
52707.487234,16.368,0.056
52707.500217,17.441,0.15
52707.500575,16.017,0.041
52711.433279,17.924,0.244
52711.433882,16.726,0.074
52711.446269,18.109,0.284
52711.44687,16.742,0.074
52711.459329,18.515,0.404
52711.459928,16.78,0.076
52711.472874,18.532,0.414
52711.473526,16.853,0.081
52711.486606,16.894,0.084
52737.444648,16.885,0.085
52737.45722,17.075,0.1
52737.469177,17.011,0.093
52737.481079,17.084,0.105
52739.361209,18.535,0.449
52739.361565,17.11,0.116
52739.372647,18.069,0.272
52739.373001,17.131,0.109
52739.38398,18.306,0.361
52739.384332,17.142,0.116
52739.395305,17.763,0.226
52739.395658,16.657,0.078
52739.406953,17.084,0.116
52739.407307,16.342,0.054
52756.320087,16.126,0.058
52756.320611,16.049,0.053
52756.332523,16.13,0.056
52756.332861,16.004,0.049
52756.344625,16.281,0.061
52756.344966,16.083,0.048
52756.356782,16.397,0.066
52756.357121,16.154,0.051
52756.369045,16.429,0.069
52756.369383,16.225,0.053
52769.330589,17.083,0.148
52769.342271,16.864,0.118
52769.353711,17.025,0.131
52769.376873,16.971,0.115
52794.27285,16.803,0.109
52794.31505,16.906,0.116
52799.269669,17.203,0.285
52799.279717,17.084,0.233
52799.289756,17.063,0.229
52799.299783,16.981,0.235
52799.309871,17.043,0.231
52819.223534,16.09,0.052
52819.233469,15.914,0.046
52819.243399,15.97,0.046
52819.253356,16.029,0.048
52819.263367,16.114,0.052
52824.225438,16.938,0.096
52824.235409,16.974,0.155
52824.24534,16.924,0.246
52824.255407,17.041,0.176
52884.153925,16.627,0.113
52884.166132,16.697,0.129
53080.401539,16.651,0.067
53080.412461,16.637,0.065
53080.423398,16.616,0.067
53080.434376,16.705,0.074
53080.44538,16.727,0.072
53092.380496,17.085,0.086
53092.390296,17.15,0.092
53092.400078,17.06,0.087
53092.409978,17.073,0.084
53092.420607,16.953,0.074
53111.347305,16.504,0.065
53111.358047,16.607,0.072
53111.368774,16.56,0.068
53111.379534,16.587,0.072
53111.390266,16.661,0.076
53119.306278,16.495,0.049
53119.31695,16.518,0.049
53119.327092,16.543,0.049
53119.337199,16.556,0.051
53119.347199,16.614,0.061
53139.298625,16.949,0.091
53139.308204,16.932,0.089
53139.317805,17.066,0.098
53139.327427,17.023,0.094
53139.337222,17.109,0.102
53149.25214,16.035,0.036
53149.260779,15.931,0.033
53149.269412,15.985,0.031
53149.278131,16.063,0.035
53149.287128,16.101,0.035
53169.229467,16.914,0.089
53169.239459,16.956,0.089
53169.249388,16.983,0.091
53169.259315,16.926,0.087
53169.26933,17.035,0.096
53226.150515,17.021,0.089
53226.159929,17.053,0.094
53226.169354,17.143,0.097
53226.178764,17.089,0.096
53226.188164,17.128,0.116
53414.473703,16.872,0.089
53414.486338,16.411,0.057
53414.512699,16.007,0.039
53478.413377,16.373,0.063
53478.422621,16.387,0.063
53478.431956,16.433,0.067
53478.441316,16.371,0.063
53478.450404,16.509,0.072
53496.302279,16.511,0.076
53496.312427,16.613,0.08
53496.322516,16.647,0.08
53496.332744,16.608,0.076
53496.34292,16.722,0.081
53527.222541,16.228,0.061
53527.232398,16.31,0.067
53527.242356,16.332,0.068
53527.252234,16.396,0.068
53527.262057,16.462,0.074
53579.164344,17.068,0.124
53579.175725,16.863,0.089
53579.187083,16.849,0.093
53579.198398,17.025,0.111
53579.20975,17.178,0.128
53791.474435,16.028,0.045
53791.486368,15.984,0.041
53791.498086,16.061,0.041
53791.510416,16.143,0.046
53846.343825,17.066,0.114
53846.354676,17.101,0.119
53846.365461,16.819,0.091
53846.376259,16.632,0.083
53846.387037,16.325,0.064
53850.347957,16.745,0.089
53850.358601,16.829,0.092
53850.369227,16.801,0.089
53850.380354,16.918,0.104
53850.390999,16.833,0.097
53884.280934,16.937,0.113
53884.292501,16.856,0.105
53884.304072,16.917,0.107
53884.315688,16.921,0.107
53884.32723,17.062,0.126
53911.243266,16.135,0.129
53911.253084,16.137,0.096
53911.262775,16.411,0.101
53911.27236,16.353,0.111
53976.129604,16.639,0.109
53976.140452,16.739,0.111
53976.151406,16.706,0.102
53976.162682,16.777,0.114
53976.173487,16.966,0.135
54155.472279,16.717,0.074
54155.507837,16.865,0.083
54156.458882,16.737,0.072
54156.470412,16.8,0.076
54156.481954,16.888,0.08
54156.493475,16.888,0.08
54174.416811,16.867,0.097
54174.427773,16.909,0.101
54180.388414,16.707,0.083
54180.398765,16.775,0.097
54180.40933,16.905,0.104
54180.419734,17.031,0.109
54180.430185,16.912,0.097
54200.358423,16.266,0.104
54200.367812,16.027,0.089
54200.377272,15.855,0.078
54200.386934,16.058,0.102
54200.396316,16.101,0.102
54568.348518,17.04,0.089
54568.359452,17.009,0.085
54568.370386,16.95,0.08
54568.381329,16.985,0.08
54568.392261,16.822,0.068
54568.407776,16.387,0.061
54568.41873,16.011,0.046
54568.429654,15.956,0.046
54568.440546,15.968,0.048
54568.451375,16.075,0.049
54580.305269,16.487,0.113
54580.315877,16.527,0.107
54580.326479,16.712,0.124
54580.337084,16.662,0.117
54580.347673,16.683,0.128
54589.306161,16.852,0.091
54589.316716,16.822,0.068
54589.327276,16.829,0.068
54589.337795,16.823,0.068
54589.348315,16.839,0.072
54590.298157,17.119,0.193
54590.338171,17.072,0.19
54611.305197,16.601,0.07
54611.315333,16.726,0.08
54611.325362,16.681,0.074
54611.335367,16.77,0.081
54611.345396,16.794,0.085
54621.262095,16.867,0.074
54621.272263,16.888,0.08
54621.28242,16.972,0.083
54621.292598,16.908,0.08
54621.302739,16.948,0.083
54623.264999,16.869,0.168
54623.274898,16.996,0.191
54623.28492,16.957,0.18
54623.295169,16.88,0.165
54623.305156,16.948,0.183
