mjd,m,merr
52697.460668,15.01,0.017
52697.476522,15.053,0.015
52706.432021,15.694,0.026
52706.444663,15.709,0.026
52706.457398,15.686,0.024
52706.470462,15.692,0.024
52706.483359,15.716,0.026
52724.429119,15.725,0.031
52724.441615,15.721,0.031
52724.453579,15.71,0.031
52724.465634,15.749,0.035
52724.477689,15.708,0.035
52753.326434,15.341,0.026
52753.339793,15.304,0.025
52753.353153,15.36,0.025
52753.366016,15.406,0.026
52753.378412,15.409,0.026
52771.276925,15.399,0.031
52771.288818,15.369,0.03
52771.300494,15.394,0.03
52771.312178,15.416,0.03
52771.323925,15.502,0.031
52797.269105,15.307,0.024
52797.279156,15.309,0.024
52797.289182,15.344,0.026
52797.299256,15.385,0.026
52797.309314,15.38,0.024
52811.228673,15.765,0.031
52811.238531,15.716,0.03
52811.248287,15.701,0.03
52811.258077,15.713,0.03
52811.267837,15.744,0.031
52826.224345,15.463,0.026
52826.23429,15.255,0.02
52826.244163,15.075,0.018
52826.25412,14.969,0.017
52826.264058,14.92,0.015
52848.16752,15.527,0.026
52848.177922,15.545,0.028
52848.188159,15.615,0.046
52848.198357,15.577,0.033
52848.20867,15.607,0.031
52904.107746,15.707,0.03
52904.119842,15.707,0.03
52904.131923,15.717,0.031
52904.143935,15.756,0.035
52904.156271,15.708,0.037
53034.458102,15.181,0.023
53034.46999,15.208,0.023
53034.481803,15.224,0.023
53034.493839,15.248,0.023
53034.505683,15.265,0.023
53051.449089,15.647,0.02
53051.460738,15.664,0.022
53051.472352,15.698,0.022
53051.483959,15.661,0.022
53051.495654,15.697,0.022
53078.469329,15.277,0.025
53094.438087,15.268,0.011
53109.350879,14.927,0.015
53109.360865,14.96,0.016
53109.370763,15.014,0.016
53109.380703,15.088,0.016
53109.390612,15.102,0.018
53137.312416,15.295,0.02
53137.34167,15.337,0.02
53165.316067,15.555,0.033
53242.138776,15.528,0.028
53242.148583,15.544,0.03
53242.158392,15.563,0.031
53242.168197,15.587,0.033
53242.178007,15.605,0.033
53264.111034,15.817,0.03
53264.122572,15.793,0.031
53264.13415,15.787,0.033
53264.145592,15.619,0.03
53264.157063,15.335,0.021
53271.101387,15.271,0.025
53271.11368,15.273,0.026
53271.138468,15.357,0.031
53271.150928,15.424,0.036
53442.370731,15.71,0.028
53442.381489,15.756,0.028
53442.392293,15.738,0.026
53442.403057,15.728,0.026
53442.414018,15.694,0.026
53501.318884,15.788,0.031
53501.335073,15.85,0.033
53501.348012,15.817,0.031
53501.3589,15.808,0.031
53501.369507,15.669,0.028
53505.266982,15.341,0.033
53505.276269,15.33,0.033
53505.285587,15.376,0.033
53505.29566,15.364,0.033
53505.304978,15.411,0.031
53529.267757,15.158,0.02
53529.278695,15.005,0.017
53529.289725,14.905,0.015
53529.300521,14.904,0.015
53529.313482,14.976,0.017
53552.229326,14.93,0.017
53552.239272,14.981,0.018
53552.249206,15.041,0.018
53552.259216,15.072,0.018
53552.26916,15.151,0.02
53582.213514,15.659,0.037
53582.224875,15.548,0.105
53582.236229,15.651,0.037
53582.247362,15.671,0.041
53582.258484,15.69,0.05
53625.114736,15.714,0.041
53625.12612,15.71,0.041
53625.137531,15.696,0.041
53625.148903,15.723,0.044
53625.160263,15.758,0.046
53813.466825,15.704,0.048
53813.477829,15.811,0.05
53813.488843,15.856,0.054
53844.348421,15.743,0.043
53844.359516,15.702,0.041
53844.370523,15.703,0.041
53844.381587,15.709,0.043
53844.392809,15.738,0.041
53853.300639,15.12,0.021
53853.311045,15.177,0.023
53853.321581,15.218,0.023
53853.331999,15.235,0.023
53853.342695,15.249,0.025
53883.268397,15.697,0.035
53883.289058,15.692,0.035
53887.280695,15.223,0.024
53887.291675,15.07,0.022
53887.302653,14.956,0.02
53887.313697,14.914,0.018
53887.324768,14.973,0.02
53902.27706,15.255,0.028
53902.286879,15.307,0.031
53902.296553,15.329,0.031
53902.306587,15.316,0.033
53902.317285,15.349,0.036
53931.220201,15.842,0.046
53940.217521,15.587,0.043
53940.228297,15.669,0.059
53940.23878,15.678,0.084
53940.249538,15.629,0.063
53979.144147,15.413,0.033
53979.155292,15.387,0.033
54000.103782,15.12,0.02
54000.115913,15.164,0.021
54000.128017,15.208,0.023
54000.150667,15.272,0.025
54000.163743,15.274,0.026
54121.455585,14.895,0.018
54121.467851,14.965,0.018
54121.480525,15.006,0.017
54121.49277,15.062,0.015
54121.505007,15.108,0.015
54154.446675,15.427,0.023
54154.458282,15.404,0.023
54154.469987,15.48,0.025
54154.481404,15.477,0.026
54154.492824,15.514,0.025
54169.397402,15.53,0.041
54169.408358,15.619,0.043
54169.419292,15.617,0.041
54205.321898,15.578,0.03
54205.331545,15.625,0.03
54205.341289,15.613,0.028
54205.350905,15.645,0.028
54205.360083,15.649,0.028
54560.357935,15.693,0.017
54560.369401,15.709,0.017
54560.380833,15.707,0.017
54560.392248,15.716,0.017
54560.403657,15.72,0.017
54581.291083,15.511,0.054
54581.300851,15.597,0.056
54581.31062,15.616,0.056
54581.320294,15.622,0.056
54581.330006,15.578,0.056
54594.320125,15.59,0.046
54594.329709,15.666,0.049
54594.339118,15.625,0.048
54594.348735,15.678,0.048
54594.359046,15.719,0.056
54612.290071,15.611,0.041
54612.29886,15.622,0.041
54612.307394,15.602,0.041
54612.315887,15.622,0.041
54612.324429,15.72,0.045
