mjd,m,merr
52614.438836,16.578,0.116
52614.453464,16.527,0.142
52614.467873,16.284,0.112
52614.482498,16.184,0.074
52614.496923,16.135,0.048
52639.471677,16.676,0.066
52639.486594,16.575,0.061
52639.501412,16.315,0.048
52639.517505,16.154,0.043
52646.405856,16.48,0.064
52646.421612,16.381,0.058
52646.436584,16.244,0.049
52646.451694,16.159,0.046
52646.466681,16.182,0.048
52649.441098,16.668,0.069
52649.4563,16.52,0.061
52649.471385,16.274,0.049
52649.486447,16.174,0.045
52649.501901,16.113,0.043
52666.388329,16.195,0.043
52666.403524,16.147,0.035
52666.418641,16.218,0.041
52666.433913,16.428,0.046
52666.448946,16.663,0.057
52672.39341,16.459,0.059
52672.409394,16.562,0.064
52672.431675,16.34,0.073
52672.452061,16.114,0.094
52676.28969,16.621,0.074
52676.306159,16.596,0.073
52676.321496,16.344,0.061
52676.338244,16.153,0.053
52676.353654,16.15,0.051
52701.374638,16.161,0.043
52701.392821,16.161,0.045
52701.409658,16.196,0.046
52701.422807,16.287,0.051
52701.435865,16.434,0.061
52706.303429,16.635,0.055
52706.316787,16.666,0.057
52706.330096,16.543,0.05
52706.343326,16.364,0.043
52706.356775,16.222,0.039
52710.291611,16.241,0.051
52710.305785,16.43,0.071
52710.320375,16.534,0.078
52710.333908,16.44,0.068
52710.346999,16.281,0.061
52724.247158,16.226,0.045
52724.259204,16.217,0.045
52724.259806,16.168,0.056
52724.271255,16.29,0.046
52724.284451,16.471,0.054
52724.296604,16.651,0.063
52724.297205,16.532,0.079
52733.245936,16.188,0.045
52733.27023,16.399,0.054
52733.282316,16.529,0.061
52753.20119,16.364,0.056
52753.214463,16.516,0.064
52753.227049,16.67,0.073
52753.239905,16.559,0.069
52768.252047,16.247,0.112
52792.17789,16.593,0.099
52792.188904,16.624,0.097
52792.199836,16.423,0.079
52792.210761,16.421,0.084
52793.213912,16.593,0.099
52793.224216,16.624,0.097
52793.234759,16.423,0.079
52793.245081,16.421,0.084
52797.169318,16.144,0.091
52797.179189,16.263,0.102
52797.189152,16.356,0.113
52797.199172,16.373,0.118
52797.209159,16.617,0.155
52974.459438,16.207,0.045
52974.471562,16.175,0.043
52974.483444,16.137,0.041
52974.494434,16.162,0.041
52974.507486,16.186,0.04
52992.477646,16.157,0.033
52992.490444,16.168,0.033
52992.504201,16.268,0.035
52992.517433,16.526,0.068
52992.530638,16.513,0.048
53002.417901,16.145,0.023
53002.436894,16.111,0.021
53002.45608,16.197,0.023
53002.472573,16.373,0.026
53002.488921,16.578,0.033
53003.378622,16.242,0.03
53003.390777,16.146,0.028
53003.40287,16.168,0.033
53003.414908,16.171,0.063
53003.427078,16.302,0.1
53034.339176,16.636,0.073
53034.351008,16.46,0.061
53034.362949,16.278,0.048
53034.374951,16.224,0.046
53034.386907,16.199,0.043
53051.331272,16.522,0.043
53051.34351,16.599,0.046
53051.355101,16.596,0.048
53051.366833,16.4,0.043
53051.378427,16.266,0.037
53062.338393,16.207,0.13
53062.351443,16.192,0.115
53062.363637,16.266,0.072
53062.375906,16.353,0.055
53062.38734,16.579,0.065
53078.317987,16.564,0.058
53078.329015,16.574,0.059
53078.339934,16.44,0.053
53078.350898,16.325,0.048
53089.27971,16.474,0.037
53089.290306,16.326,0.031
53089.3007,16.263,0.03
53089.311193,16.217,0.028
53089.32161,16.329,0.124
53109.235021,16.217,0.045
53109.249473,16.165,0.043
53109.261382,16.184,0.045
53109.272064,16.232,0.048
53109.290903,16.439,0.056
53119.242207,16.263,0.035
53119.252816,16.333,0.039
53119.263328,16.467,0.044
53119.273842,16.619,0.05
53119.284416,16.705,0.054
53137.204037,16.174,0.051
53137.213701,16.223,0.053
53137.224051,16.214,0.051
53137.233962,16.317,0.054
53137.243526,16.333,0.056
53149.204512,16.403,0.05
53149.21349,16.289,0.044
53149.222545,16.207,0.041
53149.231523,16.247,0.043
53149.2406,16.208,0.041
53165.17071,16.156,0.076
53165.180648,16.23,0.069
53165.190574,16.307,0.101
53165.216494,16.666,0.109
53165.226328,16.633,0.097
53348.482106,16.494,0.071
53348.495984,16.734,0.125
53348.509906,16.543,0.071
53348.524267,16.296,0.049
53449.265409,16.356,0.065
53449.275844,16.296,0.076
53449.286292,16.274,0.083
53449.297263,16.203,0.074
53449.307717,16.237,0.055
53501.19613,16.168,0.048
53501.207854,16.145,0.046
53501.218246,16.211,0.05
53501.228242,16.26,0.052
53501.238574,16.457,0.063
53529.161111,16.19,0.059
53529.171531,16.217,0.059
53529.18184,16.266,0.065
53529.192133,16.433,0.074
53529.202709,16.619,0.089
53540.170633,16.366,0.191
53540.190157,16.15,0.133
53540.199971,16.196,0.141
53540.209664,15.956,0.115
53713.466964,16.519,0.12
53713.479845,16.155,0.118
53713.518881,16.094,0.124
53739.415849,15.829,0.181
53739.428895,16.287,0.065
53739.441851,16.558,0.081
53739.455152,16.595,0.104
53739.468759,16.551,0.052
53770.350142,16.345,0.044
53770.364858,16.251,0.041
53770.378211,16.189,0.039
53770.391207,16.124,0.037
53770.404134,16.204,0.041
53787.414239,16.171,0.054
53813.30878,16.181,0.061
53813.319786,16.336,0.074
53813.330788,16.533,0.089
53813.341804,16.587,0.098
53813.352823,16.627,0.102
53844.239668,16.328,0.053
53844.250785,16.249,0.051
53844.261726,16.162,0.048
53844.272677,16.123,0.046
53844.283654,16.137,0.045
53853.196087,16.603,0.086
53853.206657,16.567,0.081
53853.217158,16.554,0.081
53853.227761,16.399,0.071
53853.23841,16.233,0.064
53883.165208,16.14,0.059
53883.175564,16.079,0.056
53883.186016,16.207,0.063
53883.196833,16.321,0.073
53883.208764,16.423,0.084
53887.172745,16.132,0.087
53887.184629,16.172,0.093
53887.195862,16.086,0.089
53887.207212,16.124,0.091
53887.218566,16.36,0.113
53902.169746,16.562,0.109
53902.192905,16.673,0.12
54056.450523,16.282,0.071
54056.463196,16.199,0.063
54056.475787,16.154,0.058
54056.488879,16.206,0.058
54056.501566,16.31,0.059
54066.481774,16.64,0.124
54066.496329,16.412,0.172
54066.509886,16.344,0.129
54068.456222,16.353,0.048
54068.469131,16.229,0.041
54068.48204,16.168,0.044
54068.50784,16.148,0.074
54084.452089,16.408,0.097
54084.465127,16.627,0.096
54084.478056,16.641,0.091
54084.490897,16.46,0.079
54084.50382,16.313,0.074
54098.370635,16.208,0.048
54098.38265,16.142,0.039
54098.394605,16.112,0.035
54098.406553,16.177,0.037
54098.418582,16.236,0.039
54110.391793,16.251,0.099
54110.404519,16.272,0.096
54110.417227,16.084,0.083
54110.430016,16.095,0.086
54110.442695,16.265,0.102
54121.334497,16.233,0.037
54121.346672,16.155,0.033
54121.358859,16.17,0.033
54121.371129,16.157,0.033
54121.383313,16.236,0.035
54154.331071,16.474,0.054
54154.342689,16.619,0.063
54154.35411,16.559,0.059
54154.365526,16.387,0.053
54154.377065,16.264,0.046
54169.276059,16.401,0.053
54169.286968,16.548,0.066
54169.297992,16.649,0.078
54169.308911,16.531,0.074
54169.319749,16.362,0.066
54205.22471,16.125,0.048
54205.233972,16.187,0.049
54205.243192,16.363,0.056
54205.252718,16.473,0.064
54205.26217,16.65,0.076
54453.397547,16.216,0.031
54453.410565,16.327,0.033
54453.423589,16.584,0.041
54453.43661,16.623,0.041
54453.449659,16.426,0.033
54477.395711,16.329,0.037
54477.408661,16.213,0.031
54477.421724,16.152,0.03
54477.434562,16.14,0.03
54477.447426,16.164,0.03
54539.215933,16.605,0.05
54539.226743,16.7,0.052
54539.237625,16.608,0.046
54539.248658,16.383,0.037
54539.259469,16.256,0.035
54567.235018,16.169,0.033
54567.246219,16.134,0.031
54567.257477,16.182,0.033
54567.268709,16.206,0.035
54567.279907,16.378,0.041
54581.192984,16.152,0.069
54581.212775,16.234,0.073
54581.222459,16.224,0.074
54581.232462,16.158,0.064
54594.205294,16.151,0.081
54594.214939,16.061,0.068
54594.224399,16.101,0.073
54594.233842,16.151,0.081
54594.243327,16.19,0.086
54597.201157,16.655,0.12
54597.211765,16.589,0.109
54597.222476,16.363,0.091
54597.233054,16.27,0.081
54597.243654,16.258,0.081
54612.167102,16.429,0.079
54612.175628,16.455,0.083
54612.184283,16.366,0.076
54612.192995,16.28,0.069
54612.201742,16.139,0.063
54620.170029,16.668,0.061
54620.180241,16.642,0.061
54620.190367,16.478,0.054
54620.200489,16.295,0.044
54620.210609,16.231,0.041
