mjd,m,merr
52677.463443,15.563,0.031
52677.477726,15.604,0.03
52677.492008,15.628,0.03
52677.506334,15.636,0.03
52677.520623,15.632,0.026
52697.461343,15.441,0.024
52697.477247,15.451,0.022
52706.432653,15.475,0.022
52706.445294,15.482,0.02
52706.458036,15.499,0.02
52706.471098,15.515,0.02
52706.484014,15.5,0.022
52724.42026,15.445,0.02
52724.432013,15.261,0.018
52724.443582,15.133,0.017
52724.455141,14.979,0.015
52724.466699,14.855,0.013
52753.326266,15.479,0.022
52753.338278,15.503,0.022
52753.350305,15.527,0.022
52753.362388,15.501,0.022
52753.374432,15.497,0.022
52771.277724,15.628,0.039
52771.289627,15.578,0.035
52771.301285,15.449,0.03
52771.31304,15.232,0.026
52771.324723,15.093,0.022
52797.269814,15.5,0.03
52797.279871,15.491,0.028
52797.289904,15.483,0.028
52797.299966,15.49,0.028
52797.310042,15.5,0.026
52811.268016,15.169,0.018
52811.2777,15.191,0.018
52811.287507,15.247,0.02
52811.297222,15.27,0.02
52811.307024,15.233,0.02
52826.224616,15.394,0.024
52826.23456,15.436,0.024
52826.244434,15.442,0.024
52826.254392,15.44,0.024
52826.264329,15.474,0.024
52848.168291,15.393,0.022
52848.178701,15.393,0.024
52848.188882,15.394,0.028
52848.199073,15.459,0.028
52848.209444,15.419,0.028
52904.107954,15.51,0.024
52904.120049,15.501,0.024
52904.132131,15.488,0.026
52904.144143,15.548,0.028
52904.156479,15.525,0.031
53034.468431,15.307,0.022
53034.480752,15.298,0.02
53034.493309,15.351,0.02
53034.505719,15.39,0.02
53034.518066,15.389,0.02
53051.44986,15.111,0.013
53051.461509,14.943,0.013
53051.473124,14.817,0.011
53051.484729,14.788,0.011
53051.496426,14.844,0.011
53078.46974,15.486,0.03
53094.438836,15.375,0.013
53094.449219,15.398,0.011
53094.459573,15.419,0.013
53094.470209,15.421,0.013
53109.351472,15.485,0.023
53109.361458,15.477,0.023
53109.371354,15.489,0.023
53109.391206,15.493,0.023
53137.303394,15.441,0.023
53137.332651,15.525,0.023
53137.342284,15.515,0.023
53165.306936,15.621,0.033
53165.316747,15.622,0.035
53165.326654,15.591,0.035
53242.140635,15.188,0.023
53242.150808,15.188,0.023
53242.161124,15.244,0.025
53242.171088,15.23,0.026
53242.181068,15.223,0.026
53264.111991,15.226,0.018
53264.123529,15.246,0.018
53264.135107,15.328,0.021
53264.146548,15.334,0.02
53264.15802,15.334,0.021
53271.101683,14.849,0.018
53442.371648,15.491,0.024
53442.382406,15.49,0.022
53442.393213,15.466,0.022
53442.403974,15.456,0.022
53442.414934,15.456,0.022
53500.305104,15.2,0.018
53500.317084,15.232,0.017
53500.327646,15.282,0.018
53500.33901,15.283,0.018
53500.35165,15.322,0.018
53529.268436,14.934,0.017
53529.279437,14.965,0.017
53529.290459,15.01,0.017
53529.3012,15.023,0.017
53529.314156,15.061,0.017
53553.230974,15.396,0.026
53553.241344,15.405,0.026
53553.251762,15.432,0.026
53553.262121,15.425,0.026
53553.27248,15.44,0.026
53582.213897,15.228,0.026
53582.225493,15.183,0.046
53582.236615,15.308,0.028
53582.247745,15.318,0.03
53582.258864,15.325,0.037
53626.127919,15.172,0.028
53626.139408,15.235,0.03
53626.150896,15.261,0.031
53626.162412,15.268,0.031
53813.4678,15.083,0.028
53813.478807,14.938,0.024
53813.489817,14.843,0.022
53823.356961,15.474,0.021
53823.368022,15.477,0.021
53823.379271,15.482,0.021
53823.390456,15.5,0.021
53823.402695,15.503,0.021
53844.334576,14.969,0.024
53844.344916,14.796,0.02
53844.355276,14.773,0.02
53844.36561,14.787,0.02
53844.375947,14.801,0.02
53853.301402,14.916,0.018
53853.311812,14.914,0.018
53853.322344,14.986,0.02
53853.332762,14.973,0.018
53853.343463,14.996,0.02
53883.268568,15.56,0.038
53883.289222,15.537,0.04
53883.299584,15.54,0.04
53887.281456,15.329,0.026
53887.292429,15.296,0.028
53887.30341,15.298,0.026
53887.314447,15.316,0.028
53887.325525,15.383,0.028
53891.301741,14.978,0.022
53891.31578,15.04,0.02
53891.329516,15.061,0.02
53891.343046,15.093,0.018
53891.362714,15.158,0.02
53892.262404,15.497,0.052
53892.272261,15.602,0.057
53931.220899,15.443,0.031
53931.23131,15.425,0.035
53931.24169,15.442,0.041
53940.218521,15.464,0.04
53940.229001,15.49,0.045
53940.239488,15.635,0.071
53940.250244,15.442,0.056
53971.13992,15.468,0.051
53971.151056,15.51,0.041
53971.161977,15.487,0.033
53971.172598,15.522,0.035
53971.183268,15.583,0.043
54121.456489,15.47,0.031
54121.468749,15.289,0.024
54121.481425,15.131,0.018
54121.493668,14.98,0.015
54121.505903,14.836,0.013
54155.468714,15.197,0.02
54155.480486,15.217,0.021
54155.492155,15.229,0.02
54155.504004,15.246,0.021
54155.51554,15.274,0.021
54205.322605,15.167,0.02
54205.332251,15.206,0.02
54205.342011,15.213,0.02
54205.351611,15.225,0.02
54205.360785,15.229,0.02
54529.387251,15.295,0.026
54529.398512,15.312,0.026
54529.409754,15.383,0.026
54529.421084,15.371,0.026
54529.433561,15.355,0.026
54582.303162,15.363,0.024
54582.313734,15.391,0.026
54582.324295,15.404,0.028
54582.334928,15.395,0.028
54582.345498,15.391,0.03
54613.258242,15.499,0.024
54613.268359,15.496,0.024
54613.278641,15.485,0.018
54613.288663,15.506,0.018
54613.298878,15.475,0.018
