mjd,m,merr
52681.428878,15.916,0.041
52681.444102,16.036,0.048
52681.458965,16.029,0.048
52681.473716,16.021,0.046
52681.488419,15.915,0.043
52723.419654,16.187,0.043
52723.420012,15.869,0.031
52723.432342,16.595,0.071
52723.432702,15.891,0.049
52723.44448,17.071,0.142
52723.444838,16.013,0.066
52752.350027,15.877,0.038
52752.360267,15.975,0.04
52752.36062,15.811,0.036
52752.371072,15.94,0.04
52752.371424,15.841,0.04
52752.381964,15.909,0.038
52752.382316,15.8,0.036
52752.392562,15.962,0.043
52752.392913,15.813,0.04
52800.270523,15.924,0.078
52800.280822,15.859,0.074
52800.291208,15.819,0.068
52800.301559,15.698,0.059
52800.311786,15.788,0.063
52810.269618,15.926,0.045
52812.282439,15.817,0.035
52812.292323,15.814,0.033
52812.302488,15.798,0.033
52812.312367,15.818,0.035
52812.322467,15.909,0.038
52839.219157,15.652,0.044
52839.229185,15.746,0.033
52872.14337,16.066,0.057
52872.155307,15.941,0.081
52872.191542,15.94,0.104
52918.092596,15.844,0.055
52918.106197,15.926,0.063
52918.119371,16.017,0.072
52918.132825,16.03,0.08
52918.146131,16.063,0.091
53035.479386,15.917,0.035
53035.503771,16.089,0.041
53035.515956,16.127,0.041
53049.400909,15.927,0.037
53049.412793,15.991,0.039
53049.424708,16.088,0.043
53049.436656,16.051,0.041
53049.449265,15.941,0.035
53107.368101,15.869,0.03
53136.296063,15.848,0.035
53136.304764,15.818,0.033
53136.313502,15.787,0.033
53136.322435,15.779,0.035
53154.28954,16.061,0.054
53154.298081,16.084,0.054
53154.306421,16.115,0.053
53154.315308,16.001,0.049
53154.32378,15.91,0.046
53164.266738,15.88,0.036
53164.276351,15.841,0.035
53164.285912,15.848,0.036
53164.305307,15.882,0.043
53181.263917,15.892,0.031
53181.273609,15.868,0.028
53194.247647,16.074,0.058
53194.256888,15.986,0.053
53243.138837,15.844,0.043
53243.14911,15.813,0.043
53243.159423,15.855,0.046
53243.169663,15.878,0.048
53243.18047,15.947,0.051
53264.112515,15.842,0.031
53264.123965,15.793,0.03
53264.135406,15.758,0.03
53264.146845,15.769,0.03
53264.158287,15.798,0.031
53422.430499,16.003,0.081
53422.443051,16.096,0.085
53422.454971,15.972,0.05
53450.38653,16.014,0.048
53450.397058,15.993,0.044
53450.407582,15.889,0.041
53450.41815,15.871,0.039
53450.42869,15.813,0.037
53474.447863,16.001,0.039
53521.264125,15.906,0.043
53521.274441,15.851,0.048
53521.284768,15.812,0.035
53521.295124,15.843,0.033
53521.305431,15.826,0.035
53538.265656,15.905,0.059
53538.275185,15.909,0.057
53538.284733,15.897,0.059
53538.294265,15.81,0.055
53538.303777,15.719,0.05
53605.143718,15.953,0.037
53605.154748,15.898,0.037
53605.165791,15.837,0.041
53605.17681,15.825,0.048
53605.187867,15.756,0.05
53628.11497,15.76,0.052
53628.127158,15.811,0.055
53628.1394,15.852,0.057
53628.151573,15.854,0.059
53628.163695,15.918,0.067
53772.484657,16.041,0.044
53772.497346,16.073,0.043
53772.510216,15.903,0.037
53772.523004,15.881,0.035
53807.393941,16.075,0.085
53824.461242,15.806,0.13
53843.362704,16.173,0.076
53843.373903,16.058,0.068
53843.385132,15.968,0.063
53843.39636,15.893,0.059
53843.407605,15.909,0.059
53855.298005,15.939,0.041
53855.319515,16.112,0.048
53855.329698,16.098,0.043
53878.294902,15.862,0.041
53878.316074,15.802,0.041
53878.337381,15.813,0.04
53892.266066,15.855,0.065
53903.279661,15.934,0.049
53903.289283,15.915,0.048
53903.308473,15.858,0.048
53903.318319,15.796,0.046
53917.223179,15.782,0.046
53917.232869,15.659,0.091
53917.242811,15.808,0.063
53932.224729,16.036,0.048
53932.24543,16.091,0.059
53932.2558,16.086,0.068
53932.266187,16.026,0.091
53960.211375,16.239,0.097
53997.11452,15.79,0.031
53997.138722,15.844,0.036
53997.151373,15.849,0.04
53997.16345,15.947,0.045
54169.385574,15.791,0.035
54169.39664,15.806,0.033
54169.407734,15.836,0.035
54169.418969,15.887,0.037
54169.430078,16.02,0.046
54186.376212,15.738,0.064
54186.396953,15.827,0.059
54186.407218,15.843,0.048
54200.331018,15.86,0.028
54200.341585,15.891,0.03
54200.351863,15.985,0.031
54200.36263,16.067,0.037
54200.372745,16.03,0.037
54209.309783,15.791,0.074
54209.318754,15.862,0.066
54209.327606,15.736,0.073
54209.336618,15.754,0.049
54209.345575,15.8,0.048
54217.295465,15.824,0.041
54217.304292,15.805,0.041
54217.313032,15.86,0.041
54217.321762,15.803,0.039
54217.330465,15.869,0.041
54218.31783,15.795,0.054
54218.327129,15.83,0.054
54218.336094,15.723,0.049
54218.344895,15.757,0.051
54218.35397,15.812,0.053
54509.448737,16.013,0.04
54509.461248,15.998,0.04
54509.473866,15.949,0.038
54509.48676,15.875,0.036
54536.382464,16.094,0.041
54536.393334,16.003,0.038
54536.404185,15.961,0.038
54536.415043,15.938,0.036
54536.426026,15.83,0.033
54560.362021,15.998,0.051
54560.373443,15.956,0.048
54560.384828,15.887,0.045
54560.396221,15.839,0.043
54560.407834,15.819,0.043
54583.303225,15.977,0.054
54583.316739,15.828,0.046
54583.329075,15.763,0.046
54614.270498,15.752,0.04
54614.280885,15.758,0.04
54614.291268,15.825,0.041
54614.301514,15.844,0.043
54614.311872,15.934,0.046
