mjd,m,merr
52721.375112,16.943,0.093
52721.388016,16.911,0.089
52721.400937,16.825,0.081
52721.413835,16.97,0.093
52721.426677,16.929,0.089
52750.340497,17.078,0.115
52750.351312,16.974,0.105
52750.362062,16.564,0.137
52750.372913,16.918,0.209
52750.38368,17.043,0.335
52781.284817,16.557,0.069
52781.295821,16.573,0.069
52781.307122,16.65,0.074
52781.318234,16.627,0.073
52801.267027,16.859,0.22
52801.277125,16.858,0.231
52801.28719,17.05,0.253
52801.297363,17.204,0.3
52801.307558,17.005,0.237
52809.28823,16.935,0.098
52809.298299,17.056,0.113
52809.308202,16.979,0.105
52830.220769,16.618,0.109
52830.230715,16.716,0.12
52830.250574,16.67,0.113
52830.260474,16.745,0.12
52845.209923,16.919,0.104
52845.220154,16.888,0.101
52845.230053,16.951,0.106
52845.239997,16.853,0.099
52845.249893,17.023,0.115
52897.124646,16.485,0.063
52897.136401,16.502,0.065
52897.148133,16.54,0.074
52897.160108,16.49,0.078
52897.171828,16.45,0.081
52927.081657,16.835,0.098
52927.092971,16.994,0.115
52927.105463,17.071,0.126
52927.117703,16.942,0.109
53045.387618,16.476,0.096
53045.39897,16.522,0.102
53045.410206,16.504,0.096
53045.421413,16.495,0.091
53045.432598,16.645,0.104
53096.379239,16.878,0.12
53096.38929,16.716,0.098
53096.399336,16.562,0.085
53096.409383,16.565,0.085
53096.419486,16.513,0.08
53108.368493,17.006,0.08
53108.390676,17.008,0.087
53108.401794,16.98,0.083
53125.297429,16.991,0.15
53125.307373,16.991,0.15
53125.317319,17.067,0.157
53125.327312,16.962,0.142
53125.33734,16.954,0.13
53134.292361,16.744,0.081
53134.301918,16.789,0.091
53134.311446,16.87,0.098
53134.320957,16.79,0.096
53134.330548,16.735,0.098
53155.294943,17.352,0.203
53155.303892,17.233,0.174
53155.312853,17.271,0.185
53155.32181,17.374,0.209
53155.330724,17.056,0.161
53163.280318,17.475,0.618
53182.326915,17.229,0.139
53182.33671,17.238,0.146
53182.346514,17.189,0.168
53182.356326,17.032,0.172
53182.366139,16.724,0.2
53193.247326,16.637,0.104
53193.257426,16.684,0.091
53193.267519,16.726,0.098
53244.140841,16.7,0.104
53244.161236,16.346,0.08
53244.171424,16.29,0.074
53244.181624,16.205,0.07
53283.124764,16.861,0.085
53283.145165,16.921,0.093
53390.474139,17.061,0.109
53390.486846,17.087,0.109
53390.499542,17.034,0.102
53390.51224,17.053,0.102
53390.525403,17.113,0.115
53400.437706,16.68,0.098
53400.450205,16.712,0.096
53400.46264,16.671,0.093
53400.475071,16.642,0.091
53400.48751,16.57,0.085
53429.389244,17.21,0.157
53429.400533,17.098,0.139
53429.411826,17.018,0.128
53429.423115,17.115,0.135
53429.434404,17.159,0.141
53461.386815,17.101,0.105
53461.397179,17.067,0.102
53461.407477,17.016,0.098
53461.417814,16.999,0.093
53461.42816,16.972,0.091
53489.341926,16.964,0.1
53535.267083,17.052,0.105
53535.277015,17.077,0.107
53535.296909,17.088,0.102
53535.306946,17.083,0.102
53563.233586,16.812,0.111
53563.254778,16.864,0.098
53599.152333,16.179,0.07
53607.136383,16.599,0.196
53607.147894,16.665,0.089
53635.110132,16.907,0.096
53635.120707,17.115,0.105
53635.131146,17.075,0.096
53635.141562,17.143,0.109
53664.076751,16.758,0.087
53664.087863,16.901,0.104
53664.098952,16.648,0.081
53664.109908,16.746,0.104
53664.120861,16.734,0.117
53755.46967,16.757,0.107
53755.482429,16.624,0.093
53755.495268,16.791,0.105
53755.508089,16.749,0.098
53755.520957,16.785,0.098
53803.4082,16.805,0.087
53803.421305,17.051,0.116
53803.433314,17.023,0.109
53803.445271,16.799,0.078
53803.457262,16.937,0.084
53829.332405,16.518,0.074
53829.343013,16.549,0.073
53829.353594,16.601,0.074
53829.364182,16.729,0.117
53833.320211,17.054,0.112
53833.331751,17.148,0.116
53833.343051,17.231,0.119
53833.354513,17.314,0.129
53833.365547,17.134,0.111
53858.299607,17.241,0.135
53858.309684,17.136,0.117
53864.29268,16.939,0.16
53864.302301,16.562,0.112
53864.312191,16.499,0.107
53864.321846,16.483,0.111
53864.331484,16.444,0.094
53876.265717,17.16,0.125
53876.276685,16.9,0.213
53876.287599,17.307,0.404
53876.309292,16.714,0.116
53905.266092,16.327,0.054
53905.27573,16.322,0.054
53905.285635,16.309,0.054
53905.295259,16.443,0.058
53905.304881,16.442,0.058
53933.217777,17.084,0.068
53933.228102,16.743,0.064
53933.238386,17.037,0.079
53933.248768,17.14,0.074
53955.158215,17.213,0.266
53955.170452,16.957,0.218
53955.182635,16.904,0.207
53955.194863,16.691,0.185
53955.20692,16.611,0.168
53991.117376,17.007,0.114
53991.129772,17.167,0.119
53991.141728,17.12,0.116
53991.153625,17.082,0.122
53991.165261,17.197,0.14
54021.079064,16.697,0.086
54021.09057,16.466,0.073
54021.102231,16.673,0.087
54021.113685,16.353,0.068
54021.125126,16.265,0.066
54108.457537,17.155,0.209
54108.470337,17.275,0.24
54108.483076,16.923,0.157
54108.495869,17.091,0.174
54108.50862,17.147,0.168
54139.44421,17.183,0.234
54139.45648,17.358,0.295
54139.469052,17.127,0.32
54139.480811,17.224,0.282
54139.492907,16.931,0.18
54157.393333,17.07,0.135
54157.40429,17.176,0.142
54157.415258,17.135,0.129
54157.426215,17.085,0.119
54157.437179,17.033,0.107
54524.447954,16.537,0.064
54524.460197,16.656,0.071
54524.471923,16.736,0.076
54524.483413,16.663,0.073
54524.494916,16.711,0.078
54539.373189,16.723,0.078
54539.383991,16.756,0.074
54539.406504,16.791,0.074
54539.417382,16.841,0.078
54571.34843,16.902,0.12
54571.359976,17.084,0.125
54571.373393,17.034,0.119
54571.384175,16.907,0.102
54571.394941,16.959,0.107
