mjd,m,merr
52698.451578,15.216,0.018
52698.464938,15.139,0.017
52698.47816,15.133,0.017
52698.491649,15.093,0.017
52698.505107,15.168,0.017
52712.442752,15.442,0.024
52712.455851,15.264,0.018
52712.469302,15.17,0.017
52712.482466,15.099,0.015
52712.495579,15.085,0.015
52754.327265,15.549,0.022
52754.33921,15.431,0.02
52754.351187,15.29,0.018
52754.363177,15.205,0.017
52754.375191,15.148,0.017
52771.325162,15.174,0.03
52771.336574,15.292,0.031
52771.348104,15.435,0.035
52771.359547,15.548,0.038
52771.371026,15.481,0.036
52820.228527,15.176,0.02
52820.238545,15.205,0.02
52820.248501,15.334,0.022
52820.258365,15.429,0.024
52820.268496,15.553,0.028
52822.16814,15.288,0.024
52822.17802,15.408,0.024
52822.187952,15.541,0.031
52823.179739,15.367,0.024
52823.189673,15.283,0.02
52823.199618,15.2,0.02
52823.209573,15.154,0.018
52824.169852,15.166,0.02
52824.179799,15.14,0.022
52824.189695,15.141,0.018
52824.199518,15.171,0.02
52824.209461,15.194,0.02
52825.179599,15.165,0.022
52825.18964,15.261,0.024
52825.199577,15.396,0.028
52825.209505,15.506,0.028
52826.225403,15.172,0.025
52826.235609,15.145,0.023
52826.245725,15.131,0.023
52826.255825,15.105,0.021
52826.265987,15.137,0.021
52849.167465,15.166,0.018
52849.177849,15.146,0.018
52849.188894,15.117,0.018
52849.199949,15.112,0.018
52849.211115,15.177,0.02
52886.127813,15.189,0.033
52886.165776,15.103,0.039
52903.139845,15.445,0.028
52903.152129,15.26,0.024
52903.164356,15.179,0.024
52903.176283,15.137,0.026
53052.453691,15.54,0.022
53052.465357,15.571,0.024
53052.477004,15.414,0.02
53052.488685,15.28,0.018
53052.500343,15.22,0.017
53065.424414,15.172,0.015
53065.436074,15.138,0.021
53065.447644,15.137,0.026
53065.45924,15.136,0.031
53079.393801,15.545,0.026
53079.404886,15.379,0.021
53079.41575,15.294,0.02
53079.426961,15.194,0.018
53079.437814,15.167,0.018
53094.37297,15.532,0.02
53094.382549,15.355,0.016
53094.393631,15.24,0.015
53094.403147,15.175,0.013
53094.413868,15.106,0.012
53110.349165,15.132,0.018
53110.359604,15.083,0.016
53110.370858,15.101,0.018
53110.382259,15.108,0.018
53110.392684,15.144,0.018
53122.348165,15.232,0.015
53122.358484,15.319,0.017
53122.368992,15.475,0.018
53122.379347,15.637,0.02
53122.389973,15.708,0.022
53138.300976,15.425,0.021
53138.310516,15.565,0.025
53138.320103,15.689,0.026
53138.329684,15.647,0.026
53138.339275,15.496,0.023
53153.295946,15.547,0.022
53153.304675,15.549,0.022
53153.313446,15.416,0.018
53153.322278,15.323,0.018
53153.331047,15.25,0.017
53166.267386,15.16,0.02
53166.277034,15.132,0.02
53166.286959,15.124,0.02
53166.296588,15.156,0.02
53166.30618,15.195,0.021
53178.230787,15.122,0.033
53178.240768,15.099,0.031
53178.250844,15.116,0.035
53178.270818,15.26,0.054
53241.203029,15.26,0.033
53241.212909,15.384,0.036
53270.102008,15.411,0.031
53270.114086,15.284,0.03
53270.126047,15.203,0.028
53270.137951,15.165,0.028
53270.149811,15.118,0.028
53272.101215,15.199,0.026
53272.113891,15.294,0.031
53272.126124,15.482,0.038
53272.138303,15.69,0.048
53272.150435,15.704,0.051
53471.414583,15.142,0.018
53471.42441,15.116,0.017
53471.434617,15.114,0.018
53471.4445,15.172,0.018
53471.454372,15.207,0.018
53502.390171,15.601,0.026
53502.40075,15.714,0.028
53502.411007,15.59,0.024
53502.421304,15.402,0.02
53502.432418,15.249,0.018
53505.269794,15.411,0.035
53505.279102,15.517,0.035
53505.288415,15.531,0.035
53505.298495,15.427,0.033
53505.307809,15.322,0.033
53523.274956,15.684,0.026
53523.28533,15.756,0.028
53523.295765,15.54,0.022
53523.306102,15.372,0.018
53523.316553,15.247,0.017
53551.228088,15.123,0.02
53551.238037,15.092,0.018
53551.248041,15.104,0.018
53551.258081,15.141,0.018
53551.268048,15.196,0.02
53581.2004,15.144,0.017
53581.211982,15.161,0.017
53581.22352,15.209,0.018
53581.235054,15.308,0.02
53581.246623,15.471,0.026
53623.118541,15.115,0.03
53623.129898,15.176,0.028
53623.152673,15.385,0.039
53624.125177,15.68,0.041
53624.136519,15.748,0.061
53624.147859,15.419,0.046
53624.159213,15.315,0.031
53789.482489,15.104,0.046
53845.351583,15.317,0.033
53845.362732,15.191,0.03
53845.374266,15.125,0.031
53845.385111,15.155,0.031
53845.396106,15.126,0.035
53852.372563,15.18,0.025
53852.382883,15.155,0.023
53852.393219,15.16,0.025
53852.405596,15.152,0.025
53852.415962,15.2,0.026
53881.277445,15.264,0.026
53881.288486,15.332,0.028
53881.299557,15.523,0.033
53881.310601,15.675,0.037
53881.321696,15.659,0.033
53882.277445,15.572,0.028
53882.28387,15.496,0.03
53882.288703,15.465,0.024
53882.29471,15.423,0.025
53882.299959,15.321,0.02
53882.305368,15.258,0.025
53882.311209,15.211,0.02
53882.322472,15.192,0.018
53887.270897,15.208,0.025
53887.281208,15.145,0.023
53887.291515,15.162,0.023
53887.301915,15.14,0.023
53887.312246,15.225,0.025
53902.269208,15.094,0.026
53902.279032,15.147,0.03
53902.288811,15.196,0.033
53902.298609,15.223,0.037
53902.308537,15.321,0.039
53914.226812,15.153,0.04
53978.129555,15.129,0.025
53978.140852,15.203,0.026
53978.151689,15.228,0.028
53978.162726,15.423,0.035
53978.174034,15.517,0.038
54144.454065,15.255,0.026
54144.465994,15.215,0.025
54144.477977,15.162,0.023
54144.489835,15.152,0.021
54153.495763,15.502,0.064
54208.307102,15.693,0.035
54208.315739,15.512,0.03
54208.324492,15.356,0.025
54208.333398,15.321,0.023
54208.342098,15.21,0.02
54559.355636,15.335,0.015
54559.367146,15.255,0.013
54559.37869,15.186,0.013
54559.390199,15.155,0.011
54559.401892,15.158,0.011
54581.350158,15.248,0.03
54581.360782,15.177,0.028
54581.371448,15.148,0.026
54581.382024,15.158,0.026
54581.392612,15.225,0.028
54592.291773,15.595,0.038
54592.30151,15.634,0.038
54592.311221,15.532,0.035
54592.321439,15.354,0.031
54592.332302,15.243,0.028
