mjd,m,merr
52677.463321,16.56,0.078
52677.477605,16.529,0.072
52677.491886,16.523,0.068
52677.506212,16.448,0.061
52677.520501,16.363,0.052
52697.461487,16.301,0.052
52697.477397,16.286,0.048
52706.432791,16.61,0.065
52706.445433,16.604,0.061
52706.458176,16.577,0.059
52706.471238,16.63,0.059
52706.484155,16.548,0.055
52724.42014,16.254,0.044
52724.431892,16.234,0.044
52724.443461,16.25,0.046
52724.45502,16.202,0.044
52724.466579,16.221,0.048
52753.326388,16.559,0.063
52753.338405,16.495,0.055
52753.350432,16.483,0.055
52753.362511,16.498,0.057
52753.37456,16.416,0.05
52772.27784,16.476,0.126
52772.301356,16.494,0.118
52772.313277,16.33,0.139
52797.269727,16.424,0.068
52797.279783,16.416,0.068
52797.289817,16.365,0.065
52797.299878,16.425,0.065
52797.309955,16.469,0.065
52811.268106,16.337,0.054
52811.27779,16.325,0.052
52811.287598,16.423,0.059
52811.297312,16.343,0.055
52811.307115,16.422,0.059
52826.224707,16.241,0.054
52826.23465,16.275,0.055
52826.244525,16.232,0.052
52826.254482,16.242,0.052
52826.264419,16.238,0.052
52842.23367,16.504,0.278
52842.254052,16.475,0.094
52842.2642,16.382,0.078
52847.211083,16.165,0.052
52847.221421,16.17,0.052
52847.231798,16.108,0.052
52847.242297,16.175,0.05
52847.252632,16.194,0.054
52904.108057,16.585,0.065
52904.120153,16.547,0.065
52904.132234,16.535,0.065
52904.144247,16.446,0.065
52904.156583,16.406,0.068
53034.480646,16.288,0.052
53034.493204,16.246,0.048
53034.505614,16.456,0.054
53034.517961,16.461,0.054
53051.44997,16.331,0.041
53051.46162,16.29,0.043
53051.473235,16.306,0.043
53051.48484,16.252,0.041
53051.496536,16.228,0.037
53078.470392,16.194,0.058
53094.439871,16.466,0.035
53094.450134,16.431,0.033
53094.460489,16.377,0.031
53094.471124,16.355,0.03
53109.351549,16.309,0.053
53109.361538,16.443,0.056
53109.371431,16.443,0.058
53109.381375,17.104,0.104
53109.391287,16.551,0.061
53137.303477,16.335,0.051
53137.313113,16.375,0.054
53137.323259,16.443,0.053
53137.332735,16.48,0.054
53137.342367,16.451,0.053
53165.287332,16.381,0.061
53165.2972,16.41,0.066
53165.307019,16.453,0.071
53165.326738,16.477,0.079
53242.150705,16.15,0.058
53242.170985,16.151,0.059
53242.180965,16.145,0.059
53264.111886,16.374,0.049
53264.123424,16.404,0.053
53264.135002,16.344,0.058
53264.146444,16.288,0.049
53264.157915,16.249,0.049
53442.371534,16.447,0.057
53442.382293,16.518,0.061
53442.393098,16.515,0.055
53442.403861,16.556,0.059
53442.414821,16.544,0.061
53500.305205,16.23,0.044
53500.317185,16.27,0.044
53500.327746,16.273,0.044
53500.33911,16.256,0.044
53500.351751,16.275,0.044
53501.369723,16.182,0.046
53501.370496,16.25,0.048
53501.385998,16.202,0.048
53501.386096,16.283,0.05
53501.402132,16.216,0.048
53501.40223,16.267,0.05
53501.414638,16.223,0.048
53501.414736,16.296,0.052
53501.426502,16.273,0.048
53501.4266,16.366,0.052
53502.3804,16.251,0.048
53502.391127,16.214,0.043
53502.401704,16.222,0.043
53502.411955,16.209,0.043
53502.422249,16.261,0.043
53503.369487,16.444,0.061
53503.369584,16.519,0.063
53503.37872,16.395,0.055
53503.378818,16.414,0.055
53503.387423,16.358,0.054
53503.38752,16.344,0.052
53503.396732,16.278,0.061
53503.396829,16.332,0.067
53503.405368,16.252,0.055
53503.405466,16.216,0.057
53504.326545,16.521,0.061
53504.336141,16.506,0.061
53504.347844,16.607,0.068
53504.357576,16.557,0.065
53504.367622,16.561,0.067
53528.278371,16.32,0.059
53528.289804,16.311,0.057
53528.30064,16.249,0.055
53528.31162,16.254,0.059
53528.32279,16.259,0.057
53553.23088,16.495,0.072
53553.241251,16.466,0.068
53553.251669,16.582,0.072
53553.262029,16.555,0.078
53553.272387,16.62,0.078
53582.214091,16.333,0.091
53582.225686,16.208,0.096
53582.236809,16.422,0.08
53582.247939,16.343,0.08
53582.259058,16.463,0.109
53626.116298,16.878,0.126
53626.127817,16.955,0.142
53626.139306,17.007,0.152
53626.150794,16.907,0.146
53626.16231,16.663,0.118
53813.467678,16.37,0.089
53813.478685,16.447,0.091
53813.489695,16.477,0.094
53823.356829,16.506,0.054
53823.367812,16.63,0.061
53823.379141,16.599,0.058
53823.390326,16.61,0.058
53823.402564,16.661,0.066
53844.334465,16.76,0.12
53844.344804,16.798,0.126
53844.355164,16.672,0.115
53844.365499,16.766,0.126
53844.375835,16.787,0.124
53853.301303,18.049,0.292
53853.311713,17.459,0.178
53853.332663,17.987,0.277
53853.343364,17.106,0.127
53887.281348,16.361,0.068
53887.292323,16.437,0.074
53887.303302,16.478,0.076
53887.314341,16.43,0.072
53887.325419,16.53,0.078
53971.140014,16.361,0.112
53971.151152,16.318,0.087
53971.162072,16.266,0.069
53971.172708,16.304,0.071
53971.183365,16.307,0.083
54121.456373,16.627,0.091
54121.468634,16.577,0.08
54121.48131,16.58,0.07
54121.493554,16.536,0.063
54121.505789,16.477,0.055
54155.480332,16.167,0.048
54155.515386,16.194,0.049
54206.359762,16.609,0.069
54529.387104,16.345,0.059
54529.398365,16.284,0.056
54529.409607,16.352,0.058
54529.420936,16.327,0.056
54529.433417,16.306,0.056
54574.342073,16.607,0.1
54574.352889,16.629,0.1
54574.363652,16.506,0.087
54574.37441,16.612,0.094
54574.385131,16.515,0.087
54582.303038,16.276,0.057
54582.31361,16.286,0.061
54582.324171,16.355,0.067
54582.334805,16.304,0.065
54582.345375,16.346,0.07
54613.258138,16.53,0.067
54613.268255,16.533,0.061
54613.278534,16.616,0.055
54613.288559,16.595,0.054
54613.298775,16.56,0.052
