mjd,m,merr
52613.455729,16.502,0.067
52613.47101,16.566,0.068
52613.486247,16.608,0.07
52613.501453,16.498,0.059
52613.516748,16.632,0.068
52641.458997,16.721,0.059
52641.474288,16.785,0.063
52641.489601,16.719,0.059
52641.504416,16.737,0.059
52641.519895,16.791,0.061
52643.44391,16.776,0.067
52643.457907,16.751,0.063
52643.471857,16.706,0.057
52643.485944,16.73,0.055
52643.500258,16.598,0.048
52647.460818,16.489,0.057
52647.475678,16.488,0.055
52647.490034,16.582,0.061
52647.504778,16.522,0.059
52667.39945,16.698,0.059
52667.414861,16.722,0.061
52667.430244,16.734,0.063
52667.445473,16.725,0.065
52667.46082,16.691,0.065
52670.400899,16.637,0.065
52670.414811,16.617,0.061
52670.428801,16.655,0.063
52670.442738,16.656,0.061
52670.45666,16.623,0.061
52673.371247,16.553,0.052
52673.386457,16.573,0.05
52673.401703,16.551,0.048
52673.417058,16.563,0.048
52673.432445,16.564,0.05
52703.315121,16.737,0.104
52703.328296,16.617,0.17
52703.341624,16.752,0.085
52703.355732,16.526,0.152
52703.369001,16.775,0.144
52707.311796,16.561,0.05
52707.325587,16.544,0.048
52707.338795,16.569,0.05
52707.352506,16.466,0.046
52707.365847,16.512,0.05
52710.303264,16.778,0.078
52710.316779,16.736,0.074
52710.329974,16.753,0.074
52710.343227,16.711,0.072
52710.356492,16.745,0.074
52711.378386,16.608,0.074
52711.392538,16.583,0.072
52711.407008,16.653,0.076
52711.421443,16.653,0.068
52730.291492,16.634,0.052
52730.303058,16.626,0.05
52730.314695,16.65,0.052
52730.326249,16.66,0.052
52730.337806,16.704,0.055
52738.239005,16.525,0.055
52738.25044,16.579,0.057
52738.262371,16.518,0.054
52738.273798,16.519,0.054
52738.285409,16.449,0.05
52755.202441,16.768,0.078
52755.214336,16.752,0.076
52755.226298,16.67,0.071
52755.238298,16.722,0.076
52755.250207,16.682,0.074
52758.207498,16.676,0.054
52758.219354,16.666,0.054
52758.231246,16.703,0.057
52758.24325,16.706,0.057
52758.255103,16.68,0.057
52788.183595,16.584,0.074
52788.193897,16.64,0.159
52793.223864,16.579,0.085
52793.233886,16.509,0.087
52793.243834,16.485,0.089
52966.468609,16.6,0.068
52966.481025,16.527,0.065
52966.493603,16.62,0.067
52966.506143,16.608,0.063
52973.43451,16.573,0.084
52973.4462,16.646,0.086
52973.458442,16.6,0.076
52973.470011,16.597,0.074
52973.482035,16.623,0.076
52994.47799,16.694,0.043
52994.492013,16.701,0.041
52994.505349,16.683,0.041
52994.518668,16.696,0.041
52994.532024,16.738,0.041
52997.479926,16.731,0.237
52997.495032,16.493,0.216
53028.40144,16.575,0.031
53028.41383,16.62,0.033
53028.426222,16.675,0.039
53028.438739,16.621,0.035
53028.451129,16.654,0.039
53033.338482,16.472,0.05
53033.350693,16.649,0.057
53033.362758,16.494,0.05
53033.375236,16.595,0.067
53033.387634,16.587,0.074
53054.368212,16.653,0.046
53054.382729,16.71,0.05
53054.394726,16.674,0.048
53054.407392,16.718,0.052
53054.419326,16.604,0.048
53061.330545,16.522,0.035
53061.341608,16.519,0.037
53061.352674,16.494,0.037
53061.36379,16.546,0.039
53061.374962,16.535,0.041
53080.284123,16.678,0.054
53080.295711,16.722,0.055
53080.307657,16.668,0.054
53080.319004,16.707,0.054
53080.330288,16.658,0.052
53081.283935,16.58,0.049
53081.296218,16.586,0.049
53081.309201,16.537,0.048
53081.321252,16.599,0.049
53081.333338,16.57,0.049
53082.339158,16.595,0.044
53082.350579,16.498,0.043
53082.361693,16.525,0.044
53082.372895,16.516,0.046
53082.390138,16.482,0.044
53087.283593,16.606,0.043
53087.296869,16.654,0.045
53087.308401,16.592,0.041
53087.319493,16.587,0.043
53087.330488,16.628,0.043
53091.328021,16.363,0.031
53091.33862,16.372,0.033
53091.348988,16.391,0.035
53091.359531,16.324,0.035
53091.36982,16.421,0.039
53111.191877,16.58,0.067
53111.202653,16.691,0.07
53111.213405,16.661,0.07
53111.224145,16.674,0.07
53111.234968,16.658,0.068
53116.30971,16.484,0.05
53116.320933,16.569,0.054
53116.332544,16.557,0.048
53116.344548,16.518,0.05
53116.355784,16.595,0.054
53139.199734,16.665,0.067
53139.209048,16.688,0.068
53139.21835,16.682,0.067
53139.227648,16.556,0.065
53139.237111,16.598,0.067
53141.212734,16.454,0.046
53141.222918,16.456,0.05
53141.232601,16.448,0.05
53141.24282,16.483,0.052
53141.252495,16.386,0.048
53144.210031,16.738,0.097
53144.218965,16.658,0.107
53144.227809,16.737,0.15
53144.245869,16.658,0.251
53346.44313,16.491,0.078
53346.455682,16.55,0.084
53346.467887,16.578,0.086
53346.48011,16.627,0.083
53346.492403,16.555,0.078
53351.493725,16.426,0.079
53351.508081,16.485,0.078
53351.52238,16.513,0.079
53353.460377,16.492,0.068
53353.473787,16.601,0.074
53353.486627,16.595,0.068
53353.499469,16.583,0.063
53353.512895,16.537,0.059
53376.484361,16.64,0.057
53376.498331,16.69,0.059
53376.512107,16.727,0.057
53376.529381,16.765,0.059
53381.426043,16.599,0.167
53381.438893,16.605,0.144
53381.464831,16.552,0.268
53381.477734,16.433,0.263
53403.355436,16.481,0.057
53403.368903,16.456,0.055
53403.382241,16.573,0.063
53403.395713,16.475,0.059
53403.408554,16.475,0.057
53432.349891,16.637,0.266
53432.361238,16.464,0.226
53432.372694,16.443,0.085
53432.38406,16.489,0.057
53432.395752,16.47,0.061
53437.349634,16.498,0.048
53437.360963,16.431,0.046
53437.372597,16.416,0.046
53437.383906,16.467,0.048
53437.397066,16.446,0.05
53440.297984,16.651,0.065
53440.312281,16.637,0.063
53440.324844,16.725,0.068
53440.337957,16.647,0.065
53440.352017,16.683,0.067
53440.363748,16.761,0.065
53440.374253,16.751,0.067
53440.386288,16.698,0.067
53440.397414,16.781,0.072
53440.407895,16.732,0.072
53443.274889,16.634,0.052
53443.286368,16.64,0.05
53443.297236,16.644,0.05
53443.30864,16.612,0.05
53443.319493,16.639,0.052
53446.282936,16.508,0.115
53446.293868,16.511,0.085
53446.304778,16.538,0.063
53446.315889,16.551,0.148
53446.326757,16.499,0.046
53447.302178,16.74,0.07
53447.312965,16.753,0.068
53447.324321,16.668,0.068
53447.335086,16.761,0.068
53447.345879,16.696,0.061
53464.294596,16.734,0.063
53464.304771,16.701,0.061
53464.314955,16.752,0.063
53464.325113,16.666,0.065
53464.335266,16.677,0.068
53478.233658,16.654,0.154
53478.253495,16.778,0.191
53478.264175,16.61,0.172
53495.247567,16.746,0.146
53495.257676,16.771,0.165
53495.267743,16.641,0.167
53495.277786,16.665,0.178
53495.287849,16.742,0.218
53496.198192,16.495,0.067
53496.208462,16.516,0.072
53496.218785,16.495,0.072
53496.228979,16.455,0.07
53496.239236,16.488,0.076
53503.229125,16.555,0.059
53503.237745,16.601,0.065
53503.246628,16.595,0.068
53503.255648,16.599,0.067
53503.264477,16.583,0.067
53525.185805,16.466,0.074
53525.195982,16.466,0.078
53525.206151,16.432,0.074
53527.166988,16.522,0.074
53527.17727,16.524,0.074
53527.187158,16.572,0.08
53527.196937,16.556,0.083
53527.206704,16.612,0.087
53708.462346,16.564,0.067
53708.475315,16.618,0.067
53708.488155,16.672,0.07
53708.500802,16.662,0.068
53708.513592,16.655,0.065
53710.454833,16.685,0.089
53710.480868,16.716,0.085
53710.493447,16.623,0.08
53710.506015,16.711,0.085
53732.477461,16.651,0.093
53732.491013,16.604,0.091
53732.503909,16.576,0.081
53732.516691,16.686,0.096
53732.529413,16.643,0.083
53735.469124,16.534,0.098
53735.482524,16.545,0.089
53735.495287,16.69,0.281
53735.508203,16.795,0.215
53746.404273,16.722,0.104
53746.416737,16.63,0.094
53746.429292,16.618,0.091
53746.441979,16.638,0.091
53746.454446,16.656,0.091
53759.409888,16.521,0.059
53759.422676,16.444,0.07
53759.435267,16.497,0.089
53759.44789,16.522,0.091
53759.460471,16.543,0.178
53762.414447,16.795,0.076
53762.427191,16.684,0.072
53762.439831,16.913,0.13
53762.452557,16.691,0.081
53762.465314,16.753,0.067
53790.343776,16.512,0.055
53790.355477,16.491,0.055
53790.36717,16.506,0.055
53790.378865,16.497,0.057
53790.390573,16.479,0.057
53791.354011,16.769,0.063
53791.365818,16.73,0.059
53791.377728,16.685,0.056
53791.389358,16.738,0.061
53791.40125,16.663,0.058
53793.348821,16.74,0.065
53793.360554,16.662,0.074
53793.372283,16.679,0.067
53793.384031,16.735,0.061
53793.395773,16.705,0.191
53797.32117,16.488,0.044
53797.332743,16.505,0.046
53797.344379,16.48,0.044
53799.338124,16.482,0.044
53799.349557,16.558,0.048
53799.360983,16.56,0.05
53799.372423,16.648,0.059
53799.383866,16.569,0.061
53817.265662,16.721,0.063
53817.276933,16.744,0.064
53817.288197,16.763,0.068
53817.299521,16.755,0.068
53817.310849,16.816,0.073
53819.340909,16.735,0.068
53819.354778,16.643,0.067
53819.369754,16.63,0.081
53819.383367,16.613,0.094
53819.395553,16.577,0.076
53820.344212,16.471,0.235
53826.289267,16.595,0.059
53826.313705,16.569,0.055
53826.325191,16.597,0.072
53826.336576,16.534,0.076
53827.347205,16.586,0.067
53827.358996,16.621,0.08
53827.371484,16.602,0.081
53827.384092,16.617,0.107
53827.3967,16.715,0.094
53832.227469,16.667,0.081
53832.23947,16.64,0.078
53832.249539,16.564,0.074
53832.260654,16.648,0.078
53832.271751,16.691,0.085
53845.205723,16.67,0.076
53845.216789,16.591,0.073
53845.227877,16.672,0.078
53848.244055,16.87,0.202
53848.254505,16.591,0.083
53848.26525,16.828,0.107
53848.276142,16.805,0.102
53848.286613,16.659,0.091
53850.197,16.849,0.092
53850.207393,16.743,0.084
53850.217905,16.736,0.087
53850.228404,16.713,0.084
53850.239077,16.769,0.087
53850.275726,16.677,0.072
53850.286841,16.678,0.074
53850.299247,16.552,0.065
53850.310095,16.558,0.067
53850.321707,16.532,0.067
53853.245577,16.735,0.083
53853.255982,16.717,0.083
53853.267024,16.663,0.08
53853.277793,16.746,0.083
53853.288225,16.781,0.091
53856.27851,16.621,0.072
53856.291276,16.659,0.076
53856.302805,16.68,0.08
53856.312951,16.68,0.081
53856.323124,16.647,0.083
53880.167098,16.491,0.069
53880.178529,16.546,0.071
53880.189213,16.578,0.076
53880.200027,16.502,0.074
53880.210956,16.573,0.076
53882.16984,16.644,0.067
53882.182712,16.648,0.067
53882.195633,16.606,0.067
53882.206866,16.655,0.07
53882.21877,16.813,0.081
53884.163022,16.729,0.089
53884.174511,16.634,0.079
53884.174774,16.727,0.094
53884.185731,16.768,0.091
53884.186526,16.634,0.089
53884.196457,16.654,0.083
53884.198328,16.71,0.096
53884.210101,16.658,0.093
54080.473803,16.883,0.219
54080.486358,16.645,0.167
54080.498975,16.568,0.149
54086.427954,16.822,0.087
54086.440903,16.709,0.076
54086.453751,16.695,0.076
54086.466604,16.626,0.068
54086.479575,16.494,0.061
54091.360045,16.624,0.114
54091.372668,16.559,0.097
54091.384574,16.63,0.101
54091.396473,16.649,0.097
54091.408596,16.578,0.087
54113.393448,16.686,0.083
54113.406799,16.652,0.081
54113.420787,16.721,0.099
54113.433553,16.868,0.193
54113.446452,16.822,0.111
54115.414234,16.868,0.097
54115.426966,16.721,0.087
54115.440127,16.701,0.084
54115.453326,16.753,0.089
54115.46611,16.688,0.087
54123.396809,16.584,0.068
54123.409225,16.584,0.068
54123.421643,16.672,0.073
54123.434687,16.635,0.073
54123.447064,16.713,0.081
54144.36349,16.74,0.052
54144.374575,16.645,0.048
54144.386241,16.707,0.052
54144.397313,16.662,0.05
54144.40966,16.682,0.052
54148.340896,16.643,0.068
54148.352461,16.659,0.068
54148.364053,16.656,0.071
54148.375857,16.521,0.064
54148.387624,16.556,0.068
54154.33157,16.612,0.043
54154.343926,16.638,0.043
54154.355532,16.646,0.043
54154.367173,16.618,0.043
54154.378781,16.667,0.043
54155.350872,16.506,0.043
54155.362692,16.518,0.043
54155.374524,16.538,0.043
54155.386481,16.498,0.043
54155.398328,16.485,0.044
54173.316738,16.624,0.05
54173.327481,16.667,0.057
54173.338217,16.665,0.054
54173.348976,16.662,0.054
54173.360587,16.669,0.052
54174.272237,16.572,0.059
54174.283093,16.537,0.058
54174.294164,16.594,0.066
54174.305215,16.548,0.071
54174.316328,16.461,0.058
54176.322726,16.566,0.048
54176.333607,16.521,0.048
54176.344434,16.572,0.048
54176.355523,16.461,0.044
54176.366396,16.568,0.05
54179.339694,16.524,0.05
54179.350721,16.575,0.052
54179.361589,16.508,0.05
54179.3725,16.431,0.048
54179.38377,16.513,0.054
54180.280378,16.676,0.061
54180.290712,16.721,0.063
54180.301186,16.667,0.059
54180.311919,16.705,0.061
54180.322274,16.694,0.063
54200.221001,16.461,0.069
54200.230555,16.363,0.229
54206.265637,16.724,0.054
54206.275135,16.665,0.052
54206.284285,16.751,0.059
54206.293432,16.722,0.059
54206.302564,16.685,0.057
54209.261645,16.744,0.122
54209.270723,16.585,0.096
54209.279784,16.602,0.126
54209.288842,16.513,0.159
54209.297902,16.46,0.203
54440.475157,16.647,0.043
54448.451407,16.455,0.035
54448.464562,16.429,0.033
54448.477672,16.438,0.033
54448.490765,16.428,0.033
54448.503858,16.438,0.037
54507.335488,16.602,0.048
54507.347575,16.554,0.039
54507.359676,16.581,0.039
54507.371731,16.528,0.037
54507.383797,16.559,0.039
54507.455708,16.718,0.068
54507.467644,16.664,0.066
54507.47959,16.608,0.064
54507.492404,16.631,0.059
54507.504387,16.71,0.066
54523.395392,16.678,0.052
54523.407197,16.672,0.054
54523.41908,16.608,0.052
54523.430913,16.494,0.052
54523.442745,16.541,0.054
54530.335084,16.727,0.089
54530.346333,16.682,0.067
54530.357592,16.704,0.054
54530.368868,16.689,0.041
54530.380134,16.655,0.041
54535.440839,16.724,0.071
54535.451837,16.667,0.069
54535.462723,16.595,0.073
54535.473609,16.625,0.079
54535.484555,16.563,0.083
54536.275362,16.569,0.044
54536.286362,16.538,0.033
54536.297312,16.539,0.031
54536.308316,16.53,0.033
54536.319299,16.532,0.031
54554.303521,16.697,0.035
54554.315494,16.7,0.035
54554.327645,16.727,0.037
54554.339634,16.662,0.037
54554.351662,16.704,0.043
54558.181395,16.661,0.052
54558.192968,16.578,0.111
54558.204549,16.618,0.068
54558.216095,16.599,0.117
54558.227698,16.585,0.07
54563.295729,16.552,0.035
54563.307439,16.488,0.033
54563.318877,16.502,0.031
54563.330306,16.453,0.03
54563.341756,16.463,0.048
54580.19768,16.731,0.057
54580.208291,16.723,0.057
54580.218899,16.756,0.061
54580.229513,16.684,0.063
54580.240185,16.768,0.074
54585.244044,16.745,0.104
54585.25432,16.738,0.061
54585.264598,16.728,0.074
54585.274906,16.731,0.055
54585.2852,16.752,0.057
54590.196479,16.674,0.102
54590.20629,16.784,0.134
54590.215954,16.682,0.117
54590.22578,16.734,0.122
54590.235574,16.659,0.111
54592.198559,16.749,0.057
54592.20907,16.736,0.063
54592.219586,16.722,0.059
54592.230116,16.772,0.061
54592.240638,16.709,0.061
54611.163613,16.758,0.054
54611.17392,16.705,0.052
54611.183875,16.752,0.054
54611.193783,16.732,0.054
54611.203592,16.737,0.054
54615.168468,16.429,0.044
54615.17895,16.45,0.046
54615.189396,16.515,0.05
54615.199869,16.486,0.048
54615.210337,16.557,0.055
