mjd,m,merr
52681.429131,16.514,0.071
52681.444354,16.241,0.059
52681.459217,16.162,0.054
52681.473966,15.985,0.046
52681.488671,16.019,0.048
52723.420612,15.955,0.036
52723.4333,16.012,0.048
52723.445434,16.032,0.068
52752.350613,16.006,0.041
52752.361206,16.034,0.045
52752.372009,16.073,0.048
52752.382901,16.141,0.049
52752.393498,16.214,0.056
52800.269962,15.969,0.074
52800.280036,15.998,0.078
52800.290054,15.932,0.067
52800.300041,16.018,0.07
52800.310081,16.039,0.072
52812.275224,15.971,0.033
52812.285134,15.959,0.033
52812.295005,15.997,0.033
52812.304836,16.023,0.035
52812.314706,15.989,0.035
52839.219253,15.853,0.059
52839.229275,15.956,0.039
52839.239228,15.928,0.044
52839.249141,15.934,0.044
52872.143553,16.388,0.08
52872.191726,15.968,0.098
52918.093168,16.056,0.065
52918.106772,15.961,0.063
52918.119941,16.068,0.072
52918.133458,15.962,0.07
52918.146708,16.051,0.083
53023.4609,15.99,0.036
53023.473015,15.98,0.033
53023.485142,15.967,0.031
53023.49716,16.032,0.03
53023.509233,16.008,0.03
53035.479723,16.162,0.046
53035.504108,16.126,0.046
53035.516293,16.083,0.04
53037.531871,15.96,0.031
53046.469604,16.076,0.048
53046.482784,15.966,0.043
53046.494714,15.929,0.041
53046.506718,15.937,0.041
53046.518648,15.935,0.041
53107.352108,15.965,0.028
53107.363123,15.981,0.028
53107.374695,16.003,0.03
53107.385767,16.017,0.031
53107.396791,16.03,0.033
53127.299837,16.027,0.059
53127.309926,16.124,0.063
53127.320039,16.178,0.065
53127.330306,16.444,0.081
53127.340336,16.569,0.091
53136.301337,17.105,0.091
53136.310689,17.216,0.102
53136.320156,17.026,0.089
53136.329461,16.802,0.07
53154.296558,15.946,0.041
53154.305395,15.987,0.043
53154.314167,15.99,0.041
53154.323001,15.997,0.043
53154.331785,16.017,0.043
53164.271856,15.993,0.031
53164.282001,15.984,0.033
53164.292145,16.013,0.035
53164.302361,16.022,0.039
53164.312509,16.009,0.043
53194.224789,15.935,0.052
53194.234805,15.97,0.048
53194.244826,15.899,0.044
53194.254922,15.965,0.046
53194.264938,15.943,0.044
53422.419262,16.129,0.094
53422.431178,16.039,0.093
53422.443731,15.958,0.059
53422.45565,16.011,0.054
53450.387221,15.915,0.043
53450.397749,15.919,0.043
53450.408277,15.948,0.043
53450.418861,15.899,0.041
53450.429392,15.88,0.039
53475.323008,15.985,0.039
53475.332826,15.974,0.037
53475.342637,15.967,0.037
53475.353005,16.033,0.039
53475.36384,15.995,0.037
53520.276196,16.018,0.054
53520.28662,15.984,0.048
53520.297226,15.981,0.041
53520.307824,15.991,0.041
53520.318433,16.001,0.043
53537.269414,15.898,0.076
53605.144475,16.827,0.078
53605.15551,16.66,0.074
53605.166563,16.362,0.065
53605.177566,16.255,0.067
53605.188633,16.107,0.065
53628.115258,15.976,0.061
53628.127489,15.977,0.063
53628.139688,15.908,0.059
53628.151862,16.014,0.068
53628.163983,16.012,0.07
53772.485487,16.197,0.05
53772.498175,16.159,0.046
53772.511053,16.186,0.046
53772.523868,16.071,0.041
53825.348923,15.946,0.058
53825.360666,15.973,0.102
53825.371917,15.986,0.061
53825.383179,16.02,0.061
53825.394409,16.039,0.056
53843.363561,16.105,0.067
53843.374765,16.06,0.065
53843.385989,16.111,0.068
53843.397221,16.02,0.065
53843.408468,16.014,0.065
53855.29859,15.994,0.045
53855.309609,16.068,0.048
53855.330282,16.061,0.041
53855.340433,16.078,0.041
53878.295374,16.672,0.087
53878.305968,16.506,0.078
53878.316542,16.335,0.066
53878.327224,16.209,0.058
53878.338063,16.1,0.053
53892.266594,15.977,0.072
53892.306425,15.986,0.102
53903.280177,15.916,0.046
53903.289799,16.027,0.053
53903.299399,15.987,0.049
53903.308987,15.912,0.049
53903.318834,15.985,0.054
53917.223697,15.926,0.053
53917.243328,15.955,0.059
53917.253083,15.914,0.056
53917.262864,15.879,0.089
53932.224823,15.985,0.046
53932.235123,15.987,0.054
53932.245525,15.967,0.053
53932.255893,15.997,0.061
53932.266281,15.971,0.084
53960.192309,16.11,0.084
53960.211967,16.275,0.092
53960.231683,16.199,0.091
53997.114787,15.986,0.038
53997.126829,15.972,0.038
53997.138996,15.981,0.041
53997.151645,15.949,0.043
53997.163725,15.938,0.045
54010.092794,16.071,0.059
54010.105469,16.134,0.064
54169.386436,16.096,0.044
54169.397495,16.077,0.043
54169.408596,16.086,0.043
54169.419832,16.002,0.039
54169.430944,16.011,0.044
54200.331417,15.996,0.031
54200.34199,15.945,0.03
54200.35227,15.986,0.031
54200.363035,15.992,0.033
54200.37315,15.983,0.033
54209.310499,15.936,0.089
54209.319472,16.039,0.096
54209.328322,15.971,0.081
54209.337335,15.998,0.059
54209.346285,15.945,0.046
54217.296218,15.945,0.046
54217.305043,15.958,0.046
54217.313797,15.925,0.044
54217.322513,15.954,0.044
54217.331217,15.936,0.043
54218.318564,15.954,0.063
54218.327864,15.986,0.064
54218.336827,16.001,0.063
54218.354704,15.97,0.061
54509.449393,16.111,0.043
54509.461904,16.107,0.043
54509.474519,16.185,0.045
54509.487414,16.249,0.046
54536.382914,15.979,0.04
54536.393784,16.012,0.04
54536.404638,15.984,0.038
54536.415493,15.99,0.04
54536.426477,15.998,0.04
54560.362161,15.903,0.046
54560.373584,15.939,0.048
54560.384967,15.984,0.048
54560.396362,15.91,0.046
54560.407974,15.949,0.048
54584.29736,15.958,0.048
54584.307463,15.939,0.048
54584.317627,15.977,0.049
54584.328137,15.99,0.049
54584.338274,15.983,0.048
