mjd,m,merr
52613.455859,15.518,0.028
52613.471141,15.5,0.026
52613.486377,15.4,0.024
52613.501584,15.328,0.02
52613.516878,15.307,0.02
52643.444741,15.575,0.022
52643.458754,15.565,0.02
52643.472686,15.588,0.02
52643.486773,15.538,0.018
52643.50117,15.525,0.018
52647.461661,15.383,0.02
52647.476524,15.428,0.02
52647.490881,15.502,0.022
52647.505624,15.522,0.022
52667.391095,15.388,0.021
52667.405838,15.443,0.023
52667.420875,15.484,0.023
52667.435731,15.544,0.026
52667.450575,15.558,0.03
52670.401729,15.408,0.02
52670.415641,15.458,0.022
52670.429658,15.503,0.022
52670.443566,15.513,0.022
52670.457488,15.548,0.024
52673.371376,15.318,0.018
52673.386586,15.334,0.017
52673.401832,15.382,0.017
52673.417187,15.451,0.018
52673.432575,15.477,0.02
52703.315246,15.36,0.035
52703.328423,15.322,0.052
52703.341754,15.275,0.022
52703.35586,15.226,0.046
52703.369129,15.268,0.039
52707.311927,15.521,0.02
52707.32572,15.536,0.02
52707.338928,15.57,0.02
52707.352641,15.55,0.02
52707.365979,15.542,0.02
52730.291601,15.553,0.02
52730.303171,15.552,0.02
52730.314809,15.466,0.018
52730.326361,15.402,0.018
52730.33792,15.34,0.018
52738.239115,15.452,0.022
52738.25055,15.382,0.02
52738.262481,15.278,0.018
52738.273907,15.249,0.018
52738.285518,15.247,0.017
52755.202328,15.263,0.023
52755.214221,15.267,0.021
52755.226183,15.286,0.023
52755.238182,15.264,0.023
52755.250091,15.261,0.023
52758.207608,15.237,0.015
52758.219464,15.244,0.017
52758.231357,15.243,0.017
52758.243359,15.242,0.017
52758.255213,15.242,0.017
52788.183699,15.569,0.028
52788.194005,15.496,0.057
52788.215042,15.32,0.055
52793.22468,15.281,0.03
52793.234687,15.303,0.03
52793.244635,15.397,0.033
52966.468727,15.419,0.024
52966.481143,15.378,0.024
52966.493722,15.293,0.02
52966.506262,15.238,0.02
52973.434636,15.371,0.03
52973.458563,15.469,0.028
52973.482157,15.544,0.03
52995.411394,15.451,0.017
52995.424654,15.355,0.015
52995.437821,15.309,0.013
52995.450913,15.274,0.013
52995.464055,15.25,0.011
53000.420384,15.32,0.013
53000.43355,15.31,0.013
53000.446769,15.339,0.013
53000.459942,15.419,0.013
53000.473666,15.434,0.013
53026.363715,15.269,0.011
53026.376426,15.301,0.011
53026.389357,15.393,0.015
53026.402298,15.374,0.013
53026.415125,15.42,0.035
53033.338667,15.535,0.022
53033.35088,15.497,0.02
53033.362945,15.405,0.018
53033.375423,15.425,0.024
53033.387821,15.317,0.022
53053.349987,15.224,0.015
53053.361603,15.227,0.015
53053.373273,15.254,0.022
53053.384921,15.295,0.02
53053.397125,15.342,0.017
53058.339783,15.418,0.011
53058.352323,15.443,0.013
53058.364554,15.52,0.013
53058.376836,15.522,0.013
53058.394975,15.568,0.015
53061.382157,15.515,0.017
53061.393566,15.565,0.017
53061.4059,15.542,0.017
53061.417119,15.581,0.018
53061.429403,15.559,0.018
53062.336054,15.22,0.041
53062.361284,15.225,0.039
53062.372727,15.267,0.026
53079.310632,15.291,0.017
53079.321366,15.318,0.017
53079.332174,15.369,0.017
53079.342921,15.397,0.018
53079.353952,15.431,0.018
53083.334316,15.281,0.013
53083.345002,15.249,0.013
53083.355864,15.273,0.013
53083.36721,15.266,0.013
53083.378022,15.234,0.013
53086.340781,15.234,0.015
53086.351465,15.305,0.015
53086.362328,15.231,0.015
53086.373179,15.232,0.015
53086.384228,15.231,0.013
53092.284323,15.538,0.018
53092.294665,15.496,0.018
53092.30516,15.496,0.018
53092.315569,15.429,0.017
53092.326033,15.398,0.017
53110.238824,15.472,0.022
53110.249918,15.523,0.024
53110.260983,15.536,0.024
53110.272138,15.553,0.024
53110.283205,15.587,0.024
53114.250009,15.253,0.013
53114.261451,15.345,0.013
53114.283656,15.375,0.013
53114.294965,15.374,0.015
53117.252209,15.244,0.013
53117.262981,15.273,0.013
53117.27385,15.326,0.013
53117.284634,15.332,0.015
53117.295418,15.403,0.015
53138.202608,15.382,0.018
53138.212333,15.301,0.018
53138.222218,15.264,0.017
53138.231939,15.251,0.017
53138.241664,15.279,0.018
53142.20965,15.511,0.048
53142.21918,15.557,0.018
53142.228736,15.543,0.018
53142.238343,15.533,0.046
53142.24787,15.523,0.024
53146.207957,15.355,0.015
53146.217104,15.322,0.015
53146.226282,15.353,0.015
53146.235327,15.375,0.017
53146.244407,15.435,0.017
53166.17995,15.407,0.024
53166.189301,15.421,0.028
53166.198656,15.442,0.028
53166.208034,15.46,0.03
53166.217397,15.481,0.03
53346.443222,15.561,0.035
53346.455775,15.539,0.035
53346.467979,15.498,0.031
53346.480203,15.467,0.03
53346.492496,15.424,0.03
53351.493621,15.344,0.03
53351.507974,15.312,0.028
53351.522276,15.366,0.028
53353.460275,15.397,0.026
53353.473685,15.456,0.026
53353.486525,15.512,0.026
53353.499367,15.53,0.024
53353.512792,15.493,0.024
53376.484238,15.552,0.02
53376.498208,15.548,0.02
53376.511984,15.498,0.018
53376.529258,15.381,0.017
53381.42617,15.486,0.055
53381.439022,15.408,0.039
53381.464959,15.403,0.109
53403.409999,15.428,0.022
53403.422958,15.467,0.022
53403.439334,15.496,0.024
53403.452831,15.507,0.024
53403.466415,15.565,0.026
53432.361358,15.442,0.068
53432.372813,15.464,0.031
53432.38418,15.502,0.024
53432.395871,15.531,0.026
53436.256075,15.546,0.022
53436.267763,15.573,0.022
53436.27943,15.537,0.022
53436.291095,15.492,0.02
53436.303446,15.461,0.02
53437.289494,15.45,0.02
53437.301118,15.513,0.02
53437.313129,15.534,0.02
53437.324753,15.556,0.022
53437.336469,15.576,0.022
53437.349747,15.579,0.022
53437.361076,15.567,0.022
53437.37271,15.559,0.02
53437.384019,15.52,0.02
53437.397181,15.457,0.02
53438.284452,15.285,0.017
53438.284573,15.244,0.017
53438.296699,15.258,0.017
53438.29682,15.252,0.017
53438.29694,15.2,0.015
53438.309685,15.265,0.017
53438.309806,15.298,0.017
53438.309926,15.249,0.015
53438.321879,15.297,0.017
53438.322,15.307,0.017
53438.334013,15.365,0.018
53438.334134,15.332,0.018
53438.33457,15.325,0.017
53440.298109,15.483,0.022
53440.312404,15.526,0.022
53440.324969,15.534,0.022
53440.338081,15.535,0.022
53440.35214,15.558,0.024
53440.363873,15.541,0.022
53440.374853,15.546,0.022
53440.386412,15.492,0.022
53440.397538,15.465,0.022
53440.408019,15.39,0.022
53443.275013,15.418,0.018
53443.28649,15.466,0.018
53443.297358,15.477,0.018
53443.308762,15.536,0.018
53443.319618,15.539,0.02
53445.284912,15.557,0.022
53445.296382,15.517,0.02
53445.308399,15.461,0.02
53445.319744,15.408,0.018
53445.330977,15.344,0.017
53446.283057,15.428,0.037
53446.293987,15.509,0.031
53446.304897,15.511,0.026
53446.316009,15.529,0.044
53446.326877,15.55,0.02
53447.302297,15.234,0.018
53447.313085,15.281,0.018
53447.324441,15.287,0.022
53447.335207,15.329,0.02
53447.346,15.362,0.018
53464.294802,15.427,0.02
53464.304976,15.476,0.02
53464.31516,15.49,0.022
53464.325318,15.546,0.024
53464.335475,15.542,0.026
53468.283529,15.231,0.03
53468.293083,15.245,0.039
53478.233765,15.426,0.048
53495.247464,15.523,0.048
53495.257572,15.538,0.055
53495.267639,15.568,0.061
53495.277682,15.461,0.055
53495.287744,15.339,0.063
53496.198947,15.271,0.024
53496.209169,15.309,0.024
53496.219497,15.365,0.026
53496.229688,15.372,0.028
53496.239961,15.393,0.028
53503.229027,15.255,0.018
53503.237647,15.268,0.018
53503.24653,15.269,0.02
53503.25555,15.228,0.02
53503.264379,15.25,0.02
53525.175536,15.438,0.03
53525.185719,15.435,0.03
53525.195896,15.484,0.031
53525.206064,15.499,0.033
53527.16743,15.591,0.031
53527.177714,15.55,0.031
53527.187599,15.532,0.031
53527.197384,15.547,0.033
53527.207149,15.508,0.031
53708.462492,15.557,0.026
53708.475452,15.529,0.024
53708.488287,15.434,0.024
53708.500936,15.386,0.022
53708.513725,15.297,0.018
53710.454739,15.234,0.024
53710.46808,15.283,0.024
53710.480774,15.273,0.024
53710.493353,15.319,0.026
53710.505921,15.367,0.026
53732.477592,15.6,0.033
53732.491144,15.563,0.033
53732.50404,15.432,0.028
53732.516821,15.41,0.03
53732.529544,15.357,0.024
53735.469257,15.489,0.039
53735.482656,15.512,0.031
53746.404508,15.545,0.035
53746.416972,15.528,0.033
53746.429528,15.456,0.031
53746.442214,15.401,0.03
53746.454682,15.294,0.026
53759.410021,15.437,0.022
53759.422808,15.511,0.03
53759.4354,15.553,0.037
53759.448022,15.501,0.037
53759.460603,15.472,0.063
53762.414579,15.481,0.022
53762.427325,15.503,0.022
53762.439962,15.525,0.046
53762.452688,15.572,0.03
53762.465461,15.569,0.022
53790.343899,15.596,0.024
53790.346659,15.552,0.021
53790.3556,15.487,0.022
53790.358507,15.539,0.023
53790.367292,15.464,0.022
53790.370325,15.451,0.021
53790.378988,15.447,0.022
53790.382135,15.416,0.021
53790.390695,15.365,0.022
53790.394194,15.367,0.021
53793.349755,15.556,0.024
53793.361482,15.477,0.024
53793.373215,15.45,0.022
53793.384967,15.404,0.02
53793.396706,15.394,0.048
53797.31051,15.365,0.024
53797.322082,15.348,0.017
53797.333654,15.4,0.018
53797.345293,15.396,0.018
53799.338244,15.597,0.02
53799.349678,15.57,0.02
53799.361103,15.528,0.02
53799.372544,15.478,0.02
53799.383987,15.435,0.022
53817.265802,15.395,0.02
53817.277074,15.425,0.02
53817.288339,15.458,0.021
53817.299662,15.481,0.023
53817.31099,15.495,0.021
53826.289385,15.433,0.022
53826.313824,15.528,0.022
53826.325311,15.514,0.028
53826.336694,15.542,0.031
53827.347324,15.338,0.022
53827.359115,15.415,0.026
53827.371602,15.457,0.03
53827.38421,15.468,0.039
53827.396818,15.474,0.031
53832.227613,15.185,0.022
53832.239614,15.257,0.024
53832.249683,15.246,0.024
53832.260797,15.274,0.024
53832.271895,15.335,0.026
53845.262412,15.402,0.041
53845.273646,15.358,0.028
53845.284926,15.313,0.038
53848.254426,15.441,0.03
53848.265171,15.363,0.03
53848.276063,15.289,0.028
53848.286533,15.288,0.028
53850.196898,15.249,0.023
53850.207291,15.283,0.023
53850.217776,15.248,0.023
53850.228304,15.212,0.021
53850.238975,15.269,0.023
53850.275848,15.343,0.022
53850.286967,15.367,0.024
53850.299371,15.414,0.024
53850.310221,15.438,0.024
53850.321829,15.484,0.026
53853.245695,15.265,0.022
53853.256101,15.247,0.024
53853.267142,15.292,0.024
53853.277911,15.33,0.024
53853.288344,15.362,0.026
53856.278625,15.311,0.024
53856.291393,15.342,0.024
53856.302921,15.364,0.024
53856.31307,15.414,0.026
53856.32324,15.443,0.028
53880.167568,15.56,0.03
53880.178742,15.48,0.028
53880.189426,15.46,0.028
53880.200241,15.417,0.028
53880.21117,15.339,0.025
53882.171373,15.228,0.02
53882.18458,15.247,0.02
53882.196466,15.259,0.02
53882.2077,15.284,0.022
53882.219601,15.326,0.022
53884.163231,15.413,0.028
53884.163981,15.355,0.026
53884.174724,15.399,0.026
53884.174982,15.457,0.03
53884.185943,15.474,0.028
53884.186734,15.433,0.031
53884.196671,15.466,0.028
53884.198536,15.482,0.033
53884.207545,15.47,0.03
53884.21031,15.539,0.033
54086.428086,15.358,0.022
54086.441035,15.34,0.022
54086.453883,15.404,0.022
54086.466735,15.462,0.024
54086.479707,15.481,0.024
54113.393574,15.283,0.023
54113.406925,15.251,0.023
54113.420913,15.232,0.026
54113.43368,15.436,0.058
54113.446578,15.378,0.03
54115.467041,15.581,0.035
54115.479668,15.596,0.033
54115.492622,15.654,0.036
54115.506474,15.569,0.033
54115.519234,15.461,0.03
54123.396934,15.562,0.028
54123.40935,15.548,0.026
54123.42177,15.504,0.025
54123.434812,15.472,0.025
54123.44732,15.355,0.023
54144.363609,15.514,0.018
54144.374695,15.507,0.018
54144.386361,15.561,0.018
54144.397432,15.555,0.018
54144.409778,15.57,0.018
54148.34176,15.218,0.02
54148.353331,15.238,0.02
54148.364917,15.233,0.02
54148.376861,15.259,0.021
54148.388495,15.331,0.023
54154.331712,15.266,0.013
54154.344066,15.25,0.013
54154.355674,15.238,0.013
54154.367312,15.235,0.013
54154.378924,15.272,0.013
54155.351602,15.521,0.018
54155.363424,15.509,0.018
54155.375266,15.418,0.017
54155.387214,15.384,0.017
54155.399058,15.335,0.017
54173.316859,15.547,0.02
54173.327606,15.56,0.02
54173.338339,15.571,0.02
54173.349101,15.566,0.02
54173.360711,15.542,0.02
54174.272369,15.248,0.018
54174.283223,15.245,0.018
54174.294296,15.305,0.023
54174.305348,15.275,0.023
54174.31646,15.311,0.021
54176.32285,15.568,0.02
54176.333736,15.536,0.02
54176.344564,15.567,0.02
54176.355652,15.51,0.02
54176.36652,15.538,0.02
54179.340631,15.556,0.02
54179.351617,15.572,0.022
54179.362571,15.548,0.02
54179.373644,15.527,0.022
54179.384761,15.508,0.022
54180.280505,15.22,0.018
54180.29084,15.246,0.018
54180.301315,15.267,0.018
54180.312048,15.271,0.018
54180.322404,15.319,0.02
54186.342169,15.578,0.02
54186.353886,15.578,0.022
54186.36538,15.616,0.02
54186.376711,15.592,0.02
54186.38866,15.564,0.02
54200.220899,15.302,0.025
54200.230454,15.291,0.035
54200.24,15.352,0.078
54206.266477,15.316,0.015
54206.275979,15.357,0.017
54206.285126,15.388,0.018
54206.294272,15.382,0.018
54206.30341,15.426,0.018
54440.474948,15.256,0.013
54448.451197,15.408,0.015
54448.464352,15.434,0.015
54448.477463,15.473,0.015
54448.490556,15.508,0.015
54448.503649,15.539,0.015
54474.398973,15.434,0.018
54474.411983,15.46,0.02
54474.42499,15.477,0.013
54474.438015,15.542,0.015
54474.451011,15.559,0.018
54507.455537,15.477,0.026
54507.467474,15.529,0.028
54507.479421,15.564,0.028
54507.492235,15.543,0.026
54507.504217,15.561,0.028
54508.35382,15.484,0.015
54508.366018,15.456,0.013
54508.378216,15.387,0.013
54508.390565,15.303,0.013
54508.402916,15.274,0.011
54523.395778,15.384,0.017
54523.407585,15.303,0.015
54523.419467,15.235,0.015
54523.4313,15.258,0.015
54523.443131,15.244,0.015
54530.334885,15.371,0.024
54530.346137,15.378,0.022
54530.357394,15.426,0.017
54530.368666,15.438,0.013
54530.379935,15.479,0.015
54535.396472,15.444,0.025
54535.407488,15.406,0.023
54535.418485,15.352,0.023
54535.429641,15.332,0.023
54535.440667,15.255,0.023
54537.274223,15.558,0.026
54537.285262,15.533,0.022
54537.296316,15.511,0.015
54537.307322,15.432,0.026
54537.318391,15.383,0.017
54554.303869,15.224,0.009
54554.31584,15.258,0.011
54554.327989,15.289,0.011
54554.339981,15.313,0.011
54554.352007,15.338,0.013
54558.181534,15.353,0.017
54558.193108,15.376,0.044
54558.204688,15.465,0.026
54558.216232,15.436,0.046
54558.227836,15.501,0.028
54563.295533,15.244,0.011
54563.307241,15.254,0.011
54563.318682,15.253,0.011
54563.330109,15.249,0.011
54563.341561,15.331,0.017
54580.197808,15.295,0.017
54580.20842,15.292,0.017
54580.219027,15.268,0.017
54580.229641,15.279,0.017
54580.240312,15.291,0.018
54585.243903,15.467,0.033
54585.254179,15.482,0.022
54585.264456,15.506,0.026
54585.274766,15.512,0.018
54585.285057,15.533,0.02
54590.197082,15.557,0.041
54590.206891,15.539,0.051
54590.216557,15.611,0.046
54590.226381,15.592,0.045
54590.236177,15.593,0.045
54592.198419,15.363,0.017
54592.208932,15.302,0.018
54592.219449,15.271,0.017
54592.229976,15.269,0.017
54592.240501,15.26,0.017
54611.164229,15.402,0.017
54611.174532,15.452,0.017
54611.184486,15.479,0.018
54611.194393,15.525,0.018
54611.204196,15.536,0.018
54615.178827,15.226,0.017
54615.199744,15.273,0.017
54615.210213,15.284,0.018
