mjd,m,merr
52721.376489,16.525,0.065
52721.389384,16.488,0.059
52721.40232,16.52,0.061
52721.415204,16.591,0.065
52721.428055,16.759,0.076
52750.341688,16.632,0.096
52750.352503,16.535,0.087
52750.363255,16.316,0.13
52750.374105,16.559,0.174
52750.384874,16.605,0.168
52781.272266,16.983,0.087
52781.28297,17.145,0.098
52781.293794,16.926,0.078
52781.304645,16.708,0.065
52781.315983,16.603,0.059
52801.268024,16.47,0.15
52801.278131,16.541,0.157
52801.288205,16.363,0.131
52801.2984,16.402,0.139
52801.308563,16.542,0.155
52809.289307,16.58,0.068
52809.299305,16.587,0.07
52809.309212,16.851,0.094
52830.221782,16.767,0.124
52830.231724,16.683,0.117
52830.241667,16.585,0.104
52830.25159,16.481,0.094
52830.261497,16.54,0.1
52847.178523,16.742,0.099
52847.188543,16.618,0.087
52847.198491,16.691,0.09
52847.208423,16.846,0.108
52897.125733,16.562,0.065
52897.137456,16.491,0.061
52897.149184,16.498,0.068
52897.16116,16.51,0.076
52897.172878,16.562,0.089
52927.082962,16.562,0.074
52927.094331,16.743,0.087
52927.106808,16.994,0.111
52927.11909,17.276,0.141
52927.131047,17.179,0.137
53045.433667,16.42,0.083
53045.44504,16.493,0.085
53045.456197,16.473,0.085
53045.468085,16.576,0.089
53045.479244,16.697,0.096
53096.380243,16.49,0.083
53096.390293,16.567,0.087
53096.400341,16.776,0.105
53096.410388,16.979,0.122
53096.42049,17.064,0.128
53108.358501,16.614,0.055
53108.369497,16.759,0.061
53108.380598,17.06,0.087
53108.391676,17.015,0.083
53108.402794,16.76,0.067
53125.298359,17.059,0.205
53125.31825,16.454,0.089
53125.328244,16.484,0.089
53125.338334,16.412,0.081
53134.29327,16.693,0.076
53134.302826,16.942,0.102
53134.312371,17.199,0.131
53134.321866,17.158,0.135
53134.331456,17.16,0.152
53155.295806,16.737,0.117
53155.304756,16.945,0.139
53155.313717,16.948,0.137
53155.322675,17.153,0.17
53155.331588,16.926,0.139
53182.327609,16.619,0.074
53182.337406,16.554,0.072
53182.34721,16.627,0.152
53182.35702,16.434,0.085
53182.366835,16.342,0.141
53193.258293,16.485,0.074
53193.268386,16.529,0.081
53244.141795,17.115,0.152
53244.151993,16.787,0.113
53244.162184,16.528,0.091
53244.172371,16.618,0.1
53244.182573,16.52,0.091
53283.11566,16.684,0.067
53283.12584,16.513,0.059
53283.13603,16.49,0.057
53283.14624,16.466,0.061
53283.15643,16.504,0.065
53303.074519,16.517,0.098
53303.086444,16.39,0.093
53303.098371,16.36,0.093
53303.110326,16.541,0.113
53303.122268,16.446,0.109
53451.398927,16.457,0.07
53451.409699,16.524,0.072
53451.420462,16.652,0.078
53451.431225,16.676,0.078
53451.442001,16.991,0.105
53461.387949,16.562,0.065
53461.398312,16.65,0.068
53461.408613,16.971,0.091
53461.418953,17.167,0.107
53461.429299,17.035,0.094
53490.309787,16.707,0.065
53490.320552,16.58,0.055
53490.332423,16.502,0.052
53490.344247,16.459,0.052
53490.356101,16.459,0.052
53536.268436,16.974,0.139
53536.278496,17.242,0.174
53536.288586,16.945,0.126
53536.298664,16.607,0.089
53536.308748,16.565,0.083
53565.221119,16.538,0.07
53565.231905,16.638,0.078
53565.24279,16.745,0.087
53565.253573,17.014,0.111
53565.264363,16.979,0.104
53774.48115,16.571,0.065
53774.494253,16.484,0.059
53774.507026,16.515,0.059
53774.520227,16.456,0.057
53802.431852,16.376,0.051
53802.44387,16.476,0.053
53802.456101,16.431,0.051
53802.468476,16.663,0.064
53802.480532,16.96,0.084
53806.42798,16.572,0.1
53828.342262,16.455,0.101
53828.352808,16.419,0.054
53828.363354,16.496,0.063
53828.373908,16.564,0.109
53828.384575,16.601,0.13
53834.330146,16.531,0.079
53834.340109,16.428,0.071
53834.350081,16.495,0.074
53834.360275,16.566,0.076
53834.370301,16.656,0.083
53842.358832,16.505,0.111
53842.370037,16.693,0.131
53842.381466,16.85,0.142
53842.393073,16.632,0.115
53842.405469,16.446,0.104
53857.324279,16.452,0.064
53857.334272,16.497,0.068
53857.344658,16.423,0.063
53857.35477,16.453,0.068
53857.364722,16.564,0.073
53876.266618,16.751,0.101
53876.27758,16.961,0.231
53876.288492,17.1,0.231
53904.271564,16.462,0.051
53904.281461,16.435,0.051
53904.291373,16.501,0.054
53904.301302,16.59,0.061
53904.311167,16.805,0.076
53933.218573,16.51,0.076
53933.228899,16.417,0.076
53933.239286,16.375,0.071
53933.249563,16.322,0.064
53933.259834,16.415,0.068
53954.241757,16.637,0.192
53954.2539,16.486,0.155
53990.116085,16.684,0.076
53990.128079,16.513,0.059
53990.14023,16.412,0.069
53990.151817,16.362,0.054
53990.163457,16.405,0.061
53995.119009,16.689,0.069
53995.130981,16.839,0.079
53995.142901,17.045,0.097
53995.154868,16.834,0.081
53995.167432,16.533,0.063
54022.079034,16.401,0.058
54022.090386,16.536,0.069
54022.101861,16.671,0.076
54022.113272,16.763,0.087
54022.126055,16.894,0.099
54108.488083,17.205,0.262
54108.500249,16.628,0.142
54108.51245,16.568,0.124
54125.443223,16.407,0.089
54125.455293,16.541,0.096
54125.467401,16.623,0.107
54125.479403,16.697,0.106
54125.491427,17.021,0.145
54139.445456,16.773,0.142
54139.470016,16.801,0.239
54139.481772,16.733,0.183
54139.493891,16.709,0.155
54157.438235,16.56,0.069
54157.44953,16.486,0.063
54157.462465,16.442,0.061
54157.474886,16.484,0.059
54157.486052,16.625,0.066
54525.49049,16.653,0.079
54539.374231,16.475,0.056
54539.38503,16.557,0.059
54539.395791,16.74,0.068
54539.40771,17.013,0.084
54539.41842,17.264,0.104
54571.349334,16.763,0.101
54571.360954,16.527,0.084
54571.374295,16.445,0.076
54571.385077,16.422,0.074
54571.395843,16.45,0.069
54586.295455,16.457,0.087
54586.305511,16.505,0.089
54586.315558,16.673,0.106
54586.325677,16.729,0.106
54586.335856,17.029,0.139
54598.292946,16.789,0.135
54598.302447,16.913,0.153
54598.311858,17.221,0.18
54598.33071,16.891,0.13
54619.26386,16.481,0.073
54619.274154,16.503,0.071
54619.284443,16.585,0.079
54619.294989,16.666,0.086
54619.305226,17.062,0.114
