mjd,m,merr
52713.447703,16.152,0.061
52713.460015,16.081,0.054
52713.472451,16.111,0.052
52720.468052,16.402,0.072
52720.482995,16.505,0.078
52743.378998,16.244,0.076
52743.393128,16.25,0.074
52743.405612,16.137,0.076
52743.417839,16.196,0.059
52743.430164,16.202,0.055
52749.350587,16.161,0.054
52749.361446,16.206,0.057
52749.372323,16.179,0.057
52749.384686,16.25,0.061
52749.395649,16.269,0.061
52780.331865,16.114,0.063
52780.342847,16.142,0.055
52802.269975,16.606,0.159
52802.280098,16.504,0.139
52802.290273,16.478,0.135
52802.300382,16.278,0.105
52802.310461,16.206,0.1
52829.223737,16.423,0.093
52829.233696,16.32,0.089
52829.243587,16.247,0.078
52829.253519,16.336,0.083
52829.263428,16.196,0.07
52837.219001,16.228,0.072
52837.228941,16.193,0.059
52837.23892,16.128,0.067
52837.2489,16.216,0.081
52837.258861,16.182,0.093
52860.16244,16.335,0.091
52860.173212,16.471,0.102
52860.184198,16.485,0.104
52860.195094,16.415,0.098
52860.205935,16.43,0.104
52925.087418,16.342,0.068
52925.099051,16.237,0.07
52925.11076,16.183,0.072
52925.122423,16.196,0.078
52925.13408,16.116,0.076
52949.066831,16.251,0.078
52949.079015,16.41,0.087
52949.091407,16.577,0.104
52949.103669,16.613,0.107
52949.115901,16.469,0.104
53017.457609,16.183,0.072
53017.469893,16.265,0.076
53017.482566,16.292,0.076
53017.494977,16.468,0.089
53017.507211,16.588,0.094
53074.38729,16.323,0.076
53074.398176,16.411,0.115
53074.409014,16.499,0.1
53074.419969,16.596,0.109
53074.431557,16.525,0.126
53104.358213,16.304,0.074
53104.369809,16.364,0.078
53104.380903,16.455,0.083
53104.392436,16.643,0.096
53104.403988,16.535,0.087
53126.29937,16.246,0.072
53126.309531,16.138,0.065
53126.319624,16.147,0.063
53126.329691,16.11,0.059
53126.340324,16.206,0.067
53156.296051,16.159,0.067
53156.304872,16.138,0.067
53156.313722,16.228,0.07
53156.322541,16.163,0.067
53156.331343,16.244,0.072
53162.271663,16.285,0.072
53162.281912,16.328,0.083
53162.29216,16.352,0.087
53162.302406,16.614,0.113
53162.312697,16.565,0.107
53192.227527,16.252,0.054
53192.237617,16.302,0.067
53192.247731,16.325,0.07
53192.25779,16.339,0.078
53192.26786,16.433,0.089
53245.182011,16.247,0.094
53275.104357,16.603,0.113
53275.116398,16.492,0.107
53275.128463,16.425,0.105
53275.140578,16.269,0.093
53275.152637,16.216,0.091
53280.099387,16.151,0.05
53280.109838,16.141,0.052
53452.394018,16.534,0.126
53476.333344,16.351,0.059
53476.343745,16.214,0.05
53476.354535,16.218,0.046
53476.364929,16.192,0.043
53476.375665,16.168,0.041
53481.359388,16.549,0.094
53481.369928,16.462,0.085
53481.380761,16.624,0.098
53481.391134,16.463,0.085
53481.401639,16.355,0.076
53488.353384,16.328,0.07
53488.363868,16.299,0.072
53488.373937,16.221,0.061
53488.384556,16.222,0.063
53488.394622,16.195,0.059
53534.260114,16.197,0.055
53534.269807,16.217,0.054
53534.279716,16.195,0.05
53534.289418,16.18,0.05
53534.299317,16.191,0.052
53593.216289,16.17,0.059
53593.228202,16.126,0.048
53593.240395,16.182,0.052
53593.252442,16.119,0.046
53593.264814,16.179,0.052
53608.183594,16.266,0.044
53608.194734,16.431,0.052
53608.205835,16.504,0.055
53608.217004,16.606,0.059
53608.228129,16.564,0.061
53806.508288,16.455,0.071
53806.520264,16.696,0.144
53831.355437,16.193,0.046
53831.365746,16.204,0.046
53831.376026,16.309,0.048
53831.386246,16.331,0.046
53831.396533,16.356,0.046
53861.307543,16.129,0.049
53861.317732,16.125,0.049
53874.269164,16.451,0.059
53874.280249,16.471,0.083
53874.291373,16.304,0.091
53874.302493,16.201,0.081
53874.314213,16.191,0.053
54013.115967,16.251,0.129
54013.128829,16.719,0.185
54013.141627,16.597,0.177
54020.116444,16.315,0.068
54020.129045,16.224,0.064
54020.140448,16.176,0.064
54020.152505,16.17,0.071
54020.163922,16.091,0.073
54107.49569,16.27,0.102
54107.508634,16.053,0.081
54107.521523,16.187,0.087
54107.534422,16.161,0.087
54128.473599,16.423,0.061
54128.486245,16.386,0.058
54128.498804,16.225,0.051
54128.511367,16.215,0.049
54128.525165,16.161,0.046
54138.420534,16.274,0.083
54138.433288,16.438,0.092
54138.446912,16.385,0.087
54138.459379,16.517,0.096
54138.471802,16.553,0.099
54166.415482,16.566,0.125
54166.451857,16.14,0.111
54216.304049,16.312,0.064
54216.312568,16.278,0.063
54216.32105,16.338,0.066
54216.331246,16.416,0.071
54216.339927,16.522,0.078
54522.45354,16.147,0.046
54522.465467,16.144,0.046
54522.477591,16.156,0.046
54522.490031,16.188,0.048
54522.501671,16.242,0.049
54553.369497,16.504,0.104
54553.381326,16.391,0.083
54553.393529,16.376,0.076
54573.354673,16.547,0.107
54573.365705,16.398,0.094
54573.376761,16.416,0.096
54573.388013,16.328,0.091
54573.398812,16.273,0.083
54589.298428,16.276,0.063
54589.308289,16.286,0.064
54589.318159,16.276,0.063
54589.328046,16.21,0.059
54589.337902,16.251,0.059
54597.295107,16.172,0.086
54597.305121,16.156,0.083
54597.314635,16.189,0.086
54597.324197,16.048,0.073
54597.333973,16.151,0.083
