mjd,m,merr
52697.463151,15.47,0.026
52697.478885,15.497,0.026
52706.43405,15.304,0.022
52706.446697,15.355,0.022
52706.459451,15.418,0.022
52706.472514,15.458,0.022
52706.485438,15.485,0.024
52724.432105,15.133,0.02
52724.432705,15.171,0.02
52724.444604,15.217,0.021
52724.445203,15.248,0.021
52724.456659,15.248,0.023
52724.457261,15.256,0.023
52724.468615,15.367,0.025
52724.480673,15.376,0.026
52753.329124,15.391,0.026
52753.329238,15.411,0.025
52753.342003,15.397,0.025
52753.342133,15.426,0.023
52753.355362,15.49,0.026
52753.355475,15.455,0.023
52753.368274,15.486,0.026
52753.368387,15.5,0.025
52753.380621,15.542,0.026
52753.380733,15.57,0.025
52771.326366,15.253,0.026
52771.33829,15.278,0.026
52771.350067,15.353,0.028
52771.361742,15.387,0.028
52771.373232,15.425,0.03
52797.270887,15.825,0.041
52797.280951,15.782,0.039
52797.290976,15.762,0.037
52797.301043,15.797,0.037
52797.311116,15.819,0.037
52811.269623,15.818,0.033
52811.279297,15.774,0.031
52811.289122,15.799,0.033
52811.298828,15.806,0.033
52811.30863,15.875,0.037
52826.226056,15.321,0.024
52826.236005,15.02,0.018
52826.245862,14.826,0.015
52826.255825,14.817,0.015
52826.265768,14.889,0.017
52848.210852,15.796,0.039
52848.221127,15.825,0.041
52848.231512,15.767,0.039
52848.242037,15.817,0.039
52848.252508,15.83,0.052
52904.109836,15.757,0.031
52904.121919,15.79,0.031
52904.133987,15.798,0.033
52904.146001,15.825,0.037
52904.158354,15.823,0.039
53051.451289,15.767,0.03
53051.462953,15.788,0.031
53051.474554,15.751,0.03
53051.48616,15.77,0.03
53078.471276,15.715,0.046
53109.362555,14.93,0.015
53109.372446,14.979,0.015
53109.382407,15.033,0.016
53109.392328,15.081,0.016
53137.304489,14.858,0.015
53137.314143,14.931,0.015
53137.32427,14.997,0.015
53137.333763,15.042,0.016
53137.343393,15.126,0.016
53165.288356,15.077,0.02
53165.298205,15.138,0.021
53165.308026,15.197,0.023
53165.317834,15.248,0.025
53165.327764,15.272,0.028
53242.140619,15.839,0.039
53242.150426,15.838,0.041
53242.160232,15.826,0.041
53242.17004,15.809,0.041
53242.179851,15.821,0.043
53264.113477,15.499,0.021
53264.125016,15.539,0.023
53264.136593,15.56,0.025
53264.148108,15.643,0.026
53264.159504,15.594,0.026
53271.10328,15.968,0.048
53271.115577,15.977,0.049
53271.12806,16.008,0.051
53271.140366,15.87,0.048
53271.152825,15.486,0.035
53442.373358,15.797,0.035
53442.384118,15.806,0.033
53442.394926,15.839,0.033
53442.405756,15.855,0.033
53442.416648,15.897,0.035
53501.376669,15.811,0.033
53501.388915,15.752,0.033
53501.404683,15.812,0.033
53501.417174,15.828,0.033
53501.429031,15.814,0.031
53505.27173,15.538,0.037
53505.281047,15.559,0.041
53505.290351,15.546,0.039
53505.300422,15.54,0.039
53505.30976,15.616,0.041
53529.269369,15.77,0.037
53529.280435,15.813,0.035
53529.291714,15.822,0.037
53529.304078,15.773,0.033
53529.315101,15.805,0.031
53552.230987,15.774,0.035
53552.240943,15.746,0.035
53552.250871,15.794,0.037
53552.260882,15.829,0.037
53552.270829,15.834,0.037
53582.215472,14.852,0.026
53582.226832,14.871,0.028
53582.237961,14.912,0.02
53582.249088,14.995,0.022
53582.26021,15.092,0.028
53625.116765,15.213,0.026
53625.128154,15.309,0.028
53625.139562,15.37,0.03
53625.150929,15.422,0.031
53625.162303,15.439,0.033
53813.469259,14.823,0.022
53813.480269,14.882,0.022
53813.491278,14.948,0.024
53844.350306,15.742,0.053
53844.361371,15.808,0.056
53844.372385,15.782,0.053
53844.383605,15.852,0.054
53844.394659,15.847,0.054
53853.345471,15.678,0.036
53853.35615,15.657,0.031
53853.366848,15.702,0.033
53853.37768,15.746,0.035
53853.388722,15.708,0.033
53883.270148,15.874,0.087
53883.280479,15.895,0.091
53883.311495,15.287,0.051
53887.282583,15.793,0.043
53887.293559,15.841,0.044
53887.304542,15.784,0.041
53887.315576,15.854,0.043
53887.326656,15.895,0.044
53902.278781,14.849,0.02
53902.288583,14.886,0.023
53902.298422,14.973,0.023
53902.308751,15.077,0.026
53902.320158,15.109,0.03
53931.221881,15.377,0.041
53931.242662,15.461,0.05
53931.253039,15.539,0.063
53940.219489,15.268,0.031
53940.229973,15.318,0.035
53940.251213,15.335,0.041
53940.261763,15.42,0.056
53979.146128,15.808,0.045
53979.157285,15.801,0.046
54000.105856,14.878,0.016
54000.118,14.958,0.016
54000.130108,15.018,0.018
54000.153508,15.171,0.023
54000.165943,15.246,0.025
54007.090163,15.752,0.036
54007.102583,15.793,0.038
54007.115116,15.807,0.04
54007.127549,15.789,0.041
54007.141143,15.75,0.041
54121.457844,15.413,0.039
54121.470096,15.445,0.035
54121.482768,15.508,0.033
54121.495015,15.502,0.033
54121.507244,15.537,0.031
54154.448828,15.636,0.031
54154.460434,15.635,0.031
54154.47214,15.693,0.033
54154.483559,15.682,0.033
54154.494981,15.727,0.031
54169.399506,15.863,0.061
54169.42137,15.908,0.058
54169.432284,15.869,0.059
54205.361864,15.557,0.026
54205.371218,15.578,0.028
54205.380493,15.598,0.028
54205.389847,15.638,0.028
54205.399637,15.663,0.028
54560.360428,15.857,0.022
54560.371884,15.754,0.018
54560.383312,15.47,0.015
54560.394725,15.056,0.011
54560.406133,14.848,0.009
54581.331777,15.603,0.063
54581.34145,15.752,0.069
54581.351295,15.599,0.061
54581.36098,15.686,0.064
54581.37135,15.74,0.068
54594.321895,15.4,0.048
54594.331477,15.452,0.048
54594.341053,15.49,0.049
54594.350503,15.46,0.053
54594.360815,15.56,0.059
54612.291725,15.008,0.026
54612.300514,15.116,0.028
54612.309048,15.193,0.028
54612.31762,15.266,0.03
54612.326079,15.3,0.031
