mjd,m,merr
52677.464304,15.5,0.03
52677.478588,15.436,0.026
52677.492868,15.424,0.026
52677.507197,15.451,0.024
52677.521487,15.438,0.022
52706.449777,15.454,0.025
52706.465136,15.467,0.025
52706.479525,15.49,0.025
52706.494562,15.501,0.026
52724.421131,15.142,0.017
52724.432848,15.129,0.017
52724.444416,15.149,0.017
52724.455973,15.158,0.017
52724.467531,15.184,0.018
52753.327837,15.16,0.018
52753.339862,15.152,0.017
52753.351903,15.181,0.017
52753.363968,15.19,0.017
52753.376017,15.212,0.017
52772.278768,15.519,0.044
52772.30227,15.492,0.046
52787.273615,15.357,0.018
52787.284267,15.349,0.018
52787.294834,15.357,0.018
52787.305569,15.368,0.02
52787.316319,15.362,0.02
52797.271154,15.335,0.026
52797.281218,15.257,0.022
52797.291244,15.274,0.022
52797.301312,15.245,0.022
52797.311384,15.205,0.02
52811.269271,15.323,0.02
52811.278945,15.32,0.02
52811.28877,15.306,0.022
52811.298478,15.322,0.022
52811.308279,15.333,0.022
52842.245089,15.163,0.044
52842.265487,15.22,0.024
52847.211825,15.2,0.022
52847.222225,15.202,0.02
52847.232536,15.189,0.02
52847.24302,15.218,0.02
52847.253366,15.213,0.02
52904.109426,15.135,0.017
52904.121503,15.141,0.017
52904.133577,15.148,0.018
52904.145591,15.168,0.018
52904.157941,15.179,0.02
53034.469208,15.402,0.024
53034.481519,15.418,0.024
53034.494079,15.438,0.024
53034.506475,15.448,0.022
53034.518812,15.42,0.022
53078.41151,15.299,0.022
53109.348977,15.31,0.018
53109.35985,15.277,0.017
53109.370827,15.239,0.017
53109.381707,15.216,0.017
53109.392943,15.222,0.017
53137.297738,15.503,0.022
53137.307219,15.492,0.022
53137.316708,15.487,0.022
53137.32624,15.487,0.022
53137.335726,15.498,0.02
53165.270679,15.447,0.022
53165.2808,15.45,0.022
53165.290911,15.453,0.022
53165.301019,15.467,0.024
53165.31118,15.437,0.024
53242.141375,15.351,0.026
53242.151633,15.358,0.026
53242.161864,15.391,0.028
53242.171829,15.408,0.028
53242.181808,15.378,0.028
53264.11295,15.515,0.021
53264.124489,15.492,0.023
53264.136067,15.472,0.025
53264.147508,15.48,0.023
53264.158978,15.453,0.021
53271.103933,15.407,0.026
53271.116044,15.429,0.028
53271.1282,15.434,0.028
53271.140304,15.447,0.03
53271.152411,15.446,0.031
53439.389917,15.258,0.018
53439.401023,15.263,0.017
53439.412257,15.267,0.017
53439.423339,15.279,0.017
53439.434483,15.299,0.017
53500.353969,15.257,0.017
53500.363941,15.273,0.018
53500.373867,15.301,0.018
53500.384445,15.297,0.018
53500.394698,15.306,0.018
53528.279393,15.139,0.02
53528.290952,15.146,0.02
53528.302047,15.173,0.02
53528.312882,15.178,0.02
53528.323814,15.171,0.02
53539.265245,15.494,0.043
53539.274896,15.539,0.044
53539.28449,15.495,0.044
53539.294258,15.516,0.044
53539.303901,15.501,0.043
53553.231638,15.241,0.024
53553.242007,15.258,0.022
53553.252427,15.238,0.02
53553.26279,15.266,0.022
53553.273148,15.273,0.022
53570.222134,15.381,0.05
53570.232796,15.355,0.048
53570.243449,15.35,0.05
53570.254112,15.35,0.05
53570.264771,15.383,0.052
53576.220281,15.562,0.043
53576.231551,15.469,0.037
53576.242604,15.448,0.03
53576.254359,15.382,0.028
53583.215739,15.464,0.022
53583.227038,15.438,0.022
53583.23837,15.43,0.024
53583.261032,15.453,0.039
53626.117122,15.155,0.024
53626.128644,15.125,0.024
53626.140132,15.132,0.024
53626.151626,15.175,0.026
53626.163134,15.175,0.028
53786.458572,15.245,0.024
53786.470777,15.273,0.026
53786.482854,15.215,0.022
53786.495112,15.186,0.02
53786.507188,15.196,0.02
53813.469624,15.41,0.035
53813.480637,15.431,0.035
53813.491648,15.416,0.035
53823.358449,15.28,0.018
53823.369486,15.272,0.018
53823.380745,15.235,0.016
53823.392219,15.248,0.018
53823.40416,15.231,0.018
53844.335788,15.111,0.026
53844.346125,15.16,0.028
53844.356484,15.141,0.028
53844.366816,15.154,0.028
53844.377153,15.136,0.026
53853.345752,15.283,0.025
53853.35643,15.379,0.023
53853.367131,15.398,0.025
53853.377963,15.283,0.023
53853.389004,15.293,0.023
53883.29045,15.41,0.036
53883.311137,15.469,0.038
53887.282833,15.427,0.028
53887.293811,15.437,0.03
53887.304794,15.436,0.03
53887.315826,15.419,0.028
53887.326907,15.432,0.028
53971.162556,15.183,0.026
53971.173191,15.256,0.028
53971.183848,15.283,0.035
54121.458177,15.357,0.028
54121.470429,15.322,0.026
54121.483101,15.375,0.024
54121.495346,15.41,0.022
54121.507576,15.392,0.02
54155.47038,15.343,0.023
54155.482249,15.302,0.023
54155.493801,15.221,0.021
54155.50565,15.193,0.021
54155.517207,15.183,0.021
54206.360238,15.256,0.021
54206.369697,15.288,0.021
54529.434906,15.121,0.023
54529.44616,15.123,0.023
54529.457452,15.166,0.021
54574.342803,15.134,0.026
54574.353616,15.157,0.026
54574.364376,15.155,0.024
54574.375137,15.129,0.024
54574.385854,15.132,0.024
54582.346863,15.172,0.024
54582.357558,15.159,0.022
54582.36826,15.15,0.022
54582.378913,15.124,0.022
54582.389524,15.14,0.022
54613.259384,15.397,0.031
54613.269495,15.432,0.026
54613.279827,15.423,0.022
54613.289829,15.44,0.02
54613.300029,15.425,0.018
