mjd,m,merr
52662.46185,15.009,0.022
52662.476326,14.953,0.033
52662.490921,14.882,0.018
52662.505402,14.818,0.018
52662.519875,14.765,0.017
52713.446494,15.085,0.026
52713.458812,15.043,0.024
52713.471248,14.933,0.02
52713.484479,14.879,0.017
52720.466546,14.798,0.018
52720.481629,14.761,0.018
52720.496351,14.739,0.018
52743.377552,14.743,0.02
52743.391142,14.727,0.024
52743.404231,14.68,0.026
52743.416567,14.737,0.018
52743.428853,14.743,0.018
52749.349387,14.8,0.018
52749.360242,14.829,0.018
52749.37112,14.902,0.02
52749.383479,14.95,0.022
52749.394325,14.971,0.022
52780.274129,14.784,0.02
52780.285108,14.788,0.017
52780.296036,14.815,0.018
52802.268988,14.769,0.033
52802.279196,14.759,0.031
52802.289363,14.75,0.031
52802.299471,14.788,0.031
52802.309555,14.818,0.031
52829.222774,14.838,0.026
52829.232787,14.813,0.024
52829.242672,14.771,0.024
52829.252612,14.738,0.022
52829.262525,14.724,0.02
52837.218093,14.969,0.022
52837.228028,15.008,0.024
52837.23798,14.996,0.024
52837.247955,14.991,0.028
52837.257953,14.918,0.028
52860.161453,14.907,0.028
52860.172295,14.876,0.026
52860.183281,14.804,0.026
52860.204985,14.75,0.024
52925.086244,14.923,0.02
52925.097785,14.888,0.022
52925.109499,14.848,0.022
52925.121196,14.807,0.022
52925.132893,14.744,0.022
53017.456306,14.681,0.02
53017.46859,14.69,0.02
53017.481244,14.71,0.02
53017.493673,14.741,0.02
53017.505906,14.776,0.022
53074.386354,14.807,0.022
53074.397239,14.81,0.028
53074.408076,14.903,0.03
53074.419032,14.97,0.028
53074.42991,15.013,0.035
53104.357288,14.764,0.02
53104.368899,14.736,0.02
53104.380016,14.703,0.02
53104.39157,14.677,0.02
53104.403119,14.691,0.018
53126.298565,15.002,0.026
53126.308724,15.021,0.026
53126.318819,15.034,0.026
53126.328885,14.975,0.024
53126.33952,14.895,0.022
53133.29229,14.992,0.037
53133.311156,14.925,0.026
53133.320573,14.927,0.035
53156.294943,14.726,0.02
53156.303764,14.755,0.02
53156.312613,14.813,0.022
53156.321432,14.815,0.022
53156.330237,14.854,0.022
53162.270916,15.049,0.028
53162.281165,14.994,0.028
53162.291411,14.928,0.028
53162.30166,14.837,0.026
53162.31195,14.818,0.026
53192.226789,14.711,0.017
53192.23688,14.704,0.018
53192.246995,14.697,0.018
53192.257053,14.724,0.02
53192.267124,14.774,0.022
53245.191705,14.677,0.026
53245.202129,14.705,0.026
53245.212549,14.741,0.028
53245.222989,14.768,0.03
53275.103433,14.784,0.024
53275.115483,14.854,0.026
53275.139662,14.962,0.031
53275.151721,14.977,0.031
53280.12983,14.934,0.037
53428.47169,14.801,0.026
53459.355197,14.854,0.022
53459.365583,14.902,0.022
53459.375892,14.968,0.024
53459.386216,15.018,0.024
53459.396859,15.03,0.026
53482.365651,14.738,0.024
53482.398602,14.737,0.022
53482.411607,14.738,0.022
53487.32402,14.93,0.024
53487.332708,14.854,0.022
53487.3413,14.84,0.022
53487.349883,14.777,0.02
53487.358515,14.764,0.02
53533.276405,14.984,0.02
53533.286397,14.977,0.02
53533.296416,14.907,0.02
53533.306395,14.851,0.018
53561.231833,14.825,0.017
53561.242795,14.784,0.013
53561.253676,14.743,0.013
53561.264723,14.745,0.013
53561.275798,14.738,0.015
53592.210513,14.74,0.013
53592.222818,14.737,0.013
53592.234954,14.751,0.03
53592.246988,14.754,0.02
53592.259035,14.791,0.02
53609.18721,14.748,0.015
53609.198664,14.751,0.015
53609.221495,14.729,0.015
53609.232888,14.748,0.015
53638.108542,14.994,0.018
53638.119125,14.947,0.017
53638.129714,14.934,0.017
53638.140313,14.866,0.017
53638.150882,14.823,0.015
53666.079629,14.7,0.017
53666.091639,14.703,0.017
53666.103644,14.693,0.017
53666.115816,14.708,0.017
53666.127872,14.704,0.018
53753.472267,14.986,0.03
53753.497771,14.927,0.024
53753.510684,14.856,0.022
53753.523906,14.803,0.02
53806.482822,14.834,0.023
53806.507429,14.76,0.018
53806.519395,14.731,0.026
53832.347523,14.947,0.02
53872.272537,15.003,0.021
53872.283926,14.962,0.02
53872.29537,14.877,0.018
53872.306821,14.811,0.018
53872.31847,14.742,0.018
53909.259163,14.907,0.016
53909.270031,14.976,0.018
53909.290258,15.036,0.018
53950.212698,14.865,0.031
53950.224255,14.933,0.035
53950.235795,14.988,0.035
53950.247971,15.068,0.035
53950.25952,15.079,0.033
53993.123063,14.809,0.016
53993.134852,14.856,0.016
53993.146763,14.905,0.018
53993.158915,14.952,0.02
53993.170913,15.039,0.021
54019.089475,14.891,0.018
54019.107533,14.969,0.018
54019.124149,15.019,0.02
54019.139786,15.007,0.023
54019.151046,14.954,0.025
54048.067711,14.857,0.017
54048.079914,14.916,0.017
54048.092126,14.97,0.018
54048.10436,15.015,0.018
54048.116657,14.975,0.02
54166.402869,14.755,0.03
54166.414471,14.707,0.022
54217.307875,14.939,0.03
54217.316506,14.981,0.03
54217.324905,15.011,0.031
54217.333727,15.019,0.031
54217.342116,14.985,0.03
54521.47502,14.875,0.025
54521.486716,14.851,0.02
54521.498846,14.786,0.018
54521.511109,14.791,0.018
54552.379653,15.043,0.026
54552.391732,15.036,0.026
54552.403872,14.975,0.026
54552.415989,14.898,0.025
54552.428048,14.843,0.023
54574.346963,14.827,0.03
54574.358742,14.862,0.03
54574.369671,14.962,0.031
54574.380356,14.979,0.031
54574.391043,15.02,0.033
54595.283514,14.896,0.023
54595.29327,14.937,0.025
54595.302914,15.029,0.026
54595.312549,15.051,0.028
54595.322275,15.058,0.028
