mjd,m,merr
52723.421312,15.924,0.031
52723.432509,15.777,0.033
52723.444005,15.713,0.041
52752.340342,16.736,0.072
52752.350529,16.698,0.068
52752.3607,16.819,0.078
52752.370964,16.788,0.096
52752.381241,16.734,0.078
52787.27827,16.695,0.073
52787.289092,16.727,0.078
52787.299996,16.67,0.073
52787.310837,16.51,0.063
52798.297721,16.667,0.099
52798.308963,16.643,0.089
52798.319355,16.573,0.081
52798.329688,16.53,0.074
52811.271192,16.412,0.063
52811.281125,16.35,0.059
52811.291223,16.492,0.071
52811.30132,16.505,0.069
52811.311242,16.503,0.073
52840.214017,16.168,0.046
52840.223885,16.234,0.052
52840.233769,16.291,0.055
52840.243725,16.279,0.055
52872.145163,15.984,0.046
52872.193426,16.154,0.091
52906.131575,16.35,0.144
52917.100636,15.822,0.05
52917.126397,15.903,0.061
52917.139723,16.053,0.072
52917.153336,16.144,0.085
53049.451024,16.396,0.061
53049.465801,16.376,0.059
53049.480209,16.458,0.061
53049.492561,16.545,0.067
53049.507153,16.541,0.063
53107.338894,15.778,0.028
53107.349136,15.801,0.028
53107.35937,15.819,0.028
53107.36962,15.846,0.03
53107.379895,15.955,0.035
53136.29743,16.516,0.066
53154.290903,16.191,0.061
53154.325105,15.684,0.035
53164.277827,16.64,0.071
53164.296728,16.643,0.078
53194.239035,16.686,0.135
53194.248916,16.577,0.086
53194.258157,16.493,0.076
53243.140368,16.544,0.081
53243.150658,16.65,0.087
53243.161001,16.63,0.087
53243.171195,16.639,0.089
53243.181995,16.601,0.087
53254.12108,16.243,0.035
53254.132658,16.308,0.036
53254.143834,16.313,0.038
53254.154932,16.279,0.038
53254.166157,16.313,0.041
53264.115585,16.631,0.059
53264.127037,16.635,0.059
53264.138477,16.624,0.059
53264.149917,16.648,0.063
53264.161357,16.506,0.054
53282.114817,15.656,0.028
53282.125589,15.684,0.031
53282.13687,15.735,0.033
53286.087222,16.194,0.041
53286.098184,16.266,0.054
53286.108982,16.279,0.049
53286.119914,16.275,0.046
53286.13071,16.331,0.051
53474.450005,16.368,0.122
53498.382234,16.808,0.07
53498.394636,16.794,0.072
53498.404885,16.686,0.07
53498.415928,16.798,0.076
53498.425935,16.803,0.076
53499.390615,16.644,0.063
53499.402385,16.701,0.067
53499.414467,16.594,0.061
53499.42669,16.569,0.059
53499.437819,16.609,0.063
53521.265685,15.714,0.041
53521.275996,15.768,0.043
53521.286341,15.817,0.035
53521.296685,15.918,0.035
53521.306994,15.942,0.039
53538.266979,15.844,0.054
53538.276518,15.831,0.052
53538.286051,15.878,0.055
53538.295589,15.913,0.059
53538.305105,16.066,0.063
53570.222615,15.82,0.07
53570.23328,15.892,0.076
53570.243932,15.885,0.078
53570.254595,15.992,0.087
53570.265339,15.926,0.085
53576.220783,16.52,0.08
53576.232052,16.578,0.13
53576.243106,16.673,0.089
53576.254856,16.604,0.085
53627.118651,16.539,0.085
53627.130914,16.553,0.085
53627.143357,16.576,0.087
53627.155491,16.578,0.093
53627.167575,16.448,0.087
53657.094468,16.651,0.137
53657.128398,16.553,0.131
53786.492467,16.647,0.074
53786.505738,16.642,0.073
53786.518867,16.641,0.078
53843.40779,16.486,0.092
53882.270483,16.449,0.063
53882.281274,16.459,0.063
53882.292132,16.544,0.068
53882.30276,16.564,0.066
53882.313414,16.626,0.071
53886.283843,15.76,0.039
53886.294953,15.839,0.041
53886.305964,15.911,0.044
53886.316989,16.014,0.048
53886.328055,16.07,0.048
53903.271466,15.683,0.041
53903.281335,15.735,0.043
53903.291204,15.84,0.05
53903.30108,15.842,0.048
53903.310927,15.93,0.054
53916.241093,16.618,0.073
53916.250985,16.513,0.068
53916.260756,16.464,0.066
53932.225114,16.497,0.083
53932.235798,16.396,0.078
53932.246464,16.096,0.067
53932.25706,15.808,0.052
53942.249537,16.65,0.188
53942.260597,16.562,0.109
53970.141369,16.174,0.046
53970.151136,16.237,0.048
53970.160781,16.261,0.053
53970.170355,16.297,0.056
53970.179992,16.281,0.056
53998.098356,15.74,0.031
53998.110784,15.712,0.03
53998.122899,15.743,0.03
53998.135191,15.758,0.03
53998.148736,15.821,0.033
54009.09011,16.521,0.083
54009.10269,16.488,0.084
54009.115623,16.54,0.089
54009.128537,16.455,0.083
54009.141079,16.648,0.102
54123.455741,16.662,0.094
54123.46813,16.514,0.074
54123.480554,16.382,0.063
54123.492987,16.089,0.048
54123.505355,15.767,0.033
54156.430038,15.747,0.031
54156.441134,15.815,0.033
54156.45248,15.867,0.035
54156.463913,15.957,0.036
54156.474998,16.004,0.036
54201.378789,16.706,0.059
54201.388629,16.607,0.054
54201.398382,16.633,0.057
54201.408106,16.492,0.052
54201.4179,16.351,0.044
54207.381737,16.112,0.053
54207.391137,16.176,0.043
54207.40055,16.298,0.048
54207.40999,16.267,0.045
54216.310318,16.586,0.067
54216.319074,16.567,0.063
54216.328087,16.522,0.057
54216.336818,16.528,0.059
54216.345549,16.611,0.061
54508.479327,16.038,0.038
54508.49195,16.111,0.04
54508.506318,16.107,0.04
54543.396706,16.323,0.099
54543.40895,16.244,0.087
54543.419696,16.366,0.094
54543.430521,16.357,0.089
54543.441185,16.425,0.094
54555.359606,15.923,0.049
54555.371866,16.002,0.051
54555.384906,16.037,0.053
54555.409015,16.138,0.058
54561.354257,16.46,0.068
54561.366332,16.508,0.069
54561.379931,16.648,0.078
54561.391484,16.664,0.078
54561.402853,16.641,0.087
54573.347295,16.019,0.054
54573.358132,16.051,0.055
54573.368946,16.175,0.061
54573.379735,16.188,0.059
54573.390651,16.241,0.063
54582.343496,16.73,0.129
54582.353863,16.738,0.13
54582.36404,16.67,0.125
54582.374229,16.679,0.124
54582.38603,16.814,0.139
54613.26423,16.744,0.101
54613.274653,16.809,0.107
54613.285155,16.8,0.107
54613.295438,16.641,0.091
54613.305692,16.906,0.114
