mjd,m,merr
52722.418858,16.675,0.076
52722.430867,16.64,0.074
52722.442868,16.645,0.076
52722.454867,16.549,0.071
52722.466918,16.44,0.064
52751.362328,16.493,0.069
52751.373369,16.571,0.076
52751.38552,16.513,0.071
52751.396225,16.444,0.068
52800.271053,15.955,0.067
52800.281122,15.923,0.065
52800.291146,15.923,0.059
52800.301149,15.924,0.061
52800.311173,15.989,0.063
52812.276342,16.671,0.059
52812.286264,16.736,0.063
52812.296107,16.717,0.061
52812.305938,16.712,0.063
52812.315802,16.767,0.067
52839.230887,16.185,0.044
52839.250771,16.26,0.067
52900.113379,16.351,0.049
52900.125255,16.378,0.052
52900.137373,16.43,0.055
52900.149671,16.406,0.053
52900.161784,16.429,0.057
52928.072451,16.472,0.068
52928.084093,16.503,0.07
52928.095551,16.435,0.068
52928.107195,16.482,0.074
52928.118917,16.543,0.081
53023.472487,16.525,0.054
53023.485143,16.494,0.046
53023.498157,16.496,0.044
53023.51091,16.514,0.044
53023.523921,16.564,0.046
53046.47111,16.443,0.063
53046.484202,16.391,0.059
53046.496136,16.423,0.059
53046.50814,16.519,0.065
53046.52007,16.48,0.063
53107.353705,16.562,0.048
53107.365229,16.563,0.048
53107.376345,16.543,0.048
53107.387368,16.578,0.052
53107.398387,16.57,0.054
53127.341627,16.511,0.081
53127.351591,16.54,0.083
53127.361571,16.536,0.081
53127.371515,16.508,0.078
53127.381503,16.584,0.081
53136.302574,16.318,0.044
53136.311926,16.374,0.048
53136.321394,16.368,0.048
53136.330699,16.366,0.046
53154.297682,16.07,0.043
53154.306517,16.027,0.043
53154.315289,15.925,0.037
53154.324125,15.876,0.035
53154.332906,15.85,0.035
53164.272982,16.359,0.044
53164.283129,16.39,0.046
53164.293273,16.416,0.054
53164.303488,16.478,0.059
53164.313635,16.412,0.061
53194.225899,16.677,0.098
53194.235917,16.691,0.087
53194.245936,16.68,0.087
53194.256033,16.692,0.081
53194.26605,16.777,0.091
53421.416461,16.525,0.089
53421.429626,16.624,0.094
53421.442459,16.711,0.094
53421.456889,16.771,0.104
53475.324511,16.616,0.068
53475.334329,16.6,0.065
53475.344142,16.529,0.061
53475.354506,16.57,0.061
53475.365337,16.531,0.059
53491.315526,16.668,0.067
53491.32566,16.617,0.061
53491.336472,16.493,0.055
53491.346441,16.238,0.044
53491.356463,16.157,0.039
53520.277496,16.585,0.074
53520.298542,16.576,0.068
53520.309132,16.538,0.065
53520.31976,16.567,0.068
53537.270748,16.529,0.107
53566.264326,16.337,0.059
53566.274833,16.349,0.055
53566.285349,16.407,0.059
53566.295833,16.369,0.052
53566.306327,16.404,0.052
53605.190556,16.382,0.078
53605.201593,16.329,0.074
53605.212622,16.407,0.081
53605.223654,16.414,0.087
53605.234717,16.412,0.089
53628.116892,16.062,0.063
53628.129019,16.097,0.065
53628.141242,16.176,0.072
53628.153398,16.105,0.068
53628.165515,16.214,0.078
53757.455591,16.047,0.063
53757.470002,16.063,0.059
53757.482606,16.055,0.057
53757.495247,16.094,0.057
53757.509142,16.156,0.057
53773.48597,16.493,0.057
53773.500236,16.587,0.072
53773.512982,16.563,0.063
53773.525707,16.569,0.059
53825.350647,16.744,0.177
53825.362391,16.583,0.198
53825.373646,16.403,0.086
53825.384905,16.215,0.074
53842.370995,17.083,0.208
53842.394121,16.428,0.102
53842.40563,16.267,0.092
53877.279497,16.428,0.099
53877.29009,16.4,0.076
53877.30075,16.416,0.081
53877.311316,16.357,0.13
53877.321948,16.481,0.119
53904.267511,16.837,0.093
53904.277486,16.728,0.083
53904.28736,16.671,0.08
53904.297245,16.782,0.089
53904.307328,16.683,0.087
53918.224179,16.833,0.305
53918.243919,16.701,0.254
53918.253823,16.793,0.257
53932.226197,16.7,0.104
53932.246915,16.571,0.091
53932.257279,16.244,0.078
53932.267654,16.284,0.083
53960.208627,16.202,0.076
53960.218931,16.044,0.081
53960.229165,15.96,0.07
53960.239431,15.881,0.07
53996.127522,16.026,0.04
54011.091978,16.821,0.14
54011.104702,16.793,0.137
54011.117443,16.772,0.14
54011.13022,16.842,0.157
54011.143077,16.805,0.16
54024.076933,16.083,0.046
54024.088523,16.061,0.046
54024.100481,16.08,0.048
54024.112039,16.088,0.048
54024.12355,16.152,0.051
54124.46311,16.324,0.076
54124.475745,16.365,0.074
54124.488662,16.447,0.081
54124.501173,16.38,0.074
54124.51371,16.422,0.078
54140.459458,16.829,0.127
54140.472482,16.872,0.117
54140.485325,16.767,0.107
54140.497745,16.769,0.106
54140.509948,16.973,0.139
54198.376077,15.931,0.057
54198.38582,16.05,0.054
54198.395679,16.088,0.081
54198.405581,15.956,0.111
54210.312485,16.562,0.073
54210.321167,16.674,0.081
54210.329852,16.779,0.089
54210.338531,16.688,0.079
54210.34721,16.762,0.081
54218.315187,16.205,0.065
54218.324034,16.159,0.063
54218.332671,16.079,0.057
54218.341482,15.955,0.052
54218.350075,15.89,0.048
54498.45385,16.068,0.051
54498.465659,16.147,0.053
54498.47749,16.167,0.054
54498.489306,16.161,0.053
54498.5011,16.188,0.053
54526.447801,16.364,0.056
54526.459316,16.375,0.054
54526.471602,16.325,0.053
54526.483048,16.444,0.056
54537.383079,16.357,0.086
54537.394033,16.339,0.076
54537.40499,16.347,0.096
54537.416207,16.414,0.081
54537.427175,16.359,0.053
54559.359186,16.32,0.061
54559.370878,16.396,0.068
54559.382336,16.447,0.069
54559.393777,16.477,0.071
54559.40542,16.422,0.066
54569.349161,16.164,0.049
54569.360746,16.153,0.048
54569.371896,15.981,0.045
54569.383453,15.868,0.04
54569.394718,15.866,0.038
54584.298856,16.484,0.078
54584.308959,16.558,0.081
54584.319123,16.498,0.078
54584.329631,16.489,0.076
54584.339774,16.568,0.079
54599.311337,16.398,0.145
54599.320662,16.36,0.135
