mjd,m,merr
52723.410102,16.651,0.163
52723.422129,16.712,0.065
52723.433334,16.663,0.076
52723.444844,16.709,0.107
52752.341122,17.067,0.098
52752.351306,17.036,0.094
52752.36148,17.019,0.094
52752.371743,17.007,0.107
52752.382046,17.053,0.105
52772.392312,16.588,0.109
52772.40361,16.546,0.099
52787.279027,16.524,0.076
52787.289848,16.467,0.074
52787.300768,16.584,0.084
52787.311597,16.446,0.078
52812.285093,16.9,0.091
52812.29494,16.76,0.078
52812.304475,16.889,0.049
52812.305106,16.813,0.084
52812.314372,16.833,0.048
52812.315003,16.737,0.079
52812.324449,16.931,0.056
52812.32508,16.839,0.091
52840.214815,16.68,0.074
52840.224682,16.783,0.085
52840.234572,16.787,0.085
52840.244559,16.778,0.085
52872.146171,16.872,0.104
52872.194418,17.125,0.292
52917.101534,16.66,0.107
52917.127315,16.643,0.117
52917.140615,16.755,0.137
52917.154243,16.612,0.126
52934.074897,16.904,0.096
52934.08639,16.915,0.098
52934.097956,16.905,0.102
52934.109535,16.926,0.109
52934.120903,16.993,0.118
53049.452014,16.86,0.096
53049.466791,16.959,0.1
53049.481201,16.94,0.096
53049.493552,17.016,0.102
53049.508144,16.974,0.093
53107.339744,17.015,0.086
53107.349984,16.913,0.078
53107.360219,16.951,0.079
53107.37047,16.939,0.083
53107.380744,17.021,0.092
53136.289484,16.751,0.087
53136.29819,16.932,0.101
53136.306913,16.687,0.076
53136.31562,16.901,0.092
53136.324563,16.875,0.089
53154.291642,16.873,0.117
53154.300135,16.803,0.102
53154.308489,16.935,0.111
53154.317488,16.855,0.106
53154.325846,16.838,0.104
53164.268832,16.951,0.094
53164.278612,16.899,0.092
53164.288007,16.941,0.099
53164.297478,16.978,0.111
53164.307417,16.905,0.107
53181.275945,16.993,0.074
53181.314714,17.043,0.073
53194.23069,17.187,0.181
53194.240576,17.079,0.153
53194.249633,17.14,0.144
53194.258874,17.027,0.129
53243.14123,16.871,0.109
53243.151577,16.895,0.112
53243.161894,16.818,0.107
53243.172703,17.026,0.13
53243.182856,16.977,0.127
53254.12213,16.658,0.051
53254.133707,16.69,0.053
53254.144885,16.738,0.058
53254.155981,16.739,0.059
53254.167206,16.796,0.066
53264.116862,16.702,0.063
53264.128299,16.724,0.065
53264.139737,16.765,0.068
53264.151179,16.763,0.07
53264.162619,16.743,0.065
53282.094404,16.821,0.081
53282.115772,16.808,0.078
53282.126543,16.854,0.084
53282.137823,16.866,0.091
53286.088175,17.02,0.089
53286.099138,16.975,0.102
53286.109934,16.988,0.099
53286.120868,17.061,0.099
53286.131702,17.029,0.097
53474.430224,16.688,0.124
53498.382869,17.041,0.087
53498.395144,16.974,0.085
53498.40592,16.93,0.087
53498.416429,16.991,0.091
53498.426439,16.943,0.087
53499.392195,16.685,0.068
53499.403131,16.797,0.076
53499.414966,16.779,0.074
53499.427188,16.728,0.072
53499.438318,16.815,0.076
53521.308029,17.128,0.122
53521.318321,17.033,0.102
53521.328645,16.951,0.083
53521.338971,17.077,0.105
53521.349327,17.137,0.105
53538.267729,16.699,0.118
53538.277264,16.66,0.113
53538.286794,16.63,0.111
53538.296339,16.544,0.102
53538.305851,16.562,0.102
53627.119414,16.475,0.081
53627.131678,16.488,0.08
53627.144124,16.559,0.087
53627.156246,16.577,0.091
53627.168345,16.552,0.094
53657.106569,16.706,0.154
53657.117848,16.913,0.167
53657.12917,16.919,0.176
53786.4936,17.124,0.122
53786.506887,17.093,0.122
53786.520011,17.182,0.134
53824.476371,16.501,0.053
53843.366131,16.825,0.142
53843.37734,16.764,0.135
53843.388568,16.872,0.146
53843.399802,16.792,0.137
53843.411054,16.84,0.144
53882.271477,16.786,0.087
53882.28228,16.722,0.081
53882.293125,16.773,0.086
53882.303747,16.855,0.089
53882.314404,16.878,0.094
53886.284885,17.046,0.124
53886.295988,17.044,0.126
53886.307003,17.034,0.122
53886.31803,16.997,0.117
53886.329096,17.121,0.124
53903.272427,16.651,0.094
53903.282294,16.68,0.104
53903.292151,16.618,0.098
53903.302028,16.531,0.091
53903.311868,16.54,0.096
53916.26168,16.904,0.102
53916.271367,16.888,0.104
53916.281063,16.746,0.089
53916.290783,16.629,0.076
53916.300457,16.593,0.084
53932.225825,16.883,0.137
53932.236587,16.886,0.122
53932.247177,16.937,0.154
53932.257789,17.284,0.263
53942.261302,16.975,0.195
53970.180538,17.06,0.119
53970.18997,16.992,0.111
53970.199403,17.067,0.125
53970.209543,17.057,0.127
53970.219063,17.083,0.129
53998.099638,17.022,0.099
53998.112074,17.025,0.097
53998.124323,16.993,0.094
53998.136547,16.919,0.089
53998.150066,17.109,0.109
54009.091353,16.78,0.106
54009.103915,16.811,0.111
54009.129766,16.828,0.117
54028.079635,16.596,0.084
54028.09112,16.541,0.083
54028.102646,16.711,0.101
54028.114234,16.639,0.097
54028.12581,16.623,0.102
54201.379539,16.8,0.061
54201.389382,16.752,0.059
54201.399135,16.753,0.063
54201.408877,16.8,0.067
54201.418656,16.853,0.068
54207.373248,17.063,0.238
54207.382952,16.681,0.079
54207.392348,16.631,0.068
54207.401762,16.657,0.068
54207.41123,16.577,0.061
54216.310912,16.792,0.074
54216.319664,16.827,0.076
54216.328676,16.883,0.074
54216.33741,16.893,0.074
54216.34614,16.821,0.067
54395.074458,16.825,0.125
54395.086116,16.894,0.145
54395.097927,16.709,0.125
54508.480161,16.541,0.059
54508.492787,16.599,0.061
54508.507183,16.693,0.066
54543.397689,16.801,0.157
54543.409933,16.668,0.129
54543.420678,16.783,0.14
54543.431507,16.912,0.149
54543.442279,16.985,0.155
54555.36107,16.929,0.119
54555.373355,16.933,0.114
54555.386406,16.923,0.116
54555.39852,17.076,0.134
54555.410515,16.982,0.125
54561.355406,16.772,0.111
54561.381079,16.818,0.117
54561.39263,16.983,0.134
54573.347933,16.93,0.126
54573.358764,17.037,0.137
54573.369578,17.019,0.133
54573.380368,16.981,0.124
54573.391282,16.922,0.117
54614.272858,16.887,0.104
54614.283241,16.798,0.097
54614.293622,16.988,0.111
54614.303907,17.013,0.117
54614.314227,16.902,0.107
