mjd,m,merr
52681.433156,16.774,0.114
52681.448259,16.83,0.104
52681.463121,16.813,0.094
52681.477864,16.747,0.083
52681.492559,16.956,0.104
52723.424202,17.021,0.092
52723.436917,17.405,0.302
52752.354133,16.776,0.084
52752.364801,16.811,0.092
52752.375528,16.688,0.086
52752.386427,16.615,0.081
52752.397021,16.649,0.084
52782.353624,16.472,0.137
52800.271592,16.931,0.165
52800.281658,16.83,0.148
52800.291682,17.156,0.179
52800.301708,17.121,0.178
52800.311725,17.003,0.155
52812.276886,16.919,0.076
52812.28681,16.828,0.07
52812.296651,16.77,0.065
52812.306482,16.701,0.061
52812.316342,16.663,0.061
52839.23224,16.83,0.08
52839.252106,16.876,0.098
52872.146734,16.811,0.12
52872.158634,16.604,0.096
52872.19498,17.41,0.409
52918.096639,16.583,0.1
52918.109974,16.663,0.109
52918.122986,16.694,0.115
52918.136566,16.656,0.12
52918.149974,16.88,0.159
52935.077736,16.89,0.127
52935.089417,16.905,0.134
52935.100834,17.076,0.162
52935.11237,16.849,0.137
52935.123819,16.75,0.127
53023.46334,16.744,0.079
53023.47545,16.764,0.076
53023.487583,16.782,0.069
53023.499577,16.751,0.063
53035.482501,17.425,0.158
53035.494651,17.45,0.152
53035.506888,17.683,0.195
53035.519089,17.086,0.104
53046.471866,16.73,0.087
53046.484907,16.785,0.089
53046.49684,16.941,0.104
53046.508845,17.044,0.111
53046.520776,17.077,0.115
53107.355089,16.889,0.065
53107.366611,17.008,0.074
53107.37773,17.137,0.085
53107.388752,17.12,0.091
53107.399773,17.167,0.096
53127.342992,16.666,0.096
53127.352877,16.636,0.093
53127.36286,16.694,0.096
53127.372803,16.762,0.1
53127.382791,16.853,0.105
53136.294518,16.82,0.072
53136.303801,16.691,0.063
53136.313212,16.761,0.07
53136.322626,16.629,0.059
53136.331928,16.629,0.059
53154.29824,16.929,0.094
53154.307074,16.791,0.083
53154.315847,16.815,0.083
53154.324683,16.71,0.076
53154.333464,16.76,0.078
53164.283686,16.622,0.057
53164.293831,16.624,0.061
53164.304046,16.606,0.067
53164.314194,16.59,0.078
53194.22645,16.776,0.1
53194.236469,16.658,0.085
53194.246546,16.605,0.08
53194.256583,16.602,0.074
53194.2666,16.588,0.074
53302.074933,16.733,0.105
53302.086688,16.803,0.118
53302.098537,16.828,0.126
53302.110285,16.817,0.128
53302.122043,16.859,0.135
53422.4585,16.763,0.113
53422.471305,16.81,0.13
53422.484193,16.831,0.12
53422.498161,16.784,0.104
53422.51049,16.801,0.096
53450.4323,16.653,0.078
53450.44367,16.782,0.085
53450.454179,16.858,0.087
53450.464672,16.829,0.08
53450.475181,16.956,0.087
53475.367262,16.857,0.08
53475.3775,16.771,0.074
53475.387351,16.637,0.142
53475.397397,16.644,0.109
53475.407424,16.607,0.063
53520.278786,16.597,0.074
53520.28923,16.635,0.074
53520.299837,16.633,0.072
53520.310429,16.66,0.074
53520.321058,16.729,0.078
53537.271892,16.607,0.126
53605.191325,16.85,0.124
53605.202356,16.671,0.102
53605.213403,16.633,0.1
53605.224419,16.443,0.089
53605.235482,16.554,0.104
53628.118223,17.034,0.15
53628.130357,17.053,0.159
53628.142576,17.105,0.168
53628.154746,17.087,0.168
53628.166853,16.986,0.159
53807.430595,17.786,0.4
53825.397565,16.831,0.097
53825.408761,16.858,0.094
53825.419927,17.012,0.111
53825.431102,17.175,0.109
53825.44236,17.088,0.112
53843.365805,16.704,0.118
53843.377015,16.757,0.124
53843.388242,16.651,0.109
53843.399474,16.736,0.122
53843.410726,16.68,0.117
53855.343127,16.666,0.073
53855.355145,16.734,0.076
53855.365448,16.85,0.086
53855.375736,16.835,0.087
53855.386004,16.875,0.091
53878.297627,16.61,0.083
53878.308219,16.699,0.091
53878.31879,16.637,0.084
53878.329465,16.667,0.084
53878.340302,16.738,0.089
53892.26882,16.976,0.179
53892.308659,16.874,0.148
53903.282184,16.687,0.091
53903.291777,16.744,0.097
53903.301378,16.598,0.084
53903.310988,16.632,0.092
53903.320812,16.596,0.089
53917.225696,16.905,0.139
53917.245346,16.822,0.102
53917.255094,16.628,0.096
53917.264863,16.72,0.157
53932.22729,16.722,0.139
53932.237712,16.938,0.111
53932.248021,17.052,0.149
53932.258377,16.78,0.15
53932.268746,16.836,0.181
53953.205947,17.085,0.205
53953.217773,16.982,0.178
53953.229819,17.079,0.189
53953.241841,17.179,0.205
53953.253786,17.044,0.183
53960.194557,16.857,0.183
53960.204353,16.959,0.147
53960.214198,16.583,0.116
53960.224101,16.598,0.124
53960.234186,16.863,0.155
53997.11794,16.664,0.066
53997.129992,16.713,0.071
53997.142154,16.748,0.078
53997.154803,16.813,0.086
53997.167361,16.865,0.092
54010.096067,16.807,0.107
54010.108747,16.667,0.099
54010.123477,16.54,0.091
54010.136446,16.481,0.091
54010.149218,16.383,0.092
54025.079775,16.636,0.081
54025.091287,16.724,0.087
54025.102741,16.776,0.096
54025.114231,16.927,0.116
54025.126948,17.042,0.135
54169.388824,16.726,0.083
54169.39988,16.67,0.074
54169.410993,16.794,0.083
54169.422215,16.755,0.078
54169.433325,16.836,0.087
54200.375885,17.233,0.109
54200.386052,17.12,0.1
54200.396549,16.982,0.087
54200.40724,16.926,0.083
54200.417114,16.808,0.076
54209.348296,16.863,0.102
54209.358339,16.999,0.104
54209.367153,16.971,0.096
54209.37624,17.295,0.173
54209.385332,17.047,0.092
54217.298296,17.174,0.146
54217.307136,17.111,0.131
54217.315866,17.05,0.124
54217.324583,17.01,0.115
54217.333291,17.026,0.117
54218.321207,16.599,0.112
54218.33052,16.738,0.127
54218.339471,16.62,0.112
54218.348555,16.741,0.124
54218.357323,16.797,0.125
54509.45286,16.831,0.079
54509.465372,17.061,0.096
54509.477975,17.313,0.116
54509.49087,17.239,0.107
54536.429575,16.615,0.064
54536.442618,16.674,0.066
54536.453855,16.678,0.068
54536.464976,16.746,0.069
54560.365155,16.698,0.094
54560.376567,16.739,0.092
54560.387954,16.831,0.096
54560.399341,17.036,0.116
54560.410966,17.123,0.125
54584.341022,17.117,0.124
54584.351519,16.901,0.104
54584.361996,16.818,0.099
54584.372293,16.917,0.107
54584.38233,16.741,0.096
