mjd,m,merr
52721.430505,14.995,0.018
52721.44316,15.059,0.018
52721.455693,15.073,0.018
52721.468227,15.067,0.018
52721.480817,14.969,0.018
52750.343901,15.087,0.028
52750.354647,15.046,0.028
52801.269947,14.933,0.037
52801.280032,14.927,0.037
52801.290193,14.829,0.033
52801.300314,14.888,0.035
52801.310486,14.791,0.031
52809.291218,14.802,0.017
52809.301206,14.837,0.017
52809.311131,14.848,0.017
52830.223723,14.801,0.022
52830.233689,14.762,0.02
52830.243635,14.803,0.022
52830.253507,14.819,0.022
52830.263417,14.837,0.022
52843.274482,15.07,0.021
52843.284533,15.079,0.021
52843.294466,15.1,0.022
52843.304329,15.032,0.021
52843.314556,14.973,0.021
52859.234931,15.01,0.026
52872.195196,15.048,0.038
52872.229968,14.975,0.032
52872.241539,14.875,0.021
52897.12785,15.044,0.018
52897.139588,14.972,0.018
52897.151341,14.9,0.017
52897.163293,14.867,0.018
52897.174981,14.829,0.02
52927.085066,14.95,0.02
52927.096491,14.888,0.018
52927.109009,14.846,0.018
52927.121683,14.779,0.017
52927.133167,14.765,0.018
52948.076296,14.757,0.018
52948.08818,14.738,0.02
52948.100088,14.767,0.02
52948.11203,14.758,0.022
52948.124288,14.842,0.024
53045.435945,15.095,0.028
53045.447089,15.011,0.026
53045.458236,14.978,0.024
53045.470141,14.909,0.022
53045.481283,14.87,0.02
53096.38216,14.801,0.02
53096.392223,14.786,0.02
53096.402271,14.764,0.018
53096.412303,14.768,0.02
53096.422408,14.806,0.018
53108.360427,14.826,0.013
53108.371401,14.85,0.013
53108.382509,14.884,0.015
53108.393615,14.906,0.015
53108.404711,14.966,0.017
53125.340697,14.881,0.022
53125.350533,14.942,0.022
53125.36044,14.988,0.024
53125.370494,15.048,0.024
53125.380365,15.061,0.024
53134.295039,14.813,0.017
53134.304554,14.824,0.018
53134.314098,14.832,0.018
53134.323595,14.842,0.018
53155.297457,14.971,0.024
53155.306418,15.027,0.026
53155.315361,15.015,0.024
53155.324325,15.038,0.026
53155.333231,15.052,0.026
53182.329224,15.005,0.02
53182.339022,14.995,0.02
53182.348829,14.951,0.035
53182.35864,14.888,0.026
53182.368453,14.882,0.031
53193.249859,14.924,0.024
53193.259943,14.906,0.02
53193.270039,14.865,0.02
53244.184984,14.779,0.02
53244.195157,14.801,0.02
53244.20533,14.808,0.02
53244.215561,14.825,0.022
53244.225741,14.864,0.022
53283.117705,14.784,0.015
53283.127894,14.76,0.013
53283.138079,14.77,0.015
53283.148291,14.755,0.015
53283.158495,14.819,0.015
53303.076707,14.773,0.022
53303.088634,14.833,0.022
53303.100578,14.872,0.026
53303.11252,14.916,0.026
53303.124475,14.961,0.03
53390.477253,14.832,0.018
53390.489961,14.788,0.018
53390.502662,14.907,0.02
53390.515374,14.939,0.018
53390.528541,15.07,0.024
53400.492549,14.732,0.018
53400.505198,14.783,0.018
53400.517849,14.826,0.018
53400.530513,14.875,0.018
53429.392354,14.691,0.02
53429.403641,14.733,0.02
53429.414942,14.728,0.02
53429.426229,14.833,0.022
53429.437513,14.889,0.022
53461.390125,14.764,0.015
53461.400473,14.781,0.015
53461.410778,14.802,0.015
53461.421143,14.815,0.017
53461.431463,14.848,0.015
53489.309597,14.965,0.022
53489.320181,15.019,0.022
53489.332419,15.033,0.02
53489.344577,15.052,0.02
53489.355863,14.949,0.022
53535.269734,14.822,0.017
53535.279673,14.829,0.017
53535.289617,14.809,0.017
53535.299608,14.801,0.015
53535.309607,14.827,0.017
53563.236066,14.983,0.026
53563.246685,14.966,0.018
53563.257255,14.94,0.018
53607.196653,15.01,0.039
53607.2192,14.961,0.041
53635.113094,14.781,0.015
53635.123619,14.781,0.015
53635.134061,14.755,0.013
53635.144468,14.733,0.013
53635.154902,14.725,0.017
53664.079805,14.638,0.015
53664.102004,14.733,0.018
53664.11296,14.865,0.02
53664.123892,14.887,0.026
53755.473037,14.891,0.024
53755.485796,14.955,0.024
53755.498733,15.024,0.024
53755.511503,15.061,0.024
53755.524341,15.013,0.022
53775.511693,14.91,0.057
53803.411996,14.911,0.018
53803.425153,14.959,0.02
53803.437139,15.061,0.02
53803.449107,15.067,0.018
53803.461232,15.044,0.018
53829.324819,14.922,0.04
53829.335449,14.874,0.023
53829.34603,14.897,0.023
53829.356617,14.949,0.026
53833.323884,14.866,0.016
53833.335539,14.899,0.016
53833.346327,14.907,0.016
53833.357886,14.964,0.016
53833.368693,15.013,0.018
53858.30227,15.113,0.033
53858.31233,15.122,0.033
53858.322283,15.119,0.059
53864.295341,14.835,0.026
53864.304956,14.842,0.026
53864.314804,14.862,0.026
53864.324479,14.882,0.026
53864.334164,14.923,0.026
53876.268465,14.965,0.04
53876.279389,15.005,0.068
53876.290279,15.064,0.045
53905.268857,14.876,0.016
53905.27849,14.862,0.016
53905.288395,14.821,0.015
53905.298018,14.853,0.016
53905.307672,14.822,0.015
53934.220661,14.859,0.018
53934.232008,14.918,0.02
53934.24674,14.936,0.025
53934.257386,14.949,0.025
53934.267864,15.059,0.026
53955.245856,15.046,0.043
53991.120855,14.881,0.021
53991.132716,14.827,0.018
53991.144674,14.817,0.02
53991.156576,14.798,0.018
53991.16821,14.837,0.015
54021.082223,14.828,0.018
54021.093719,14.832,0.018
54021.10538,14.869,0.02
54021.116834,14.895,0.02
54021.128289,14.937,0.021
54139.444871,14.82,0.026
54139.456658,14.837,0.03
54139.480244,14.854,0.03
54139.491999,14.868,0.026
54167.392211,15.036,0.024
54167.403492,15.093,0.024
54167.414633,15.049,0.022
54167.425771,14.992,0.022
54167.436889,14.938,0.02
54524.452506,14.984,0.021
54524.464507,14.947,0.021
54524.476223,14.867,0.02
54524.487715,14.853,0.02
54524.499346,14.845,0.021
54540.44542,14.739,0.033
54620.268581,14.93,0.04
54620.299764,15.032,0.041
54620.309942,15.072,0.043
