mjd,m,merr
52692.460845,16.332,0.071
52692.475549,16.302,0.069
52692.489561,16.489,0.081
52692.50353,16.616,0.089
52692.517501,16.654,0.094
52713.449182,16.305,0.076
52713.462361,16.504,0.084
52713.475437,16.693,0.096
52713.488629,16.615,0.076
52720.373328,16.66,0.107
52720.385463,16.927,0.139
52720.397583,16.712,0.109
52720.422025,16.441,0.079
52743.368208,16.776,0.135
52743.380162,16.371,0.087
52743.392065,16.377,0.091
52743.403722,16.366,0.101
52743.415385,16.248,0.069
52749.353508,16.531,0.083
52749.364504,16.563,0.086
52749.375393,16.811,0.107
52749.386291,16.892,0.116
52749.398074,16.624,0.089
52780.331296,16.43,0.092
52780.341967,16.372,0.089
52780.363267,16.568,0.102
52802.278276,16.419,0.144
52802.288902,16.249,0.12
52802.299509,16.201,0.106
52802.310325,16.301,0.116
52802.32092,16.421,0.127
52829.226425,16.733,0.145
52829.236461,16.626,0.132
52829.246536,16.489,0.116
52829.256907,16.492,0.109
52829.26704,16.424,0.102
52839.231231,16.374,0.066
52926.103031,16.381,0.063
52926.114421,16.371,0.068
52926.125984,16.517,0.085
52926.137692,16.677,0.107
52926.149058,16.59,0.104
52948.0782,16.481,0.099
52948.090809,16.655,0.119
52948.10336,16.624,0.119
52948.115798,16.643,0.124
52948.12825,16.57,0.12
53044.47765,16.363,0.081
53074.397878,16.681,0.129
53074.408939,16.562,0.109
53074.42012,16.658,0.119
53074.431163,16.412,0.109
53074.442262,16.361,0.087
53104.36322,16.477,0.086
53104.37452,16.541,0.092
53104.385639,16.732,0.107
53104.39638,16.798,0.112
53104.407084,16.651,0.096
53126.294444,16.243,0.074
53126.304249,16.222,0.068
53126.314047,16.289,0.071
53126.323781,16.387,0.076
53126.333902,16.317,0.069
53156.290941,16.316,0.076
53156.299542,16.297,0.076
53156.308002,16.293,0.073
53156.316351,16.3,0.073
53156.324762,16.365,0.076
53162.267576,16.768,0.111
53162.277291,16.688,0.114
53162.286896,16.447,0.091
53162.296586,16.557,0.109
53162.306249,16.518,0.104
53192.223617,16.432,0.058
53192.233433,16.46,0.069
53192.242696,16.491,0.074
53192.252117,16.591,0.087
53192.261331,16.833,0.117
53222.213517,16.432,0.063
53222.223,16.401,0.066
53222.232523,16.377,0.063
53222.242316,16.453,0.068
53222.252594,16.604,0.083
53251.178208,16.348,0.066
53251.190172,16.218,0.066
53275.105698,16.426,0.087
53275.119005,16.782,0.125
53275.144077,16.7,0.122
53275.156551,16.286,0.089
53452.427359,16.386,0.163
53476.33525,16.45,0.067
53476.345649,16.572,0.074
53476.356454,16.736,0.078
53476.366833,16.626,0.068
53476.37757,16.479,0.061
53481.402744,16.503,0.085
53481.403635,16.481,0.083
53481.41166,16.389,0.076
53481.412558,16.351,0.072
53481.420556,16.423,0.078
53481.421456,16.325,0.07
53481.429464,16.457,0.078
53481.430363,16.315,0.067
53481.438417,16.23,0.061
53481.439322,16.282,0.061
53488.354446,16.245,0.067
53488.364983,16.346,0.074
53488.375001,16.408,0.074
53488.385624,16.449,0.076
53488.395688,16.582,0.087
53534.260975,16.383,0.067
53534.270668,16.308,0.059
53534.280575,16.319,0.059
53534.290467,16.29,0.057
53534.300208,16.258,0.055
53562.230543,16.647,0.107
53593.217347,16.592,0.08
53593.229267,16.686,0.078
53593.241454,16.614,0.076
53593.253503,16.448,0.065
53593.265873,16.356,0.059
53608.185486,16.57,0.057
53608.196612,16.443,0.054
53608.207719,16.316,0.046
53608.218889,16.266,0.046
53608.230018,16.285,0.046
53860.313693,16.25,0.046
53860.32363,16.306,0.048
53860.333484,16.282,0.045
53860.34333,16.398,0.046
53860.353215,16.519,0.048
53863.302998,16.188,0.073
53863.312628,16.199,0.073
53863.323312,16.197,0.071
53863.332901,16.234,0.069
53863.342495,16.184,0.066
53906.27352,16.358,0.134
53906.283427,16.315,0.112
53906.2938,16.469,0.127
53906.30342,16.423,0.158
53906.313362,16.604,0.178
53934.221497,16.429,0.073
53934.232524,16.46,0.081
53934.247256,16.398,0.094
53934.257915,16.354,0.078
53934.268381,16.379,0.091
53965.196006,16.715,0.132
53965.208384,16.611,0.079
53965.238016,16.35,0.119
54013.117103,16.457,0.149
54013.129968,16.517,0.155
54020.117872,16.329,0.059
54020.13044,16.443,0.068
54020.141847,16.518,0.076
54020.153908,16.663,0.099
54020.165327,16.727,0.111
54049.060307,16.605,0.079
54049.072547,16.559,0.076
54049.084759,16.457,0.073
54049.097858,16.357,0.068
54107.497027,16.32,0.107
54107.509963,16.553,0.129
54107.522859,16.619,0.13
54107.53575,16.682,0.137
54128.476331,16.312,0.059
54128.488889,16.389,0.061
54128.501444,16.571,0.073
54128.514011,16.706,0.081
54128.527808,16.817,0.089
54139.445534,16.721,0.126
54139.45732,16.675,0.148
54139.469176,16.406,0.157
54139.480908,16.349,0.102
54139.492661,16.289,0.085
54167.392921,16.332,0.08
54167.4042,16.309,0.078
54167.415334,16.473,0.081
54167.42647,16.545,0.085
54167.437584,16.689,0.1
54523.449031,16.666,0.073
54523.460863,16.763,0.076
54523.473009,16.677,0.069
54523.485646,16.476,0.058
54523.497264,16.351,0.051
54554.36973,16.455,0.059
54554.381593,16.333,0.054
54554.39347,16.245,0.051
54554.405326,16.2,0.049
54554.417628,16.241,0.049
54573.357154,16.202,0.083
54573.368329,16.414,0.099
54573.379235,16.276,0.087
54573.390474,16.441,0.097
54573.40128,16.609,0.111
54588.301779,16.268,0.069
54588.311635,16.377,0.074
54588.321564,16.278,0.066
54588.331761,16.4,0.074
54588.341693,16.514,0.081
54621.267588,16.629,0.092
54621.278717,16.489,0.083
54621.288745,16.454,0.079
54621.29883,16.373,0.076
54621.308957,16.386,0.076
