mjd,m,merr
52608.457865,14.875,0.022
52608.472828,14.905,0.018
52608.487712,14.936,0.037
52608.502663,14.979,0.031
52619.452108,15.134,0.02
52619.467092,15.142,0.021
52619.482501,15.161,0.021
52619.497487,15.098,0.021
52619.512475,15.096,0.02
52641.387913,15.101,0.017
52641.402878,15.028,0.017
52641.417761,14.952,0.015
52641.432647,14.89,0.015
52641.447516,14.807,0.013
52646.388684,14.971,0.017
52646.403495,14.893,0.017
52646.417966,14.804,0.015
52646.432507,14.772,0.015
52646.447059,14.713,0.015
52647.38627,14.973,0.016
52647.400837,14.91,0.016
52647.415671,14.796,0.015
52647.430492,14.749,0.015
52647.445479,14.692,0.015
52667.389022,14.966,0.015
52667.404347,14.998,0.017
52667.41983,15.02,0.017
52667.435101,15.034,0.018
52667.450497,15.05,0.018
52672.324886,14.944,0.017
52672.338828,14.992,0.017
52672.352984,14.997,0.015
52672.366904,15.036,0.017
52672.38091,15.04,0.017
52673.355342,15.046,0.016
52705.238673,15.22,0.018
52705.241256,15.198,0.017
52705.251636,15.157,0.018
52705.255252,15.139,0.015
52705.264613,15.119,0.016
52705.269348,15.089,0.015
52705.277643,15.039,0.016
52705.282409,15.012,0.015
52705.295662,14.957,0.013
52707.246947,15.128,0.017
52707.260325,15.056,0.015
52707.273505,14.993,0.015
52707.286768,14.91,0.013
52707.30005,14.863,0.013
52708.24111,15.107,0.02
52708.255039,15.026,0.018
52708.268105,14.991,0.018
52708.28125,14.903,0.016
52708.294397,14.829,0.015
52729.230076,14.941,0.015
52729.241713,14.972,0.015
52729.253181,14.996,0.015
52729.265348,15.018,0.015
52729.276841,15.009,0.015
52734.251288,15.066,0.017
52734.263724,15.076,0.017
52734.27588,15.079,0.05
52738.183474,14.997,0.017
52738.194889,15.021,0.018
52738.206426,15.037,0.018
52738.217862,15.076,0.018
52738.229334,15.075,0.018
52755.195321,15.776,0.038
52755.195665,15.235,0.023
52755.207209,15.736,0.038
52755.207552,15.218,0.023
52755.21917,15.806,0.04
52755.219512,15.174,0.023
52755.231103,15.808,0.041
52755.231446,15.173,0.023
52755.243074,15.571,0.036
52755.243414,15.072,0.023
52760.14863,15.797,0.036
52760.148976,15.195,0.021
52760.160899,15.774,0.035
52760.161246,15.182,0.021
52760.172929,15.707,0.033
52760.173275,15.169,0.021
52760.184964,15.649,0.033
52760.185311,15.144,0.02
52760.197036,15.504,0.028
52760.197383,15.098,0.02
52765.147635,15.787,0.041
52765.147976,15.143,0.023
52765.159577,15.702,0.038
52765.159919,15.048,0.021
52765.183484,15.464,0.031
52765.183826,14.943,0.02
52765.195997,15.417,0.03
52765.196338,14.873,0.018
52938.428034,15.072,0.025
52938.440069,15.031,0.021
52938.452055,15.019,0.02
52938.464009,15.024,0.02
52938.475921,14.955,0.016
52965.455732,14.954,0.061
52965.468329,15.09,0.067
52973.425448,15.004,0.018
52973.437469,15.093,0.018
52973.44963,15.089,0.018
52973.461959,15.149,0.018
52973.473873,15.136,0.018
52995.385306,14.805,0.01
52995.397727,14.732,0.008
52995.410412,14.796,0.008
52995.422802,14.844,0.008
52995.435729,14.842,0.01
52997.440907,14.905,0.025
53027.401067,15.213,0.012
53027.414061,15.206,0.012
53027.426908,15.213,0.012
53027.439733,15.166,0.012
53027.452514,15.14,0.012
53029.369936,15.163,0.016
53033.329669,15.131,0.017
53033.341924,15.135,0.017
53033.354064,15.164,0.017
53033.366186,15.129,0.017
53054.301295,14.83,0.011
53054.314896,14.851,0.011
53054.331526,14.859,0.011
53054.345071,14.91,0.011
53054.357079,14.911,0.011
53058.303845,14.826,0.008
53058.328272,14.898,0.008
53058.340568,14.923,0.008
53061.287886,14.825,0.008
53061.299903,14.847,0.008
53061.31195,14.883,0.008
53061.32408,14.91,0.008
53061.335994,14.932,0.008
53080.223743,14.94,0.013
53080.23467,14.966,0.013
53080.245599,15.016,0.015
53080.260591,15.054,0.015
53080.271819,15.067,0.015
53083.291812,15.194,0.013
53083.303108,15.171,0.015
53083.314435,15.213,0.013
53083.325697,15.171,0.015
53083.336839,15.147,0.013
53085.333536,15.113,0.015
53085.345764,15.052,0.013
53085.357197,14.993,0.015
53085.370358,14.931,0.023
53085.381568,14.842,0.025
53111.184028,14.796,0.015
53111.194799,14.794,0.015
53111.20555,14.81,0.015
53111.216266,14.823,0.017
53111.227008,14.88,0.017
53114.199514,14.8,0.008
53114.210681,14.822,0.01
53114.221677,14.85,0.01
53114.232356,14.858,0.01
53114.242993,14.912,0.01
53116.20275,14.804,0.016
53116.213605,14.833,0.023
53116.224298,14.831,0.038
53116.234997,14.956,0.028
53116.247705,14.942,0.025
53139.153951,15.078,0.018
53139.163514,15.103,0.02
53139.173227,15.177,0.02
53139.182823,15.179,0.022
53139.192321,15.163,0.022
53142.160021,15.167,0.016
53142.173175,15.196,0.016
53142.182704,15.174,0.016
53142.192541,15.213,0.015
53142.202183,15.217,0.036
53144.170382,15.206,0.022
53144.17977,15.135,0.02
53144.189161,15.164,0.03
53144.208518,15.145,0.037
53315.462858,15.108,0.038
53327.437395,14.823,0.02
53346.384704,14.668,0.015
53346.39696,14.717,0.015
53346.409605,14.761,0.015
53346.422077,14.806,0.016
53346.43429,14.868,0.016
53347.441608,14.896,0.015
53347.455428,14.978,0.016
53347.469468,15.016,0.016
53347.483258,15.082,0.018
53351.424655,14.971,0.02
53351.438917,15.031,0.02
53351.453358,15.064,0.02
53351.468283,15.115,0.023
53351.483025,15.148,0.023
53352.449822,15.062,0.02
53352.464778,15.143,0.021
53352.479537,15.154,0.023
53352.494224,15.186,0.025
53352.509051,15.213,0.025
53353.417867,15.006,0.018
53353.44608,15.067,0.02
53353.460277,15.122,0.021
53353.474318,15.156,0.021
53383.34876,14.723,0.013
53383.362912,14.739,0.013
53383.375994,14.743,0.013
53383.389645,14.762,0.013
53383.404033,14.805,0.013
53403.356796,15.027,0.015
53403.369928,15.075,0.015
53403.383465,15.136,0.018
53403.397721,15.151,0.018
53403.411304,15.202,0.02
53466.263971,15.198,0.02
53466.273838,15.194,0.02
53466.283476,15.184,0.022
53466.29405,15.177,0.02
53466.304408,15.178,0.022
53496.149632,14.768,0.017
53496.159567,14.758,0.017
53496.169642,14.771,0.017
53496.179592,14.778,0.017
53496.189563,14.82,0.018
53503.181872,14.852,0.018
53503.190605,14.869,0.017
53503.199449,14.905,0.018
53503.209293,14.934,0.02
53503.219685,15.003,0.022
53704.451986,14.736,0.013
53704.464505,14.693,0.013
53704.476945,14.745,0.013
53704.489596,14.776,0.015
53704.502263,14.813,0.015
53707.452625,14.71,0.018
53707.465423,14.775,0.018
53707.478048,14.77,0.02
53707.490681,14.809,0.015
53707.503281,14.838,0.015
53710.447111,14.759,0.017
53710.45975,14.786,0.018
53710.473031,14.81,0.018
53710.485687,14.836,0.018
53710.498276,14.877,0.018
53734.411119,15.063,0.017
53734.424064,15.135,0.017
53734.437017,15.159,0.018
53734.450245,15.151,0.018
53734.463354,15.182,0.02
53746.343372,15.103,0.028
53746.356791,15.076,0.028
53746.369306,15.129,0.028
53746.382154,15.138,0.028
53746.394623,15.145,0.028
53758.343708,14.854,0.013
53758.356216,14.74,0.013
53758.368738,14.707,0.013
53758.381468,14.764,0.013
53758.394095,14.788,0.015
53787.419438,15.193,0.024
53787.431356,15.166,0.022
53787.443388,15.148,0.024
53787.455493,15.106,0.024
53789.340757,15.147,0.052
53789.352626,15.017,0.063
53789.364497,15.202,0.063
53789.376375,15.159,0.026
53789.388243,15.196,0.022
53791.295695,15.045,0.013
53791.307735,15.1,0.015
53791.320032,15.139,0.016
53791.332117,15.164,0.016
53791.344068,15.204,0.016
53792.338751,15.148,0.018
53792.350532,15.187,0.024
53792.362314,15.193,0.024
53792.374089,15.224,0.028
53792.385869,15.196,0.024
53802.284213,15.118,0.022
53802.295587,15.133,0.024
53802.307009,15.077,0.022
53802.318407,15.033,0.022
53802.329804,14.963,0.048
53817.20987,14.909,0.015
53817.221754,14.8,0.013
53817.233169,14.761,0.013
53817.244655,14.742,0.013
53817.256216,14.763,0.013
53821.289962,14.84,0.015
53821.305387,14.895,0.02
53821.333029,14.931,0.041
53821.348913,14.999,0.026
53824.289603,14.85,0.022
53824.303506,14.943,0.052
53824.317697,14.815,0.072
53824.335697,15.031,0.035
53824.350245,15.039,0.052
53828.286437,14.85,0.041
53828.298636,14.969,0.022
53828.313379,15.0,0.02
53828.34342,15.068,0.028
53831.184851,14.717,0.018
53831.194406,14.719,0.018
53831.203953,14.701,0.018
53831.213514,14.709,0.018
53831.22308,14.721,0.018
53845.186088,14.936,0.018
53845.197189,15.016,0.02
53845.20835,14.999,0.02
53845.219419,15.045,0.021
53845.230506,15.093,0.023
53846.23984,15.115,0.028
53846.250654,15.147,0.03
53846.26146,15.177,0.03
53846.272265,15.203,0.031
53846.283091,15.22,0.033
53850.146743,14.924,0.025
53850.15703,14.985,0.025
53850.167403,15.021,0.023
53850.177712,15.065,0.035
53850.188107,15.074,0.021
53851.236208,15.161,0.026
53851.247776,15.128,0.026
53851.258425,15.175,0.026
53851.26934,15.118,0.028
53851.279505,15.102,0.03
53854.214473,15.127,0.024
53854.225337,15.171,0.026
53854.238707,15.24,0.061
53854.249817,15.097,0.026
54035.440322,15.144,0.033
54035.452899,15.149,0.03
54035.464694,15.11,0.028
54035.476744,15.129,0.026
54035.488431,15.123,0.025
54053.429196,14.931,0.039
54053.452825,14.726,0.018
54053.464704,14.683,0.017
54053.476556,14.645,0.02
54056.430542,14.729,0.015
54056.442801,14.736,0.015
54056.455052,14.688,0.013
54056.46749,14.666,0.013
54056.479744,14.7,0.013
54059.436575,14.697,0.013
54059.449072,14.709,0.013
54059.461393,14.738,0.013
54059.474492,14.752,0.013
54059.487149,14.816,0.013
54060.438147,14.741,0.015
54060.45389,14.785,0.015
54060.466728,14.774,0.015
54060.481458,14.838,0.016
54060.494314,14.911,0.018
54064.444906,14.847,0.015
54064.457766,14.879,0.015
54064.470628,14.911,0.015
54064.483499,14.973,0.015
54064.49637,14.988,0.015
54082.39599,15.074,0.026
54082.408876,15.053,0.024
54082.422118,15.06,0.024
54082.435004,15.047,0.022
54082.447903,15.04,0.022
54085.460994,14.855,0.015
54085.473952,14.777,0.013
54085.486914,14.739,0.011
54085.499881,14.722,0.011
54085.512842,14.767,0.013
54091.349821,15.225,0.025
54091.363003,15.178,0.025
54091.375635,15.16,0.023
54091.387542,15.119,0.021
54091.399439,15.078,0.021
54114.358976,14.718,0.015
54114.371724,14.762,0.018
54149.330111,14.876,0.011
54149.342195,14.827,0.009
54149.354347,14.755,0.009
54149.366454,14.714,0.009
54149.378585,14.708,0.009
54153.277035,15.09,0.015
54153.288526,15.054,0.015
54153.300024,14.982,0.015
54153.311524,14.893,0.013
54153.323098,14.783,0.013
54155.293577,14.937,0.015
54155.30519,14.822,0.013
54155.316872,14.717,0.011
54155.328611,14.677,0.011
54155.340817,14.674,0.011
54174.219344,14.811,0.015
54174.230089,14.82,0.013
54174.240921,14.868,0.013
54174.251854,14.868,0.013
54174.262679,14.886,0.015
54174.26817,14.906,0.013
54174.278884,14.931,0.013
54174.289578,14.952,0.015
54174.300287,14.97,0.022
54174.311001,15.045,0.035
54177.330362,15.12,0.039
54180.22924,15.016,0.018
54180.239825,15.01,0.016
54180.250172,15.051,0.016
54180.260666,15.053,0.016
54180.271088,15.087,0.016
54180.284233,15.065,0.013
54180.295001,15.059,0.013
54180.306064,15.049,0.013
54180.316706,15.084,0.013
54180.327399,15.09,0.013
54200.174437,15.147,0.035
54200.184229,15.195,0.087
54200.203457,15.092,0.036
54200.212855,15.155,0.033
54205.222849,14.994,0.017
54205.232036,14.915,0.015
54205.241309,14.869,0.015
54205.250495,14.8,0.013
54205.259718,14.737,0.013
54208.218406,14.904,0.013
54208.227423,14.835,0.013
54208.236485,14.732,0.011
54208.245562,14.705,0.011
54208.254641,14.674,0.011
54212.226317,14.655,0.015
54212.235339,14.624,0.015
54212.244355,14.687,0.015
54212.253511,14.673,0.015
54212.262671,14.684,0.015
54416.44004,15.103,0.017
54416.452499,15.123,0.017
54416.464821,15.169,0.017
54416.477144,15.156,0.017
54416.489488,15.168,0.017
54478.45425,14.899,0.045
54478.46637,14.727,0.028
54478.478785,14.643,0.025
54478.491095,14.645,0.026
54478.503224,14.659,0.025
54481.274287,15.012,0.02
54481.287198,15.089,0.02
54481.300133,15.129,0.018
54481.313053,15.122,0.018
54481.325971,15.145,0.017
54497.337855,14.911,0.015
54497.350427,14.88,0.009
54497.362989,14.878,0.011
54497.375541,14.883,0.013
54497.38806,14.901,0.015
54505.339153,15.019,0.011
54505.351422,15.032,0.011
54505.363728,15.028,0.011
54505.375992,15.052,0.011
54505.388526,15.066,0.011
54507.392516,15.147,0.021
54507.406221,15.158,0.021
54507.418122,15.116,0.021
54507.430112,15.14,0.021
54507.442007,15.097,0.021
54521.39567,15.026,0.018
54521.407427,14.944,0.022
54521.419177,14.861,0.018
54521.430935,14.791,0.018
54521.442703,14.777,0.018
54526.283982,15.175,0.013
54526.295449,15.194,0.013
54526.30701,15.196,0.013
54526.318504,15.22,0.013
54526.330165,15.215,0.013
54534.287943,15.219,0.013
54534.298895,15.188,0.011
54534.309826,15.147,0.011
54534.320737,15.101,0.011
54535.336882,15.018,0.025
54535.347933,14.886,0.023
54535.359958,14.796,0.021
54535.371234,14.707,0.02
54535.382249,14.656,0.02
54537.210732,15.19,0.011
54537.211072,15.178,0.011
54537.221851,15.203,0.011
54537.222039,15.22,0.011
54537.233018,15.227,0.011
54537.233204,15.223,0.011
54537.244117,15.224,0.011
54537.244304,15.24,0.011
54537.255628,15.223,0.011
54537.255815,15.226,0.013
54540.165074,15.11,0.017
54540.175973,15.125,0.017
54540.187087,15.182,0.017
54540.19797,15.193,0.017
54540.208976,15.19,0.017
54552.300809,14.914,0.013
54552.312902,14.943,0.013
54552.324975,14.929,0.015
54552.337235,14.935,0.015
54552.349439,14.963,0.017
54558.123469,14.753,0.011
54558.135122,14.742,0.011
54558.146681,14.72,0.011
54558.158242,14.788,0.013
54558.169804,14.842,0.013
54580.189313,15.106,0.017
54580.199937,15.158,0.017
54580.210547,15.196,0.018
54580.221159,15.169,0.018
54580.23183,15.183,0.02
54583.200089,15.208,0.02
54590.149668,15.254,0.036
54590.159339,15.29,0.035
54590.169027,15.238,0.036
54590.178672,15.285,0.036
54590.188325,15.265,0.036
54590.200441,15.211,0.022
54590.210746,15.2,0.022
54590.221104,15.113,0.018
54590.231479,15.086,0.018
54590.241821,15.027,0.018
