mjd,m,merr
52639.372127,15.833,0.028
52639.386909,15.875,0.03
52639.401587,15.969,0.033
52639.416554,16.048,0.035
52639.431599,16.046,0.033
52643.418315,16.314,0.049
52643.434467,16.374,0.049
52643.467112,16.429,0.048
52649.382345,16.47,0.048
52649.39854,16.469,0.05
52649.415174,16.474,0.052
52649.432812,16.506,0.054
52649.449604,16.502,0.054
52670.347259,16.043,0.038
52670.363163,16.107,0.041
52670.378964,16.178,0.043
52670.394495,16.244,0.046
52670.413009,16.188,0.046
52671.351443,16.095,0.038
52671.411718,16.268,0.046
52672.313588,16.1,0.05
52672.32752,16.067,0.037
52672.341527,16.113,0.039
52672.355627,16.211,0.037
52672.36955,16.241,0.041
52674.315573,16.18,0.041
52674.332209,16.277,0.044
52674.347301,16.271,0.044
52674.361575,16.29,0.046
52674.375635,16.366,0.05
52676.280455,16.165,0.041
52676.295871,16.234,0.044
52676.311303,16.306,0.046
52676.326884,16.363,0.05
52676.342623,16.369,0.052
52677.311657,16.363,0.046
52677.326098,16.39,0.048
52697.254925,15.922,0.078
52697.268098,15.693,0.038
52697.268815,15.689,0.038
52701.245501,15.884,0.033
52701.245859,15.926,0.033
52701.258651,15.929,0.033
52701.259008,15.977,0.035
52701.271766,16.054,0.036
52701.272124,16.046,0.035
52706.241714,16.152,0.045
52706.242432,16.234,0.041
52706.269286,16.329,0.045
52706.282367,16.383,0.049
52706.283457,16.284,0.043
52706.296568,16.378,0.048
52724.235947,16.499,0.05
52724.247557,16.118,0.035
52724.259155,15.84,0.028
52724.270786,15.656,0.024
52724.282397,15.663,0.024
52729.178587,15.614,0.028
52729.178945,15.691,0.028
52729.19061,15.687,0.03
52729.19097,15.664,0.028
52729.203139,15.747,0.03
52729.214819,15.778,0.031
52729.215179,15.813,0.031
52729.227627,15.869,0.031
52732.189683,15.933,0.066
52732.190038,15.969,0.091
52732.201572,15.93,0.043
52732.201928,15.996,0.036
52732.213862,16.007,0.041
52732.214218,16.055,0.038
52732.22628,16.058,0.048
52732.238024,16.059,0.051
52732.238381,16.162,0.046
52753.138962,16.58,0.055
52753.150848,16.6,0.057
52753.162742,16.601,0.059
52753.174633,16.677,0.063
52753.186603,16.698,0.068
52761.14634,15.837,0.085
52761.158118,15.952,0.039
52761.169887,15.99,0.039
52761.18165,16.049,0.05
52761.193483,16.087,0.063
52768.149311,15.989,0.107
52768.174319,16.21,0.139
52768.186211,16.262,0.15
52787.1625,15.862,0.037
52787.173071,15.909,0.039
52787.183596,15.918,0.048
52787.194313,15.985,0.044
52787.204945,16.045,0.048
52945.448053,16.57,0.083
52945.460189,16.57,0.079
52945.472333,16.592,0.079
52945.484549,16.536,0.076
52945.496747,16.492,0.071
52962.445862,15.842,0.028
52962.458963,15.965,0.031
52962.471455,16.018,0.031
52962.483657,16.009,0.031
52962.496381,16.091,0.033
52991.417841,15.851,0.031
52991.439109,16.005,0.033
52991.457337,15.897,0.031
52991.473033,16.1,0.031
52991.490355,16.122,0.031
53001.412712,16.464,0.033
53001.426813,16.49,0.033
53001.449443,16.526,0.035
53001.466383,16.467,0.031
53001.484478,16.525,0.033
53002.38248,16.428,0.031
53002.397204,16.473,0.033
53002.413875,16.487,0.031
53002.432265,16.587,0.033
53002.445618,16.515,0.031
53024.337038,16.052,0.02
53024.349782,16.165,0.055
53024.375513,16.197,0.044
53024.388347,16.2,0.161
53034.336297,16.503,0.054
53034.348638,16.59,0.055
53034.361335,16.521,0.054
53034.373576,16.556,0.055
53034.386222,16.595,0.057
53050.272158,15.659,0.02
53050.283753,15.665,0.018
53050.295407,15.724,0.02
53050.307003,15.798,0.022
53050.318711,15.868,0.03
53053.280853,15.947,0.03
53053.294514,16.002,0.03
53053.30715,16.047,0.041
53053.319766,16.134,0.043
53053.333082,16.153,0.033
53062.282014,16.388,0.133
53062.293445,16.473,0.061
53062.304874,16.436,0.113
53078.229919,16.32,0.044
53078.240691,16.026,0.031
53078.251447,15.789,0.078
53078.262121,15.663,0.024
53078.272728,15.655,0.022
53087.234333,16.274,0.033
53087.245305,16.277,0.028
53087.256791,16.33,0.03
53087.26797,16.304,0.03
53087.279054,16.339,0.031
53089.242963,16.311,0.033
53089.253933,16.389,0.035
53089.264876,16.411,0.036
53089.275736,16.432,0.036
53109.188437,15.723,0.026
53109.199118,15.651,0.024
53109.209824,15.731,0.026
53109.220511,15.803,0.028
53109.231321,15.872,0.03
53118.243351,16.444,0.038
53137.155923,16.187,0.044
53137.174947,15.729,0.033
53137.18449,15.665,0.031
53137.193991,15.705,0.033
53148.158858,16.341,0.045
53148.167776,16.407,0.056
53148.176635,16.47,0.068
53148.185926,16.303,0.058
53148.195078,16.359,0.053
53328.411458,16.577,0.101
53328.423989,16.396,0.158
53348.414137,16.158,0.046
53348.428416,16.174,0.048
53348.442723,16.216,0.051
53348.456969,16.283,0.053
53348.47123,16.368,0.073
53354.423685,16.565,0.056
53354.438127,16.569,0.053
53354.452558,16.584,0.053
53354.467376,16.62,0.053
53354.481708,16.582,0.051
53384.384514,16.905,0.392
53384.412699,16.723,0.344
53404.308892,15.867,0.013
53404.321734,15.909,0.013
53404.335694,15.963,0.013
53404.368065,16.059,0.015
53443.328462,16.55,0.05
53443.339151,16.548,0.055
53443.349812,16.549,0.054
53443.360466,16.608,0.076
53443.371125,16.574,0.096
53473.221816,16.462,0.059
53473.231595,16.448,0.059
53473.241814,16.497,0.061
53473.251629,16.453,0.059
53473.261774,16.529,0.063
53500.1433,16.259,0.048
53500.154555,16.232,0.046
53500.164697,16.291,0.048
53500.174716,16.345,0.054
53500.185089,16.331,0.052
53682.465502,16.543,0.076
53682.478073,16.529,0.078
53682.490474,16.483,0.074
53682.503258,16.549,0.07
53702.379242,16.055,0.037
53702.395259,16.136,0.039
53702.408613,16.165,0.039
53702.421599,16.216,0.043
53702.434425,16.278,0.044
53714.393881,16.543,0.055
53714.406889,16.579,0.057
53714.419742,16.588,0.055
53714.43253,16.595,0.055
53714.445271,16.555,0.052
53740.344571,16.507,0.05
53740.357554,16.489,0.05
53740.370303,16.534,0.052
53740.383099,16.534,0.052
53740.396018,16.555,0.054
53771.28416,16.561,0.072
53771.298023,16.598,0.072
53771.310817,16.533,0.085
53771.323645,16.518,0.065
53786.280537,15.86,0.026
53786.292426,15.938,0.03
53786.304421,15.968,0.031
53786.316318,16.059,0.035
53786.328229,16.096,0.035
53788.277598,16.018,0.039
53788.28948,16.087,0.054
53788.301411,16.137,0.041
53788.31414,16.167,0.044
53788.326514,16.198,0.037
53789.279478,16.102,0.059
53789.285879,16.098,0.051
53789.291428,16.185,0.059
53789.298373,16.147,0.049
53789.303356,16.137,0.052
53789.311252,16.209,0.058
53789.315294,16.329,0.083
53789.32398,16.066,0.208
53789.327218,16.254,0.142
53789.336511,16.296,0.114
53790.276195,16.096,0.039
53790.284494,16.168,0.038
53790.28793,16.154,0.041
53790.29641,16.194,0.041
53790.299731,16.227,0.046
53790.308391,16.244,0.043
53790.311486,16.27,0.046
53790.320366,16.271,0.043
53790.323235,16.269,0.046
53790.33236,16.306,0.043
53812.256152,15.76,0.035
53812.267764,15.701,0.033
53812.279059,15.755,0.035
53812.290664,15.787,0.038
53843.20145,15.711,0.026
53843.21288,15.735,0.028
53843.224401,15.808,0.03
53843.236184,15.831,0.031
53843.247833,15.966,0.036
53854.188793,16.386,0.063
53854.199195,16.416,0.191
53854.209472,16.374,0.078
53854.219723,16.445,0.064
53854.229939,16.442,0.064
53882.157323,16.137,0.035
53882.178968,16.179,0.035
53886.169029,16.498,0.107
53886.179639,16.419,0.102
53886.19034,16.592,0.122
53886.201093,16.579,0.124
53886.211904,16.497,0.12
54029.438162,16.394,0.078
54029.450534,16.357,0.073
54029.463139,16.463,0.076
54029.474826,16.484,0.083
54029.487275,16.454,0.069
54055.435692,16.28,0.054
54055.448526,16.237,0.053
54055.461068,16.326,0.056
54055.474239,16.356,0.054
54055.489442,16.333,0.053
54067.396238,16.486,0.054
54067.409171,16.473,0.053
54067.421907,16.578,0.054
54067.435232,16.596,0.051
54067.448073,16.492,0.046
54085.399367,16.286,0.053
54085.412593,16.342,0.101
54085.425507,16.352,0.064
54085.438515,16.383,0.061
54085.451541,16.419,0.084
54110.348344,15.934,0.041
54110.364127,16.046,0.044
54110.378414,16.074,0.046
54110.393757,16.142,0.055
54110.412022,16.232,0.057
54123.322178,16.527,0.052
54123.334634,16.587,0.054
54123.346895,16.579,0.054
54123.359105,16.542,0.052
54123.37131,16.532,0.052
54156.260285,16.735,0.081
54156.27135,16.719,0.078
54156.28251,16.679,0.074
54156.293982,16.742,0.079
54206.180339,16.287,0.051
54206.189532,16.269,0.051
54206.19872,16.28,0.051
54206.208315,16.368,0.054
54206.217625,16.385,0.058
54413.44135,16.43,0.039
54413.453556,16.48,0.039
54413.465772,16.478,0.039
54413.477964,16.491,0.039
54413.49019,16.484,0.037
54420.446606,16.561,0.043
54420.459254,16.545,0.041
54420.471877,16.563,0.043
54452.388296,16.597,0.041
54452.401449,16.598,0.041
54452.4148,16.673,0.043
54452.428085,16.695,0.043
54452.441228,16.628,0.041
54476.338042,16.514,0.031
54476.350899,16.523,0.03
54476.363746,16.523,0.031
54476.376596,16.528,0.033
54476.389436,16.558,0.033
54484.247039,16.444,0.083
54484.260186,16.398,0.08
54533.226138,16.425,0.031
54533.23713,16.466,0.031
54533.24811,16.472,0.031
54533.259139,16.535,0.031
54533.270136,16.553,0.031
54539.15925,16.51,0.054
54539.169873,16.537,0.05
54539.180651,16.52,0.05
54539.191475,16.451,0.043
54539.202151,16.539,0.044
54567.181095,16.484,0.046
54567.192477,16.52,0.048
54567.203553,16.496,0.048
54567.214751,16.507,0.048
54567.226122,16.53,0.048
54574.186626,16.675,0.135
54574.197183,16.612,0.13
54574.207757,16.48,0.117
54574.218332,16.359,0.104
54574.228926,15.967,0.078
54582.191141,16.022,0.035
54582.231998,16.014,0.038
54587.195936,16.338,0.046
54587.206483,16.383,0.048
54587.217072,16.399,0.048
54587.227626,16.422,0.054
54587.23812,16.455,0.054
54595.151972,16.555,0.065
54595.161871,16.47,0.061
54595.17173,16.493,0.063
54595.181604,16.558,0.067
54595.191552,16.535,0.067
54613.155029,16.117,0.063
54613.165309,16.182,0.068
54613.175617,16.154,0.066
54613.185939,16.146,0.066
54613.196136,16.195,0.073
