mjd,m,merr
52620.419849,14.722,0.015
52620.435411,14.747,0.013
52620.450511,14.74,0.013
52636.361909,15.023,0.02
52636.376054,14.97,0.018
52636.390228,14.904,0.017
52636.404424,14.83,0.015
52636.418628,14.791,0.015
52650.287231,14.889,0.015
52650.304179,14.932,0.015
52650.318659,14.935,0.015
52650.332992,14.951,0.013
52650.347233,14.962,0.013
52653.316615,14.739,0.015
52653.331999,14.779,0.015
52653.347334,14.776,0.015
52653.36271,14.786,0.015
52653.378171,14.789,0.015
52680.295371,14.67,0.016
52680.36859,14.733,0.013
52680.385097,14.748,0.013
52680.402451,14.767,0.015
52695.253558,14.806,0.015
52695.270491,14.813,0.011
52695.286272,14.821,0.011
52695.302723,14.832,0.011
52695.319158,14.868,0.013
52712.183424,14.812,0.033
52712.237576,14.952,0.031
52722.263785,14.723,0.009
52722.280379,14.739,0.011
52722.294579,14.742,0.011
52722.310434,14.756,0.011
52722.326754,14.771,0.011
52751.18972,14.843,0.015
52751.201711,14.849,0.02
52751.213341,14.79,0.015
52751.231079,14.75,0.013
52751.242736,14.739,0.013
52770.151555,14.802,0.035
52781.156836,14.914,0.015
52781.167648,14.928,0.017
52781.178548,14.931,0.017
52781.189374,14.94,0.017
52781.200176,14.933,0.017
52927.438348,14.795,0.03
52927.45026,14.834,0.03
52927.461948,14.828,0.028
52927.473435,14.839,0.028
52927.484973,14.854,0.026
52977.392293,15.053,0.018
52977.403419,15.034,0.018
52977.414629,15.038,0.016
52977.42583,15.022,0.015
52977.437142,15.03,0.015
52978.387073,14.878,0.018
52978.399906,14.88,0.017
52978.412669,14.871,0.017
52978.425476,14.882,0.017
52978.43811,14.885,0.017
52988.334567,15.033,0.018
52988.347585,15.006,0.018
52988.36052,15.029,0.018
52988.373499,15.032,0.018
52988.386394,15.025,0.018
52989.45648,14.933,0.013
52989.469254,14.944,0.015
52989.482063,14.926,0.016
52989.494985,14.958,0.016
52989.507886,14.967,0.015
52990.459696,14.769,0.013
52990.459846,14.746,0.011
52990.473654,14.687,0.011
52990.499926,14.68,0.011
52990.512954,14.695,0.011
52991.49549,14.953,0.011
52991.508711,14.971,0.013
52991.521852,14.987,0.015
53008.336066,14.963,0.022
53008.367592,15.013,0.02
53008.380143,15.076,0.037
53038.332198,14.805,0.016
53045.282161,14.726,0.013
53045.294243,14.716,0.013
53045.311747,14.721,0.013
53045.324131,14.723,0.013
53045.337084,14.766,0.015
53065.227314,14.782,0.013
53065.239257,14.762,0.012
53065.251211,14.7,0.012
53065.263112,14.717,0.012
53065.275019,14.716,0.012
53094.180711,14.896,0.016
53094.190538,14.847,0.015
53094.200196,14.764,0.015
53094.209878,14.75,0.015
53096.249181,14.586,0.033
53122.203227,14.825,0.02
53122.224024,14.884,0.031
53122.234598,14.84,0.018
53125.221948,14.698,0.04
53125.231667,14.781,0.036
53134.156043,15.031,0.018
53134.165181,14.993,0.016
53134.17438,14.961,0.016
53134.183446,14.916,0.015
53134.19276,14.882,0.015
53153.164731,14.83,0.018
53153.173697,14.828,0.017
53153.182849,14.856,0.018
53153.191911,14.84,0.018
53153.200983,14.867,0.018
53155.166104,14.998,0.043
53155.175482,15.042,0.043
53155.193592,15.018,0.043
53155.202831,15.012,0.041
53163.17557,14.994,0.457
53290.439075,14.814,0.021
53290.45019,14.782,0.021
53290.461396,14.798,0.02
53290.472572,14.842,0.02
53290.483701,14.791,0.02
53312.432943,14.832,0.03
53312.445188,14.842,0.03
53312.457474,14.849,0.03
53312.469743,14.885,0.03
53312.482062,14.836,0.028
53319.407304,14.756,0.015
53319.419396,14.75,0.015
53319.431501,14.783,0.015
53319.443596,14.762,0.015
53319.455683,14.784,0.015
53330.424842,14.834,0.016
53330.438903,14.834,0.016
53330.453998,14.83,0.016
53340.37228,14.982,0.035
53340.384608,14.961,0.035
53340.39694,15.001,0.035
53340.421623,15.0,0.037
53356.407664,14.989,0.015
53356.421287,14.979,0.015
53356.435751,14.999,0.015
53356.44943,15.0,0.016
53356.464286,14.985,0.015
53358.397572,14.974,0.015
53358.410594,14.982,0.015
53358.423615,14.962,0.017
53358.436719,14.99,0.015
53358.450637,15.011,0.015
53360.355854,14.982,0.018
53360.369725,14.993,0.018
53360.383142,15.006,0.017
53360.397639,15.034,0.017
53360.414783,15.024,0.017
53362.451061,14.829,0.016
53362.464585,14.799,0.015
53386.351953,14.708,0.011
53386.364978,14.709,0.011
53386.378484,14.682,0.011
53386.391505,14.685,0.011
53386.405218,14.699,0.011
53441.226674,14.683,0.011
53441.238255,14.698,0.011
53441.249721,14.706,0.011
53441.26187,14.721,0.011
53441.273295,14.734,0.011
53490.193231,14.752,0.08
53490.203926,14.713,0.013
53490.214368,14.711,0.013
53490.224576,14.698,0.013
53490.235159,14.701,0.013
53686.448307,14.884,0.013
53686.461522,14.921,0.013
53686.474353,14.92,0.013
53686.48759,14.915,0.013
53686.500476,14.919,0.013
53697.410233,14.886,0.022
53697.422952,14.92,0.024
53697.436247,14.905,0.028
53697.450184,14.86,0.026
53697.463382,14.819,0.033
53726.41513,14.849,0.015
53726.42865,14.868,0.015
53726.442262,14.891,0.017
53726.455849,14.872,0.02
53726.469456,14.87,0.02
53756.338573,15.033,0.028
53756.351578,14.991,0.046
53756.36467,14.991,0.022
53756.377614,14.992,0.039
53756.391204,14.928,0.024
53774.291408,14.951,0.02
53774.303947,14.988,0.02
53774.316525,14.982,0.02
53774.329229,14.968,0.02
53774.341688,14.999,0.02
53802.25169,14.767,0.015
53802.263983,14.749,0.015
53802.276301,14.729,0.015
53802.288662,14.728,0.015
53802.301076,14.757,0.02
53828.229633,14.864,0.013
53828.240155,14.885,0.026
53842.18962,14.818,0.015
53842.201363,14.779,0.015
53842.212605,14.778,0.017
53842.224203,14.74,0.017
53842.235462,14.717,0.018
53876.155828,15.018,0.023
53876.16683,15.049,0.023
53876.189026,15.016,0.061
54072.388573,14.816,0.028
54072.402633,14.775,0.026
54072.416385,14.776,0.025
54072.429634,14.717,0.025
54072.442508,14.74,0.025
54080.362553,14.832,0.018
54080.37464,14.882,0.018
54080.386598,14.888,0.02
54108.335376,15.017,0.026
54108.347666,15.033,0.026
54108.359792,15.066,0.026
54108.371911,15.065,0.026
54108.384067,15.101,0.033
54125.317234,14.732,0.013
54125.329081,14.71,0.013
54125.340787,14.753,0.013
54125.352366,14.755,0.013
54125.363973,14.762,0.015
54140.298717,14.784,0.011
54140.310673,14.8,0.013
54140.32252,14.797,0.013
54140.334489,14.841,0.013
54140.34682,14.848,0.013
54157.27564,15.049,0.023
54157.287004,15.068,0.023
54157.298354,15.062,0.023
54157.309858,15.043,0.021
54212.179025,15.043,0.023
54212.187543,15.042,0.023
54212.196056,15.058,0.023
54212.204548,15.046,0.023
54212.213113,15.051,0.025
54407.459996,14.986,0.02
54407.471992,14.982,0.02
54407.484348,15.035,0.02
54416.43567,14.972,0.018
54416.448675,14.986,0.018
54416.462716,14.989,0.018
54416.475376,14.98,0.018
54416.487703,14.968,0.018
54470.335013,14.751,0.025
54483.326499,14.799,0.021
54483.338606,14.814,0.021
54483.363838,14.82,0.021
54483.376425,14.818,0.021
54497.272613,14.891,0.018
54497.284821,14.842,0.018
54497.296711,14.826,0.018
54497.309947,14.811,0.021
54497.32199,14.795,0.028
54525.278426,14.912,0.018
54525.289896,14.912,0.018
54525.301532,14.918,0.02
54525.313222,14.899,0.018
54525.324884,14.944,0.018
54558.188984,14.918,0.031
54558.200537,14.96,0.031
54558.212396,14.937,0.041
54558.224029,14.978,0.033
54558.235575,14.955,0.031
54570.187057,14.781,0.03
54570.198123,14.734,0.023
54570.209844,14.733,0.023
54570.220983,14.729,0.023
54570.232289,14.749,0.021
54586.187774,15.059,0.03
54619.158936,14.884,0.031
54619.169172,14.868,0.025
54619.179583,14.842,0.026
54619.189783,14.859,0.025
54619.200047,14.818,0.023
