mjd,m,merr
52608.45966,14.933,0.037
52608.474621,14.904,0.017
52608.489517,14.875,0.031
52608.504473,14.926,0.033
52641.389496,14.934,0.013
52641.404402,14.902,0.013
52641.419284,14.906,0.013
52641.434173,14.941,0.013
52641.449039,15.013,0.013
52646.389922,14.939,0.015
52646.404736,14.871,0.015
52646.419207,14.886,0.015
52646.433793,14.945,0.017
52646.448296,15.02,0.017
52648.333703,15.141,0.025
52648.394747,15.027,0.021
52667.390142,15.549,0.022
52667.405378,15.597,0.024
52667.420863,15.299,0.018
52667.436169,15.075,0.017
52667.45153,15.008,0.017
52672.384424,15.533,0.028
52672.399192,15.61,0.026
52672.413209,15.331,0.02
52672.427663,15.101,0.024
52672.441551,15.023,0.018
52700.360099,15.084,0.018
52700.375578,14.96,0.018
52700.3919,14.903,0.016
52700.407386,14.895,0.018
52700.422756,14.901,0.02
52705.239147,14.979,0.012
52705.239864,14.924,0.015
52705.252108,14.99,0.01
52705.252823,14.897,0.015
52705.265086,14.975,0.01
52705.265866,14.918,0.015
52705.278832,14.96,0.015
52705.291083,15.089,0.012
52705.2918,15.06,0.016
52707.244906,14.953,0.016
52707.25809,14.921,0.015
52707.270806,14.927,0.012
52707.271164,14.882,0.015
52707.284034,14.916,0.012
52707.284391,14.907,0.015
52707.297664,14.942,0.016
52728.235172,15.088,0.018
52728.247192,15.253,0.021
52728.259443,15.54,0.026
52728.271688,15.651,0.03
52728.282889,15.566,0.02
52728.283737,15.484,0.025
52737.190763,15.145,0.018
52737.202685,14.993,0.017
52737.214502,14.944,0.015
52737.226167,14.911,0.015
52737.238083,14.881,0.015
52756.19421,15.324,0.025
52756.206759,15.491,0.028
52756.218865,15.413,0.028
52756.231044,15.195,0.023
52756.243287,15.031,0.021
52760.150133,15.034,0.02
52760.162174,14.984,0.018
52760.174206,14.908,0.018
52760.186239,14.891,0.016
52760.198315,14.882,0.016
52765.160837,14.992,0.02
52765.184747,14.93,0.02
52765.197257,14.906,0.018
52938.429306,14.891,0.021
52938.441344,14.912,0.02
52938.453328,14.927,0.018
52938.465284,14.998,0.018
52938.477193,15.064,0.018
52972.445107,14.916,0.011
52972.457934,14.9,0.011
52972.470799,14.917,0.011
52972.483594,14.954,0.011
52972.496447,15.026,0.013
53033.330406,14.917,0.013
53033.34266,14.959,0.013
53033.3548,15.002,0.015
53033.366952,15.113,0.015
53033.379421,15.422,0.044
53054.30218,15.397,0.017
53054.316226,15.492,0.018
53054.332842,15.209,0.013
53054.345977,15.048,0.013
53054.358533,14.978,0.011
53055.26473,15.35,0.085
53055.275882,15.162,0.03
53055.287109,15.012,0.022
53055.298246,14.983,0.02
53055.309349,14.978,0.022
53060.316739,14.897,0.008
53060.340907,14.949,0.008
53060.352971,14.993,0.01
53080.224989,15.48,0.02
53080.235914,15.309,0.017
53080.247428,15.121,0.015
53080.261836,14.989,0.013
53080.273064,14.948,0.013
53081.254227,14.94,0.011
53081.265592,14.993,0.011
53081.276979,15.06,0.013
53081.288393,15.205,0.013
53081.299655,15.428,0.017
53082.225758,15.229,0.012
53082.237608,15.465,0.013
53082.249214,15.597,0.015
53082.260815,15.472,0.015
53082.274176,15.222,0.012
53083.228386,15.001,0.01
53083.2401,14.916,0.01
53083.251615,14.916,0.008
53083.26301,14.871,0.008
53083.274506,14.821,0.008
53111.185204,14.931,0.017
53111.195978,14.915,0.017
53111.206729,14.904,0.015
53111.217443,14.906,0.017
53111.22824,14.933,0.017
53139.154862,14.899,0.015
53139.164616,14.908,0.017
53139.174139,14.932,0.017
53139.183734,15.023,0.018
53139.193232,15.107,0.018
53144.171618,14.923,0.017
53144.181006,15.029,0.018
53144.190397,15.118,0.026
53144.209755,15.594,0.054
53327.438685,15.4,0.031
53346.392981,14.958,0.018
53346.405425,14.926,0.017
53346.420121,14.927,0.017
53346.433358,14.944,0.017
53346.445476,15.003,0.018
53347.44314,15.336,0.021
53347.456838,15.129,0.02
53347.470832,15.001,0.016
53347.484815,14.955,0.016
53353.419312,14.958,0.018
53353.433454,14.948,0.018
53353.447526,14.938,0.018
53353.461747,15.043,0.02
53353.475765,15.091,0.02
53440.369542,14.893,0.015
53440.380567,14.918,0.015
53440.392711,14.982,0.017
53440.403202,15.003,0.018
53440.414819,15.118,0.022
53466.265151,14.88,0.015
53466.275002,14.897,0.015
53466.28466,14.889,0.017
53466.295657,14.914,0.017
53466.305571,14.956,0.017
53496.150336,15.398,0.028
53496.16027,15.627,0.033
53496.170352,15.642,0.033
53496.180309,15.399,0.028
53496.190266,15.173,0.024
53710.44827,15.402,0.026
53710.461282,15.528,0.03
53710.474189,15.331,0.024
53710.486847,15.143,0.022
53710.499426,15.038,0.02
53746.396035,15.022,0.022
53746.408495,14.98,0.02
53746.421008,14.91,0.02
53746.433597,14.902,0.02
53746.446187,14.915,0.02
53791.296555,15.495,0.02
53791.308724,15.444,0.02
53791.320888,15.24,0.018
53791.33303,15.048,0.015
53791.34492,15.009,0.015
53793.280871,15.065,0.031
53793.304604,15.272,0.065
53793.316537,15.538,0.13
53794.279514,15.416,0.102
53794.291856,15.15,0.024
53794.303711,15.043,0.015
53794.315482,14.991,0.015
53794.327601,14.972,0.022
53815.233529,14.95,0.02
53815.244965,14.935,0.024
53815.25631,14.903,0.022
53815.267805,14.894,0.018
53815.279163,14.909,0.018
53817.210607,15.509,0.025
53817.222461,15.392,0.021
53817.233876,15.186,0.018
53817.245348,15.048,0.016
53817.256907,14.968,0.015
53846.185036,14.904,0.018
53846.195772,14.958,0.02
53846.206618,15.034,0.021
53846.217334,15.12,0.023
53846.227968,15.321,0.028
53850.190217,15.002,0.02
53850.200698,14.941,0.018
53850.211178,14.903,0.018
53850.221675,14.883,0.02
53850.232256,14.867,0.026
54060.439641,14.944,0.018
54060.45538,14.911,0.018
54060.46822,14.901,0.018
54060.483022,14.948,0.018
54060.495806,14.991,0.02
54091.350712,14.891,0.02
54091.363893,14.904,0.02
54091.376531,14.922,0.018
54091.388437,14.986,0.02
54091.400551,15.067,0.021
54155.295021,15.125,0.017
54155.306641,15.001,0.015
54155.318332,14.941,0.013
54155.33018,14.899,0.013
54155.342293,14.87,0.011
54156.267766,14.883,0.013
54156.279293,14.864,0.013
54156.290823,14.856,0.013
54156.302373,14.919,0.013
54156.313923,14.961,0.013
54174.220024,14.926,0.016
54174.230768,14.912,0.015
54174.241603,14.911,0.015
54174.252533,14.906,0.015
54174.263361,14.951,0.015
54180.230566,15.356,0.023
54180.241159,15.54,0.026
54180.25169,15.392,0.023
54180.261993,15.218,0.02
54180.272415,15.057,0.016
54200.175656,14.98,0.02
54200.185468,15.015,0.021
54200.195189,15.145,0.023
54200.214075,15.491,0.031
54415.446907,15.517,0.018
54415.459399,15.56,0.018
54415.471799,15.331,0.015
54415.496582,15.018,0.011
54478.468591,15.054,0.038
54478.480865,15.175,0.04
54478.493173,15.465,0.063
54478.505302,15.555,0.063
54480.333795,15.007,0.009
54480.347045,15.13,0.011
54480.360284,15.366,0.013
54480.373524,15.635,0.017
54480.387186,15.501,0.015
54497.339499,14.968,0.011
54497.352038,15.038,0.011
54497.364594,15.182,0.013
54497.377151,15.423,0.02
54497.389669,15.504,0.026
54505.340668,15.552,0.015
54505.352938,15.558,0.015
54505.365245,15.334,0.013
54505.377512,15.135,0.009
54505.390047,15.02,0.009
54507.39457,15.264,0.023
54507.408328,15.093,0.02
54507.420179,15.01,0.018
54507.432162,14.95,0.02
54507.444059,14.92,0.018
54521.397623,15.15,0.018
54526.331704,14.92,0.009
54526.343159,14.906,0.009
54526.354593,14.923,0.009
54526.366031,14.971,0.011
54526.377461,15.028,0.011
54534.278555,14.914,0.026
54534.289469,14.878,0.007
54534.300417,14.882,0.007
54534.311348,14.888,0.007
54534.322257,14.919,0.007
54534.335546,15.0,0.018
54534.34669,15.105,0.018
54534.358003,15.29,0.021
54534.369115,15.539,0.026
54534.38006,15.641,0.033
54540.167146,15.305,0.018
54540.178048,15.15,0.017
54540.189159,15.025,0.015
54540.200053,14.968,0.013
54540.211046,14.933,0.013
54552.302077,15.165,0.015
54552.314161,15.33,0.017
54552.326257,15.507,0.022
54552.3385,15.34,0.018
54552.350709,15.152,0.017
54568.191227,14.936,0.023
54568.202167,15.023,0.025
54568.212917,15.132,0.028
54568.224337,15.227,0.03
54568.235451,15.46,0.036
54580.189972,14.92,0.013
54580.200597,14.932,0.013
54580.211208,14.959,0.013
54580.221819,15.009,0.015
54580.232492,15.111,0.018
54583.275806,15.006,0.033
54583.286421,14.997,0.022
54590.150883,14.919,0.028
54590.16055,14.921,0.026
54590.170238,14.89,0.026
54590.179882,14.898,0.026
54590.189538,14.921,0.028
54590.201772,14.937,0.015
54590.212075,14.986,0.017
54590.222431,15.063,0.017
54590.232814,15.21,0.018
54590.243165,15.429,0.022
54611.166967,15.625,0.024
54611.176925,15.584,0.022
54611.186884,15.42,0.02
54611.196793,15.229,0.018
