mjd,m,merr
52641.389749,15.474,0.02
52641.404654,15.596,0.022
52641.419538,15.859,0.028
52641.434427,15.861,0.028
52641.449292,15.663,0.024
52644.395496,15.831,0.036
52644.410466,15.823,0.031
52644.425418,15.628,0.026
52644.440752,15.474,0.023
52648.33332,15.539,0.031
52648.348613,15.706,0.036
52648.379182,15.752,0.035
52648.394365,15.5,0.028
52667.389883,15.4,0.02
52667.405121,15.392,0.02
52667.420605,15.404,0.02
52667.435911,15.477,0.026
52671.381739,15.391,0.026
52671.426445,15.734,0.033
52700.359682,15.506,0.028
52700.375161,15.449,0.026
52700.391486,15.388,0.026
52700.406975,15.385,0.028
52700.422347,15.436,0.031
52708.249707,15.887,0.04
52708.262787,15.827,0.036
52708.275911,15.617,0.031
52708.28905,15.47,0.026
52708.302197,15.425,0.025
52728.23398,15.627,0.026
52728.234574,15.715,0.031
52728.246594,15.555,0.028
52728.270435,15.279,0.021
52728.271084,15.419,0.025
52728.282529,15.259,0.021
52737.191231,15.39,0.024
52737.203158,15.387,0.022
52737.21497,15.392,0.022
52737.226637,15.394,0.024
52737.238554,15.413,0.024
52756.140659,15.551,0.024
52756.152405,15.472,0.022
52756.164149,15.39,0.022
52756.175943,15.364,0.02
52756.187896,15.358,0.02
52972.444824,15.803,0.024
52972.45765,15.819,0.024
52972.470517,15.733,0.02
52972.483312,15.569,0.018
52972.496164,15.458,0.017
52986.396326,15.409,0.039
52986.409298,15.404,0.039
52986.422455,15.404,0.037
52986.435458,15.482,0.039
52986.448433,15.566,0.043
53032.333981,15.861,0.024
53032.346363,15.829,0.024
53032.358692,15.653,0.02
53032.371032,15.512,0.018
53032.383384,15.422,0.017
53054.303336,15.697,0.02
53054.317947,15.491,0.017
53054.333508,15.449,0.017
53054.346642,15.394,0.017
53054.359198,15.398,0.017
53080.225198,15.558,0.02
53080.236124,15.455,0.018
53080.247639,15.398,0.018
53080.262509,15.365,0.018
53080.273913,15.393,0.018
53111.185402,15.707,0.031
53111.196176,15.853,0.035
53111.206928,15.841,0.035
53111.217641,15.792,0.035
53111.228438,15.62,0.03
53139.155044,15.417,0.024
53139.164798,15.409,0.024
53139.174395,15.396,0.022
53139.183915,15.422,0.026
53139.193414,15.435,0.026
53315.457356,15.398,0.035
53315.469218,15.405,0.035
53346.393173,15.753,0.035
53346.405616,15.56,0.03
53346.420313,15.417,0.026
53346.433549,15.366,0.024
53346.445667,15.353,0.024
53440.369292,15.709,0.03
53440.380317,15.896,0.037
53440.392457,15.876,0.039
53440.402952,15.664,0.033
53440.414563,15.52,0.033
53466.265364,15.497,0.026
53466.275216,15.638,0.03
53466.284874,15.786,0.035
53466.305785,15.885,0.039
53469.177295,15.435,0.022
53469.187322,15.405,0.02
53469.20111,15.39,0.02
53469.212106,15.401,0.02
53469.222139,15.424,0.022
53504.142032,15.332,0.037
53504.151698,15.383,0.03
53504.160448,15.355,0.033
53504.169185,15.337,0.03
53504.177847,15.376,0.031
53797.235164,15.413,0.02
53797.247792,15.404,0.02
53797.273057,15.538,0.036
53815.23304,15.398,0.028
53815.244476,15.397,0.039
53815.255823,15.424,0.037
53815.267318,15.51,0.03
53815.278674,15.662,0.037
53846.184619,15.73,0.036
53846.195355,15.588,0.035
53846.206201,15.479,0.031
53846.216918,15.417,0.03
53846.227553,15.413,0.03
54061.446737,15.386,0.025
54061.472364,15.426,0.025
54061.485094,15.474,0.026
54061.497857,15.548,0.028
54081.420379,15.466,0.053
54113.33289,15.862,0.03
54113.37103,15.486,0.031
54113.383607,15.458,0.02
54147.281131,15.515,0.026
54147.292972,15.666,0.03
54147.304907,15.81,0.033
54147.329022,15.848,0.036
54153.273755,15.804,0.03
54153.273881,15.824,0.031
54153.285539,15.633,0.026
54153.297722,15.486,0.023
54153.297852,15.466,0.023
54153.321454,15.385,0.021
54156.267468,15.478,0.02
54156.278996,15.411,0.018
54156.290525,15.372,0.018
54156.313625,15.341,0.018
54175.221948,15.772,0.031
54175.243783,15.484,0.025
54175.254573,15.441,0.023
54175.265377,15.39,0.021
54177.214967,15.57,0.023
54177.222717,15.5,0.018
54177.225748,15.479,0.02
54177.234175,15.46,0.018
54177.236607,15.407,0.021
54177.245807,15.393,0.094
54177.269084,15.259,0.078
54198.180955,15.47,0.035
54198.190769,15.425,0.033
54198.200329,15.375,0.03
54198.209948,15.338,0.03
54415.446529,15.447,0.017
54415.459022,15.568,0.018
54415.471423,15.754,0.02
54415.483823,15.822,0.022
54415.496205,15.825,0.022
54452.449806,15.74,0.033
54477.444598,15.39,0.041
54477.456995,15.446,0.041
54477.469296,15.575,0.045
54477.481879,15.735,0.054
54477.494396,15.798,0.058
54480.347453,15.665,0.017
54497.339918,15.65,0.02
54497.352456,15.477,0.015
54497.365009,15.426,0.018
54497.377567,15.413,0.018
54497.390087,15.39,0.02
54505.377906,15.828,0.018
54506.396421,15.668,0.028
54506.408301,15.519,0.028
54506.420809,15.451,0.026
54506.432652,15.414,0.026
54506.444651,15.384,0.026
54521.39799,15.763,0.033
54521.40974,15.502,0.033
54521.421496,15.425,0.026
54521.433254,15.433,0.03
54521.445014,15.355,0.028
54534.278951,15.853,0.037
54534.289863,15.654,0.015
54534.300812,15.507,0.013
54534.335898,15.392,0.023
54534.347042,15.382,0.023
54534.358357,15.399,0.023
54534.369468,15.431,0.025
54534.380415,15.51,0.03
54535.217171,15.432,0.023
54535.228375,15.495,0.025
54535.240018,15.62,0.028
54535.251101,15.805,0.03
54535.25988,15.824,0.018
54535.262298,15.819,0.031
54540.167503,15.43,0.02
54540.178407,15.469,0.02
54540.189516,15.567,0.022
54540.200409,15.72,0.024
54540.211402,15.847,0.028
54552.30302,15.385,0.017
54552.339445,15.382,0.02
54552.351646,15.403,0.022
54568.191507,15.485,0.036
54568.202446,15.47,0.036
54568.213198,15.443,0.036
54568.224617,15.504,0.038
54568.235731,15.731,0.046
