mjd,m,merr
52614.430748,14.205,0.012
52614.445444,14.102,0.016
52614.460063,13.955,0.013
52614.474694,13.797,0.012
52614.489113,13.855,0.007
52639.374367,14.242,0.007
52639.389142,14.24,0.007
52639.403822,14.174,0.007
52639.418795,14.101,0.007
52639.433853,13.945,0.006
52646.397795,13.835,0.007
52646.443707,13.954,0.008
52646.458807,13.882,0.008
52649.453366,14.214,0.007
52649.472905,14.237,0.007
52649.48814,14.221,0.007
52649.502905,14.236,0.007
52649.517097,14.178,0.007
52672.383888,14.159,0.008
52676.344932,14.083,0.007
52701.274272,14.041,0.008
52701.287339,14.073,0.016
52724.272936,14.101,0.007
52724.284546,14.116,0.007
52732.265091,14.029,0.008
52732.289267,14.033,0.008
52753.189131,14.042,0.007
52753.215175,14.056,0.007
52753.239239,14.078,0.007
52761.14788,13.897,0.016
52761.159745,13.89,0.008
52761.172035,13.919,0.012
52761.183997,13.927,0.012
52761.195875,13.939,0.012
52768.150788,14.094,0.015
52768.163413,14.105,0.015
52768.175797,14.148,0.015
52768.187685,14.136,0.017
52768.199534,14.189,0.017
52787.163888,14.185,0.009
52787.174456,14.105,0.007
52787.185002,13.994,0.007
52787.19577,13.846,0.007
52787.206442,13.82,0.007
52792.160583,14.265,0.016
52792.17142,14.404,0.021
52792.18232,14.234,0.015
52792.204136,14.149,0.015
52793.198145,14.265,0.016
52793.208512,14.404,0.021
52793.218817,14.234,0.015
52793.239691,14.149,0.015
52945.449926,13.979,0.01
52945.462045,14.015,0.01
52945.486444,14.019,0.008
52945.498622,14.042,0.008
52962.448401,14.205,0.007
52962.473748,14.196,0.007
52962.486325,14.201,0.007
52962.498706,14.233,0.007
52991.419867,14.285,0.009
52991.45938,14.265,0.007
53003.420442,13.979,0.009
53024.377497,13.96,0.02
53024.390347,14.111,0.009
53034.362609,14.006,0.007
53050.273943,14.28,0.007
53050.297191,14.198,0.006
53050.320496,13.901,0.007
53062.283788,14.098,0.015
53062.295217,14.144,0.009
53062.306773,14.129,0.02
53062.330012,14.116,0.031
53078.231666,13.885,0.006
53078.253137,13.913,0.022
53087.246927,14.205,0.005
53087.258412,14.214,0.005
53089.233609,14.173,0.005
53089.244584,14.213,0.007
53089.255555,14.186,0.005
53089.266498,14.218,0.007
53109.190008,13.853,0.006
53109.222084,13.888,0.006
53109.232895,13.959,0.006
53137.157371,14.059,0.007
53137.1669,14.071,0.007
53137.176396,14.089,0.007
53137.185939,14.094,0.009
53137.195502,14.096,0.009
53148.15997,13.999,0.007
53148.168856,14.009,0.007
53148.177748,13.81,0.007
53148.187046,13.857,0.007
53148.196173,13.888,0.007
53328.504515,13.76,0.008
53341.407897,13.932,0.013
53341.420277,13.926,0.013
53341.432667,13.922,0.013
53341.447964,13.949,0.013
53341.460367,13.99,0.013
53384.371632,13.571,0.03
53404.371398,14.136,0.007
53404.384757,14.161,0.007
53404.398217,14.114,0.007
53404.411184,14.141,0.007
53404.42407,14.204,0.008
53473.225789,14.153,0.009
53473.245888,14.166,0.007
53473.26709,14.181,0.009
53500.145116,14.087,0.007
53500.176511,14.123,0.007
53682.480252,14.307,0.011
53682.49276,14.336,0.011
53703.505986,13.771,0.006
53740.34663,14.108,0.007
53740.37231,14.099,0.007
53740.385106,14.141,0.007
53771.31401,14.01,0.013
53771.339743,14.062,0.009
53786.294573,14.134,0.007
53786.306564,14.171,0.007
53786.318481,14.177,0.007
53786.330374,14.198,0.007
53813.301959,14.152,0.011
53813.334988,14.198,0.011
53813.345998,14.234,0.013
53844.185745,14.032,0.007
53844.195987,14.051,0.007
53844.216544,14.059,0.009
53853.190067,14.193,0.012
53853.200613,14.143,0.012
53853.211085,14.048,0.01
53853.221709,13.908,0.01
53853.23218,13.807,0.01
53883.159669,13.81,0.01
53883.170016,13.895,0.01
53883.180423,13.867,0.01
53883.191224,13.869,0.01
53883.203285,13.876,0.01
53887.167617,13.812,0.013
53887.179477,13.834,0.015
53887.190699,13.911,0.017
53887.201994,13.909,0.018
53887.213346,13.906,0.018
54042.47107,13.934,0.012
54042.483847,13.917,0.012
54042.496102,13.975,0.01
54055.437861,14.075,0.008
54055.463239,14.096,0.008
54055.491696,14.101,0.008
54070.390094,14.316,0.011
54070.403316,14.329,0.009
54070.416276,14.328,0.009
54070.429338,14.288,0.007
54070.442288,14.292,0.007
54084.393173,14.039,0.01
54084.43225,14.052,0.01
54084.445282,14.052,0.012
54098.364704,13.903,0.006
54110.334514,13.635,0.01
54110.347089,13.579,0.008
54110.359674,13.598,0.008
54110.372237,13.58,0.007
54206.191208,13.622,0.007
54206.210033,13.66,0.007
54206.219303,13.68,0.007
54413.443391,14.192,0.007
54413.455596,14.168,0.006
54413.46781,14.174,0.006
54413.48005,14.173,0.006
54413.492223,14.216,0.006
54476.340471,14.24,0.006
54484.383673,14.006,0.012
54484.397377,14.02,0.012
54539.183507,14.246,0.007
54539.194341,14.196,0.007
54582.192547,13.967,0.007
54582.224137,13.951,0.007
54582.234682,13.96,0.007
54587.208073,14.229,0.007
54587.218664,14.24,0.007
54587.229235,14.202,0.009
54587.239714,14.221,0.007
54595.193082,14.117,0.009
54595.203065,14.079,0.007
54595.213071,14.09,0.007
54595.223145,14.127,0.009
54595.233122,14.126,0.009
54613.15536,13.895,0.007
54613.165263,13.925,0.007
54613.175192,13.866,0.007
54613.194991,13.918,0.007
