mjd,m,merr
52614.459939,15.067,0.035
52614.47457,15.166,0.035
52614.488989,15.2,0.02
52639.374496,15.052,0.015
52639.389271,14.991,0.015
52639.403952,15.034,0.015
52639.418924,15.082,0.015
52639.433982,15.104,0.015
52646.397666,15.607,0.028
52646.412858,15.562,0.026
52646.428615,15.606,0.026
52646.443578,15.599,0.028
52646.458679,15.602,0.028
52649.453241,15.041,0.015
52649.472778,14.901,0.013
52649.488025,14.957,0.015
52649.50279,14.994,0.015
52649.516982,15.031,0.017
52672.323712,15.643,0.031
52672.338817,15.678,0.028
52672.353514,15.66,0.028
52672.368578,15.675,0.028
52676.282912,15.656,0.026
52676.298315,15.706,0.028
52676.3138,15.724,0.028
52676.329409,15.674,0.028
52676.345063,15.333,0.02
52677.313978,15.006,0.015
52697.270362,15.54,0.028
52697.270964,15.531,0.033
52701.247771,15.623,0.025
52701.247887,15.582,0.025
52701.260915,15.626,0.025
52701.274035,15.627,0.025
52701.274151,15.562,0.023
52706.243983,15.199,0.018
52706.244584,15.124,0.016
52706.257253,15.213,0.018
52706.270834,15.235,0.018
52706.271438,15.17,0.018
52706.285009,15.257,0.02
52706.285613,15.196,0.018
52706.298119,15.325,0.02
52706.298721,15.231,0.018
52724.238206,15.617,0.022
52724.24982,15.601,0.022
52724.261422,15.616,0.022
52724.273058,15.605,0.022
52724.284667,15.603,0.022
52733.191067,15.296,0.021
52733.191182,15.203,0.018
52733.20349,15.336,0.023
52733.203605,15.253,0.02
52733.215355,15.388,0.023
52733.21547,15.305,0.02
52733.227232,15.462,0.023
52733.227346,15.354,0.021
52733.239431,15.474,0.025
52733.239547,15.382,0.021
52753.189022,15.682,0.028
52753.201111,15.706,0.03
52753.215066,15.583,0.026
52753.227125,15.253,0.02
52753.23913,14.821,0.015
52761.147997,15.486,0.036
52761.15952,15.56,0.031
52761.159862,15.461,0.028
52761.17181,15.616,0.038
52761.172153,15.512,0.035
52761.183769,15.624,0.045
52761.184114,15.514,0.04
52761.195649,15.601,0.041
52761.195992,15.54,0.041
52768.150899,15.001,0.033
52768.163524,14.927,0.031
52768.175907,14.976,0.031
52768.199644,15.08,0.037
52787.163675,15.521,0.026
52787.174244,15.547,0.028
52787.184785,15.584,0.03
52787.19549,15.511,0.028
52787.206228,15.578,0.028
52792.171526,15.077,0.03
52792.182426,15.142,0.03
52792.204243,15.118,0.033
52793.208618,15.077,0.03
52793.218912,15.142,0.03
52793.239786,15.118,0.033
52945.498331,14.873,0.018
52991.419498,15.543,0.026
52991.440934,15.559,0.02
52991.459012,15.581,0.022
52991.474758,15.561,0.018
52991.492014,15.528,0.018
53001.414224,15.502,0.013
53001.428325,15.552,0.015
53001.450966,15.588,0.015
53001.468409,15.613,0.015
53001.48634,15.6,0.015
53003.371595,15.633,0.017
53003.383593,15.642,0.017
53003.395756,15.629,0.017
53003.407886,15.64,0.024
53003.419926,15.715,0.043
53024.338662,15.153,0.009
53024.351406,15.21,0.011
53024.377135,15.313,0.018
53024.389986,15.332,0.022
53034.337465,14.818,0.013
53034.349806,14.767,0.011
53034.362503,14.844,0.013
53034.375161,14.858,0.013
53034.387391,14.943,0.013
53035.357437,14.975,0.015
53035.383062,15.154,0.016
53050.273732,15.136,0.013
53050.285326,15.131,0.013
53050.29698,15.158,0.013
53050.308688,15.176,0.013
53050.320284,15.189,0.02
53062.283434,15.07,0.033
53062.294863,15.13,0.02
53062.329656,15.337,0.091
53078.231465,15.411,0.02
53078.242262,15.431,0.018
53078.26361,15.551,0.022
53078.274235,15.511,0.02
53087.235604,14.839,0.008
53087.246575,14.915,0.008
53087.258062,14.988,0.01
53087.280324,15.116,0.012
53089.233259,15.229,0.013
53089.244232,15.257,0.013
53089.255204,15.331,0.013
53089.277005,15.387,0.015
53090.183515,15.216,0.015
53090.195489,15.266,0.02
53090.206331,15.299,0.018
53090.217948,15.347,0.016
53109.189822,15.527,0.022
53109.200505,15.589,0.022
53109.211211,15.621,0.024
53109.221898,15.644,0.024
53109.232709,15.627,0.024
53137.1572,14.857,0.015
53137.185768,14.884,0.017
53137.195273,14.919,0.017
53348.416342,15.659,0.03
53348.430569,15.657,0.031
53348.444863,15.68,0.033
53348.459074,15.642,0.031
53348.473361,15.656,0.045
53354.425899,15.064,0.015
53354.440293,15.13,0.016
53354.454752,15.2,0.016
53354.469548,15.225,0.016
53354.484022,15.286,0.018
53443.330192,15.176,0.015
53443.340883,15.214,0.017
53443.351536,15.253,0.018
53443.362196,15.259,0.028
53443.372853,15.32,0.031
53473.225587,15.437,0.024
53473.235795,15.454,0.024
53473.245686,15.488,0.024
53473.255767,15.494,0.026
53473.266888,15.509,0.026
53500.145217,15.474,0.024
53500.156446,15.512,0.024
53500.166597,15.551,0.026
53500.176612,15.567,0.026
53500.187122,15.585,0.026
53682.466953,15.607,0.033
53682.479524,15.628,0.037
53682.492031,15.455,0.028
53682.504708,15.233,0.024
53702.435726,15.532,0.022
53702.448451,15.582,0.024
53702.461102,15.603,0.024
53702.473789,15.605,0.024
53702.486729,15.65,0.024
53714.396097,15.412,0.02
53714.409049,15.448,0.022
53714.421911,15.502,0.02
53714.434691,15.479,0.02
53714.447439,15.546,0.022
53740.346775,15.302,0.018
53740.359705,15.346,0.018
53740.372455,15.393,0.018
53740.385252,15.394,0.02
53740.398254,15.406,0.02
53771.287211,15.66,0.026
53771.301224,15.657,0.037
53771.313868,15.662,0.039
53771.32682,15.657,0.031
53771.3396,15.696,0.033
53786.281967,15.2,0.015
53786.293855,14.832,0.011
53812.245919,15.157,0.021
53812.257423,15.092,0.02
53812.269033,15.088,0.02
53812.280616,15.065,0.02
53812.291933,15.068,0.02
53843.202642,15.482,0.021
53843.214074,15.52,0.023
53843.225593,15.521,0.023
53843.237381,15.588,0.025
53843.249026,15.605,0.026
53854.189818,15.312,0.025
53854.210497,15.397,0.03
53854.220748,15.394,0.025
53854.230965,15.401,0.026
53882.201868,15.614,0.018
53886.170027,15.591,0.046
53886.180651,15.552,0.044
53886.191371,15.598,0.046
53886.20211,15.607,0.05
54055.437717,14.898,0.018
54055.450539,14.998,0.018
54055.463096,15.067,0.02
54055.476276,15.138,0.018
54055.491552,15.213,0.02
54067.397717,14.937,0.015
54067.436732,14.901,0.013
54067.44955,14.958,0.013
54085.400683,15.486,0.026
54085.413901,15.506,0.049
54085.426816,15.482,0.03
54085.439827,15.48,0.033
54085.452845,15.537,0.038
54110.350056,15.523,0.028
54110.36572,15.541,0.028
54110.379791,15.582,0.03
54110.395427,15.582,0.035
54110.41346,15.614,0.033
54123.32344,15.457,0.02
54123.335893,15.501,0.02
54123.348154,15.5,0.02
54123.360363,15.536,0.022
54123.37257,15.572,0.022
54156.261581,15.237,0.02
54156.272651,15.118,0.018
54156.283816,15.038,0.016
54156.295278,15.017,0.016
54206.21994,15.564,0.026
54206.229276,15.45,0.025
54206.238586,15.365,0.023
54206.247972,15.233,0.02
54206.257658,15.092,0.018
54413.442978,15.141,0.013
54413.455187,15.181,0.013
54413.467398,15.205,0.013
54413.479591,15.207,0.013
54413.491812,15.23,0.013
54420.448835,15.587,0.018
54420.461657,15.566,0.017
54420.474097,15.542,0.017
54452.39035,15.264,0.013
54452.4035,15.332,0.013
54452.416847,15.382,0.015
54452.430133,15.404,0.015
54452.443277,15.446,0.015
54477.336864,15.113,0.011
54477.349677,15.177,0.013
54477.36247,15.218,0.013
54477.375281,15.223,0.013
54477.388281,15.274,0.013
54484.263617,15.433,0.033
54484.383673,15.575,0.035
54484.397377,15.578,0.035
54484.398602,15.566,0.026
54484.398805,15.607,0.026
54484.409808,15.548,0.035
54484.411614,15.546,0.024
54484.411819,15.622,0.026
54484.421977,15.52,0.033
54484.424607,15.502,0.024
54484.424815,15.505,0.024
54484.434093,15.446,0.031
54484.437795,15.326,0.02
54484.438001,15.376,0.02
54484.450906,15.21,0.018
54484.451109,15.238,0.018
54533.273099,15.628,0.015
54533.284295,15.644,0.015
54533.295749,15.651,0.015
54533.306973,15.655,0.015
54533.318433,15.638,0.015
54539.161142,15.672,0.024
54539.171779,15.689,0.024
54539.182551,15.667,0.022
54539.19338,15.629,0.02
54539.204051,15.491,0.018
54567.182776,15.097,0.013
54567.194161,15.121,0.013
54567.205236,15.127,0.015
54567.21644,15.164,0.015
54567.227804,15.186,0.015
54574.208848,15.698,0.067
54574.219418,15.642,0.061
54574.230009,15.653,0.065
54582.222939,15.562,0.026
54587.197646,15.625,0.024
54587.20819,15.652,0.024
54587.218781,15.636,0.026
54587.229352,15.681,0.028
54587.239831,15.668,0.026
54595.19319,15.497,0.026
54595.203174,15.566,0.028
54595.21318,15.576,0.028
54595.223254,15.603,0.03
54595.233231,15.615,0.03
54613.156116,15.648,0.041
54613.166395,15.69,0.041
54613.176703,15.657,0.043
54613.187022,15.572,0.04
54613.197221,15.594,0.041
54619.157885,15.301,0.026
54619.168099,15.292,0.024
54619.178388,15.347,0.022
54619.188583,15.364,0.022
54619.198837,15.38,0.024
