mjd,m,merr
52613.44681,14.989,0.015
52613.461951,15.036,0.015
52613.47733,15.134,0.017
52613.492524,15.286,0.018
52613.507749,15.441,0.022
52618.453297,15.207,0.028
52618.468595,15.112,0.024
52618.484037,15.034,0.017
52618.49947,14.988,0.022
52618.514952,14.944,0.015
52640.427635,15.118,0.015
52640.443484,15.282,0.017
52640.458373,15.366,0.017
52640.473405,15.271,0.017
52640.48823,15.149,0.015
52643.378906,15.077,0.015
52643.393185,14.992,0.015
52643.407377,14.964,0.015
52643.42164,14.926,0.013
52643.435776,14.943,0.013
52647.394114,15.385,0.02
52647.408939,15.475,0.022
52647.423363,15.358,0.02
52647.437773,15.187,0.018
52647.452175,15.078,0.017
52666.324165,14.965,0.015
52666.339284,15.024,0.015
52666.354156,15.116,0.016
52666.369185,15.267,0.018
52666.383969,15.441,0.023
52670.335732,15.002,0.013
52670.349704,14.978,0.013
52670.363701,14.943,0.013
52670.377712,14.945,0.015
52670.391729,15.007,0.015
52673.299988,15.058,0.015
52673.315359,15.205,0.017
52673.330614,15.379,0.018
52673.345938,15.342,0.018
52678.327418,14.968,0.031
52678.341413,14.951,0.015
52678.355545,14.979,0.015
52678.369528,15.002,0.015
52703.251098,14.952,0.013
52703.264565,14.989,0.022
52703.27859,14.998,0.015
52703.291956,15.06,0.015
52703.305393,15.099,0.046
52725.304738,14.962,0.013
52725.316299,15.006,0.018
52725.32809,15.092,0.033
52725.339893,15.154,0.039
52725.351606,15.345,0.048
52730.235063,15.003,0.013
52730.246689,15.061,0.013
52730.258457,15.174,0.015
52730.270125,15.305,0.018
52730.28193,15.364,0.018
52733.246779,14.927,0.015
52733.259042,14.91,0.013
52733.27125,14.94,0.015
52733.284289,15.004,0.015
52733.296244,15.085,0.026
52755.196726,15.428,0.022
52755.214137,15.335,0.02
52755.227272,15.186,0.018
52755.239296,15.07,0.017
52755.251425,15.011,0.017
52758.200234,15.034,0.013
52758.212071,15.073,0.015
52758.223931,15.196,0.017
52758.235892,15.339,0.018
52758.247826,15.437,0.022
52788.166404,14.937,0.017
52788.176665,14.968,0.033
52788.186942,14.941,0.026
52788.19729,15.022,0.044
52964.462508,15.007,0.013
52964.475538,15.09,0.013
52964.488735,15.177,0.015
52964.505044,15.345,0.017
52966.409069,15.201,0.018
52966.421815,15.091,0.017
52966.434536,15.031,0.015
52966.459953,14.975,0.013
52973.399635,14.934,0.015
52973.412612,14.935,0.013
52973.425722,14.917,0.013
52973.43862,14.967,0.015
52973.451581,15.025,0.015
52993.390876,14.958,0.011
52993.403962,14.935,0.009
52993.417334,14.949,0.009
52993.430437,14.974,0.009
52993.443706,15.023,0.009
52994.469942,15.062,0.011
52994.483241,15.168,0.009
52994.497036,15.325,0.011
52994.510385,15.467,0.013
52994.523845,15.409,0.013
52997.44032,15.032,0.026
53025.370259,15.403,0.022
53025.39639,15.102,0.011
53028.34278,14.981,0.009
53028.355423,15.027,0.009
53028.368018,15.092,0.009
53028.380506,15.211,0.009
53028.392994,15.38,0.011
53033.28161,15.078,0.018
53033.331762,15.328,0.02
53053.291899,15.126,0.02
53053.304614,15.292,0.028
53053.317234,15.365,0.026
53053.33055,15.291,0.024
53053.342312,15.208,0.018
53054.296722,15.081,0.013
53054.326174,15.317,0.015
53054.340032,15.385,0.017
53054.352559,15.291,0.015
53055.280444,14.904,0.02
53055.292958,14.972,0.025
53057.337747,15.013,0.046
53061.278303,15.45,0.013
53061.289498,15.472,0.013
53061.300721,15.363,0.013
53061.31188,15.241,0.011
53061.323044,15.11,0.009
53079.251777,15.45,0.018
53079.262393,15.398,0.017
53079.273081,15.283,0.015
53079.283885,15.144,0.013
53079.29462,15.065,0.013
53082.284272,15.269,0.013
53082.295598,15.402,0.015
53082.307426,15.406,0.015
53082.318855,15.29,0.013
53082.330504,15.167,0.011
53091.278049,15.324,0.013
53091.288462,15.354,0.013
53091.299083,15.302,0.013
53091.309525,15.195,0.011
53091.319938,15.114,0.011
53110.188014,14.925,0.015
53110.198705,14.936,0.015
53110.20939,14.937,0.015
53110.220079,15.007,0.017
53110.230879,15.086,0.017
53116.256028,15.018,0.024
53116.267239,14.954,0.022
53116.289595,14.917,0.048
53116.30073,14.913,0.026
53138.156131,14.944,0.015
53138.165995,14.949,0.015
53138.175824,14.977,0.015
53138.185648,15.004,0.015
53138.195448,15.068,0.017
53141.165971,15.092,0.015
53141.175542,15.112,0.017
53141.185181,14.966,0.015
53141.194696,15.002,0.015
53141.204349,14.931,0.013
53144.176487,15.392,0.023
53144.185455,15.298,0.025
53144.194336,15.208,0.033
53144.203204,15.125,0.025
53346.386369,15.254,0.028
53346.398622,15.118,0.026
53347.473413,14.949,0.013
53347.489389,14.996,0.015
53347.505942,15.077,0.015
53347.523043,15.198,0.017
53351.426474,15.232,0.023
53351.45524,15.448,0.028
53351.470192,15.22,0.023
53351.484878,15.104,0.021
53353.397438,14.956,0.015
53353.410375,14.995,0.017
53353.423319,15.014,0.017
53353.436306,15.097,0.018
53353.449233,15.175,0.018
53357.442566,14.973,0.013
53357.455988,14.956,0.013
53357.471114,14.929,0.013
53357.486174,14.974,0.013
53357.499495,15.042,0.015
53376.419981,14.961,0.013
53376.433872,14.948,0.013
53376.447447,14.943,0.013
53376.461134,14.969,0.013
53376.474819,15.021,0.013
53381.359844,14.953,0.015
53381.373169,14.967,0.017
53381.387147,15.014,0.03
53381.401793,15.077,0.015
53381.417694,15.202,0.022
53403.361229,15.046,0.015
53403.37395,14.974,0.013
53403.387896,14.953,0.013
53403.400815,14.978,0.015
53432.313748,15.17,0.026
53432.341576,15.063,0.033
53437.236344,15.128,0.015
53437.248816,15.057,0.013
53437.260437,15.006,0.013
53437.271904,14.959,0.013
53437.283406,14.934,0.013
53438.22662,15.446,0.017
53438.238219,15.311,0.017
53438.249815,15.174,0.013
53438.261449,15.083,0.013
53438.27311,15.031,0.013
53438.403264,15.306,0.02
53438.415634,15.171,0.018
53438.427417,15.089,0.018
53438.439329,15.041,0.018
53438.451162,15.003,0.02
53440.241781,15.433,0.018
53440.253545,15.5,0.02
53440.265154,15.423,0.018
53440.280385,15.235,0.015
53440.293002,15.121,0.015
53443.219845,14.94,0.013
53443.264815,15.109,0.013
53446.221801,15.064,0.015
53446.232403,15.001,0.015
53446.242987,14.988,0.015
53446.254074,14.965,0.013
53446.26528,14.941,0.015
53464.28662,15.142,0.018
53464.296773,15.263,0.018
53464.306945,15.377,0.02
53464.317128,15.489,0.024
53464.327289,15.467,0.026
53468.229643,15.36,0.048
53468.239499,15.248,0.033
53468.25097,15.182,0.052
53468.260554,15.109,0.037
53495.198232,15.195,0.031
53495.208541,15.101,0.026
53495.218775,15.078,0.026
53495.228992,15.012,0.028
53495.239292,15.021,0.031
53502.146451,15.143,0.018
53502.157223,15.061,0.018
53502.167777,15.014,0.017
53502.178589,14.972,0.017
53502.189058,14.954,0.018
53674.471519,15.369,0.03
53674.483804,15.463,0.031
53674.495942,15.459,0.028
53705.455956,15.033,0.017
53705.468953,15.138,0.017
53705.481652,15.27,0.018
53705.494317,15.369,0.02
53705.507041,15.353,0.018
53708.453624,14.956,0.015
53708.466425,14.941,0.013
53708.479347,14.972,0.015
53708.492174,14.982,0.015
53708.504828,15.049,0.015
53732.417479,15.226,0.026
53732.43027,15.392,0.03
53732.442915,15.535,0.03
53732.455692,15.475,0.03
53732.468462,15.311,0.026
53735.421352,14.987,0.031
53735.460417,15.132,0.02
53737.408745,15.05,0.013
53737.422168,15.023,0.013
53737.435593,14.979,0.013
53737.449026,14.974,0.013
53737.46225,15.019,0.013
53747.399629,15.059,0.033
53759.349651,15.033,0.015
53759.362442,15.124,0.015
53759.375111,15.271,0.018
53759.387803,15.37,0.02
53759.400483,15.323,0.022
53762.405817,15.093,0.015
53762.418331,15.192,0.02
53762.431078,15.364,0.03
53762.443704,15.469,0.059
53762.456481,15.36,0.043
53789.294625,14.982,0.025
53789.307232,14.979,0.025
53789.320251,14.996,0.033
53789.332771,15.068,0.038
53789.345435,15.172,0.053
53790.335305,14.996,0.015
53790.346991,15.011,0.017
53790.358698,15.061,0.017
53790.370385,15.127,0.018
53790.382087,15.263,0.02
53793.340774,15.047,0.043
53793.352502,14.987,0.015
53793.364223,14.983,0.015
53793.375961,14.96,0.022
53793.387705,14.998,0.017
53797.24351,15.044,0.015
53797.255064,14.978,0.013
53797.266706,14.969,0.018
53797.278282,14.951,0.015
53797.289852,14.902,0.026
53799.282124,15.017,0.013
53799.283348,14.983,0.013
53799.294119,14.975,0.013
53799.294834,14.958,0.013
53799.306013,14.968,0.013
53799.306342,14.947,0.013
53799.317861,14.965,0.013
53799.318055,14.946,0.013
53799.329558,14.983,0.015
53799.329638,14.984,0.013
53818.233431,15.158,0.018
53818.244556,15.083,0.016
53818.255714,15.036,0.016
53818.266969,14.996,0.015
53818.278111,14.967,0.015
53819.283671,14.993,0.017
53819.318578,14.973,0.018
53819.329771,14.972,0.017
53820.311099,14.935,0.048
53826.279567,15.004,0.017
53826.291417,15.05,0.02
53826.31586,15.242,0.085
53826.327343,15.395,0.026
53827.291824,15.003,0.017
53827.302941,15.039,0.018
53827.313867,15.081,0.018
53827.324623,15.164,0.02
53827.33555,15.315,0.028
53845.189872,15.099,0.022
53845.20058,15.063,0.022
53845.211437,15.015,0.02
53845.222161,14.977,0.02
53845.232909,14.976,0.02
53846.24114,14.974,0.022
53846.251954,14.969,0.022
53846.262762,14.987,0.022
53846.273564,15.027,0.024
53846.284385,15.023,0.026
53850.26676,15.173,0.02
53850.278052,15.078,0.02
53850.28917,15.041,0.02
53850.301583,15.001,0.02
53850.312665,14.967,0.02
53851.18901,15.035,0.02
53851.199236,15.025,0.021
53851.209509,15.071,0.021
53851.219807,15.162,0.023
53851.230147,15.339,0.028
53853.193326,14.975,0.017
53853.203744,14.946,0.018
53853.215154,14.957,0.018
53853.225565,14.981,0.018
53853.236,15.024,0.02
53879.156043,15.045,0.016
53879.166943,15.062,0.018
53879.177711,15.123,0.018
53879.188451,15.194,0.021
53879.199488,15.29,0.023
53880.15329,14.939,0.022
53880.164415,14.963,0.022
53880.175574,15.013,0.024
53880.186784,15.034,0.026
53880.197965,15.083,0.028
53882.162388,15.01,0.018
53882.175302,14.988,0.018
53882.188287,14.997,0.018
53882.199512,14.99,0.018
53882.211396,15.01,0.02
54040.459224,15.051,0.031
54040.471382,15.034,0.026
54057.457989,15.024,0.015
54057.470476,15.074,0.015
54057.482949,15.131,0.017
54057.495449,15.276,0.018
54057.507925,15.417,0.02
54058.441985,14.979,0.018
54058.455143,14.95,0.018
54058.46773,15.005,0.018
54058.480213,15.051,0.018
54058.492622,15.102,0.02
54060.434161,15.163,0.017
54060.44809,15.059,0.017
54060.461013,15.026,0.017
54060.473912,14.999,0.015
54060.486979,14.987,0.015
54064.438451,15.171,0.021
54064.452091,15.334,0.025
54064.4677,15.394,0.026
54064.480787,15.324,0.025
54064.493347,15.224,0.021
54082.376185,15.083,0.04
54083.462577,15.312,0.035
54083.489765,15.109,0.018
54083.502857,15.041,0.026
54083.515956,14.982,0.031
54086.367319,15.139,0.02
54086.380248,15.064,0.018
54086.393183,15.026,0.017
54086.406126,14.964,0.015
54086.419063,14.965,0.015
54091.372661,15.181,0.015
54091.385243,15.236,0.017
54091.397829,15.476,0.018
54091.410751,15.517,0.02
54091.423345,15.503,0.02
54112.391739,15.18,0.023
54112.4043,15.291,0.026
54112.416801,15.415,0.03
54112.429355,15.47,0.031
54113.384536,15.041,0.016
54113.411885,15.149,0.021
54115.405946,14.99,0.018
54115.418694,14.99,0.02
54115.431586,15.091,0.02
54115.444568,15.163,0.021
54115.457821,15.302,0.026
54123.337909,15.049,0.018
54123.350305,15.003,0.018
54123.362845,14.995,0.018
54123.375234,15.024,0.018
54123.387885,15.041,0.018
54144.355316,15.017,0.013
54144.36679,14.977,0.013
54144.37788,14.97,0.013
54144.389539,15.013,0.015
54144.401085,15.002,0.015
54148.333029,15.287,0.021
54148.344731,15.468,0.025
54148.356289,15.508,0.026
54148.367837,15.472,0.026
54148.379787,15.309,0.023
54152.284941,15.155,0.011
54152.296845,15.098,0.011
54152.308736,15.045,0.011
54152.320636,15.012,0.011
54152.332546,14.985,0.011
54154.276224,15.357,0.017
54154.287698,15.408,0.017
54154.299198,15.354,0.015
54154.310675,15.249,0.013
54154.322125,15.148,0.013
54173.240424,15.179,0.018
54173.251192,15.302,0.02
54173.262083,15.419,0.023
54173.265714,15.407,0.018
54173.276554,15.406,0.018
54173.287295,15.33,0.017
54173.297962,15.226,0.015
54173.30862,15.12,0.015
54176.270853,15.039,0.013
54176.281503,15.1,0.015
54176.292056,15.167,0.015
54176.302846,15.302,0.017
54176.313442,15.385,0.018
54179.286662,15.001,0.013
54179.297668,14.98,0.013
54179.309046,15.037,0.013
54179.320259,15.05,0.013
54179.3313,15.111,0.015
54185.225743,14.979,0.025
54185.235918,15.013,0.025
54185.246137,15.079,0.028
54185.256353,15.086,0.028
54185.266765,15.124,0.028
54186.28747,15.407,0.018
54186.298811,15.406,0.018
54186.310148,15.33,0.017
54186.321488,15.226,0.015
54186.332797,15.12,0.015
54201.233604,15.457,0.035
54201.242933,15.478,0.033
54201.252184,15.426,0.031
54201.261448,15.299,0.03
54201.270676,15.114,0.026
54206.221605,14.992,0.013
54206.230655,14.99,0.013
54206.239694,14.967,0.013
54206.248746,15.006,0.013
54206.257865,15.004,0.013
54209.216271,15.395,0.068
54209.225263,15.302,0.048
54209.234836,15.16,0.031
54209.244664,15.181,0.043
54409.445952,14.972,0.015
54409.458195,14.988,0.013
54409.47042,15.024,0.013
54409.482638,15.036,0.013
54418.447505,15.026,0.011
54418.460014,15.056,0.011
54418.472509,15.106,0.011
54418.485009,15.19,0.013
54418.497515,15.295,0.013
54439.442931,15.019,0.009
54439.455827,15.029,0.009
54439.468709,15.025,0.009
54439.481574,15.064,0.009
54439.494453,15.118,0.011
54507.276135,15.056,0.011
54507.288377,15.139,0.011
54507.300778,15.253,0.011
54507.313045,15.419,0.013
54507.325457,15.515,0.015
54522.388102,15.253,0.017
54522.399781,15.382,0.018
54522.411476,15.404,0.02
54522.423105,15.35,0.02
54522.434757,15.219,0.018
54529.274838,14.978,0.009
54529.286268,15.005,0.009
54529.297897,15.04,0.009
54529.309694,15.083,0.009
54529.321066,15.167,0.011
54536.220853,14.985,0.009
54536.23194,14.974,0.009
54536.242877,14.984,0.009
54536.253822,15.016,0.009
54536.264885,15.069,0.009
54553.298819,15.098,0.017
54553.310709,15.05,0.013
54553.322602,14.991,0.013
54553.33465,14.986,0.013
54553.346575,14.969,0.013
54559.127222,15.014,0.011
54559.138872,15.061,0.011
54559.150466,15.144,0.013
54559.16192,15.258,0.013
54559.173398,15.392,0.015
54562.244702,15.497,0.015
54562.256431,15.37,0.013
54562.268064,15.239,0.011
54562.279835,15.146,0.011
54562.291534,15.062,0.009
54584.200128,14.97,0.013
54584.211011,15.002,0.013
54584.221906,15.035,0.013
54584.232803,15.095,0.015
54584.243723,15.177,0.017
54591.196257,15.19,0.017
54591.206658,15.305,0.018
54591.216935,15.369,0.02
54591.227211,15.397,0.022
54591.237489,15.341,0.022
