mjd,m,merr
52613.446296,16.07,0.039
52613.461438,16.067,0.039
52613.476813,16.033,0.039
52613.492006,16.051,0.037
52613.507232,16.097,0.039
52618.452779,16.132,0.059
52618.468073,16.326,0.104
52618.483519,16.351,0.052
52618.498952,16.347,0.074
52618.514434,16.208,0.055
52640.427513,16.066,0.031
52640.44336,16.064,0.033
52640.458251,16.038,0.03
52640.473281,16.107,0.033
52640.488108,16.164,0.035
52643.378434,16.086,0.037
52643.406903,16.23,0.044
52643.421167,16.312,0.044
52643.435301,16.367,0.046
52647.393633,16.103,0.041
52647.408459,16.113,0.041
52647.422883,16.237,0.046
52647.437291,16.393,0.052
52647.451694,16.376,0.052
52670.363232,16.152,0.039
52670.377242,16.269,0.044
52670.391258,16.383,0.052
52673.299343,16.259,0.041
52673.314714,16.49,0.05
52673.345293,16.268,0.043
52678.312906,15.959,0.085
52678.326951,16.107,0.094
52698.271415,16.33,0.107
52698.289346,16.456,0.053
52698.307037,16.189,0.043
52698.321392,16.14,0.041
52703.250653,16.057,0.035
52703.264187,16.111,0.057
52703.278212,16.075,0.035
52703.291573,16.056,0.033
52703.305015,16.252,0.096
52725.304142,16.094,0.035
52725.315705,16.041,0.041
52725.327495,16.059,0.089
52725.339295,16.053,0.083
52725.351013,16.2,0.1
52730.234714,16.076,0.035
52730.246341,16.064,0.035
52730.258078,16.094,0.037
52730.269774,16.102,0.039
52730.281579,16.094,0.039
52733.246311,16.388,0.05
52733.258681,16.437,0.054
52733.270889,16.438,0.054
52733.283936,16.181,0.044
52733.295894,16.191,0.074
52738.189916,16.454,0.071
52738.20161,16.234,0.059
52738.213292,16.192,0.056
52738.224897,16.112,0.051
52738.236503,16.066,0.049
52755.196502,16.114,0.041
52755.213913,16.076,0.039
52755.227048,16.067,0.041
52755.239073,16.082,0.043
52755.2512,16.042,0.043
52758.150601,16.12,0.035
52758.162616,16.122,0.037
52758.174697,16.135,0.037
52758.186856,16.191,0.039
52758.1989,16.312,0.041
52940.460009,15.997,0.105
52940.472639,16.048,0.109
52940.486071,16.011,0.105
52964.462025,16.372,0.043
52964.475147,16.248,0.037
52964.488341,16.142,0.033
52964.504653,16.058,0.03
52966.408709,16.141,0.044
52966.421454,16.276,0.048
52966.434175,16.232,0.044
52966.459592,16.524,0.057
52973.399225,16.216,0.046
52973.412203,16.166,0.043
52973.425312,16.071,0.037
52973.438211,16.08,0.037
52993.389989,16.25,0.033
52993.403077,16.415,0.039
52993.416313,16.502,0.043
52993.42955,16.385,0.031
52994.469567,16.189,0.03
52994.482867,16.267,0.026
52994.496662,16.4,0.03
52994.51001,16.498,0.033
52994.52347,16.389,0.03
52997.43995,16.388,0.102
53025.369885,16.043,0.03
53025.396014,16.051,0.024
53028.355065,16.187,0.024
53028.380147,16.39,0.028
53033.281138,16.21,0.046
53033.293817,16.357,0.053
53033.306345,16.48,0.056
53033.318837,16.365,0.049
53033.331289,16.309,0.046
53053.291674,16.166,0.07
53053.304373,16.209,0.059
53053.31701,16.203,0.057
53053.330325,16.397,0.07
53053.342088,16.45,0.054
53054.296722,16.185,0.031
53054.326174,16.086,0.028
53054.340032,16.069,0.028
53054.352559,16.076,0.03
53055.275763,16.097,0.067
53055.280444,15.955,0.051
53055.286989,16.03,0.068
53055.292958,16.109,0.073
53055.298126,16.078,0.05
53055.305423,16.059,0.03
53055.309229,16.094,0.033
53057.348979,16.545,0.231
53061.277963,16.071,0.022
53061.31154,16.088,0.024
53061.322703,16.122,0.024
53079.251575,16.143,0.033
53079.26219,16.107,0.033
53079.27288,16.1,0.031
53079.283684,16.048,0.031
53079.294419,16.018,0.03
53082.283404,16.185,0.026
53082.294729,16.282,0.03
53082.306556,16.392,0.033
53082.317985,16.415,0.033
53082.329634,16.362,0.033
53085.334881,16.219,0.128
53091.27718,16.155,0.028
53091.287593,16.123,0.026
53091.298213,16.102,0.026
53091.308654,16.084,0.024
53091.319068,16.056,0.024
53110.187823,16.474,0.057
53110.198514,16.475,0.059
53110.209199,16.312,0.05
53110.219888,16.197,0.046
53110.230688,16.098,0.044
53116.255159,16.153,0.055
53116.26637,16.203,0.083
53116.277502,16.201,0.098
53116.288618,16.033,0.107
53116.299861,16.049,0.078
53138.155412,16.08,0.039
53138.16525,16.076,0.039
53138.175114,16.041,0.037
53138.184938,16.088,0.041
53138.194738,16.078,0.037
53141.165667,16.596,0.059
53141.175237,16.456,0.052
53141.184878,16.34,0.046
53141.194393,16.264,0.043
53141.204046,16.151,0.039
53144.176212,16.082,0.043
53144.185163,16.105,0.051
53144.202912,16.162,0.063
53346.386185,16.006,0.043
53346.411083,16.06,0.048
53347.472659,16.062,0.037
53347.488635,16.101,0.037
53347.50483,16.072,0.037
53347.521815,16.09,0.037
53353.396701,16.328,0.052
53353.409632,16.369,0.057
53353.422577,16.268,0.052
53353.435504,16.124,0.044
53353.448495,16.078,0.043
53357.441703,16.215,0.041
53357.455126,16.178,0.039
53357.470235,16.138,0.039
53357.48531,16.059,0.037
53357.498599,16.091,0.037
53376.432944,16.07,0.035
53376.446503,16.063,0.035
53376.460207,16.082,0.035
53376.473803,16.037,0.033
53381.359459,16.073,0.041
53381.372782,16.046,0.054
53381.386762,16.049,0.067
53381.401407,16.089,0.035
53381.417305,16.117,0.052
53403.360582,16.145,0.037
53403.373291,16.099,0.037
53403.387221,16.097,0.037
53403.400146,16.103,0.039
53432.286427,16.54,0.146
53432.313386,16.296,0.076
53432.341214,15.964,0.105
53437.236004,16.243,0.039
53437.248473,16.1,0.033
53437.260095,16.102,0.033
53437.271563,16.07,0.033
53437.283003,16.046,0.033
53438.354453,16.109,0.039
53438.36667,16.067,0.037
53438.389812,16.058,0.039
53438.401394,16.043,0.041
53440.241405,16.096,0.033
53440.25317,16.131,0.035
53440.264778,16.166,0.037
53440.280009,16.317,0.043
53440.292627,16.47,0.05
53443.219427,16.464,0.048
53443.264446,16.134,0.037
53446.221441,16.073,0.037
53446.232042,16.042,0.037
53446.242625,16.07,0.037
53446.253713,16.097,0.037
53446.264918,16.157,0.044
53464.28621,16.07,0.043
53464.296362,16.051,0.037
53464.306535,16.1,0.037
53464.316718,16.17,0.044
53464.32688,16.235,0.05
53468.229441,16.166,0.1
53468.239297,16.18,0.081
53468.250769,16.105,0.133
53468.260353,16.051,0.098
53468.269944,16.039,0.144
53495.197471,16.115,0.07
53495.20777,16.124,0.067
53495.218023,16.132,0.068
53495.22823,16.047,0.068
53495.23854,16.055,0.08
53502.145723,16.06,0.043
53502.156509,16.047,0.044
53502.167054,16.095,0.046
53502.177876,16.043,0.044
53502.188344,16.081,0.05
53674.4705,16.126,0.055
53674.482769,16.178,0.055
53674.494928,16.088,0.052
53705.45556,16.064,0.041
53705.481214,16.102,0.039
53705.493922,16.034,0.035
53705.506593,16.08,0.035
53708.453228,16.263,0.044
53708.466028,16.381,0.048
53708.47895,16.565,0.059
53708.491778,16.49,0.055
53708.504431,16.292,0.046
53732.417083,16.026,0.052
53732.429874,16.115,0.055
53732.44252,16.136,0.052
53732.455296,16.072,0.052
53732.468066,16.06,0.05
53735.42095,16.274,0.117
53735.460014,16.352,0.048
53737.408443,16.071,0.033
53737.435291,16.346,0.043
53737.448639,16.47,0.148
53737.461946,16.306,0.041
53747.346788,16.149,0.105
53747.359698,16.108,0.098
53747.372526,15.991,0.085
53747.399057,16.182,0.089
53759.349249,16.079,0.035
53759.36204,16.055,0.035
53759.37471,16.008,0.035
53759.3874,16.03,0.037
53759.400076,16.011,0.041
53762.353103,16.03,0.033
53762.378832,16.317,0.041
53762.391719,16.503,0.05
53762.404741,16.508,0.052
53787.456526,16.004,0.044
53787.468389,16.075,0.052
53789.294478,16.088,0.064
53789.307085,16.113,0.064
53789.320104,16.017,0.084
53789.332623,16.108,0.106
53790.334917,16.095,0.041
53790.346603,16.039,0.039
53790.358307,15.974,0.039
53790.369998,16.008,0.039
53790.381698,16.041,0.041
53793.339841,16.191,0.109
53793.351572,16.378,0.048
53793.36329,16.503,0.054
53793.375029,16.54,0.094
53793.386776,16.413,0.059
53797.242859,16.105,0.037
53797.254413,16.114,0.035
53797.277633,16.132,0.048
53799.281276,16.146,0.036
53799.293263,16.084,0.035
53799.305165,16.072,0.033
53799.317009,16.051,0.035
53799.317672,16.073,0.039
53799.328787,16.077,0.035
53799.329176,16.236,0.05
53818.232616,16.094,0.041
53818.243741,16.109,0.04
53818.254901,16.035,0.04
53818.266159,16.07,0.041
53818.277301,16.126,0.041
53819.283294,16.259,0.05
53819.294247,16.207,0.085
53819.318204,16.079,0.052
53826.279194,16.074,0.041
53826.291046,16.149,0.057
53826.326971,16.236,0.054
53827.29119,16.256,0.048
53827.313234,16.181,0.048
53827.334919,16.136,0.054
53832.175492,16.508,0.091
53845.188968,16.078,0.05
53845.199669,16.081,0.054
53845.210531,16.067,0.052
53845.221255,16.007,0.05
53845.232001,16.086,0.054
53846.239581,16.31,0.07
53846.250395,16.202,0.067
53846.261202,16.139,0.063
53846.272005,16.109,0.061
53846.282831,16.088,0.063
53850.266501,16.267,0.054
53850.277798,16.189,0.05
53850.288914,16.239,0.061
53850.301326,16.063,0.05
53850.312408,16.094,0.054
53851.188534,16.108,0.053
53851.198758,16.005,0.049
53851.209034,16.049,0.051
53851.219334,16.023,0.051
53851.229673,16.202,0.061
53853.192944,16.233,0.055
53853.203366,16.211,0.055
53853.214777,16.134,0.052
53853.225187,16.093,0.052
53853.235622,16.046,0.05
53879.154996,16.252,0.053
53879.165884,16.356,0.056
53879.176662,16.459,0.064
53879.187397,16.563,0.074
53879.198436,16.478,0.074
53880.15281,16.138,0.063
53880.163932,16.144,0.065
53880.175092,16.12,0.065
53880.1863,16.121,0.067
53880.197479,16.143,0.068
53882.161795,16.261,0.055
53882.174709,16.101,0.05
53882.187691,16.138,0.052
53882.198916,16.048,0.048
53882.210793,16.103,0.052
54040.471382,16.105,0.061
54057.457599,16.05,0.041
54057.47009,16.037,0.037
54057.482564,16.107,0.039
54057.495063,16.089,0.039
54057.50754,16.171,0.041
54058.441843,16.323,0.061
54058.455001,16.44,0.068
54058.467588,16.476,0.069
54058.48007,16.316,0.059
54058.49248,16.234,0.054
54060.433774,16.275,0.048
54060.447704,16.355,0.052
54060.460623,16.518,0.059
54060.473526,16.504,0.057
54060.486593,16.228,0.046
54064.438309,16.196,0.056
54064.45194,16.375,0.066
54064.467558,16.516,0.074
54064.480644,16.411,0.064
54064.493213,16.294,0.058
54083.489339,16.082,0.043
54083.502432,16.032,0.061
54086.366925,16.134,0.044
54086.379854,16.122,0.043
54086.392788,16.074,0.039
54086.40573,16.073,0.037
54086.418668,16.08,0.037
54091.372275,16.071,0.037
54091.384858,16.084,0.035
54091.397443,16.27,0.043
54091.410365,16.315,0.044
54091.422959,16.54,0.054
54112.391175,16.43,0.074
54112.416239,16.273,0.064
54112.42879,16.153,0.061
54113.384147,16.043,0.041
54113.397285,16.067,0.045
54113.411496,16.108,0.048
54113.437224,16.273,0.063
54113.437389,16.19,0.058
54115.405278,16.083,0.048
54115.418022,16.197,0.053
54115.430913,16.134,0.051
54115.443896,16.238,0.056
54115.457147,16.37,0.064
54123.337527,16.195,0.053
54123.349921,16.1,0.048
54123.362449,16.142,0.049
54123.374851,16.025,0.045
54144.310436,16.145,0.033
54144.321554,16.094,0.031
54144.332753,16.081,0.031
54144.343852,16.084,0.031
54144.35496,16.113,0.037
54148.332404,16.048,0.041
54148.344105,16.075,0.043
54148.355661,16.081,0.041
54148.367212,16.103,0.046
54148.37916,16.11,0.046
54152.284083,16.488,0.041
54152.29599,16.352,0.037
54152.307879,16.227,0.033
54152.31978,16.157,0.031
54152.331689,16.121,0.031
54154.275519,16.494,0.046
54154.286998,16.467,0.044
54154.298496,16.317,0.039
54154.309973,16.227,0.035
54154.321429,16.16,0.033
54173.218549,16.487,0.054
54173.229216,16.42,0.051
54173.240158,16.414,0.053
54173.250927,16.223,0.045
54173.261817,16.154,0.041
54173.308254,16.059,0.03
54176.270482,16.136,0.033
54176.281131,16.162,0.035
54176.291687,16.24,0.037
54176.302475,16.358,0.041
54179.308609,16.1,0.035
54179.319886,16.113,0.035
54185.224974,16.513,0.097
54185.235151,16.606,0.109
54185.245367,16.688,0.116
54185.255567,16.762,0.127
54185.265995,16.709,0.12
54186.332422,16.095,0.03
54201.195849,16.118,0.066
54201.20532,16.121,0.064
54201.214552,16.18,0.068
54201.223783,16.135,0.064
54201.233119,16.152,0.064
54206.221019,16.425,0.044
54206.230067,16.37,0.043
54206.239107,16.18,0.037
54206.248159,16.189,0.037
54206.257277,16.143,0.035
54209.215915,16.099,0.105
54209.224908,15.992,0.105
54209.234478,16.142,0.083
54209.244308,16.094,0.054
54409.445166,16.116,0.037
54418.446495,16.604,0.048
54418.459002,16.503,0.043
54418.471501,16.378,0.037
54418.484002,16.25,0.033
54418.496509,16.224,0.031
54439.455024,16.155,0.026
54439.467908,16.134,0.024
54439.480773,16.091,0.024
54439.493651,16.119,0.024
54507.300249,16.157,0.026
54507.312517,16.221,0.028
54507.324927,16.332,0.03
54522.339053,16.121,0.033
54522.351043,16.082,0.033
54522.363091,16.105,0.033
54522.374861,16.11,0.035
54522.386781,16.014,0.033
54536.220323,16.129,0.024
54536.231409,16.102,0.022
54536.242348,16.113,0.024
54536.253294,16.124,0.024
54553.297653,16.164,0.043
54553.321441,16.116,0.037
54553.333485,16.077,0.033
54559.125952,16.2,0.03
54559.137598,16.136,0.03
54559.149191,16.181,0.03
54559.160645,16.127,0.03
54559.172123,16.136,0.028
54562.25538,16.141,0.026
54562.267028,16.129,0.026
54562.278801,16.11,0.024
54562.290502,16.128,0.026
54580.197028,16.361,0.073
54580.207277,16.479,0.079
54580.217507,16.617,0.092
54580.228382,16.575,0.096
54584.199865,16.228,0.039
54584.210749,16.348,0.043
54584.221642,16.431,0.046
54584.23254,16.585,0.054
54584.243458,16.506,0.052
54591.195996,16.278,0.043
54591.206396,16.171,0.039
54591.216672,16.265,0.046
54591.226949,16.087,0.041
54591.237226,16.14,0.044
54611.157636,16.176,0.069
54611.165846,16.37,0.084
54611.174143,16.343,0.084
54611.182381,16.497,0.091
54611.190589,16.413,0.092
