mjd,m,merr
52612.458318,16.276,0.05
52612.473498,16.259,0.048
52612.488643,16.321,0.048
52612.503964,16.323,0.05
52612.519158,16.284,0.048
52623.443507,16.246,0.054
52623.45935,16.175,0.054
52623.490935,16.235,0.057
52623.506879,16.192,0.054
52665.392125,15.947,0.038
52665.406858,16.013,0.041
52665.437001,15.959,0.03
52665.451749,15.967,0.031
52677.336003,16.528,0.233
52677.353256,16.171,0.056
52677.353797,16.253,0.097
52677.371438,16.241,0.084
52677.403538,16.288,0.043
52677.403922,16.231,0.064
52696.339051,16.457,0.044
52696.351771,16.458,0.044
52696.36416,16.461,0.044
52696.376625,16.447,0.094
52696.389627,16.288,0.041
52711.249908,16.06,0.043
52711.263583,16.086,0.044
52711.27721,16.072,0.043
52711.290545,16.134,0.044
52711.304041,16.147,0.044
52723.334298,15.88,0.039
52739.241356,15.839,0.033
52739.252864,15.881,0.035
52739.264277,15.893,0.035
52739.275671,15.925,0.037
52739.287156,15.908,0.037
52752.232895,16.103,0.039
52752.243158,16.118,0.039
52752.253417,16.165,0.041
52752.263694,16.221,0.044
52752.273981,16.158,0.043
52770.206298,16.413,0.105
52770.218176,16.372,0.102
52770.230503,16.363,0.104
52770.242459,16.369,0.105
52770.254739,16.32,0.104
52787.188375,16.313,0.048
52811.171615,16.192,0.089
52811.181631,16.43,0.107
52811.211969,16.305,0.107
52977.452116,16.328,0.048
52977.46439,16.383,0.052
52977.476576,16.382,0.05
52977.488996,16.413,0.052
52977.501312,16.49,0.055
52991.48629,16.261,0.036
52991.499011,16.245,0.035
52991.511623,16.235,0.035
52991.524171,16.318,0.045
53006.386122,15.891,0.038
53006.398445,15.935,0.038
53006.410765,15.931,0.035
53006.423126,15.966,0.038
53006.436511,15.976,0.038
53024.378082,16.281,0.04
53024.392512,16.293,0.026
53024.407534,16.266,0.046
53024.421126,16.376,0.068
53035.3524,16.287,0.044
53035.365453,16.289,0.043
53035.379423,16.238,0.039
53035.391993,16.273,0.041
53035.404505,16.287,0.039
53049.331462,16.181,0.03
53049.343326,16.226,0.031
53049.35519,16.209,0.031
53049.367052,16.216,0.031
53049.378917,16.267,0.035
53065.282484,16.242,0.041
53065.293715,16.256,0.039
53065.304956,16.331,0.043
53065.316311,16.306,0.044
53065.327598,16.335,0.041
53093.22974,15.993,0.031
53093.239677,16.014,0.031
53093.249486,16.021,0.03
53093.259343,16.072,0.031
53093.269279,16.092,0.03
53107.23541,15.899,0.03
53107.245758,15.866,0.028
53107.256158,15.93,0.03
53107.266636,15.945,0.031
53107.277134,15.971,0.033
53121.198306,16.092,0.031
53121.208907,16.059,0.031
53121.219427,15.998,0.03
53121.229831,15.967,0.03
53121.24024,15.884,0.026
53136.197214,16.198,0.049
53136.207515,16.252,0.053
53136.21627,16.206,0.051
53136.224961,16.284,0.056
53136.233829,16.28,0.058
53154.202314,16.044,0.086
53154.212782,15.923,0.081
53164.171762,16.111,0.048
53164.181244,16.102,0.048
53164.190839,16.109,0.049
53164.200458,16.135,0.053
53164.210024,16.146,0.053
53177.171866,16.398,0.055
53177.181811,16.381,0.059
53319.465045,16.105,0.055
53319.47692,16.07,0.052
53319.488794,16.16,0.054
53319.500657,16.118,0.05
53319.512518,16.128,0.05
53349.466647,16.149,0.052
53349.478636,16.146,0.052
53349.490884,16.117,0.052
53349.503316,16.209,0.054
53349.516962,16.243,0.057
53359.412654,16.405,0.054
53359.428781,16.417,0.054
53359.444925,16.388,0.051
53359.461006,16.421,0.053
53359.477322,16.469,0.054
53389.507005,16.095,0.031
53474.245486,16.307,0.05
53474.256534,16.324,0.05
53474.268298,16.315,0.05
53474.278656,16.274,0.048
53474.288802,16.338,0.05
53498.22322,16.412,0.102
53498.233847,16.398,0.065
53498.244303,16.356,0.055
53499.207557,16.218,0.043
53499.218119,16.217,0.043
53499.22894,16.209,0.043
53499.239507,16.271,0.046
53499.250444,16.237,0.044
53521.162119,16.083,0.052
53521.172318,16.1,0.065
53521.182756,16.228,0.115
53521.192962,16.156,0.054
53521.203198,16.11,0.093
53538.171957,16.312,0.124
53538.181722,16.226,0.117
53538.191265,16.146,0.107
53538.200821,16.342,0.135
53550.172532,16.412,0.07
53550.192292,16.423,0.081
53550.202178,16.476,0.085
53550.212069,16.411,0.083
53702.443234,16.245,0.048
53702.455841,16.093,0.041
53702.468597,16.027,0.037
53702.481262,15.974,0.037
53702.494103,15.862,0.031
53741.412028,16.315,0.035
53741.424968,16.279,0.033
53741.437988,16.302,0.035
53741.450611,16.287,0.033
53741.463469,16.291,0.031
53771.350302,16.264,0.105
53786.371535,16.003,0.046
53786.384799,16.056,0.069
53812.299183,16.337,0.061
53812.310819,16.358,0.064
53812.322221,16.368,0.073
53843.256773,16.121,0.041
53843.268136,16.062,0.043
53843.279512,16.111,0.049
53843.291149,16.13,0.053
53843.302534,16.148,0.056
53854.1958,16.181,0.073
53854.206161,16.183,0.092
53854.216428,16.074,0.046
53854.226645,16.033,0.045
53854.236798,16.1,0.048
53882.163904,16.04,0.045
53882.174755,16.055,0.045
53882.185802,15.899,0.038
53882.196668,15.893,0.04
53882.207757,15.903,0.038
53886.175168,16.327,0.065
53886.185826,16.417,0.074
53886.196562,16.307,0.068
53886.207352,16.423,0.074
53886.218238,16.349,0.07
53903.171472,16.063,0.063
53903.181544,16.068,0.068
53903.191696,16.11,0.068
53903.201995,16.127,0.067
53903.212213,16.102,0.067
54054.46172,16.352,0.074
54054.47446,16.371,0.071
54054.486952,16.315,0.064
54054.500035,16.187,0.053
54054.513531,16.064,0.046
54068.458226,16.319,0.054
54068.485785,16.407,0.063
54085.408495,16.271,0.066
54085.421485,16.326,0.074
54085.434304,16.357,0.066
54085.44731,16.363,0.078
54085.460306,16.366,0.064
54123.33067,16.278,0.044
54123.343157,16.29,0.041
54123.355376,16.255,0.041
54123.367581,16.289,0.043
54123.379869,16.313,0.041
54156.268878,16.201,0.051
54156.279966,16.144,0.048
54156.303156,16.243,0.051
54156.314741,16.247,0.051
54201.236553,15.857,0.026
54201.246362,15.821,0.024
54201.255779,15.829,0.024
54201.265284,15.848,0.024
54201.275403,15.845,0.024
54207.226341,16.367,0.056
54207.235927,16.294,0.051
54207.245743,16.35,0.051
54207.256421,16.396,0.054
54207.26987,16.375,0.049
54216.218852,16.279,0.07
54216.227495,16.26,0.068
54216.236144,16.341,0.072
54216.244798,16.347,0.074
54216.253454,16.369,0.074
54508.353849,16.225,0.041
54508.366536,16.256,0.041
54508.378725,16.296,0.043
54508.390734,16.273,0.041
54508.402845,16.279,0.041
54543.314238,16.265,0.114
54561.197075,16.089,0.058
54561.208454,16.026,0.053
54561.219889,15.996,0.043
54561.231253,15.8,0.04
54573.259797,16.261,0.096
54573.27053,16.287,0.094
54573.281262,16.348,0.102
54582.198305,16.012,0.054
54582.208431,16.077,0.058
54582.218813,16.085,0.058
54582.22906,16.16,0.063
54582.239143,16.213,0.066
54613.161633,16.043,0.054
54613.171943,15.998,0.053
54613.182143,15.894,0.048
54613.192441,15.924,0.051
54613.202673,15.807,0.048
