mjd,m,merr
52612.451961,14.459,0.011
52612.467129,14.472,0.011
52612.482283,14.487,0.011
52612.497598,14.495,0.011
52612.512748,14.53,0.011
52622.434244,14.545,0.012
52622.448894,14.562,0.012
52622.463675,14.58,0.012
52622.478105,14.594,0.012
52622.493179,14.603,0.012
52649.449333,14.435,0.01
52649.47961,14.483,0.01
52676.282839,14.778,0.015
52676.298083,14.795,0.015
52676.346812,14.649,0.013
52677.330083,14.583,0.013
52677.365148,14.592,0.02
52696.33244,14.309,0.007
52696.345064,14.342,0.007
52696.357528,14.364,0.009
52696.37001,14.376,0.013
52711.237176,14.649,0.016
52711.250581,14.674,0.016
52711.251187,14.716,0.016
52711.263678,14.676,0.016
52711.264283,14.725,0.016
52711.276768,14.71,0.016
52711.27737,14.745,0.016
52711.289898,14.724,0.018
52711.290501,14.741,0.016
52723.23054,14.791,0.015
52723.242016,14.774,0.015
52723.253403,14.796,0.015
52723.264912,14.79,0.013
52739.18924,14.461,0.013
52739.189354,14.452,0.013
52739.200709,14.344,0.013
52739.200823,14.401,0.013
52739.21254,14.299,0.013
52739.212655,14.36,0.012
52739.224484,14.236,0.013
52739.224597,14.289,0.012
52739.236012,14.254,0.013
52739.236127,14.236,0.013
52752.185944,14.672,0.013
52752.196078,14.669,0.013
52752.206263,14.676,0.013
52752.216401,14.668,0.013
52752.226532,14.68,0.013
52787.161353,14.635,0.015
52787.172242,14.663,0.015
52787.183454,14.661,0.015
52787.194472,14.659,0.015
52787.205665,14.682,0.016
52794.164158,14.36,0.013
52794.174539,14.335,0.013
52794.185126,14.354,0.013
52794.195974,14.377,0.015
52794.206359,14.376,0.015
52946.441149,14.54,0.017
52946.453189,14.543,0.022
52946.476765,14.489,0.044
52966.366526,14.63,0.013
52966.374527,14.634,0.013
52966.382548,14.655,0.012
52966.390538,14.675,0.012
52966.398628,14.673,0.012
52977.398096,14.385,0.013
52977.410224,14.401,0.011
52977.422198,14.42,0.011
52977.434134,14.423,0.011
52977.446183,14.434,0.011
52991.479797,14.544,0.008
52991.493262,14.565,0.008
52991.505854,14.569,0.008
52991.518378,14.61,0.008
52991.530912,14.654,0.015
53003.362311,14.57,0.007
53003.37438,14.586,0.007
53006.334299,14.398,0.011
53006.347115,14.329,0.011
53006.359246,14.294,0.011
53006.371344,14.247,0.009
53006.383441,14.212,0.009
53035.34684,14.749,0.013
53035.35983,14.765,0.013
53035.372522,14.723,0.013
53035.386253,14.668,0.011
53035.398811,14.56,0.011
53049.27833,14.72,0.009
53049.290637,14.613,0.009
53049.302434,14.452,0.009
53049.314239,14.409,0.007
53049.32608,14.374,0.007
53092.229544,14.795,0.012
53092.239406,14.8,0.012
53092.249335,14.784,0.012
53092.259255,14.735,0.012
53092.269113,14.636,0.01
53107.188746,14.608,0.01
53107.199148,14.629,0.01
53107.209667,14.642,0.012
53107.220147,14.659,0.01
53107.230633,14.67,0.012
53136.19272,14.505,0.012
53136.203072,14.527,0.013
53136.211855,14.532,0.013
53136.220588,14.549,0.013
53136.229319,14.573,0.013
53149.163422,14.413,0.01
53149.171964,14.387,0.01
53149.180837,14.365,0.01
53149.189373,14.279,0.01
53149.198072,14.285,0.01
53154.164891,14.659,0.033
53154.173115,14.703,0.033
53154.181387,14.689,0.03
53154.189698,14.668,0.026
53154.198014,14.701,0.028
53164.167463,14.675,0.02
53164.176934,14.69,0.015
53164.186413,14.693,0.015
53164.196097,14.704,0.016
53164.205722,14.726,0.016
53313.434149,14.539,0.022
53313.446079,14.517,0.022
53313.458003,14.528,0.02
53313.469927,14.561,0.02
53313.48185,14.568,0.02
53329.463049,14.712,0.015
53329.475531,14.707,0.015
53329.48835,14.719,0.015
53329.501105,14.705,0.015
53329.513706,14.726,0.015
53331.448584,14.677,0.017
53331.460965,14.687,0.017
53331.485716,14.696,0.017
53331.49809,14.683,0.017
53349.407237,14.804,0.018
53349.421081,14.784,0.018
53349.434562,14.808,0.016
53349.44844,14.801,0.016
53349.461861,14.767,0.018
53355.475729,14.376,0.008
53355.488949,14.305,0.008
53355.502078,14.261,0.008
53355.517349,14.246,0.008
53360.418905,14.614,0.013
53360.433445,14.636,0.013
53360.449228,14.658,0.021
53415.417634,14.633,0.018
53415.43128,14.682,0.065
53415.456576,14.705,0.044
53437.352891,14.777,0.011
53437.364198,14.783,0.013
53437.375837,14.772,0.013
53437.387137,14.773,0.013
53437.400292,14.752,0.013
53474.240575,14.656,0.013
53474.251652,14.66,0.013
53474.263309,14.653,0.013
53474.273745,14.668,0.013
53474.283454,14.662,0.013
53498.154295,14.74,0.017
53498.164628,14.78,0.026
53498.174808,14.77,0.017
53498.184768,14.744,0.061
53498.195505,14.696,0.067
53499.161632,14.47,0.011
53499.172554,14.478,0.011
53499.182701,14.487,0.011
53499.192955,14.502,0.011
53499.203184,14.503,0.011
53521.157341,14.635,0.017
53521.167541,14.621,0.018
53521.177722,14.653,0.024
53521.188183,14.647,0.018
53521.198402,14.679,0.024
53701.448748,14.383,0.013
53701.473985,14.391,0.013
53701.486538,14.421,0.015
53701.499033,14.458,0.013
53741.405947,14.66,0.011
53741.419104,14.653,0.011
53741.432044,14.673,0.011
53741.457513,14.675,0.011
53771.288201,14.797,0.017
53771.302195,14.82,0.015
53771.314837,14.801,0.026
53771.327791,14.763,0.015
53786.300179,14.657,0.01
53786.313188,14.666,0.013
53786.326203,14.67,0.01
53786.33926,14.693,0.01
53786.35231,14.678,0.012
53812.304651,14.844,0.02
53812.3157,14.837,0.018
53824.264405,14.435,0.008
53824.275963,14.4,0.01
53824.28762,14.363,0.01
53824.299032,14.308,0.01
53824.310576,14.283,0.01
53843.19914,14.671,0.013
53843.210559,14.681,0.015
53843.221882,14.69,0.015
53843.233216,14.663,0.015
53843.245455,14.694,0.015
53854.191106,14.393,0.018
53854.201512,14.426,0.045
53854.211788,14.436,0.02
53854.22206,14.442,0.02
53854.232261,14.451,0.02
53882.159561,14.642,0.015
53882.170399,14.644,0.015
53882.181374,14.634,0.015
53882.192277,14.677,0.015
53882.20336,14.681,0.016
53886.170536,14.669,0.02
53886.18116,14.69,0.02
53886.191886,14.679,0.02
53886.202648,14.671,0.02
53886.213486,14.683,0.02
54054.455867,14.235,0.01
54054.468654,14.272,0.01
54054.481329,14.307,0.01
54054.494394,14.316,0.01
54054.507829,14.347,0.01
54068.400498,14.404,0.01
54068.413654,14.401,0.012
54068.426701,14.416,0.01
54068.439699,14.448,0.01
54068.452495,14.463,0.01
54085.402526,14.822,0.016
54085.41556,14.794,0.028
54085.428472,14.726,0.021
54085.441479,14.52,0.016
54085.454495,14.401,0.012
54110.352299,14.646,0.015
54110.367678,14.651,0.015
54110.398152,14.678,0.015
54110.415987,14.68,0.017
54123.325034,14.424,0.011
54123.337486,14.434,0.011
54123.349747,14.449,0.011
54123.361956,14.474,0.011
54123.374164,14.465,0.011
54186.227008,14.559,0.016
54186.237149,14.551,0.016
54186.247279,14.586,0.016
54186.257421,14.567,0.016
54186.267796,14.592,0.02
54201.23158,14.232,0.007
54201.241055,14.237,0.007
54201.250743,14.263,0.007
54201.260204,14.264,0.009
54201.269985,14.285,0.009
54207.221501,14.306,0.016
54207.231064,14.309,0.016
54207.240715,14.306,0.016
54207.250616,14.352,0.016
54207.261867,14.369,0.018
54216.197064,14.675,0.02
54216.205672,14.669,0.02
54216.2143,14.674,0.02
54453.403058,14.531,0.007
54453.44215,14.562,0.007
54470.330067,14.252,0.011
54470.342931,14.268,0.007
54470.368542,14.29,0.017
54478.380097,14.348,0.015
54478.393081,14.338,0.011
54508.299727,14.594,0.013
54508.311735,14.606,0.016
54508.323847,14.644,0.015
54508.335732,14.645,0.013
54508.347614,14.641,0.013
54561.17935,14.528,0.023
54568.185545,14.274,0.009
54568.196667,14.228,0.009
54568.207476,14.239,0.009
54568.218311,14.24,0.009
54568.229095,14.259,0.009
54583.192631,14.714,0.021
54583.203126,14.72,0.023
54589.196011,14.738,0.013
54589.20639,14.754,0.013
54589.216734,14.782,0.013
54589.227075,14.767,0.013
54589.237444,14.797,0.013
54614.174239,14.666,0.026
54614.184452,14.729,0.03
54614.195156,14.739,0.03
54614.206678,14.715,0.03
54621.159461,14.357,0.009
54621.169591,14.37,0.009
54621.179783,14.381,0.009
54621.189914,14.393,0.009
54621.200276,14.395,0.009
