mjd,m,merr
52612.458847,14.97,0.017
52612.474026,14.812,0.013
52612.489172,14.707,0.011
52612.504495,14.659,0.011
52612.519688,14.628,0.011
52620.463039,14.737,0.013
52620.47818,14.879,0.015
52620.49338,14.983,0.018
52620.508566,14.997,0.02
52620.523648,14.932,0.017
52650.360326,14.739,0.011
52650.374626,14.675,0.011
52650.388731,14.648,0.009
52650.402886,14.63,0.009
52650.416913,14.629,0.009
52696.370386,14.763,0.016
52696.38402,14.781,0.079
52712.261658,14.717,0.031
52712.28819,14.649,0.015
52712.301414,14.632,0.015
52770.20664,14.71,0.022
52770.21852,14.774,0.022
52770.230841,14.87,0.026
52770.242803,14.97,0.028
52770.255137,14.936,0.028
52782.187901,14.946,0.02
52782.198718,14.97,0.026
52800.189878,14.682,0.054
52800.200143,14.76,0.041
52800.210381,14.821,0.043
52810.172636,14.679,0.016
52810.182485,14.696,0.016
52812.174083,14.963,0.021
52812.192135,14.897,0.021
52812.202864,14.79,0.02
52812.21307,14.712,0.018
52812.223272,14.701,0.018
52976.456606,14.767,0.011
52976.470001,14.709,0.009
52976.483214,14.703,0.009
52976.509826,14.695,0.009
52990.457365,14.968,0.018
53049.331906,14.67,0.009
53049.34377,14.641,0.009
53049.355633,14.636,0.007
53065.282087,14.691,0.011
53065.293318,14.666,0.009
53065.30456,14.655,0.009
53065.315915,14.644,0.009
53093.231263,14.751,0.011
53093.241773,14.754,0.011
53093.262282,14.858,0.011
53093.272585,14.869,0.011
53122.196137,14.705,0.016
53122.206478,14.686,0.013
53122.216756,14.686,0.015
53122.227087,14.681,0.012
53122.237386,14.702,0.012
53136.196964,14.744,0.015
53136.207266,14.706,0.013
53136.23358,14.649,0.013
53153.168038,14.682,0.015
53153.176507,14.695,0.015
53153.185408,14.688,0.015
53153.194036,14.704,0.016
53153.202507,14.745,0.016
53154.202052,15.001,0.031
53154.21254,14.897,0.031
53154.220801,14.994,0.031
53154.229227,14.897,0.033
53154.237567,14.87,0.033
53164.180998,14.851,0.016
53178.173028,14.673,0.012
53178.211325,14.843,0.015
53319.464752,14.849,0.017
53319.476626,14.742,0.017
53319.488502,14.705,0.015
53319.500364,14.659,0.013
53319.512225,14.644,0.013
53331.454131,14.673,0.015
53331.466512,14.691,0.015
53331.478891,14.71,0.015
53331.491262,14.769,0.015
53331.503634,14.867,0.017
53341.465992,14.669,0.024
53341.478058,14.739,0.026
53341.490126,14.764,0.026
53341.502715,14.879,0.03
53341.514787,14.887,0.03
53349.467198,14.702,0.015
53349.479189,14.653,0.015
53349.491435,14.649,0.015
53349.503867,14.643,0.013
53349.517516,14.681,0.015
53389.491386,14.685,0.009
53389.507367,14.726,0.009
53389.523352,14.853,0.011
53401.377046,14.717,0.016
53401.390081,14.681,0.015
53422.349875,14.675,0.022
53422.361861,14.658,0.018
53422.373903,14.705,0.022
53450.274393,14.724,0.017
53450.285885,14.765,0.018
53450.296975,14.893,0.018
53450.307664,14.919,0.02
53450.31959,14.925,0.02
53474.24589,14.627,0.011
53474.256937,14.644,0.011
53474.2687,14.649,0.011
53474.279062,14.679,0.011
53474.289204,14.717,0.013
53521.16252,14.647,0.013
53521.172716,14.654,0.017
53521.183165,14.678,0.026
53521.193358,14.683,0.015
53521.203597,14.705,0.028
53538.171714,14.924,0.035
53538.18148,14.996,0.037
53538.191023,14.899,0.035
53538.200577,14.834,0.033
53538.210167,14.806,0.033
53550.271598,15.003,0.033
53550.29189,14.81,0.041
53701.467292,14.945,0.02
53701.479854,14.913,0.02
53701.492315,14.769,0.02
53701.504806,14.723,0.015
53728.404606,14.836,0.015
53728.417885,14.747,0.013
53728.431309,14.707,0.015
53728.444378,14.673,0.013
53728.457549,14.661,0.011
53742.41511,14.934,0.011
53742.427839,14.821,0.011
53742.44095,14.723,0.009
53742.4537,14.67,0.009
53772.350094,14.829,0.013
53772.362881,14.961,0.015
53772.375666,14.976,0.013
53772.388649,14.974,0.013
53772.401693,14.888,0.013
53786.359082,14.774,0.025
53843.251424,14.703,0.015
53843.26265,14.75,0.017
53843.27385,14.82,0.018
53843.285048,14.945,0.02
53843.296878,14.964,0.022
53892.168464,14.892,0.039
53892.178517,14.816,0.039
53892.188681,14.746,0.037
53892.198843,14.697,0.035
53892.209186,14.656,0.033
54054.462314,15.004,0.021
54054.475051,15.0,0.02
54054.487544,14.992,0.02
54054.500627,14.864,0.016
54054.514121,14.738,0.015
54068.486388,15.0,0.018
54086.369955,14.974,0.025
54086.383476,15.01,0.023
54086.396786,14.993,0.021
54086.410704,14.86,0.018
54086.424329,14.758,0.016
54169.274868,14.709,0.009
54169.285762,14.678,0.009
54169.296765,14.653,0.009
54169.307673,14.656,0.009
54169.318617,14.66,0.009
54186.273682,14.754,0.016
54186.283886,14.81,0.018
54186.294153,14.954,0.023
54186.304355,14.971,0.02
54186.314543,14.982,0.023
54200.229606,14.689,0.009
54200.268786,14.667,0.009
54209.21765,15.027,0.035
54217.216692,14.758,0.022
54217.225338,14.787,0.022
54217.233995,14.78,0.024
54217.242654,14.865,0.026
54218.245,15.055,0.043
54218.254229,14.942,0.041
54218.263055,14.838,0.036
54509.327292,14.994,0.018
54509.33935,14.977,0.018
54509.351372,15.007,0.018
54509.363401,14.937,0.018
54509.37605,14.771,0.016
54536.271882,14.98,0.02
54536.293874,14.8,0.016
54536.304786,14.748,0.016
54536.315658,14.715,0.016
54543.280777,14.677,0.035
54543.291652,14.7,0.033
54543.302564,14.734,0.031
54543.325727,14.881,0.036
54561.197732,14.721,0.023
54561.231908,14.985,0.021
54583.197892,14.859,0.023
54583.208376,14.728,0.023
54614.168283,14.719,0.021
54614.178489,14.7,0.02
54614.200349,14.662,0.02
54614.211435,14.68,0.02
