mjd,m,merr
52620.456544,15.227,0.017
52620.471676,15.241,0.017
52620.48675,15.24,0.026
52620.502068,15.283,0.03
52620.517152,15.339,0.018
52636.365181,15.463,0.026
52636.379332,15.545,0.026
52636.393541,15.55,0.026
52636.407695,15.599,0.026
52636.421915,15.564,0.026
52650.291628,15.412,0.022
52650.308236,15.456,0.022
52650.322691,15.555,0.022
52650.33698,15.526,0.02
52650.351334,15.573,0.02
52653.382508,15.507,0.026
52653.397733,15.407,0.024
52653.412856,15.333,0.02
52653.427993,15.313,0.018
52653.443113,15.305,0.017
52680.249603,15.214,0.025
52680.266219,15.209,0.023
52680.282389,15.186,0.025
52680.298177,15.169,0.023
52680.328863,18.256,0.297
52680.353058,17.453,0.127
52680.371398,18.17,0.231
52680.387905,16.422,0.049
52680.40526,16.306,0.048
52695.323848,15.196,0.015
52695.342122,15.226,0.022
52695.360335,15.203,0.024
52712.26809,15.254,0.035
52712.281364,15.283,0.03
52712.294632,15.277,0.031
52722.268228,15.495,0.017
52722.284796,15.526,0.018
52722.298931,15.584,0.018
52722.314762,15.604,0.018
52722.334145,15.602,0.02
52723.167563,15.312,0.022
52723.179108,15.286,0.017
52723.19056,15.278,0.017
52723.202578,15.26,0.02
52723.21463,15.24,0.017
52751.193476,15.316,0.022
52751.217115,15.344,0.02
52751.23524,15.409,0.02
52751.246504,15.434,0.02
52782.161699,15.564,0.028
52782.17232,15.503,0.057
52782.182983,15.606,0.028
52782.193671,15.596,0.031
52782.204337,15.637,0.067
52977.395285,15.369,0.025
52977.40639,15.432,0.023
52977.417626,15.422,0.021
52977.428897,15.491,0.02
52977.440161,15.481,0.02
52978.442731,15.264,0.018
52978.455739,15.333,0.02
52978.468592,15.348,0.017
52978.481489,15.383,0.018
52978.494198,15.432,0.02
52988.390104,15.32,0.024
52988.403038,15.357,0.026
52988.416077,15.447,0.03
52988.42894,15.513,0.031
52988.442007,15.569,0.033
53008.339198,15.604,0.033
53008.37067,15.589,0.03
53008.383219,15.606,0.033
53008.395801,15.506,0.028
53038.336447,15.425,0.026
53038.348858,15.439,0.03
53038.361423,15.418,0.038
53038.374078,15.426,0.033
53038.386427,15.538,0.033
53045.285554,15.372,0.023
53045.302965,15.42,0.025
53045.315312,15.402,0.025
53045.327524,15.458,0.026
53045.340475,15.521,0.026
53065.230139,15.615,0.023
53065.242094,15.636,0.023
53065.254033,15.654,0.025
53065.265935,15.626,0.023
53065.277844,15.633,0.023
53094.223267,15.608,0.023
53094.233434,15.649,0.025
53094.243117,15.637,0.025
53094.252908,15.62,0.023
53094.262676,15.596,0.023
53096.242008,15.169,0.045
53096.261624,15.183,0.041
53122.205303,15.498,0.033
53122.215688,15.48,0.039
53122.226079,15.41,0.028
53122.236654,15.349,0.024
53134.195108,15.577,0.036
53134.213098,15.558,0.026
53134.222158,15.59,0.038
53134.231155,15.697,0.071
53153.16654,15.233,0.022
53153.175507,15.234,0.022
53153.184659,15.254,0.024
53153.193719,15.269,0.024
53153.202894,15.313,0.026
53155.168574,15.543,0.064
53155.187195,15.462,0.061
53155.205304,15.52,0.063
53169.170407,15.655,0.035
53169.180167,15.643,0.035
53169.189845,15.63,0.036
53169.199842,15.574,0.036
53169.209605,15.53,0.036
53319.459022,15.175,0.02
53319.470892,15.207,0.02
53319.482789,15.197,0.018
53319.494645,15.204,0.018
53319.506507,15.235,0.018
53330.457625,15.198,0.021
53330.485363,15.167,0.025
53330.499067,15.196,0.021
53330.514067,15.239,0.023
53356.468237,15.48,0.021
53356.481731,15.408,0.02
53356.4953,15.365,0.018
53356.508754,15.323,0.018
53356.522237,15.321,0.016
53358.400992,15.23,0.017
53358.414014,15.24,0.017
53358.427004,15.247,0.017
53358.440156,15.265,0.017
53358.454025,15.293,0.017
53360.419256,15.578,0.026
53360.43241,15.621,0.031
53360.445548,15.668,0.063
53386.409835,15.438,0.018
53386.422983,15.518,0.02
53386.436034,15.517,0.02
53386.449122,15.545,0.02
53386.465908,15.584,0.02
53401.294041,15.277,0.02
53401.306659,15.271,0.02
53401.319296,15.243,0.018
53401.332437,15.237,0.02
53401.345446,15.245,0.018
53430.302344,15.319,0.018
53430.314057,15.289,0.018
53430.326298,15.257,0.018
53430.338102,15.248,0.018
53430.354624,15.226,0.018
53441.334251,15.281,0.015
53441.346439,15.233,0.015
53441.358006,15.238,0.015
53441.369025,15.207,0.015
53441.380042,15.223,0.017
53445.226145,15.576,0.02
53445.237334,15.631,0.022
53445.250005,15.618,0.022
53445.261194,15.652,0.022
53445.272425,15.659,0.022
53446.217801,15.341,0.018
53446.228359,15.388,0.02
53446.238972,15.406,0.02
53446.250078,15.446,0.02
53446.261283,15.459,0.02
53491.215145,15.465,0.043
53491.2261,15.369,0.03
53491.236608,15.373,0.026
53536.187828,15.357,0.055
53536.197861,15.387,0.057
53685.446027,15.395,0.024
53697.466963,15.628,0.057
53697.47971,15.603,0.043
53697.492703,15.573,0.041
53727.40052,15.192,0.018
53727.413377,15.231,0.022
53727.426159,15.266,0.02
53727.439061,15.287,0.02
53727.451833,15.275,0.026
53757.32231,15.582,0.02
53757.335065,15.637,0.022
53757.347778,15.616,0.022
53757.360587,15.559,0.02
53757.373383,15.529,0.02
53773.35008,15.356,0.022
53773.362841,15.396,0.022
53773.375936,15.455,0.022
53773.388883,15.451,0.022
53773.401743,15.492,0.022
53802.305205,15.265,0.028
53802.341747,15.337,0.023
53802.353699,15.405,0.026
53806.321565,15.196,0.043
53806.332967,15.204,0.041
53806.344334,15.289,0.043
53806.355638,15.229,0.044
53827.252177,15.256,0.015
53827.262884,15.284,0.015
53827.273514,15.265,0.015
53827.284292,15.281,0.015
53827.295102,15.297,0.016
53842.192527,15.501,0.026
53842.204294,15.437,0.024
53842.215519,15.357,0.024
53842.22713,15.28,0.026
53842.238381,15.278,0.03
53843.132635,15.428,0.023
53843.145366,15.449,0.021
53843.157575,15.463,0.021
53843.169574,15.506,0.023
53843.181572,15.539,0.023
53877.202684,15.213,0.084
54052.45106,15.52,0.028
54052.463533,15.53,0.028
54052.475795,15.579,0.028
54052.488045,15.54,0.028
54052.500304,15.549,0.028
54071.394001,15.192,0.031
54071.406834,15.198,0.031
54071.419669,15.208,0.03
54071.432478,15.21,0.028
54071.445266,15.196,0.026
54080.366051,15.531,0.033
54080.378083,15.558,0.033
54080.39003,15.548,0.037
54098.322743,15.432,0.031
54098.334831,15.461,0.031
54098.347085,15.496,0.031
54098.359362,15.55,0.03
54098.371476,15.515,0.026
54109.375613,15.541,0.043
54124.330687,15.335,0.02
54124.343151,15.355,0.02
54124.355955,15.417,0.021
54124.368408,15.391,0.021
54124.38083,15.44,0.021
54140.302218,15.606,0.018
54140.314053,15.554,0.02
54140.325901,15.522,0.018
54140.338269,15.423,0.018
54140.350243,15.347,0.017
54188.253648,15.26,0.056
54188.263379,15.355,0.053
54198.242787,15.682,0.059
54198.252403,15.598,0.024
54198.262046,15.594,0.024
54212.215815,15.621,0.036
54212.224339,15.62,0.036
54212.232879,15.667,0.038
54212.24145,15.623,0.036
54212.249919,15.683,0.04
54498.324713,15.514,0.026
54498.337136,15.444,0.026
54498.348971,15.341,0.025
54498.3608,15.331,0.023
54498.372657,15.308,0.023
54526.276454,15.338,0.021
54526.287733,15.316,0.021
54526.298975,15.342,0.021
54526.310447,15.263,0.021
54526.321722,15.273,0.02
54559.238383,15.629,0.033
54559.249906,15.595,0.031
54559.262194,15.566,0.031
54559.274029,15.526,0.03
54559.285426,15.46,0.03
54570.190023,15.605,0.041
54570.201031,15.645,0.04
54570.212748,15.681,0.04
54570.224016,15.673,0.04
54570.235203,15.634,0.04
54585.219965,15.555,0.092
54618.16129,15.327,0.045
54618.171852,15.261,0.04
54618.182178,15.335,0.043
54618.192601,15.313,0.043
54618.203403,15.365,0.04
