mjd,m,merr
52623.450455,16.424,0.068
52623.466123,16.397,0.068
52623.481967,16.337,0.085
52623.497751,16.215,0.059
52623.513756,16.101,0.052
52637.393295,16.244,0.209
52637.40746,16.027,0.194
52651.318351,16.032,0.056
52652.385099,16.323,0.046
52652.400155,16.419,0.048
52652.415479,16.439,0.044
52652.430764,16.49,0.046
52652.445928,16.451,0.044
52664.349054,16.086,0.035
52664.364331,16.129,0.046
52664.379555,16.112,0.087
52681.284091,16.274,0.074
52681.30136,16.137,0.059
52681.31989,16.157,0.044
52681.338282,16.153,0.039
52695.31379,16.237,0.043
52695.326972,16.266,0.028
52695.327585,16.29,0.046
52695.340756,16.342,0.041
52695.341369,16.32,0.068
52695.354528,16.414,0.041
52695.355166,16.42,0.071
52695.368506,16.42,0.135
52695.369117,16.316,0.243
52712.276024,16.234,0.078
52712.289559,16.197,0.073
52712.302856,16.198,0.069
52722.244007,16.399,0.048
52722.256133,16.413,0.048
52722.268601,16.462,0.049
52722.280921,16.442,0.048
52722.293068,16.502,0.051
52723.24444,16.566,0.068
52723.256645,16.592,0.059
52723.268746,16.555,0.058
52751.246556,16.229,0.048
52751.257308,16.258,0.049
52751.268073,16.213,0.046
52751.278809,16.311,0.051
52751.290202,16.351,0.053
52771.159286,16.584,0.152
52771.171159,16.745,0.176
52771.183297,16.64,0.159
52771.195215,16.561,0.15
52771.207177,16.391,0.13
52782.166216,16.341,0.131
52782.17688,16.221,0.063
52782.187499,16.328,0.052
52782.198295,16.38,0.068
52782.208936,16.288,0.107
52800.190105,17.46,0.562
52800.200149,17.078,0.278
52800.210189,16.781,0.207
52810.173675,16.216,0.055
52810.183673,16.183,0.052
52810.213529,16.039,0.133
52812.174684,16.317,0.059
52812.184916,16.34,0.063
52812.195274,16.355,0.065
52812.205459,16.46,0.07
52812.215814,16.505,0.076
52976.402097,16.563,0.051
52976.424232,16.462,0.048
52976.435318,16.454,0.048
52976.446378,16.299,0.041
52977.442942,16.064,0.038
52977.454062,16.155,0.041
52977.465141,16.144,0.041
52977.487546,16.204,0.043
52990.403066,16.125,0.041
52990.416355,16.112,0.037
52990.430361,16.134,0.039
52990.443415,16.182,0.059
52990.456629,16.193,0.044
53023.345075,16.459,0.037
53023.358573,16.432,0.037
53023.371564,16.448,0.039
53023.384436,16.481,0.039
53023.397203,16.457,0.037
53046.3494,16.101,0.044
53046.361336,16.119,0.044
53046.373317,16.125,0.044
53046.385459,16.143,0.044
53046.397504,16.153,0.046
53065.28525,16.259,0.04
53065.29733,16.409,0.043
53065.309251,16.365,0.041
53065.321232,16.432,0.045
53065.333053,16.417,0.043
53107.243517,16.095,0.031
53107.25479,16.133,0.031
53107.265984,16.158,0.033
53107.277194,16.157,0.033
53107.288465,16.146,0.033
53136.199726,16.584,0.061
53136.209082,16.534,0.061
53136.218388,16.447,0.054
53136.227688,16.438,0.055
53136.237009,16.326,0.052
53154.206012,16.267,0.07
53154.214919,16.303,0.072
53154.223758,16.216,0.074
53154.232592,16.224,0.072
53154.241408,16.249,0.076
53164.172757,16.263,0.044
53164.182963,16.202,0.041
53164.193176,16.275,0.054
53164.203391,16.293,0.046
53164.213631,16.361,0.05
53330.463839,16.299,0.066
53330.477427,16.31,0.064
53340.459635,16.57,0.117
53340.472146,16.493,0.106
53340.487688,16.453,0.101
53340.505498,16.514,0.104
53340.517949,16.479,0.087
53356.474931,16.434,0.049
53356.528807,16.457,0.046
53358.407281,16.477,0.057
53358.420303,16.471,0.057
53358.433371,16.438,0.055
53358.446454,16.389,0.05
53358.460317,16.367,0.048
53360.425297,16.242,0.057
53360.43844,16.135,0.076
53360.45158,16.204,0.224
53360.464723,16.249,0.148
53386.416059,16.241,0.043
53386.429202,16.285,0.043
53386.442259,16.345,0.043
53386.455409,16.437,0.048
53386.472157,16.457,0.048
53390.399734,16.202,0.048
53390.41291,16.253,0.067
53390.428704,16.197,0.05
53390.441794,16.253,0.044
53390.454959,16.354,0.046
53401.351691,16.62,0.08
53401.364309,16.556,0.078
53401.376932,16.632,0.083
53401.389613,16.526,0.072
53430.308207,16.308,0.052
53430.319914,16.396,0.055
53430.332257,16.42,0.057
53430.343946,16.458,0.061
53430.360617,16.518,0.067
53441.339101,16.12,0.031
53441.351826,16.135,0.033
53441.362857,16.131,0.033
53441.373881,16.164,0.035
53441.385444,16.182,0.037
53479.231131,16.61,0.139
53479.240779,16.605,0.141
53479.252609,16.45,0.12
53479.26356,16.493,0.128
53479.273069,16.516,0.133
53491.198429,16.359,0.067
53491.219717,16.383,0.067
53491.230662,16.507,0.061
53491.241247,16.521,0.07
53537.172694,16.214,0.113
53537.192858,16.047,0.124
53537.202924,16.194,0.115
53552.18232,16.525,0.098
53552.192504,16.602,0.104
53552.202907,16.567,0.105
53552.213564,16.483,0.1
53684.444604,16.498,0.1
53684.457207,16.523,0.087
53684.469691,16.483,0.078
53684.482406,16.492,0.087
53684.494851,16.479,0.083
53700.451365,16.433,0.068
53700.464341,16.438,0.065
53700.477098,16.436,0.063
53700.490053,16.51,0.065
53700.502808,16.51,0.061
53727.457761,16.489,0.07
53727.496452,16.661,0.155
53757.327999,16.356,0.052
53757.340802,16.411,0.057
53757.353453,16.497,0.063
53757.366296,16.541,0.067
53757.379121,16.541,0.065
53773.355939,16.227,0.05
53773.368691,16.267,0.05
53773.381891,16.307,0.05
53773.394785,16.315,0.048
53773.407555,16.437,0.05
53825.237385,16.183,0.036
53825.24863,16.15,0.035
53825.259826,16.18,0.038
53825.271032,16.232,0.038
53825.2823,16.208,0.038
53848.237068,16.531,0.07
53848.247805,16.482,0.067
53848.258254,16.503,0.068
53848.269128,16.456,0.067
53848.27989,16.579,0.072
53877.250092,16.247,0.13
53877.260721,16.381,0.109
53904.169717,16.432,0.074
53904.179652,16.507,0.081
53904.189622,16.523,0.081
53904.19974,16.532,0.085
53904.209835,16.43,0.078
54052.456742,16.23,0.065
54052.469201,16.257,0.065
54052.481457,16.289,0.063
54052.493716,16.32,0.063
54052.506042,16.354,0.065
54071.450815,16.422,0.089
54071.476705,16.379,0.073
54071.489603,16.238,0.059
54071.502346,16.201,0.059
54098.376873,16.299,0.056
54098.38908,16.28,0.053
54098.401225,16.143,0.043
54098.413556,16.184,0.045
54098.425842,16.159,0.041
54109.419616,16.816,0.216
54124.336336,16.355,0.053
54124.348832,16.229,0.048
54124.36154,16.154,0.045
54124.374,16.143,0.045
54124.386414,16.175,0.046
54140.337194,16.604,0.074
54140.349378,16.52,0.066
54140.361749,16.55,0.066
54140.373767,16.561,0.068
54140.385933,16.427,0.061
54187.27683,16.286,0.083
54187.287478,16.599,0.101
54187.298083,16.558,0.096
54187.3089,16.554,0.099
54198.228371,16.107,0.061
54198.238009,16.155,0.072
54198.247624,16.096,0.078
54198.257237,16.115,0.041
54198.266874,16.092,0.037
54210.221709,16.58,0.063
54210.23075,16.628,0.063
54210.239469,16.533,0.058
54210.248165,16.486,0.056
54210.257107,16.379,0.053
54218.235075,16.679,0.15
54218.243654,16.599,0.135
54218.252254,16.527,0.13
54218.260855,16.486,0.124
54481.400196,16.098,0.051
54498.331001,16.073,0.045
54498.343434,16.124,0.048
54498.355257,16.123,0.048
54498.367083,16.064,0.045
54498.378953,16.034,0.043
54526.282445,16.273,0.045
54526.293781,16.442,0.051
54526.305091,16.37,0.048
54526.316522,16.435,0.051
54526.327688,16.473,0.053
54537.269072,16.194,0.048
54537.280016,16.275,0.069
54537.291039,16.185,0.074
54537.302101,16.152,0.066
54537.313118,16.111,0.063
54559.243712,16.056,0.051
54559.255939,16.059,0.051
54559.267807,16.067,0.049
54559.279246,16.091,0.051
54559.290642,16.101,0.053
54569.239848,16.328,0.061
54569.250938,16.339,0.061
54569.261862,16.365,0.063
54569.272803,16.527,0.073
54569.283715,16.43,0.068
54584.198283,16.422,0.069
54584.208284,16.447,0.069
54584.218285,16.484,0.073
54584.228488,16.368,0.066
54584.238611,16.383,0.066
