mjd,m,merr
52641.452017,16.057,0.037
52641.467359,16.037,0.037
52641.482337,15.866,0.031
52641.497531,15.731,0.028
52641.513018,15.722,0.028
52646.451901,15.99,0.041
52646.466722,15.778,0.033
52646.482242,15.657,0.03
52646.497274,15.678,0.03
52646.51206,15.705,0.03
52648.336665,16.116,0.054
52648.351961,16.121,0.056
52648.382517,16.015,0.045
52648.397688,15.927,0.041
52667.392473,16.031,0.035
52667.407704,16.075,0.039
52667.42318,16.083,0.039
52667.438495,16.13,0.043
52667.453848,16.109,0.044
52672.386896,16.114,0.044
52672.401695,16.106,0.041
52672.415741,16.111,0.044
52700.363471,16.187,0.048
52700.378913,16.076,0.046
52700.395329,16.059,0.048
52700.410718,16.016,0.048
52700.426171,15.809,0.041
52705.242137,15.877,0.033
52705.255098,15.894,0.033
52705.268139,15.921,0.033
52705.281103,15.926,0.033
52705.294075,15.978,0.036
52706.231706,15.894,0.031
52706.244931,15.724,0.026
52706.257983,15.688,0.024
52706.271169,15.725,0.026
52706.284299,15.684,0.024
52708.252557,15.736,0.035
52708.265629,15.78,0.035
52708.279367,15.69,0.036
52708.291912,15.868,0.038
52708.305063,15.909,0.038
52709.238624,16.097,0.051
52709.25226,16.072,0.049
52709.279029,15.879,0.041
52709.292311,15.745,0.036
52728.237677,15.926,0.038
52728.249688,15.931,0.038
52728.261987,15.999,0.041
52728.274195,16.035,0.041
52728.286349,16.048,0.043
52731.257502,15.728,0.099
52737.242816,15.758,0.033
52737.255669,15.721,0.031
52737.267461,15.708,0.031
52737.279277,15.703,0.031
52737.29108,15.696,0.03
52756.142884,15.81,0.031
52756.154635,15.822,0.031
52756.166377,15.875,0.033
52756.178171,15.86,0.033
52756.190124,15.962,0.037
52972.447107,15.868,0.031
52972.459919,15.695,0.026
52972.472847,15.64,0.024
52972.485621,15.629,0.024
52972.498431,15.581,0.024
53032.336421,15.802,0.026
53032.348757,15.864,0.028
53032.361087,15.889,0.028
53032.373426,15.888,0.028
53032.385817,15.927,0.03
53054.306086,16.083,0.033
53054.321088,16.062,0.03
53054.335723,15.942,0.03
53054.348857,15.911,0.026
53054.361431,15.855,0.026
53080.227283,15.868,0.03
53080.238201,15.944,0.031
53080.251849,15.903,0.031
53080.264591,15.974,0.033
53080.275988,16.028,0.035
53081.225101,15.699,0.023
53081.236958,15.715,0.023
53081.249727,15.676,0.023
53081.261896,15.711,0.023
53081.273449,15.749,0.025
53081.277951,15.738,0.022
53081.289379,15.806,0.024
53081.300627,15.806,0.024
53111.187364,15.781,0.037
53111.198138,15.801,0.037
53111.20889,15.837,0.037
53111.219628,15.804,0.039
53111.230401,15.9,0.041
53139.156933,15.817,0.035
53139.166613,15.897,0.037
53139.17621,15.929,0.041
53139.185734,15.937,0.039
53139.195244,15.983,0.043
53144.213673,16.17,0.094
53144.222962,16.202,0.165
53144.241764,16.11,0.08
53144.251112,16.131,0.176
53327.441373,16.123,0.066
53346.447969,15.934,0.048
53346.461283,15.974,0.048
53346.474868,16.019,0.05
53346.488098,16.09,0.063
53346.500245,16.142,0.05
53353.422364,16.223,0.063
53353.436455,16.297,0.064
53353.450539,16.295,0.063
53440.3713,16.022,0.041
53440.382305,15.924,0.039
53440.394454,15.823,0.035
53440.404942,15.74,0.035
53440.41656,15.694,0.037
53466.267493,15.921,0.037
53466.277362,15.946,0.039
53466.28702,15.992,0.041
53469.179358,15.83,0.033
53469.189413,15.715,0.028
53469.203761,15.721,0.03
53469.214312,15.742,0.028
53469.22421,15.683,0.028
53504.144006,15.757,0.046
53504.153686,15.874,0.05
53504.162452,15.83,0.044
53504.171192,15.909,0.05
53504.17985,15.864,0.048
53797.237739,15.931,0.033
53797.250422,15.978,0.033
53797.26335,16.021,0.035
53797.275634,16.174,0.116
53797.288028,16.054,0.043
53815.235458,15.965,0.055
53815.246901,16.0,0.068
53815.258239,16.04,0.052
53815.269738,16.121,0.061
53815.281098,16.084,0.061
53833.223355,15.993,0.07
53833.233205,16.073,0.085
53833.243057,16.094,0.078
53833.262781,16.079,0.083
53846.186768,15.85,0.04
53846.19746,15.876,0.045
53846.208282,15.921,0.045
53846.219,15.904,0.045
53846.229635,15.909,0.045
54061.449228,15.717,0.036
54061.461826,15.784,0.036
54061.474859,15.779,0.036
54061.487582,15.836,0.04
54061.500347,15.894,0.04
54113.347936,16.062,0.035
54113.360861,16.141,0.057
54113.373528,15.983,0.035
54113.386101,15.945,0.033
54147.307578,15.941,0.038
54147.331439,16.082,0.045
54156.269782,15.993,0.035
54156.281312,15.841,0.03
54156.292845,15.745,0.028
54156.304392,15.73,0.028
54156.315944,15.688,0.026
54175.269266,16.001,0.038
54175.280229,16.056,0.04
54175.291378,16.059,0.041
54175.302261,16.054,0.041
54175.313079,16.096,0.041
54198.231196,16.183,0.086
54198.241012,16.182,0.112
54198.260471,16.21,0.068
54415.461565,15.85,0.028
54415.473962,15.863,0.028
54415.486357,15.91,0.03
54415.498734,15.919,0.03
54477.448315,16.016,0.069
54477.46056,16.038,0.069
54477.47286,15.993,0.069
54477.485451,16.079,0.073
54477.498191,16.014,0.069
54480.364055,15.643,0.018
54480.39096,15.65,0.018
54497.342305,15.88,0.028
54497.354842,15.893,0.024
54497.367397,15.937,0.03
54497.379949,15.997,0.037
54497.392476,16.042,0.046
54505.36789,15.86,0.02
54505.380158,15.869,0.02
54505.392695,15.926,0.022
54506.399962,15.67,0.031
54506.412489,15.693,0.033
54526.33438,15.627,0.018
54526.357263,15.684,0.02
54526.3687,15.723,0.022
54526.380133,15.74,0.022
54534.339263,15.652,0.026
54534.342518,15.566,0.015
54534.350409,15.623,0.026
54534.36174,15.669,0.026
54534.364758,15.585,0.017
54534.372827,15.711,0.028
54534.375987,15.61,0.017
54534.383786,15.752,0.035
54534.387069,15.671,0.02
54539.208641,16.12,0.035
54539.219537,16.036,0.031
54539.230376,16.03,0.031
54539.241233,16.05,0.03
54539.252248,16.001,0.03
54540.171482,15.564,0.028
54540.182362,15.694,0.028
54540.193464,15.642,0.028
54540.204489,15.699,0.028
54540.215344,15.693,0.028
54552.305339,15.619,0.022
54552.329667,15.704,0.026
54552.341765,15.725,0.026
54552.353973,15.72,0.028
54568.238417,15.998,0.056
54568.249401,15.992,0.056
54568.260209,16.033,0.058
54568.271174,16.052,0.059
54568.282042,16.055,0.059
54583.26784,15.996,0.098
54583.278467,15.8,0.072
54583.28909,15.684,0.041
54590.214854,15.699,0.028
54590.225201,15.719,0.028
54590.23557,15.692,0.028
54590.246109,15.683,0.028
