mjd,m,merr
52613.449004,17.555,0.165
52613.464174,17.316,0.135
52613.479521,16.929,0.096
52613.494718,16.89,0.089
52613.510006,16.79,0.085
52618.455502,16.883,0.146
52618.470799,16.869,0.137
52618.486235,16.729,0.085
52618.501682,16.724,0.096
52618.517154,16.794,0.087
52619.447417,16.733,0.08
52619.463,16.772,0.083
52619.478433,16.971,0.1
52619.49397,17.042,0.104
52619.509482,17.3,0.141
52620.454446,17.305,0.131
52620.469578,16.967,0.093
52620.484648,16.922,0.1
52620.499944,16.764,0.093
52620.515032,16.701,0.115
52640.391435,16.935,0.078
52640.421462,16.889,0.074
52640.437364,16.785,0.066
52643.38105,16.729,0.074
52643.395222,16.761,0.076
52643.40948,16.706,0.076
52643.42365,16.98,0.093
52643.437809,17.212,0.113
52647.396365,16.831,0.091
52647.41118,16.694,0.076
52647.425597,16.68,0.078
52647.44004,16.705,0.076
52647.454367,16.757,0.081
52667.385184,17.141,0.092
52667.399954,17.363,0.117
52667.414996,17.439,0.125
52667.429734,17.071,0.096
52667.444678,16.957,0.089
52673.302907,17.329,0.118
52673.318192,17.511,0.137
52673.333451,17.16,0.098
52673.348773,16.94,0.083
52673.364115,16.8,0.074
52703.307881,17.329,0.305
52703.335148,18.115,0.631
52703.349225,17.172,0.105
52703.362481,17.298,0.596
52707.30547,16.819,0.07
52707.319197,16.873,0.074
52707.332374,17.026,0.08
52707.346172,17.213,0.104
52707.359403,17.477,0.135
52730.236934,17.414,0.128
52730.248553,17.207,0.107
52730.260318,17.006,0.093
52730.271986,16.863,0.083
52730.283793,16.775,0.078
52733.248771,16.76,0.074
52733.260964,16.695,0.07
52733.273209,16.662,0.067
52733.286161,16.759,0.078
52733.298115,16.736,0.093
52738.187185,16.974,0.094
52738.198665,16.947,0.091
52738.210139,16.745,0.076
52738.221587,16.706,0.074
52738.233059,16.716,0.074
52755.198073,16.782,0.076
52755.215483,16.804,0.078
52755.228618,16.87,0.083
52755.240644,17.062,0.104
52755.25277,17.234,0.124
52758.201923,17.179,0.093
52758.213766,17.488,0.128
52758.225622,17.422,0.122
52758.237582,17.115,0.093
52758.249523,16.884,0.078
52788.168012,16.731,0.105
52788.178279,16.879,0.205
52788.188578,17.047,0.187
52788.209608,16.933,0.178
52793.219643,18.017,0.448
52793.229681,17.516,0.289
52793.239646,17.35,0.25
52966.462739,17.263,0.137
52966.475149,16.925,0.102
52966.487691,16.807,0.087
52966.500231,16.735,0.083
52966.5129,16.696,0.078
52973.428853,16.946,0.097
52973.440862,17.114,0.117
52973.453037,17.303,0.132
52973.465334,17.102,0.104
52973.477285,16.898,0.086
52994.461584,17.189,0.091
52994.474102,16.872,0.049
52994.486653,16.791,0.045
52994.499207,16.778,0.045
52994.511787,16.732,0.045
52996.391045,16.771,0.053
52996.40387,16.807,0.053
52996.416875,16.916,0.054
52996.429635,16.948,0.054
52996.442413,17.091,0.061
53025.344945,16.955,0.061
53025.36846,17.335,0.102
53025.392477,17.4,0.132
53028.376385,16.901,0.043
53028.389249,16.776,0.038
53028.401678,16.746,0.038
53028.413858,16.737,0.04
53028.426073,16.751,0.043
53033.333075,17.175,0.107
53033.345333,16.948,0.087
53033.357511,16.847,0.076
53033.369622,16.706,0.074
53033.382244,16.769,0.109
53053.293774,16.681,0.063
53053.30641,16.76,0.098
53053.319026,16.888,0.128
53053.332341,16.868,0.08
53053.344102,16.962,0.083
53079.253382,16.762,0.061
53079.264024,16.74,0.061
53079.274832,16.69,0.057
53079.285533,16.781,0.063
53079.30399,16.808,0.065
53082.294848,17.42,0.083
53082.306477,17.331,0.078
53082.318197,17.05,0.061
53082.330187,16.942,0.056
53082.341652,16.833,0.051
53084.294423,17.121,0.059
53084.30583,17.407,0.079
53084.317406,17.55,0.092
53084.328639,17.493,0.086
53084.340686,17.174,0.066
53086.225093,16.996,0.181
53086.236668,16.704,0.115
53086.247797,16.748,0.148
53086.259373,16.665,0.1
53086.270814,16.766,0.078
53091.280115,16.854,0.053
53091.290179,16.996,0.059
53091.300337,17.073,0.061
53091.31082,17.48,0.089
53091.320963,17.404,0.084
53110.189528,16.748,0.08
53110.200219,16.808,0.083
53110.210905,16.81,0.083
53110.221594,16.652,0.076
53110.23241,16.76,0.083
53115.250497,17.09,0.074
53115.261322,17.41,0.106
53115.272129,17.341,0.099
53115.283016,17.158,0.081
53115.294298,16.976,0.069
53138.157464,17.103,0.1
53138.16733,16.901,0.081
53138.177148,16.82,0.08
53138.186972,16.878,0.083
53138.196773,16.869,0.08
53141.177102,16.783,0.066
53141.186134,16.728,0.063
53141.195123,16.86,0.069
53141.204112,16.937,0.076
53141.213418,16.992,0.083
53321.471756,16.938,0.561
53346.388235,16.971,0.116
53346.400624,16.899,0.119
53346.413111,16.963,0.122
53346.425576,16.876,0.114
53346.437793,17.028,0.132
53351.428267,16.807,0.096
53351.442588,16.848,0.101
53351.457071,17.053,0.117
53351.472044,17.266,0.153
53351.486836,17.948,0.287
53353.399699,16.862,0.105
53353.412638,16.75,0.096
53353.425581,16.713,0.091
53353.438568,16.714,0.093
53353.453981,16.776,0.094
53376.422733,16.775,0.08
53376.436615,16.702,0.068
53376.450359,16.633,0.063
53376.463876,16.74,0.068
53376.477558,16.75,0.072
53381.361777,17.137,0.113
53381.37511,16.945,0.139
53381.389078,16.746,0.185
53381.403722,16.773,0.087
53403.350118,16.718,0.074
53403.363584,16.741,0.078
53403.376435,16.812,0.081
53403.390297,16.916,0.093
53403.403181,17.14,0.117
53410.351063,16.744,0.055
53410.363839,16.679,0.052
53410.376184,16.812,0.057
53410.388935,16.839,0.063
53410.402397,17.147,0.08
53432.343985,18.15,0.566
53432.366769,17.417,0.224
53432.378121,16.965,0.107
53432.389491,16.873,0.094
53437.290512,16.976,0.08
53437.302135,17.234,0.102
53437.314147,17.585,0.139
53437.325769,17.502,0.131
53437.337487,17.279,0.109
53440.299478,17.064,0.091
53440.313773,16.821,0.076
53440.326335,16.806,0.072
53440.339446,16.79,0.074
53440.353503,16.733,0.072
53443.221828,17.536,0.15
53443.266798,16.843,0.07
53446.223746,16.781,0.078
53446.234342,16.76,0.078
53446.245456,16.766,0.074
53446.256661,16.674,0.07
53446.267227,16.635,0.08
53464.288671,16.723,0.074
53464.298845,16.702,0.08
53464.309007,16.748,0.07
53464.319193,16.781,0.091
53464.329354,16.835,0.091
53468.231234,16.822,0.17
53468.241166,16.907,0.155
53468.252561,17.192,0.313
53468.262142,17.577,0.446
53495.200479,17.208,0.191
53495.210783,16.969,0.141
53495.221009,16.844,0.128
53495.231252,16.835,0.137
53495.241517,16.742,0.15
53503.184671,16.739,0.083
53503.193524,16.765,0.081
53503.203378,16.789,0.089
53503.213243,16.85,0.093
53503.222489,16.899,0.102
53522.162552,16.747,0.091
53522.172776,16.793,0.1
53522.183017,16.851,0.107
53522.193342,16.862,0.115
53522.203571,17.014,0.135
53705.458308,16.844,0.094
53705.47094,16.779,0.085
53705.483684,16.85,0.085
53705.496325,16.89,0.083
53705.50903,16.798,0.076
53708.455711,16.718,0.078
53708.468419,16.738,0.078
53708.481434,16.79,0.083
53708.494165,16.919,0.091
53708.506822,17.04,0.098
53710.450565,16.88,0.113
53710.463973,16.675,0.096
53710.476488,16.704,0.1
53710.489144,16.798,0.104
53710.501744,16.763,0.1
53732.419459,16.67,0.105
53732.432248,16.688,0.113
53732.444908,16.716,0.102
53732.457669,16.94,0.131
53732.470478,17.391,0.192
53735.436319,17.433,0.364
53735.462428,16.875,0.093
53746.398818,16.735,0.113
53746.41128,16.856,0.122
53746.423814,16.815,0.12
53746.436523,16.754,0.117
53746.448984,17.114,0.155
53759.351681,16.953,0.089
53759.364466,17.126,0.105
53759.377143,17.5,0.157
53759.389811,17.302,0.131
53759.402488,17.055,0.118
53762.407814,16.742,0.07
53762.420319,16.71,0.08
53762.433112,16.763,0.115
53762.445713,16.722,0.174
53762.458521,16.901,0.139
53787.460249,16.782,0.093
53787.472124,16.842,0.104
53790.292783,17.031,0.094
53790.304699,17.109,0.101
53790.31665,17.545,0.144
53790.328686,17.692,0.163
53790.337262,17.36,0.141
53790.340588,17.244,0.109
53790.348956,17.027,0.104
53790.360649,16.961,0.1
53790.372341,16.787,0.089
53790.384041,16.747,0.087
53793.343178,17.081,0.276
53793.354911,16.738,0.072
53793.366632,16.779,0.08
53793.378368,16.824,0.087
53793.390112,16.889,0.144
53797.245983,16.729,0.065
53797.257541,16.83,0.102
53797.280764,16.868,0.15
53799.285271,16.957,0.093
53799.296756,16.828,0.081
53799.308267,17.0,0.094
53799.319977,17.168,0.113
53799.33149,17.337,0.141
53818.235236,16.786,0.078
53818.246317,16.746,0.071
53818.257468,16.887,0.083
53818.268719,16.838,0.078
53818.279874,16.802,0.076
53819.285583,16.863,0.2
53819.29655,16.797,0.246
53819.320528,16.645,0.074
53819.331695,16.642,0.072
53826.281458,17.022,0.107
53826.293296,16.873,0.107
53826.317741,16.723,0.174
53826.329228,16.727,0.085
53827.2941,16.796,0.081
53827.305216,16.939,0.1
53827.326902,17.451,0.159
53827.33791,17.657,0.202
53832.252431,16.709,0.167
53845.189455,16.83,0.092
53845.200572,17.075,0.116
53845.211719,17.259,0.14
53845.222809,17.441,0.165
53845.233883,17.371,0.17
53846.243301,16.758,0.107
53846.254106,16.759,0.109
53846.264919,16.832,0.118
53846.27571,16.916,0.135
53846.286532,17.212,0.172
53850.192661,17.587,0.186
53850.203052,17.315,0.149
53850.213541,17.21,0.139
53850.224046,17.176,0.135
53850.234629,17.059,0.129
53850.268759,16.64,0.08
53850.279993,16.786,0.091
53850.291113,16.824,0.102
53850.303531,16.814,0.104
53850.314629,17.029,0.133
53853.195232,16.913,0.102
53853.206635,16.806,0.093
53853.217039,16.735,0.093
53853.227454,16.696,0.093
53853.237877,16.731,0.098
53879.157543,16.778,0.078
53879.168397,16.902,0.089
53879.179168,16.831,0.084
53879.189907,16.689,0.079
53879.201519,16.758,0.087
53882.164646,16.731,0.085
53882.177567,16.757,0.089
53882.190555,16.836,0.096
53882.20178,16.932,0.104
53882.213691,17.078,0.128
53884.158161,16.682,0.102
53884.16989,16.753,0.111
53884.181645,16.826,0.126
53884.193417,16.69,0.115
53884.205211,16.777,0.126
53885.153379,16.978,0.102
53885.164181,17.171,0.125
53885.175333,17.297,0.142
53885.186145,17.635,0.193
53885.197196,17.913,0.271
54057.459944,16.969,0.109
54057.472429,17.259,0.139
54057.484919,17.586,0.183
54057.497401,17.47,0.165
54057.509883,17.477,0.167
54059.451543,16.647,0.092
54059.471887,16.853,0.099
54059.485567,16.941,0.101
54059.498127,17.084,0.109
54060.436126,17.321,0.154
54060.450053,17.449,0.17
54060.462964,17.2,0.135
54060.475873,16.981,0.111
54060.488939,16.828,0.093
54083.464724,17.649,0.363
54083.478621,17.139,0.305
54083.491915,16.876,0.131
54083.518105,17.126,0.316
54086.369335,16.858,0.102
54086.382264,17.001,0.105
54086.395199,17.189,0.12
54086.408142,17.543,0.154
54086.421079,17.517,0.142
54091.35351,17.05,0.14
54091.366688,17.128,0.142
54091.374629,17.065,0.105
54091.379324,17.747,0.256
54091.387212,17.554,0.163
54091.391228,17.816,0.259
54091.3998,17.338,0.135
54091.403348,17.552,0.196
54091.412721,17.094,0.104
54091.425317,16.873,0.085
54113.386501,16.718,0.079
54113.39966,16.764,0.087
54113.413914,16.783,0.096
54113.426894,16.747,0.37
54113.439756,16.856,0.109
54115.408495,16.695,0.083
54115.42124,16.7,0.083
54115.434129,16.696,0.084
54115.447156,16.805,0.092
54115.460369,16.773,0.096
54123.339851,16.907,0.101
54123.352248,16.918,0.097
54123.364785,16.791,0.091
54123.377173,16.897,0.101
54123.389825,16.942,0.102
54144.357107,16.712,0.068
54144.368582,16.829,0.076
54144.379672,16.852,0.111
54144.391331,16.931,0.085
54144.403399,17.151,0.104
54148.335403,17.022,0.101
54148.34711,16.705,0.076
54148.358671,16.822,0.087
54148.370301,16.764,0.083
54148.382178,16.798,0.089
54152.286814,16.743,0.057
54152.298709,16.808,0.063
54152.3106,16.807,0.065
54152.322501,17.055,0.076
54152.334415,17.258,0.094
54154.278927,16.705,0.061
54154.290394,16.717,0.063
54154.301895,16.687,0.057
54154.313368,16.715,0.059
54154.324806,16.791,0.063
54173.263916,16.778,0.084
54173.267568,16.697,0.052
54173.274606,16.799,0.086
54173.27848,16.731,0.054
54173.285671,16.803,0.089
54173.289134,16.749,0.055
54173.296372,16.823,0.089
54173.299801,16.772,0.057
54173.307064,16.878,0.092
54173.310516,16.915,0.063
54176.27273,17.078,0.085
54176.283372,17.294,0.107
54176.294053,17.463,0.126
54176.304763,17.527,0.128
54176.31531,17.239,0.1
54179.288691,16.905,0.068
54179.299676,16.842,0.067
54179.311022,16.742,0.065
54179.322146,16.76,0.068
54179.333402,16.716,0.067
54185.227412,16.761,0.114
54185.237616,16.712,0.106
54185.247814,16.727,0.112
54185.258027,16.747,0.109
54185.268443,16.638,0.104
54186.289583,16.697,0.054
54186.300795,16.731,0.055
54186.312535,16.75,0.057
54186.323703,16.772,0.057
54186.33498,16.915,0.063
54200.216541,16.981,0.157
54200.22601,17.248,0.196
54206.223874,16.675,0.061
54206.232907,16.78,0.065
54206.241951,16.699,0.061
54206.251,16.762,0.065
54206.260125,16.746,0.063
54209.218083,16.723,0.203
54209.227069,16.848,0.189
54209.236635,16.942,0.13
54209.246464,17.242,0.178
54209.255706,17.338,0.396
54439.444948,16.962,0.063
54439.457845,16.765,0.05
54439.470726,16.683,0.048
54439.48359,16.634,0.044
54439.496468,16.662,0.048
54507.327806,16.788,0.052
54507.339843,16.829,0.055
54507.351969,17.012,0.063
54507.364042,17.301,0.08
54507.376095,17.332,0.08
54507.448195,16.909,0.086
54507.460117,16.783,0.092
54507.472069,16.866,0.094
54507.483926,16.881,0.089
54507.496732,17.028,0.101
54522.389942,16.773,0.07
54522.401612,16.705,0.07
54522.413294,16.894,0.081
54522.424933,16.994,0.091
54522.436588,17.376,0.139
54529.276976,17.012,0.059
54529.288412,17.372,0.081
54529.300033,17.544,0.098
54529.31183,17.395,0.085
54529.3232,16.997,0.063
54535.38746,17.193,0.139
54535.398725,16.812,0.099
54535.409725,16.721,0.094
54535.420723,16.781,0.102
54535.431878,16.687,0.104
54536.267638,16.865,0.054
54536.278625,17.076,0.065
54536.289618,17.343,0.081
54536.300577,17.275,0.076
54536.311583,17.11,0.067
54553.300438,16.829,0.083
54553.312331,16.746,0.061
54553.324223,16.741,0.065
54553.336295,16.752,0.068
54553.348208,16.81,0.076
54558.128071,16.701,0.072
54558.139717,16.671,0.061
54558.151263,16.681,0.061
54558.162842,16.713,0.061
54558.174476,16.755,0.063
54562.247125,17.017,0.063
54562.258733,17.454,0.094
54562.270363,17.531,0.098
54562.282141,17.255,0.078
54562.293826,16.991,0.059
54580.199324,16.927,0.117
54580.209574,16.846,0.106
54580.219806,16.745,0.096
54580.230679,16.815,0.112
54580.241668,16.79,0.112
54584.246231,16.859,0.072
54584.256905,16.71,0.065
54584.267482,16.641,0.063
54584.278054,16.68,0.063
54584.288678,16.734,0.07
54591.188683,17.856,0.353
54591.198278,17.463,0.279
54591.198548,17.527,0.144
54591.207887,17.231,0.214
54591.20894,17.238,0.109
54591.217614,16.929,0.162
54591.219215,16.992,0.093
54591.227857,16.908,0.167
54591.229496,16.857,0.087
54591.239779,16.682,0.076
54611.159082,16.714,0.152
54611.167289,16.704,0.145
54611.175617,16.738,0.158
54611.183828,16.777,0.165
54611.192035,16.635,0.14
54614.16106,16.766,0.072
54614.171017,16.794,0.076
54614.180987,16.93,0.085
54614.19096,17.134,0.109
54614.200946,17.454,0.142
