mjd,m,merr
52619.45724,16.189,0.054
52619.517598,16.211,0.054
52641.45291,16.065,0.033
52641.468249,16.126,0.037
52641.483279,16.147,0.037
52641.498424,16.171,0.039
52641.513911,16.172,0.037
52646.452514,16.096,0.041
52646.46782,16.099,0.041
52646.482863,16.165,0.043
52646.497898,16.135,0.041
52646.512715,16.163,0.041
52647.479945,15.884,0.04
52647.494722,15.906,0.041
52667.394153,15.728,0.026
52667.409394,15.779,0.028
52667.424857,15.793,0.028
52667.440174,15.875,0.031
52667.455527,15.848,0.031
52672.387838,15.767,0.039
52672.402638,15.766,0.028
52672.416681,15.812,0.03
52672.431076,15.893,0.039
52672.444954,15.912,0.037
52673.297752,16.247,0.048
52673.313628,16.222,0.046
52673.330065,16.242,0.046
52673.344878,16.311,0.049
52673.359883,16.286,0.051
52704.294319,16.352,0.051
52704.307616,16.238,0.053
52704.320702,16.28,0.051
52704.333712,16.264,0.049
52704.346669,16.212,0.049
52704.347069,16.2,0.053
52704.360265,16.25,0.056
52705.302972,16.186,0.037
52705.316831,16.205,0.039
52705.339052,16.273,0.041
52705.352114,16.219,0.039
52705.366489,16.263,0.044
52707.248965,15.71,0.03
52707.249081,15.616,0.031
52707.262156,15.52,0.025
52707.262271,15.425,0.026
52707.275221,15.477,0.025
52707.275336,15.41,0.026
52707.288671,15.523,0.025
52707.288786,15.461,0.026
52707.301737,15.596,0.026
52707.301852,15.538,0.03
52729.234302,16.26,0.039
52729.245872,16.248,0.039
52729.257336,16.249,0.039
52729.269505,16.253,0.039
52729.280987,16.263,0.041
52734.255658,16.295,0.043
52734.268015,16.308,0.057
52737.244328,15.368,0.022
52737.257185,15.473,0.024
52737.268982,15.511,0.024
52737.280796,15.609,0.026
52737.292648,15.675,0.028
52756.196743,15.926,0.04
52756.209243,15.945,0.04
52756.221347,15.968,0.041
52756.23353,15.929,0.043
52756.245773,15.956,0.045
52758.202722,16.195,0.045
52758.214648,16.247,0.048
52758.226593,16.219,0.048
52758.238618,16.197,0.046
52758.250689,16.237,0.049
52972.448665,16.227,0.037
52972.461476,15.768,0.024
52972.474403,15.413,0.017
52972.487177,15.26,0.015
52972.500048,15.294,0.017
52994.462379,16.17,0.036
52994.474909,16.198,0.03
52994.487454,16.156,0.025
52994.50002,16.217,0.026
52994.512598,16.18,0.026
52996.391864,15.792,0.023
52996.404688,15.821,0.023
52996.417695,15.85,0.021
52996.430458,15.847,0.021
52996.443237,15.869,0.021
53025.345688,16.043,0.035
53025.369205,16.111,0.049
53025.393231,16.017,0.04
53028.377186,16.243,0.023
53028.390051,16.232,0.025
53028.402464,16.268,0.025
53028.414659,16.25,0.025
53028.426894,16.24,0.025
53033.333811,16.209,0.041
53033.34611,16.202,0.041
53033.358246,16.22,0.041
53033.370718,16.27,0.046
53033.382978,16.313,0.054
53054.306638,16.128,0.03
53054.321642,16.17,0.031
53054.336276,16.195,0.031
53054.34941,16.195,0.031
53054.361984,16.233,0.033
53080.228036,15.834,0.026
53080.238997,15.895,0.028
53080.252574,15.917,0.028
53080.265317,15.924,0.028
53080.276713,15.908,0.028
53082.295635,16.143,0.028
53082.307266,15.914,0.023
53082.318988,15.648,0.018
53082.330976,15.492,0.015
53082.342442,15.455,0.015
53084.295207,16.19,0.026
53084.306618,16.226,0.026
53084.318191,16.241,0.028
53084.329424,16.226,0.028
53084.341471,16.242,0.028
53091.280849,15.775,0.02
53091.290914,15.786,0.02
53091.301071,15.818,0.02
53091.311552,15.857,0.021
53091.321698,15.865,0.021
53111.188048,15.359,0.022
53111.198826,15.294,0.02
53111.209574,15.321,0.02
53111.220312,15.406,0.024
53111.231086,15.512,0.026
53115.251223,15.94,0.026
53115.262048,15.984,0.028
53115.272852,16.045,0.031
53115.283742,16.025,0.028
53115.295022,16.041,0.03
53139.157568,16.109,0.041
53139.167248,16.136,0.043
53139.176845,16.1,0.041
53139.186369,16.052,0.039
53139.195881,16.123,0.043
53141.215479,15.698,0.026
53141.225529,15.709,0.026
53141.235131,15.749,0.03
53141.245389,15.768,0.031
53141.254758,15.799,0.033
53327.442228,16.176,0.083
53346.448835,15.365,0.026
53346.462638,15.334,0.026
53346.475732,15.432,0.028
53346.488963,15.48,0.03
53346.501108,15.548,0.03
53347.489468,16.271,0.056
53347.503407,16.276,0.051
53347.51728,16.306,0.054
53353.423028,16.274,0.059
53353.437118,16.244,0.059
53353.451205,16.232,0.059
53353.4654,16.226,0.058
53353.479446,16.238,0.053
53383.408689,16.262,0.046
53383.422018,16.259,0.046
53383.435322,16.128,0.041
53383.448638,16.255,0.046
53383.462201,16.248,0.046
53403.362537,16.239,0.046
53403.375596,16.199,0.045
53403.38921,16.189,0.046
53403.403327,16.215,0.048
53403.416872,16.195,0.049
53440.417686,16.042,0.044
53440.429396,16.043,0.046
53440.439874,16.123,0.054
53440.450367,16.107,0.057
53440.46203,16.125,0.068
53441.275008,16.169,0.035
53441.286508,16.073,0.031
53441.297891,15.826,0.026
53441.309293,15.715,0.024
53441.320734,15.631,0.022
53496.194097,16.276,0.059
53496.204415,16.244,0.057
53496.214613,16.107,0.054
53496.224932,16.072,0.054
53496.235193,15.869,0.046
53707.458571,15.806,0.105
53707.483971,16.126,0.067
53707.496528,16.135,0.054
53707.509597,16.214,0.048
53710.451036,15.851,0.041
53710.464448,15.832,0.041
53710.476961,15.855,0.039
53710.489617,15.878,0.043
53710.502271,15.897,0.041
53734.468759,16.008,0.037
53734.481856,16.033,0.039
53734.495203,16.086,0.041
53734.508349,16.094,0.039
53734.521426,16.084,0.041
53746.39951,16.332,0.07
53746.411973,16.252,0.065
53746.424528,16.355,0.072
53746.437213,16.197,0.063
53746.449678,16.039,0.052
53758.400237,16.233,0.046
53758.412808,16.247,0.046
53758.425347,16.289,0.048
53758.438085,16.234,0.046
53758.451102,16.273,0.05
53787.462478,16.305,0.057
53787.474384,16.471,0.072
53787.49868,16.279,0.07
53789.381973,16.031,0.037
53789.393835,16.048,0.035
53791.300473,16.28,0.04
53791.312637,16.254,0.04
53791.325038,16.225,0.04
53791.336994,16.31,0.041
53791.348867,16.312,0.041
53792.344252,16.294,0.044
53792.356019,16.406,0.068
53792.367798,16.373,0.059
53792.379581,16.396,0.063
53792.39135,16.3,0.052
53802.334666,15.965,0.068
53802.34621,16.115,0.052
53802.35766,16.149,0.054
53802.369343,16.128,0.052
53802.380814,16.179,0.054
53815.283084,15.784,0.041
53815.29423,15.75,0.046
53815.305411,15.664,0.031
53815.316593,15.702,0.035
53815.327782,15.718,0.035
53817.2145,16.156,0.04
53817.22594,16.158,0.04
53817.23744,16.215,0.041
53817.248844,16.224,0.041
53817.260588,16.197,0.041
53821.298277,16.325,0.052
53821.313163,16.428,0.118
53821.340017,16.36,0.065
53821.355361,16.234,0.059
53824.297399,15.92,0.05
53824.311608,16.047,0.068
53824.327321,16.006,0.043
53828.290837,16.292,0.08
53828.304496,16.228,0.054
53828.320441,16.215,0.044
53828.335408,16.333,0.065
53828.348781,16.273,0.068
53831.229195,16.217,0.059
53831.239755,16.119,0.054
53831.24976,16.133,0.055
53831.259954,16.095,0.054
53831.270075,16.016,0.048
53846.188116,16.122,0.048
53846.198826,16.246,0.054
53846.209636,16.201,0.053
53846.22035,16.223,0.053
53846.231013,16.166,0.049
53846.243798,16.376,0.074
53846.2546,16.253,0.067
53846.265409,16.25,0.067
53846.276211,16.237,0.068
53846.287022,16.276,0.07
53850.193161,16.137,0.049
53850.20355,16.127,0.049
53850.214041,15.989,0.045
53850.224548,15.891,0.043
53850.235129,15.852,0.045
53851.241603,16.218,0.057
53851.253082,16.255,0.059
53851.263681,16.197,0.057
53851.274174,16.234,0.065
53851.284376,16.239,0.067
53854.257084,15.847,0.044
53857.274274,16.212,0.063
53857.300132,16.307,0.089
53857.312136,16.148,0.074
53879.159342,15.758,0.03
53879.170119,15.766,0.031
53879.180889,15.82,0.031
53879.191628,15.858,0.035
53879.203244,15.899,0.038
53884.158796,15.722,0.041
53884.170525,15.746,0.043
53884.182279,15.772,0.044
53884.194051,15.811,0.05
53884.205846,15.836,0.052
53885.15515,16.232,0.051
53885.165935,16.018,0.043
53885.177043,15.798,0.036
53885.18786,15.637,0.031
53885.199146,15.527,0.03
54056.435199,16.336,0.061
54056.447452,16.291,0.055
54056.459796,16.228,0.052
54056.472138,16.258,0.05
54056.484394,16.225,0.046
54060.444578,16.379,0.073
54060.458809,16.282,0.064
54060.471642,16.415,0.073
54060.486442,16.353,0.066
54060.499225,16.246,0.059
54064.450789,15.482,0.024
54064.463648,15.561,0.024
54064.476505,15.655,0.026
54064.489384,15.703,0.026
54064.502255,15.74,0.026
54082.453857,16.056,0.046
54082.46664,16.072,0.044
54082.479431,16.07,0.044
54082.492222,16.055,0.043
54082.505026,16.144,0.044
54085.467219,15.973,0.031
54085.480178,15.919,0.028
54085.493143,15.805,0.024
54085.506106,15.714,0.022
54085.519069,15.724,0.024
54091.354176,16.317,0.074
54091.367356,16.306,0.068
54091.379989,16.193,0.061
54091.391894,16.292,0.063
54091.404011,16.324,0.064
54153.328197,15.942,0.028
54153.339806,15.934,0.028
54153.35137,16.032,0.035
54153.362929,16.013,0.033
54153.374504,16.021,0.043
54155.298337,16.112,0.039
54155.309976,16.15,0.039
54155.321684,16.2,0.039
54155.333672,16.181,0.037
54155.345865,16.205,0.035
54156.271388,16.155,0.037
54156.282921,16.147,0.035
54156.294455,16.125,0.035
54156.306004,16.187,0.037
54156.317556,16.172,0.037
54174.267475,15.692,0.028
54174.27256,15.677,0.022
54174.278472,15.617,0.026
54174.283262,15.614,0.022
54174.289501,15.634,0.03
54174.29396,15.645,0.026
54174.300414,15.641,0.045
54174.304664,15.665,0.026
54174.311477,15.688,0.03
54174.315382,15.664,0.024
54180.233618,16.288,0.054
54180.244238,16.27,0.049
54180.254742,16.223,0.046
54180.265158,16.246,0.045
54180.275495,16.25,0.041
54180.288797,16.231,0.035
54180.299634,16.232,0.035
54180.310511,16.181,0.031
54180.321141,16.159,0.031
54180.331804,16.105,0.031
54200.217053,16.272,0.056
54200.226521,16.313,0.058
54200.255513,16.426,0.079
54205.265272,16.334,0.043
54205.274658,16.299,0.041
54205.284054,16.271,0.041
54205.293475,16.209,0.041
54205.302873,16.138,0.039
54208.259989,15.944,0.031
54208.269166,15.979,0.033
54208.278335,16.006,0.035
54208.287481,16.053,0.037
54208.296645,15.991,0.037
54212.230779,16.049,0.039
54212.239784,16.063,0.039
54212.248819,16.048,0.039
54212.257965,16.075,0.041
54212.267134,16.104,0.041
54481.335655,16.073,0.033
54481.348693,16.074,0.031
54481.36178,16.098,0.03
54481.374677,16.134,0.031
54481.387579,16.081,0.03
54498.34093,15.562,0.017
54498.353477,15.643,0.018
54498.366104,15.71,0.018
54498.378648,15.723,0.02
54498.39142,15.746,0.018
54506.333849,16.212,0.028
54506.345953,16.232,0.03
54506.358048,16.259,0.03
54506.370142,16.241,0.03
54506.382258,16.222,0.031
54507.449044,16.241,0.045
54507.460966,16.134,0.048
54507.472919,16.32,0.059
54507.484778,16.171,0.046
54507.497584,16.322,0.054
54522.391783,15.994,0.035
54522.403469,15.997,0.037
54522.415131,15.983,0.035
54522.426769,16.028,0.037
54522.438431,16.007,0.041
54527.32921,16.005,0.02
54527.340604,15.989,0.022
54527.351979,16.021,0.024
54527.363514,16.019,0.024
54527.374894,15.982,0.024
54535.279553,16.225,0.024
54535.290647,16.233,0.026
54535.301743,16.232,0.026
54535.312831,16.22,0.026
54535.32388,16.247,0.026
54535.389829,16.291,0.046
54535.400958,16.243,0.043
54535.41196,16.292,0.046
54535.422961,16.239,0.048
54535.434117,16.189,0.051
54553.302359,15.826,0.033
54553.314267,15.838,0.024
54553.326146,15.829,0.024
54553.338219,15.837,0.028
54553.350148,15.893,0.03
54561.246874,16.103,0.022
54561.258323,16.115,0.026
54561.269792,16.164,0.028
54561.281266,16.159,0.03
54561.292829,16.253,0.046
54580.19323,16.292,0.039
54580.203853,16.267,0.039
54580.214468,16.346,0.044
54580.225076,16.295,0.044
54580.235754,16.293,0.048
54584.247657,16.073,0.033
54584.25832,16.005,0.031
54584.268896,15.955,0.031
54584.27947,15.804,0.026
54584.290092,15.747,0.028
54590.192332,16.207,0.079
54590.202524,16.119,0.078
54590.212189,16.136,0.076
54590.22197,16.163,0.084
54590.23181,16.129,0.074
54591.20005,16.066,0.035
54591.210321,16.109,0.037
54591.220599,16.046,0.037
54591.230883,16.05,0.039
54591.241171,16.132,0.043
54611.159526,16.069,0.031
54611.169912,16.13,0.033
54611.179825,16.139,0.033
54611.18972,16.136,0.035
54611.199603,16.189,0.037
54614.162093,16.172,0.035
54614.172053,16.199,0.037
54614.182025,16.219,0.039
54614.191999,16.194,0.039
54614.201981,16.185,0.039
