mjd,m,merr
52639.37674,16.302,0.044
52639.391512,15.978,0.033
52639.40624,15.746,0.028
52639.421166,15.615,0.024
52639.436221,15.596,0.022
52649.457166,15.866,0.03
52649.476714,15.643,0.024
52649.491626,15.544,0.024
52649.505815,15.54,0.024
52649.519933,15.548,0.024
52672.326907,15.59,0.03
52672.341613,15.588,0.031
52672.356306,15.593,0.026
52672.371343,15.567,0.028
52672.386512,15.519,0.036
52676.285984,15.581,0.026
52676.301289,15.572,0.024
52676.316826,15.582,0.024
52676.332514,15.594,0.026
52676.34806,15.586,0.026
52677.316168,15.579,0.024
52677.330612,15.587,0.046
52677.359487,15.573,0.041
52677.374072,15.663,0.22
52706.247097,15.575,0.025
52706.247212,15.502,0.026
52706.260367,15.554,0.025
52706.260481,15.507,0.026
52706.273946,15.566,0.025
52706.274062,15.516,0.026
52706.288117,15.575,0.025
52706.288233,15.506,0.026
52706.30123,15.556,0.025
52706.301345,15.499,0.026
52710.246228,15.615,0.031
52710.259884,15.59,0.031
52710.27358,15.581,0.03
52710.273695,15.542,0.035
52710.286733,15.621,0.031
52710.286848,15.544,0.035
52710.300077,15.608,0.031
52710.300192,15.58,0.038
52724.240342,15.565,0.022
52724.251953,15.554,0.02
52724.2636,15.568,0.022
52724.275197,15.574,0.022
52724.286812,15.548,0.02
52733.241668,15.548,0.026
52733.253804,15.567,0.026
52733.265875,15.571,0.026
52733.277969,15.578,0.026
52733.290094,15.562,0.031
52753.191592,15.51,0.024
52753.20367,15.533,0.024
52753.217635,15.545,0.026
52753.229682,15.542,0.024
52753.241705,15.535,0.026
52761.149695,15.602,0.03
52761.161977,15.608,0.033
52761.173849,15.568,0.036
52761.185815,15.63,0.045
52761.197999,15.593,0.045
52768.152917,16.134,0.087
52768.165733,16.031,0.081
52768.177977,15.856,0.07
52768.18963,15.76,0.065
52768.201553,15.624,0.061
52787.16573,15.536,0.026
52787.176282,15.528,0.026
52787.186879,15.549,0.026
52787.197586,15.562,0.026
52787.208256,15.679,0.03
52792.162747,15.574,0.053
52792.173528,15.67,0.17
52792.184524,15.582,0.041
52792.206195,15.631,0.049
52793.199918,15.574,0.053
52793.210278,15.67,0.17
52793.220574,15.582,0.041
52793.241467,15.631,0.049
52992.402188,15.484,0.02
52992.41562,15.463,0.02
52992.428905,15.482,0.018
52992.442215,15.468,0.018
52992.455906,15.442,0.017
53001.4168,15.527,0.015
53001.439183,15.536,0.015
53001.453585,15.542,0.015
53001.471024,15.519,0.013
53001.489876,15.54,0.015
53003.374165,15.555,0.015
53003.386172,15.57,0.015
53003.398401,15.575,0.018
53003.410453,15.603,0.028
53003.422496,15.694,0.046
53034.339833,15.558,0.024
53034.352211,15.581,0.024
53034.36484,15.568,0.022
53034.377499,15.572,0.022
53034.389761,15.575,0.022
53050.276146,15.567,0.018
53050.287745,15.549,0.017
53050.299396,15.527,0.017
53050.311103,15.564,0.018
53050.3227,15.561,0.039
53062.285729,15.951,0.065
53062.297158,16.238,0.048
53062.308778,16.313,0.163
53062.320376,16.031,0.315
53062.331954,15.859,0.111
53078.233774,15.749,0.026
53078.244551,15.618,0.026
53078.265901,15.547,0.022
53078.276525,15.533,0.022
53079.306964,15.605,0.02
53079.307576,15.6,0.02
53079.317696,15.532,0.018
53079.318307,15.544,0.02
53079.329113,15.53,0.02
53079.329866,15.542,0.023
53079.33027,15.528,0.023
53079.339817,15.534,0.02
53079.341115,15.51,0.023
53079.341519,15.546,0.023
53079.349956,15.555,0.02
53079.350619,15.539,0.02
53079.352295,15.537,0.025
53079.352698,15.549,0.025
53079.363741,15.523,0.025
53079.364144,15.55,0.025
53079.375482,15.542,0.025
53079.375887,15.534,0.026
53087.309995,15.565,0.016
53087.321043,15.562,0.016
53087.333069,15.567,0.016
53089.246399,15.568,0.016
53089.25737,15.55,0.016
53089.268314,15.54,0.016
53089.279171,15.551,0.016
53109.191948,15.52,0.02
53109.20265,15.52,0.02
53109.213338,15.532,0.022
53109.224123,15.509,0.02
53109.234837,15.513,0.02
53137.197764,15.568,0.028
53137.207353,15.558,0.028
53137.216874,15.561,0.028
53149.163634,15.511,0.022
53149.172823,15.522,0.024
53149.183232,15.6,0.026
53149.19222,15.663,0.03
53149.201149,15.851,0.035
53165.168376,15.627,0.065
53165.17836,15.598,0.039
53165.188342,15.52,0.031
53165.198319,15.556,0.046
53165.208336,15.578,0.065
53341.435836,15.641,0.063
53341.463539,15.624,0.059
53348.418902,15.558,0.028
53348.433183,15.557,0.03
53348.447422,15.541,0.028
53348.461625,15.655,0.035
53348.475939,15.813,0.051
53354.428656,15.58,0.023
53354.442958,15.593,0.025
53354.457371,15.598,0.023
53354.472224,15.595,0.023
53354.486643,15.584,0.023
53473.227891,15.543,0.024
53473.238175,15.536,0.026
53473.247992,15.542,0.024
53473.258071,15.536,0.024
53473.269192,15.551,0.026
53500.189446,15.581,0.026
53500.199996,15.575,0.026
53500.211517,15.572,0.026
53500.221437,15.578,0.026
53500.231448,15.548,0.026
53528.166761,16.039,0.057
53528.178556,16.237,0.074
53528.19013,16.021,0.065
53528.200901,15.815,0.054
53528.211528,15.679,0.05
53703.457209,15.549,0.022
53703.470322,15.573,0.022
53703.482968,15.585,0.022
53703.495641,15.572,0.022
53703.50857,15.568,0.022
53714.39811,15.601,0.026
53714.411065,15.605,0.026
53714.423925,15.588,0.024
53714.436704,15.589,0.022
53714.44945,15.564,0.022
53740.400537,15.602,0.024
53740.413691,15.569,0.022
53740.427457,15.566,0.022
53740.441263,15.585,0.022
53740.454763,15.568,0.022
53770.290179,15.563,0.022
53770.303174,15.549,0.022
53770.316242,15.543,0.02
53770.330407,15.607,0.022
53770.344122,15.722,0.026
53813.304276,16.173,0.057
53813.315285,16.146,0.059
53813.326288,15.94,0.05
53813.337303,15.767,0.044
53813.348312,15.671,0.041
53823.198322,15.534,0.021
53823.209272,15.557,0.023
53823.220093,15.599,0.023
53823.230912,15.579,0.023
53823.241737,15.564,0.021
53844.187607,15.561,0.028
53844.197858,15.566,0.028
53844.208143,15.586,0.03
53844.218414,15.551,0.03
53844.22886,15.557,0.03
53853.192071,15.584,0.035
53853.202621,15.523,0.035
53853.213123,15.554,0.031
53853.223723,15.536,0.035
53853.2342,15.544,0.036
53883.161502,15.578,0.038
53883.171857,15.569,0.038
53883.182261,15.579,0.04
53883.193144,15.543,0.04
53883.205109,15.581,0.04
53887.169351,15.558,0.059
53887.181218,15.548,0.063
53887.192453,15.56,0.068
53887.203799,15.553,0.068
53887.21514,15.557,0.067
54042.473274,15.592,0.036
54042.48597,15.583,0.035
54042.498214,15.569,0.033
54056.444235,15.575,0.031
54056.458914,15.612,0.031
54056.471645,15.583,0.03
54056.484725,15.584,0.03
54056.497322,15.591,0.028
54066.44832,15.567,0.036
54066.461902,15.596,0.054
54066.490769,15.676,0.157
54066.504994,15.575,0.028
54070.445143,15.65,0.022
54070.458038,15.624,0.02
54070.471067,15.659,0.022
54070.483944,15.637,0.02
54070.496836,15.673,0.022
54084.395397,15.628,0.04
54084.408538,15.615,0.041
54084.421403,15.622,0.043
54084.434453,15.614,0.038
54084.447585,15.646,0.053
54098.366698,15.63,0.026
54098.378762,15.638,0.024
54098.390719,15.65,0.024
54098.402663,15.672,0.022
54098.414698,15.821,0.024
54110.336707,15.487,0.061
54110.349264,15.645,0.045
54110.361853,15.595,0.043
54110.374499,15.557,0.04
54110.387475,15.551,0.04
54121.330363,15.553,0.018
54121.342543,15.569,0.02
54121.354731,15.562,0.018
54121.366926,15.557,0.018
54121.379183,15.563,0.02
54155.29201,15.566,0.031
54155.303964,15.557,0.03
54155.316115,15.575,0.03
54155.328955,15.568,0.028
54155.341454,15.585,0.028
54206.221501,15.527,0.026
54206.230831,15.554,0.026
54206.240158,15.517,0.025
54206.249528,15.537,0.025
54206.259214,15.547,0.025
54452.393522,15.599,0.017
54452.406666,15.581,0.017
54452.420011,15.577,0.017
54452.433296,15.6,0.017
54452.446436,15.692,0.018
54477.33953,15.533,0.017
54477.352337,15.617,0.018
54477.365131,15.773,0.022
54477.377938,16.0,0.028
54477.390934,16.316,0.035
54484.269198,15.712,0.046
54484.295232,15.711,0.043
54484.308124,15.591,0.035
54484.32103,15.497,0.03
54529.146923,15.563,0.03
54529.159584,15.56,0.03
54529.172514,15.578,0.03
54529.183788,15.571,0.03
54529.195131,15.543,0.028
54533.2761,15.55,0.013
54533.287467,15.553,0.013
54533.298601,15.56,0.013
54533.310117,15.543,0.013
54533.321297,15.54,0.013
54539.209623,15.539,0.018
54539.220514,15.528,0.018
54539.231405,15.498,0.017
54539.242212,15.553,0.018
54539.253233,15.536,0.017
54567.18534,15.542,0.018
54567.196415,15.546,0.018
54567.207487,15.555,0.02
54567.218822,15.527,0.018
54567.230178,15.537,0.02
54582.194387,15.573,0.024
54582.204946,15.561,0.024
54582.21552,15.572,0.024
54582.225978,15.603,0.026
54582.236525,15.564,0.026
54587.199503,15.563,0.022
54587.210047,15.561,0.02
54587.220655,15.554,0.02
54587.231212,15.578,0.022
54587.241691,15.55,0.022
54595.194966,15.546,0.026
54595.204942,15.547,0.026
54595.214948,15.542,0.026
54595.225016,15.548,0.026
54595.234986,15.565,0.026
54613.156888,15.559,0.024
54613.166822,15.562,0.024
54613.17673,15.593,0.026
54613.196526,15.548,0.026
54619.159449,15.554,0.033
54619.169749,15.568,0.024
54619.179951,15.539,0.022
54619.190208,15.534,0.024
54619.200396,15.541,0.024
