mjd,m,merr
52614.433987,15.83,0.089
52614.477919,15.873,0.071
52614.492339,15.902,0.053
52639.377243,15.78,0.026
52639.392018,15.784,0.026
52639.406743,15.834,0.026
52639.421671,15.788,0.026
52639.436723,15.868,0.026
52646.400973,15.897,0.036
52646.40123,15.753,0.045
52646.416005,15.892,0.036
52646.431705,15.945,0.036
52646.431963,15.781,0.04
52646.446817,15.903,0.036
52646.461762,15.957,0.041
52646.462021,15.914,0.053
52649.451786,15.793,0.043
52649.466995,15.834,0.045
52649.482065,15.866,0.048
52672.327161,15.944,0.038
52672.327411,15.634,0.033
52672.341867,16.057,0.046
52672.342117,15.618,0.036
52672.356561,15.778,0.031
52672.356827,15.643,0.03
52672.371597,15.968,0.038
52672.371847,15.703,0.033
52672.386766,16.049,0.054
52672.387016,15.569,0.038
52676.284387,15.94,0.038
52676.285298,15.82,0.035
52676.29963,16.142,0.048
52676.300541,15.752,0.035
52676.316095,16.101,0.046
52676.317005,15.85,0.036
52676.332114,16.312,0.058
52676.333861,15.764,0.038
52676.348358,16.217,0.051
52676.349268,15.785,0.041
52677.31666,15.69,0.024
52706.247694,15.875,0.033
52706.260962,15.896,0.031
52706.274184,15.909,0.021
52706.274543,15.891,0.031
52706.288356,15.82,0.021
52706.288714,15.919,0.033
52706.301468,15.826,0.023
52706.301826,15.924,0.033
52710.246581,15.783,0.035
52710.260237,15.69,0.033
52710.273933,15.703,0.033
52710.287086,15.678,0.033
52710.30043,15.659,0.033
52724.240814,15.805,0.026
52724.252424,15.832,0.026
52724.264069,15.842,0.026
52724.275669,15.844,0.026
52724.287281,15.866,0.026
52733.24202,15.974,0.038
52733.254152,15.942,0.038
52733.266308,15.908,0.036
52733.278319,15.95,0.036
52733.290444,15.835,0.043
52753.192264,16.025,0.035
52753.204346,15.958,0.033
52753.21831,15.943,0.033
52753.230354,15.87,0.031
52753.242376,15.774,0.031
52787.165837,15.779,0.03
52787.176389,15.805,0.03
52787.186985,15.785,0.031
52787.197698,15.787,0.03
52787.208369,15.842,0.031
52792.162639,15.663,0.04
52792.163402,15.622,0.043
52792.185181,15.626,0.043
52792.206848,15.599,0.048
52793.199824,15.663,0.04
52793.200535,15.622,0.043
52793.221143,15.626,0.043
52793.242028,15.599,0.048
52991.496105,15.666,0.02
52991.509326,15.665,0.018
52991.523044,15.638,0.024
53002.413955,15.884,0.018
53002.429038,15.898,0.016
53002.452199,15.89,0.016
53002.468653,15.879,0.016
53002.485,15.904,0.018
53003.374849,15.622,0.015
53003.386856,15.629,0.015
53003.399085,15.644,0.017
53003.411136,15.72,0.028
53024.341724,15.961,0.041
53024.380194,15.904,0.113
53024.393045,15.976,0.018
53034.340485,15.971,0.031
53034.35285,15.924,0.03
53034.365485,15.962,0.03
53034.378137,15.952,0.03
53034.390401,16.005,0.031
53050.276251,15.757,0.02
53050.28785,15.781,0.02
53050.2995,15.776,0.018
53050.311208,15.806,0.02
53050.322804,15.863,0.046
53078.233873,15.659,0.022
53078.24465,15.662,0.024
53078.266,15.716,0.026
53078.276625,15.716,0.022
53089.275671,15.955,0.022
53089.286188,15.913,0.02
53089.296786,15.911,0.022
53089.307179,15.866,0.02
53109.192039,15.974,0.03
53109.202742,15.968,0.03
53109.213431,15.959,0.03
53109.224215,15.978,0.03
53109.234929,15.945,0.03
53137.197849,15.908,0.037
53137.207438,15.92,0.037
53137.216958,15.889,0.035
53149.172953,15.868,0.03
53149.183362,15.838,0.03
53149.19235,15.821,0.03
53165.178446,15.885,0.048
53165.188427,15.912,0.041
53165.198405,15.977,0.059
53165.208422,15.901,0.081
53348.419946,15.839,0.035
53348.434261,15.854,0.036
53348.448481,15.871,0.036
53348.462698,15.907,0.045
53348.476996,15.829,0.048
53354.429785,15.633,0.025
53354.44404,15.661,0.025
53354.458459,15.657,0.023
53354.473325,15.699,0.025
53354.487741,15.689,0.025
53443.332789,15.943,0.03
53443.34348,15.944,0.028
53443.35413,15.922,0.037
53443.364793,15.97,0.05
53443.375444,15.996,0.048
53473.227993,15.938,0.033
53473.238277,15.931,0.033
53473.248093,15.93,0.033
53473.258173,15.919,0.033
53473.269295,15.92,0.035
53500.189843,15.975,0.035
53500.200394,15.93,0.033
53500.211915,15.921,0.033
53500.221835,15.856,0.033
53500.231847,15.768,0.031
53528.166973,15.991,0.052
53528.178767,15.954,0.054
53528.190342,15.997,0.059
53528.201114,16.02,0.061
53528.211743,15.943,0.059
53703.458082,15.959,0.03
53703.471198,15.899,0.028
53703.48387,15.806,0.026
53703.496614,15.758,0.026
53703.509536,15.762,0.024
53714.398687,15.867,0.03
53714.411639,15.852,0.03
53714.424503,15.894,0.028
53714.437282,15.868,0.026
53714.450025,15.875,0.028
53740.414267,15.679,0.022
53740.455336,15.73,0.022
53771.292191,15.935,0.043
53771.31873,16.059,0.037
53771.331754,16.098,0.057
53771.344791,16.044,0.046
53786.285248,15.974,0.024
53786.297144,15.978,0.026
53786.309134,15.981,0.03
53786.321046,15.925,0.03
53786.332937,15.939,0.031
53813.304517,15.615,0.033
53813.315524,15.619,0.035
53813.326529,15.638,0.037
53813.337542,15.649,0.037
53813.348551,15.637,0.037
53823.198587,15.77,0.026
53823.209537,15.744,0.026
53823.22036,15.7,0.025
53823.23118,15.716,0.025
53823.242004,15.66,0.023
53844.188274,15.902,0.037
53844.198521,15.905,0.037
53844.208809,15.929,0.039
53844.219076,15.909,0.041
53844.229519,15.926,0.041
53853.192839,15.596,0.035
53853.203401,15.581,0.035
53853.213894,15.584,0.033
53853.224496,15.647,0.036
53853.235136,15.625,0.036
53883.162204,15.633,0.038
53883.172556,15.652,0.038
53883.18296,15.655,0.038
53883.193849,15.676,0.041
53883.205806,15.672,0.041
53887.169517,15.989,0.089
53887.181383,15.928,0.087
53887.19262,15.988,0.094
54042.473632,15.879,0.043
54042.486192,15.903,0.04
54042.498434,15.92,0.038
54055.440753,15.851,0.041
54055.453563,15.814,0.04
54055.466119,15.891,0.04
54055.481561,15.86,0.038
54055.494573,15.897,0.036
54066.460606,15.64,0.035
54067.453147,15.895,0.03
54067.466036,15.92,0.033
54067.479905,15.956,0.035
54067.492896,15.934,0.031
54067.50571,15.92,0.031
54070.445429,15.889,0.024
54070.458326,15.84,0.022
54070.471354,15.872,0.022
54070.48423,15.9,0.024
54070.497122,15.905,0.024
54084.395626,15.978,0.054
54084.408768,15.99,0.056
54084.421633,15.984,0.056
54084.434683,15.958,0.048
54084.447815,15.907,0.059
54098.366902,15.736,0.028
54098.378968,15.745,0.024
54098.390925,15.718,0.022
54098.402868,15.727,0.022
54098.414903,15.752,0.022
54110.349491,15.877,0.053
54110.362074,15.784,0.049
54110.374722,15.869,0.049
54110.387697,15.893,0.053
54121.330582,15.575,0.017
54121.34276,15.593,0.017
54121.354949,15.597,0.017
54121.367142,15.628,0.017
54121.379397,15.662,0.017
54155.292915,15.851,0.041
54155.304868,15.878,0.04
54155.317029,15.949,0.041
54155.32987,15.926,0.038
54155.342398,15.924,0.036
54206.221975,15.685,0.028
54206.231307,15.686,0.028
54206.240634,15.672,0.028
54206.250006,15.658,0.028
54206.259687,15.71,0.03
54453.392346,15.949,0.02
54453.405374,15.967,0.02
54453.418397,15.943,0.02
54453.431421,15.941,0.02
54453.444467,15.952,0.02
54477.339729,15.733,0.018
54477.352535,15.698,0.018
54477.365329,15.69,0.018
54477.378136,15.631,0.017
54477.391132,15.697,0.018
54484.29724,15.607,0.033
54484.323037,15.65,0.031
54529.148094,15.613,0.031
54529.160752,15.62,0.031
54529.173681,15.592,0.03
54529.184959,15.651,0.031
54529.196292,15.669,0.031
54539.210414,15.732,0.022
54539.221306,15.724,0.02
54539.232197,15.754,0.02
54539.243005,15.766,0.022
54539.254031,15.761,0.02
54567.186186,15.721,0.02
54567.197261,15.728,0.02
54567.208335,15.664,0.02
54567.219671,15.71,0.02
54567.231025,15.702,0.022
54582.194626,15.646,0.024
54582.205184,15.668,0.026
54582.215758,15.687,0.026
54582.226216,15.713,0.028
54582.236764,15.699,0.026
54597.197526,15.609,0.057
54597.208202,15.621,0.059
54597.218732,15.725,0.065
54597.229469,15.705,0.065
54597.240082,15.711,0.065
54613.157091,15.998,0.033
54613.167027,15.951,0.031
54613.176934,15.983,0.033
54613.19673,15.901,0.031
54620.166171,15.574,0.022
54620.177363,15.587,0.022
54620.187493,15.587,0.024
54620.197609,15.576,0.024
54620.207731,15.609,0.024
