mjd,m,merr
52612.461293,15.098,0.018
52612.476389,15.14,0.018
52612.491623,15.156,0.018
52612.506796,15.16,0.018
52612.521827,15.176,0.018
52618.445932,14.99,0.018
52618.460996,14.951,0.031
52618.476092,14.98,0.025
52618.491148,15.039,0.025
52618.506189,15.04,0.021
52623.434297,15.205,0.025
52623.44896,15.188,0.021
52623.463698,15.248,0.025
52623.480314,15.241,0.031
52623.495119,15.238,0.028
52650.324402,15.449,0.023
52650.339893,15.442,0.023
52650.35498,15.363,0.021
52650.370533,15.133,0.016
52650.385355,14.795,0.013
52652.399805,15.007,0.015
52652.414963,15.032,0.013
52652.43005,15.067,0.015
52652.445583,15.094,0.015
52652.460538,15.104,0.015
52664.285214,15.413,0.021
52664.302578,15.327,0.02
52664.31965,15.063,0.015
52664.336465,14.719,0.012
52681.278489,15.127,0.025
52681.293238,14.877,0.02
52681.308199,14.54,0.013
52681.337873,14.473,0.01
52696.336162,15.335,0.02
52696.350434,15.388,0.021
52696.364714,15.391,0.021
52696.391932,15.427,0.023
52711.244674,15.085,0.018
52711.258266,15.105,0.018
52711.272024,15.125,0.018
52711.285398,15.16,0.02
52711.298926,15.153,0.02
52723.249161,14.756,0.021
52723.261223,14.879,0.013
52723.27332,14.895,0.026
52739.189962,15.183,0.02
52739.20145,15.168,0.02
52739.21299,15.164,0.02
52739.224491,15.164,0.02
52739.236064,15.163,0.02
52752.187423,15.037,0.02
52752.19813,14.891,0.015
52782.161613,15.529,0.03
52782.183388,15.516,0.031
52782.205385,16.046,0.097
52810.170534,15.223,0.026
52810.180524,15.286,0.026
52810.190414,15.204,0.031
52812.171106,15.324,0.028
52812.181478,15.191,0.026
52812.191722,15.028,0.022
52812.20203,14.864,0.018
52976.398833,15.389,0.015
52976.411863,15.261,0.013
52976.425271,15.031,0.011
52976.43837,14.846,0.009
53006.343567,14.955,0.02
53006.356126,15.007,0.02
53006.368692,15.038,0.018
53035.349301,14.861,0.012
53035.361915,14.873,0.012
53035.374957,14.903,0.012
53035.387607,14.938,0.012
53035.401689,14.958,0.012
53037.344822,15.175,0.016
53037.357576,15.174,0.016
53037.370113,15.174,0.016
53037.382739,15.192,0.016
53037.398621,15.237,0.016
53046.345498,15.037,0.015
53046.357434,15.081,0.015
53046.369401,15.074,0.015
53046.381466,15.09,0.017
53046.3935,15.103,0.017
53065.277287,15.223,0.017
53065.289077,15.21,0.017
53065.300317,15.224,0.017
53065.311656,15.235,0.018
53065.32296,15.258,0.018
53077.304621,15.149,0.048
53093.227221,15.116,0.017
53093.237615,15.127,0.017
53093.247986,15.153,0.015
53093.258243,15.142,0.017
53093.268507,15.196,0.015
53107.239992,15.349,0.015
53107.251206,15.407,0.017
53107.262458,15.435,0.017
53107.273669,15.422,0.017
53107.284938,15.437,0.017
53121.194939,15.374,0.018
53121.20554,15.387,0.018
53121.216062,15.389,0.018
53121.226465,15.34,0.018
53121.236873,15.288,0.018
53127.19666,15.281,0.046
53127.206606,15.19,0.044
53127.216515,15.263,0.044
53127.226417,15.372,0.046
53127.236351,15.325,0.05
53136.196393,15.219,0.018
53136.205749,15.219,0.018
53136.215057,15.197,0.018
53136.224359,15.241,0.02
53136.233674,15.3,0.022
53150.164562,15.196,0.02
53150.173344,15.218,0.03
53150.182053,15.245,0.041
53150.199671,15.36,0.131
53154.176346,14.953,0.024
53154.185103,14.954,0.022
53154.193873,14.963,0.024
53154.202689,14.969,0.024
53164.169666,15.351,0.022
53164.179867,15.323,0.02
53164.190079,15.371,0.022
53164.200296,15.36,0.024
53164.210518,15.386,0.022
53313.482631,14.665,0.02
53331.449362,15.361,0.024
53331.461744,15.36,0.024
53331.486495,15.408,0.024
53331.498868,15.438,0.026
53341.41279,14.914,0.028
53341.424796,14.928,0.03
53341.437268,14.961,0.03
53341.449287,15.003,0.03
53341.461299,15.018,0.03
53349.458352,15.197,0.022
53349.474809,15.184,0.02
53349.487056,15.172,0.02
53349.499485,15.191,0.02
53349.513139,15.21,0.02
53355.467614,15.11,0.015
53355.481572,15.138,0.017
53355.495366,15.157,0.017
53355.508701,15.154,0.017
53355.521486,15.088,0.028
53359.406814,15.193,0.02
53359.42302,14.978,0.016
53389.486291,15.226,0.015
53389.502268,15.284,0.017
53389.518253,15.253,0.017
53450.269618,15.338,0.031
53450.280754,15.437,0.033
53450.291775,15.387,0.033
53450.302843,15.391,0.035
53450.313524,15.249,0.031
53479.249256,15.137,0.055
53537.169579,14.874,0.03
53537.189711,14.967,0.041
53537.199784,14.956,0.043
53684.440398,14.829,0.018
53684.452765,14.865,0.017
53684.465338,14.887,0.017
53684.478072,14.991,0.018
53684.490636,15.008,0.018
53701.450436,15.01,0.022
53701.463021,15.029,0.02
53701.475676,15.062,0.02
53701.488232,15.074,0.022
53701.500723,15.074,0.026
53728.399895,15.297,0.02
53728.413248,15.323,0.02
53728.426836,15.376,0.028
53728.439921,15.373,0.028
53728.453033,15.413,0.02
53742.410776,15.378,0.017
53742.423438,15.267,0.015
53742.436321,15.06,0.011
53742.449328,14.869,0.009
53772.289709,14.727,0.011
53772.30245,14.784,0.013
53772.315146,14.922,0.013
53772.32783,14.869,0.013
53772.340615,14.974,0.013
53812.306359,14.945,0.017
53812.317407,14.981,0.018
53825.233189,15.229,0.015
53825.244441,15.222,0.015
53825.25559,15.237,0.015
53825.266823,15.274,0.016
53825.278098,15.297,0.016
53843.247252,14.981,0.018
53843.258494,15.004,0.018
53843.269684,15.029,0.022
53843.28088,15.054,0.024
53843.292415,15.056,0.026
53878.198385,15.029,0.025
53903.202034,14.869,0.021
53903.212283,14.9,0.021
54053.46217,14.887,0.018
54053.475184,14.916,0.018
54070.398533,14.561,0.015
54070.450553,14.87,0.013
54081.392327,14.916,0.015
54081.405759,14.947,0.017
54081.418855,14.966,0.015
54081.431827,14.982,0.015
54081.444606,15.019,0.015
54086.364545,15.124,0.025
54086.378188,15.181,0.025
54086.391598,15.19,0.025
54086.405488,15.175,0.023
54086.418963,15.184,0.021
54169.270837,14.94,0.009
54169.281749,14.958,0.009
54169.292749,14.995,0.011
54169.303655,15.01,0.011
54169.314598,15.042,0.013
54200.225556,15.046,0.013
54200.235533,15.066,0.074
54200.245328,15.025,0.031
54200.255213,15.089,0.015
54217.170319,14.966,0.031
54217.178841,14.953,0.031
54217.187376,15.015,0.031
54217.195922,15.003,0.033
54217.204484,15.036,0.033
