mjd,m,merr
52612.462462,16.267,0.053
52612.477555,16.292,0.048
52612.49279,16.328,0.048
52612.507961,16.336,0.048
52620.45832,16.356,0.046
52620.473456,16.35,0.05
52620.488536,16.373,0.057
52620.503846,16.385,0.105
52620.518927,16.333,0.059
52623.445961,16.442,0.059
52623.461787,16.458,0.063
52623.493381,16.546,0.068
52623.509397,16.524,0.068
52650.293842,16.298,0.052
52650.310322,16.395,0.054
52650.324733,16.343,0.048
52650.33901,16.261,0.043
52650.353461,16.281,0.044
52652.381191,16.476,0.046
52652.396352,16.495,0.044
52652.411562,16.483,0.041
52652.426958,16.485,0.041
52652.442121,16.485,0.041
52664.283125,16.397,0.043
52664.298376,16.433,0.041
52664.313646,16.465,0.043
52664.328987,16.458,0.043
52664.344241,16.41,0.041
52680.331673,16.344,0.048
52680.355862,16.34,0.043
52680.374205,16.36,0.043
52680.390714,16.318,0.043
52680.408695,16.284,0.045
52681.279834,16.479,0.07
52681.296871,16.56,0.076
52681.315187,16.5,0.052
52681.333778,16.466,0.048
52695.308909,16.175,0.046
52695.309027,16.123,0.048
52695.322723,16.159,0.045
52695.322842,16.169,0.048
52695.336513,16.17,0.046
52695.336629,16.169,0.048
52695.350285,16.09,0.059
52695.350403,16.219,0.073
52695.364108,16.102,0.107
52700.356428,16.286,0.049
52700.371915,16.251,0.048
52700.388244,16.251,0.046
52700.403603,16.354,0.051
52700.418977,16.276,0.053
52701.374246,16.302,0.049
52701.392427,16.209,0.048
52701.409266,16.289,0.051
52701.422416,16.316,0.053
52701.435474,16.297,0.054
52712.28311,16.182,0.068
52712.296391,16.33,0.083
52722.239218,16.219,0.045
52722.239819,16.124,0.045
52722.251342,16.244,0.046
52722.251946,16.138,0.048
52722.26381,16.211,0.045
52722.276132,16.182,0.045
52722.276736,16.098,0.048
52722.288284,16.219,0.045
52751.197895,16.225,0.059
52751.208994,16.197,0.086
52751.219807,16.227,0.053
52751.230638,16.21,0.053
52751.241637,16.165,0.051
52782.162272,16.316,0.059
52782.173154,16.288,0.058
52782.184049,16.279,0.058
52782.194905,16.241,0.074
52782.206037,16.381,0.137
52800.197085,16.25,0.144
52800.207133,16.128,0.131
52810.170623,16.273,0.063
52810.180611,16.304,0.067
52810.190502,16.319,0.068
52810.210351,16.026,0.17
52812.171563,16.356,0.068
52812.181928,16.313,0.068
52812.192176,16.313,0.07
52812.20248,16.309,0.07
52812.212824,16.323,0.068
52976.398978,16.335,0.039
52976.412008,16.305,0.037
52976.425416,16.352,0.039
52976.438515,16.348,0.039
52976.451574,16.44,0.041
52990.399145,16.302,0.043
52990.412436,16.272,0.039
52990.426441,16.247,0.041
52990.439374,16.217,0.046
52990.452646,16.215,0.046
53023.340962,16.309,0.03
53023.354303,16.284,0.03
53023.367374,16.301,0.031
53023.380259,16.289,0.03
53023.393148,16.306,0.031
53035.349525,16.277,0.045
53035.362139,16.252,0.045
53035.375179,16.241,0.043
53035.387835,16.226,0.043
53035.401915,16.272,0.04
53046.34538,16.306,0.05
53046.357316,16.26,0.048
53046.369284,16.246,0.046
53046.381348,16.205,0.046
53046.393383,16.228,0.048
53065.277954,16.268,0.043
53065.289743,16.333,0.044
53065.300984,16.319,0.041
53065.312323,16.375,0.052
53065.323627,16.429,0.05
53077.304732,16.397,0.163
53093.227383,16.333,0.044
53093.237776,16.272,0.043
53093.248148,16.241,0.035
53093.258404,16.32,0.039
53093.268669,16.386,0.037
53107.239886,16.283,0.037
53107.2511,16.253,0.037
53107.262352,16.226,0.037
53107.273563,16.236,0.039
53107.284832,16.23,0.039
53122.224075,16.46,0.058
53122.234406,16.442,0.054
53127.206507,16.791,0.155
53127.216416,16.745,0.142
53127.226318,16.738,0.139
53127.236252,16.626,0.13
53136.196487,16.278,0.05
53136.205844,16.27,0.05
53136.215151,16.314,0.052
53136.224454,16.273,0.052
53136.233769,16.239,0.052
53153.165318,16.243,0.066
53153.173782,16.316,0.068
53153.182653,16.235,0.064
53153.191188,16.3,0.068
53153.199752,16.263,0.066
53154.167459,16.381,0.1
53154.176253,16.389,0.085
53154.18501,16.345,0.08
53154.19378,16.351,0.08
53154.202595,16.388,0.078
53164.169573,16.242,0.061
53164.179774,16.241,0.048
53164.189986,16.238,0.05
53164.200204,16.274,0.061
53164.210425,16.265,0.052
53319.472269,16.408,0.055
53319.484163,16.369,0.054
53319.496021,16.321,0.052
53319.507883,16.293,0.05
53331.450238,16.554,0.072
53331.462619,16.489,0.067
53331.474998,16.509,0.07
53331.487371,16.393,0.063
53331.499745,16.406,0.065
53341.462162,16.431,0.098
53341.474226,16.402,0.098
53341.498372,16.323,0.094
53341.510955,16.484,0.107
53349.458261,16.226,0.057
53349.474718,16.273,0.059
53349.486965,16.207,0.055
53349.499395,16.305,0.057
53349.513048,16.232,0.055
53355.467701,16.206,0.055
53355.481659,16.277,0.046
53355.495453,16.333,0.046
53355.508788,16.348,0.044
53359.406699,16.28,0.046
53359.422905,16.252,0.043
53359.438983,16.248,0.043
53359.455058,16.232,0.043
53359.471325,16.195,0.043
53389.486412,16.451,0.048
53389.502389,16.469,0.048
53389.518375,16.463,0.05
53401.372652,16.47,0.059
53401.386102,16.497,0.063
53450.269502,16.334,0.08
53450.280638,16.293,0.078
53450.29166,16.26,0.074
53450.302727,16.321,0.08
53450.313409,16.33,0.081
53479.227148,16.648,0.168
53479.237338,16.459,0.142
53479.249156,16.423,0.124
53479.260147,16.596,0.155
53479.26965,16.455,0.135
53537.169667,16.192,0.105
53537.189799,16.314,0.139
53537.199875,16.309,0.155
53684.440519,16.319,0.068
53684.452891,16.286,0.063
53684.465463,16.291,0.057
53684.478196,16.359,0.072
53684.49076,16.288,0.067
53700.44747,16.442,0.059
53700.46053,16.439,0.057
53700.473245,16.408,0.055
53700.485996,16.26,0.046
53700.498945,16.329,0.05
53728.40002,16.342,0.048
53728.41337,16.284,0.046
53728.426976,16.308,0.061
53728.440043,16.244,0.065
53728.453156,16.251,0.046
53772.28957,16.459,0.055
53772.302309,16.419,0.052
53772.315006,16.435,0.055
53772.340474,16.372,0.052
53825.233335,16.308,0.041
53825.244588,16.315,0.04
53825.255736,16.243,0.038
53825.266969,16.293,0.041
53825.278246,16.31,0.041
53842.193854,16.281,0.053
53842.205818,16.261,0.053
53842.217416,16.302,0.059
53842.229108,16.317,0.073
53842.240895,16.24,0.069
53855.192354,16.419,0.054
53855.203111,16.425,0.056
53855.213635,16.435,0.056
53855.224238,16.413,0.058
53855.234823,16.493,0.063
53878.17797,16.26,0.073
53878.198307,16.241,0.074
53878.214156,16.365,0.083
53878.229458,16.262,0.083
53892.16469,16.334,0.159
53892.195066,16.309,0.167
53903.168931,16.149,0.074
53903.202118,16.208,0.074
53903.212367,16.286,0.078
53903.222122,16.279,0.084
54053.446675,16.335,0.073
54053.462017,16.235,0.068
54053.47503,16.297,0.069
54070.45087,16.248,0.051
54070.464315,16.215,0.048
54070.477311,16.252,0.051
54070.490303,16.171,0.051
54070.503361,16.185,0.051
54081.392198,16.291,0.057
54081.405632,16.235,0.055
54081.418727,16.262,0.054
54081.4317,16.219,0.052
54081.444478,16.184,0.048
54086.379079,16.326,0.064
54086.392487,16.286,0.061
54086.406379,16.301,0.059
54086.419856,16.257,0.058
54109.335383,16.249,0.111
54109.358936,16.281,0.106
54109.371164,16.49,0.173
54140.332926,16.515,0.058
54140.357454,16.429,0.051
54140.369453,16.501,0.053
54140.381512,16.348,0.053
54187.240467,16.268,0.079
54187.262164,16.232,0.079
54200.225694,16.194,0.037
54200.255352,16.24,0.037
54210.218213,16.224,0.048
54210.227252,16.243,0.048
54210.235961,16.278,0.051
54210.244665,16.227,0.049
54210.253372,16.21,0.049
54218.232008,16.686,0.154
54218.240592,16.423,0.109
54218.249186,16.513,0.115
54218.257777,16.534,0.124
54481.333038,16.352,0.066
54481.345285,16.271,0.054
54481.357414,16.332,0.056
54481.369991,16.449,0.061
54509.274367,16.251,0.048
54509.286397,16.254,0.045
54509.298239,16.286,0.046
54509.310005,16.344,0.046
54509.321887,16.379,0.045
54527.305407,16.385,0.049
54527.316852,16.376,0.045
54527.327986,16.322,0.046
54536.267409,16.214,0.048
54536.27857,16.302,0.049
54536.289687,16.246,0.048
54536.300559,16.3,0.049
54536.311471,16.443,0.054
54560.256108,16.457,0.064
54560.279657,16.385,0.063
54560.291138,16.332,0.058
54584.194686,16.305,0.061
54584.204758,16.254,0.059
54584.214762,16.271,0.064
54584.224965,16.284,0.064
54584.234992,16.239,0.061
