mjd,m,merr
52641.454821,16.582,0.054
52641.470158,16.514,0.052
52641.4853,16.568,0.054
52641.500332,16.463,0.05
52641.515814,16.628,0.055
52646.454628,15.853,0.035
52646.470173,15.969,0.037
52646.484981,15.988,0.037
52646.500012,16.044,0.037
52646.514831,16.092,0.039
52647.453013,16.539,0.071
52647.467531,16.569,0.076
52647.482054,16.524,0.069
52647.496831,16.647,0.083
52647.511495,16.48,0.147
52667.396092,16.234,0.041
52667.411446,16.217,0.041
52667.426794,16.28,0.044
52667.442107,16.318,0.048
52667.457461,16.322,0.048
52672.389956,16.603,0.059
52672.404804,16.544,0.055
52672.418879,16.56,0.057
52672.433189,16.528,0.061
52672.447066,16.649,0.111
52673.299912,16.067,0.043
52673.315782,15.999,0.038
52673.332215,16.076,0.041
52673.34703,16.077,0.043
52673.362026,16.078,0.041
52704.348618,16.235,0.051
52704.36181,16.27,0.053
52704.3747,16.278,0.053
52704.387695,16.228,0.053
52704.400612,16.296,0.056
52705.304995,16.564,0.052
52705.318917,16.593,0.054
52705.341136,16.59,0.054
52705.35418,16.57,0.055
52705.368576,16.674,0.061
52707.303723,16.562,0.063
52707.316782,16.605,0.066
52707.329826,16.61,0.064
52707.34312,16.605,0.064
52707.356367,16.627,0.069
52729.284495,16.382,0.046
52729.296237,16.355,0.046
52729.30778,16.363,0.046
52729.319426,16.424,0.052
52729.331031,16.46,0.054
52734.257552,16.481,0.052
52734.270001,16.555,0.078
52737.245887,16.157,0.044
52737.258829,16.211,0.046
52737.2705,16.205,0.044
52737.282319,16.316,0.048
52737.294177,16.345,0.05
52756.193268,16.393,0.052
52756.205103,16.44,0.054
52756.21697,16.485,0.055
52756.228804,16.41,0.054
52756.240647,16.536,0.061
52758.204568,16.404,0.053
52758.216488,16.356,0.053
52758.228431,16.383,0.053
52758.240467,16.435,0.058
52758.252536,16.515,0.064
52788.170943,16.093,0.063
52788.181581,16.008,0.081
52788.19235,15.862,0.165
52790.161993,16.585,0.149
52790.17308,16.341,0.119
52790.183666,16.082,0.069
52790.194297,16.106,0.074
52790.205021,15.973,0.063
52972.450288,16.186,0.037
52972.463144,16.256,0.037
52972.475987,16.266,0.037
52972.488735,16.299,0.037
52972.501608,16.318,0.039
52994.464556,15.94,0.031
52994.477084,16.017,0.025
52994.489624,15.992,0.023
52994.502198,16.036,0.025
52994.514777,16.165,0.028
52996.394086,16.499,0.046
52996.406907,16.404,0.041
52996.419916,16.172,0.031
52996.432684,16.124,0.03
52996.445471,16.037,0.026
53025.34774,15.952,0.028
53028.430749,16.597,0.04
53028.443638,16.767,0.074
53028.458417,16.631,0.043
53028.490893,16.751,0.132
53033.335746,16.673,0.065
53033.348045,16.612,0.057
53033.360179,16.383,0.046
53033.372652,16.228,0.063
53033.38497,16.109,0.048
53054.308522,16.037,0.03
53054.324946,16.071,0.03
53054.338801,16.122,0.03
53054.351323,16.177,0.031
53054.363867,16.252,0.033
53060.300754,15.949,0.021
53060.312944,15.99,0.021
53060.325076,16.029,0.023
53060.337186,16.072,0.023
53060.349273,16.072,0.025
53064.282208,16.122,0.041
53064.294706,15.993,0.033
53064.319188,15.902,0.031
53064.337629,15.991,0.031
53064.351539,16.044,0.035
53065.28322,16.446,0.053
53065.295295,16.54,0.056
53065.307245,16.511,0.054
53065.319274,16.501,0.054
53065.3311,16.584,0.058
53080.281432,16.624,0.054
53080.292955,16.671,0.055
53080.304966,16.703,0.059
53080.316312,16.677,0.055
53080.327595,16.672,0.055
53082.345538,16.642,0.045
53082.356726,16.734,0.049
53082.367911,16.653,0.048
53082.379679,16.595,0.046
53082.391671,16.463,0.043
53084.297351,16.607,0.04
53084.308762,16.614,0.04
53084.320336,16.595,0.04
53084.331566,16.693,0.043
53084.343627,16.697,0.043
53091.282842,16.159,0.03
53091.292907,16.108,0.026
53091.303572,16.149,0.026
53091.31355,16.198,0.03
53091.323689,16.26,0.03
53111.189522,16.604,0.072
53111.200299,16.612,0.07
53111.211046,16.707,0.076
53111.221787,16.651,0.072
53111.232614,16.664,0.072
53115.253399,16.698,0.056
53115.264217,16.693,0.056
53115.274864,16.746,0.059
53115.28577,16.619,0.051
53115.29705,16.688,0.054
53139.158931,16.509,0.059
53139.16861,16.493,0.057
53139.178207,16.492,0.059
53139.187731,16.522,0.059
53139.197243,16.448,0.059
53141.217237,16.453,0.053
53141.227466,16.553,0.059
53141.236885,16.431,0.054
53141.247142,16.532,0.061
53141.256508,16.49,0.061
53143.228203,16.521,0.059
53143.2374,16.587,0.059
53143.246449,16.554,0.063
53143.266006,16.49,0.053
53143.280258,16.563,0.064
53327.444631,16.515,0.104
53346.451322,16.253,0.059
53346.464654,16.155,0.052
53346.478334,16.05,0.046
53346.490983,15.934,0.043
53346.503124,15.983,0.041
53347.519746,16.707,0.099
53383.410763,15.948,0.037
53383.42409,15.884,0.033
53383.437411,15.894,0.033
53383.450747,15.936,0.035
53383.464274,15.978,0.035
53440.420791,16.674,0.08
53440.431282,16.73,0.089
53440.441768,16.626,0.087
53440.452795,16.591,0.091
53440.464545,16.695,0.115
53469.229119,16.557,0.055
53469.239094,16.578,0.057
53469.248986,16.566,0.057
53469.259005,16.598,0.057
53469.270727,16.624,0.059
53496.195548,16.671,0.089
53496.205827,16.584,0.085
53496.216061,16.657,0.094
53496.226346,16.557,0.087
53496.23661,16.516,0.085
53734.471005,16.52,0.059
53734.484107,16.536,0.059
53734.497476,16.594,0.063
53734.510667,16.58,0.059
53734.523653,16.548,0.059
53758.401944,16.121,0.043
53758.414512,16.148,0.043
53758.427068,16.163,0.044
53758.43979,16.179,0.046
53758.452807,16.186,0.046
53787.465097,16.48,0.068
53787.501399,16.529,0.093
53789.348067,16.247,0.183
53789.359932,16.247,0.128
53789.371813,16.369,0.094
53789.383688,16.287,0.046
53789.395549,16.371,0.052
53791.351119,16.18,0.036
53791.362869,16.224,0.04
53791.374815,16.266,0.043
53791.386481,16.276,0.043
53791.398113,16.263,0.045
53792.345937,16.582,0.057
53792.357702,16.576,0.078
53792.369481,16.646,0.083
53792.381259,16.538,0.072
53792.393035,16.597,0.068
53802.336676,16.657,0.124
53802.348226,16.526,0.072
53802.35967,16.599,0.08
53802.371356,16.593,0.08
53802.382827,16.62,0.08
53815.285119,16.598,0.087
53815.296272,16.63,0.109
53815.307451,16.718,0.083
53815.318629,16.708,0.085
53815.32983,16.616,0.083
53821.301156,16.663,0.068
53821.315179,16.743,0.148
53821.328793,16.536,0.141
53821.357371,16.699,0.096
53823.192462,16.622,0.065
53823.204464,16.584,0.065
53823.217193,16.589,0.063
53823.229562,16.577,0.061
53823.241716,16.611,0.063
53828.293443,16.194,0.054
53828.307363,16.202,0.055
53828.322443,16.233,0.046
53828.337902,16.286,0.07
53828.350778,16.184,0.141
53831.231468,16.51,0.08
53831.242023,16.431,0.074
53831.252252,16.474,0.078
53831.26238,16.529,0.08
53831.272389,16.474,0.076
53833.225809,16.486,0.1
53833.235658,16.392,0.096
53833.245508,16.462,0.1
53833.265243,16.714,0.135
53846.189468,16.579,0.078
53846.200178,16.699,0.091
53846.210989,16.604,0.081
53846.221702,16.758,0.091
53846.232369,16.594,0.078
53846.245637,16.586,0.093
53846.256436,16.534,0.087
53846.267245,16.468,0.083
53846.278045,16.211,0.067
53846.28886,16.22,0.07
53851.243011,16.407,0.067
53851.254485,16.411,0.067
53851.265084,16.373,0.067
53851.275575,16.476,0.078
53851.285779,16.463,0.078
53854.25942,16.714,0.096
53857.275724,16.321,0.068
53857.313615,16.383,0.089
53879.16092,16.746,0.074
53879.171735,16.701,0.073
53879.182467,16.576,0.066
53879.193208,16.363,0.056
53879.204827,16.216,0.049
53885.156717,16.581,0.069
53885.167819,16.707,0.079
53885.178673,16.651,0.078
53885.189434,16.811,0.091
53885.200726,16.649,0.083
54060.446226,16.522,0.094
54060.460732,16.462,0.084
54060.473284,16.64,0.094
54060.488077,16.595,0.087
54060.500869,16.693,0.096
54064.452571,16.588,0.065
54064.465429,16.552,0.063
54064.478287,16.662,0.068
54064.491167,16.57,0.059
54064.504038,16.603,0.057
54082.455658,16.237,0.067
54082.46844,16.273,0.067
54082.481231,16.337,0.07
54082.494025,16.315,0.067
54082.506828,16.363,0.067
54085.469106,16.161,0.039
54085.482067,16.057,0.033
54085.495032,15.992,0.03
54085.507995,15.988,0.03
54085.520961,15.991,0.031
54113.402161,16.52,0.057
54113.415893,16.508,0.059
54113.428809,16.516,0.065
54113.441356,16.516,0.067
54147.335255,16.06,0.043
54147.347166,16.124,0.045
54147.35954,16.129,0.045
54147.372397,16.145,0.048
54147.384667,16.191,0.048
54153.329832,16.084,0.031
54153.34143,15.998,0.03
54153.352993,15.985,0.031
54153.364552,15.985,0.039
54153.376126,16.071,0.083
54156.272968,16.313,0.044
54156.284501,16.293,0.043
54156.296036,16.314,0.044
54156.307589,16.364,0.046
54156.319143,16.411,0.046
54174.317325,16.224,0.041
54174.328058,16.266,0.055
54174.338743,16.27,0.043
54174.34946,16.321,0.044
54174.360142,16.27,0.043
54175.272282,16.588,0.061
54175.283438,16.568,0.061
54175.294396,16.6,0.063
54175.305279,16.568,0.061
54175.316093,16.587,0.063
54177.325819,16.658,0.117
54180.334152,16.197,0.037
54180.344814,16.213,0.037
54180.355398,16.249,0.039
54180.366127,16.272,0.043
54180.376705,16.303,0.044
54198.233578,16.274,0.084
54205.266705,16.296,0.043
54205.276092,16.365,0.044
54205.285489,16.421,0.046
54205.294913,16.341,0.048
54205.304311,16.366,0.048
54208.26151,16.577,0.054
54208.270685,16.617,0.054
54208.279854,16.605,0.059
54208.289004,16.56,0.059
54208.298165,16.667,0.063
54212.269054,16.57,0.063
54212.278251,16.561,0.063
54212.287328,16.532,0.061
54212.296405,16.594,0.067
54212.305518,16.598,0.068
54481.338633,16.243,0.039
54481.351566,16.272,0.037
54481.364644,16.258,0.035
54481.377548,16.336,0.037
54481.390447,16.366,0.037
54498.342694,16.46,0.037
54498.355247,16.499,0.039
54498.367873,16.49,0.039
54498.380415,16.554,0.041
54498.393182,16.502,0.037
54506.335724,16.428,0.033
54506.347821,16.476,0.037
54506.359914,16.521,0.037
54506.372012,16.436,0.035
54506.384126,16.472,0.037
54506.4531,16.605,0.071
54506.489214,16.665,0.076
54506.501117,16.656,0.076
54522.393953,16.298,0.046
54522.405617,16.373,0.048
54522.417288,16.338,0.05
54522.428932,16.34,0.052
54522.440584,16.433,0.057
54527.330926,16.647,0.039
54527.342317,16.647,0.041
54527.353697,16.614,0.041
54527.365231,16.554,0.039
54527.376611,16.572,0.041
54534.389056,16.177,0.043
54534.400059,16.243,0.048
54535.326147,16.548,0.031
54535.337383,16.562,0.035
54535.348625,16.591,0.035
54535.359903,16.592,0.035
54535.371246,16.613,0.037
54540.221513,16.704,0.055
54540.232535,16.695,0.052
54540.243588,16.626,0.046
54540.254656,16.582,0.044
54540.265671,16.395,0.035
54553.304123,16.448,0.057
54553.316019,16.451,0.041
54553.327902,16.461,0.044
54553.339971,16.478,0.048
54553.351906,16.409,0.048
54561.294541,16.28,0.061
54561.306299,16.292,0.046
54561.317956,16.264,0.041
54561.329632,16.331,0.043
54561.341283,16.334,0.041
54583.260597,16.465,0.1
54583.271164,16.373,0.148
54583.281807,16.252,0.054
54583.292393,16.189,0.052
