mjd,m,merr
52614.454586,16.454,0.128
52614.470015,16.489,0.126
52614.485377,16.458,0.07
52614.500586,16.409,0.059
52614.515745,16.464,0.059
52619.460751,16.03,0.048
52619.476183,16.194,0.052
52619.491723,16.176,0.052
52619.507208,16.162,0.05
52619.522636,16.231,0.052
52644.395657,16.445,0.044
52644.43297,16.431,0.046
52644.44799,16.411,0.046
52644.462911,16.479,0.048
52644.477811,16.362,0.046
52648.328742,16.073,0.046
52648.343357,16.123,0.048
52648.358135,16.173,0.093
52648.372968,16.163,0.046
52648.387648,16.241,0.048
52671.38795,16.169,0.041
52671.390487,16.17,0.041
52671.403293,16.161,0.041
52671.405714,16.223,0.043
52671.418597,16.192,0.043
52671.421013,16.205,0.043
52671.42721,16.25,0.046
52671.433777,16.186,0.043
52671.436195,16.185,0.043
52671.44284,16.232,0.048
52671.449116,16.192,0.044
52671.457435,16.225,0.049
52671.472117,16.251,0.051
52671.486824,16.282,0.054
52674.390435,16.207,0.043
52674.404314,16.342,0.046
52674.418306,16.359,0.048
52674.4323,16.293,0.046
52674.446265,16.298,0.05
52698.326909,15.972,0.033
52698.340078,15.914,0.033
52698.353735,15.937,0.033
52698.366782,15.858,0.035
52704.306947,16.039,0.035
52704.320373,16.052,0.035
52704.333742,16.061,0.035
52704.347318,16.122,0.039
52704.360814,16.133,0.039
52725.30868,16.387,0.046
52725.32025,16.5,0.078
52725.332034,16.402,0.083
52725.343962,16.538,0.091
52725.355562,16.474,0.094
52728.232664,16.391,0.048
52728.244681,16.419,0.048
52728.25717,16.433,0.048
52728.269378,16.4,0.046
52728.281875,16.463,0.05
52731.264732,16.383,0.185
52754.201324,16.399,0.05
52754.213483,16.428,0.052
52754.225767,16.418,0.054
52754.237948,16.48,0.057
52754.250085,16.471,0.057
52760.200126,16.492,0.05
52760.212157,16.35,0.044
52760.224078,16.151,0.039
52760.236023,16.113,0.037
52760.247949,16.045,0.039
52767.152376,16.437,0.074
52767.164869,16.366,0.071
52767.176716,16.482,0.076
52767.188566,16.424,0.073
52767.200597,16.458,0.076
52789.166126,15.917,0.039
52789.176462,15.888,0.039
52789.186793,15.91,0.039
52789.197147,15.908,0.041
52789.207613,15.969,0.043
52794.165572,16.44,0.067
52794.175616,16.431,0.067
52794.185523,16.377,0.068
52794.195455,16.428,0.072
52794.205389,16.435,0.08
52967.442365,16.09,0.044
52967.455082,16.196,0.05
52967.467762,16.203,0.044
52967.480553,16.216,0.044
52967.493159,16.216,0.044
52993.394456,16.102,0.031
52993.420932,16.173,0.031
52993.433998,16.194,0.031
53033.336469,15.938,0.033
53033.348691,15.88,0.031
53033.361017,15.925,0.033
53033.385831,15.995,0.053
53052.280417,15.962,0.03
53052.29226,15.974,0.031
53052.316011,15.963,0.031
53058.39028,16.358,0.03
53079.274894,16.501,0.051
53079.286104,16.379,0.046
53079.297122,16.272,0.043
53079.308071,16.092,0.038
53079.319157,16.07,0.036
53080.277632,16.366,0.044
53080.278068,16.333,0.043
53080.289153,16.383,0.044
53080.289607,16.447,0.044
53080.301095,16.411,0.044
53080.301568,16.492,0.046
53080.312435,16.36,0.043
53080.312931,16.443,0.044
53080.323771,16.39,0.044
53080.324258,16.388,0.043
53081.224326,16.129,0.033
53081.236171,16.118,0.033
53081.248887,16.176,0.035
53081.26108,16.216,0.035
53081.272675,16.245,0.035
53084.304305,16.268,0.03
53086.298341,16.375,0.041
53086.309917,16.541,0.054
53086.321456,16.463,0.048
53086.333386,16.538,0.059
53086.344967,16.496,0.048
53090.22077,16.125,0.037
53090.220899,16.38,0.041
53090.23126,16.135,0.041
53090.231389,16.353,0.043
53090.241763,16.165,0.039
53090.241892,16.376,0.041
53090.252046,16.27,0.046
53090.252174,16.379,0.05
53090.262976,16.199,0.044
53090.263105,16.454,0.048
53092.224903,16.546,0.054
53092.234917,16.56,0.053
53092.244779,16.568,0.053
53092.254726,16.434,0.048
53092.26467,16.35,0.045
53110.192595,16.203,0.049
53110.203584,16.233,0.051
53110.214498,16.236,0.051
53110.225438,16.235,0.051
53110.236376,16.272,0.053
53117.211373,16.031,0.028
53117.222423,16.065,0.028
53117.239865,16.1,0.03
53117.255779,16.174,0.031
53138.199664,16.509,0.058
53138.209524,16.535,0.059
53138.219416,16.522,0.059
53138.229208,16.503,0.063
53138.238965,16.502,0.064
53147.164021,15.862,0.033
53147.190633,15.809,0.033
53147.200127,15.812,0.033
53348.397374,16.056,0.05
53348.410688,15.997,0.044
53348.424007,16.021,0.044
53348.437354,16.108,0.046
53348.450205,16.137,0.046
53354.39418,16.235,0.05
53354.407304,16.269,0.052
53354.42045,16.279,0.048
53354.433606,16.296,0.046
53354.44674,16.291,0.044
53357.446228,16.361,0.048
53357.459623,16.403,0.05
53357.474791,16.379,0.05
53357.489868,16.45,0.054
53357.504645,16.386,0.05
53377.403832,16.208,0.043
53377.417109,16.29,0.043
53377.430276,16.286,0.043
53377.444714,16.312,0.044
53377.458811,16.321,0.044
53382.439069,16.502,0.063
53382.468528,16.036,0.039
53382.483238,16.005,0.035
53382.497881,15.865,0.033
53404.36845,15.932,0.026
53404.381284,15.982,0.03
53404.394114,16.016,0.03
53404.406963,16.026,0.031
53404.420389,16.031,0.033
53410.474579,16.251,0.037
53410.487746,16.322,0.037
53410.500191,16.323,0.039
53410.512648,16.311,0.043
53415.368793,16.304,0.05
53415.381217,16.396,0.05
53415.394273,16.396,0.05
53415.406698,16.446,0.054
53433.357303,16.097,0.037
53433.368735,16.151,0.037
53433.380167,16.056,0.037
53433.392755,16.125,0.043
53433.404534,16.14,0.046
53436.255314,16.007,0.031
53436.278684,16.089,0.035
53436.290334,16.062,0.033
53436.302699,16.139,0.035
53437.288747,16.393,0.046
53437.300369,16.214,0.041
53437.31238,16.096,0.035
53437.324006,16.039,0.033
53437.335723,15.967,0.031
53441.314202,16.348,0.044
53441.325604,16.33,0.044
53471.261922,16.382,0.055
53471.272587,16.365,0.055
53471.282628,16.399,0.057
53471.292566,16.385,0.057
53471.302311,16.371,0.057
53493.245753,16.523,0.076
53493.255974,16.493,0.078
53493.266931,16.507,0.081
53493.27774,16.541,0.089
53493.287993,16.553,0.091
53502.149032,16.477,0.063
53502.159807,16.523,0.063
53502.170363,16.472,0.063
53502.181203,16.315,0.055
53502.191636,16.079,0.046
53523.166733,16.304,0.072
53523.177255,16.331,0.063
53523.18781,16.306,0.063
53523.198333,16.429,0.074
53523.208859,16.55,0.102
53526.207963,16.428,0.093
53706.471115,16.176,0.043
53706.509227,16.247,0.041
53709.444124,16.184,0.048
53709.456996,16.179,0.046
53709.470495,16.194,0.046
53709.483201,16.259,0.044
53709.496035,16.27,0.041
53712.461719,16.294,0.055
53712.475397,16.349,0.055
53712.488759,16.365,0.055
53712.5019,16.427,0.057
53712.514854,16.361,0.054
53733.396115,15.987,0.041
53733.408936,16.023,0.041
53733.421614,15.948,0.037
53733.434387,15.89,0.035
53733.447182,15.849,0.033
53738.408748,16.293,0.052
53738.421781,16.349,0.054
53738.434767,16.326,0.054
53738.4478,16.327,0.052
53769.385749,16.046,0.031
53769.399445,15.925,0.03
53769.412954,15.876,0.028
53769.426259,15.914,0.041
53769.439465,15.91,0.037
53788.46543,16.181,0.048
53788.477352,16.179,0.052
53788.489315,16.207,0.054
53788.501313,16.269,0.059
53788.513405,16.257,0.063
53789.349631,16.61,0.185
53789.362541,16.494,0.139
53789.375006,16.499,0.078
53789.387419,16.527,0.056
53789.400034,16.432,0.051
53791.359704,16.153,0.037
53791.371438,16.162,0.039
53791.383185,16.16,0.041
53791.394937,16.152,0.041
53791.406692,16.21,0.044
53794.34235,16.163,0.039
53794.353979,16.172,0.039
53794.365808,16.24,0.041
53794.377444,16.234,0.043
53794.389078,16.256,0.043
53818.279457,16.532,0.065
53818.290071,16.521,0.065
53818.300692,16.4,0.055
53818.31138,16.357,0.054
53818.322185,16.21,0.046
53823.260548,16.184,0.041
53823.271149,16.224,0.043
53823.282129,16.277,0.044
53823.292758,16.273,0.046
53823.305259,16.32,0.048
53825.278191,16.403,0.055
53825.289263,16.472,0.059
53825.301709,16.405,0.063
53825.312027,16.47,0.059
53825.323744,16.499,0.068
53829.230831,16.312,0.109
53829.241349,16.146,0.181
53829.273705,16.325,0.137
53845.192879,16.395,0.067
53845.203579,16.362,0.063
53845.214443,16.288,0.059
53845.225176,16.42,0.068
53845.235921,16.459,0.093
53848.240355,16.413,0.068
53848.2508,16.394,0.074
53848.261546,16.366,0.072
53848.282896,16.411,0.072
53849.247701,16.315,0.055
53849.258439,16.252,0.052
53849.269128,16.295,0.055
53849.279822,16.299,0.057
53849.290729,16.25,0.057
53851.192387,16.507,0.069
53851.20262,16.453,0.066
53851.212891,16.419,0.063
53851.223193,16.442,0.069
53851.233528,16.529,0.074
53852.252289,16.279,0.063
53852.262668,16.277,0.063
53852.273478,16.332,0.068
53852.283854,16.42,0.076
53852.295528,16.384,0.076
53855.200191,16.376,0.059
53855.210862,16.351,0.059
53855.221559,16.29,0.057
53855.232212,16.318,0.059
53855.242906,16.406,0.065
53858.214361,16.442,0.107
53858.234803,16.397,0.087
53880.156745,16.453,0.081
53880.167894,16.412,0.078
53880.179068,16.542,0.087
53880.190241,16.537,0.087
53880.201423,16.543,0.089
53881.160974,16.397,0.063
53881.170927,16.409,0.064
53881.181155,16.415,0.066
53881.193526,16.311,0.059
53881.203632,16.335,0.063
53883.166587,16.549,0.085
53883.179634,16.387,0.074
53883.192062,16.297,0.07
53883.203461,16.071,0.057
53883.214966,16.087,0.063
53885.158674,16.211,0.063
53885.170851,16.2,0.065
53885.182932,16.209,0.068
53885.195052,16.276,0.074
53885.207185,16.337,0.078
53886.158189,16.082,0.056
53886.1682,16.093,0.059
53886.178226,16.028,0.056
54054.420462,16.224,0.072
54054.431995,16.152,0.063
54054.443569,16.149,0.059
54054.455065,16.188,0.059
54054.466837,16.179,0.055
54058.438479,15.847,0.039
54058.445849,15.94,0.048
54058.450989,15.866,0.037
54058.458976,15.994,0.049
54058.463529,15.889,0.037
54058.471564,15.968,0.046
54058.476026,15.956,0.039
54058.48405,16.103,0.051
54058.488537,15.954,0.037
54058.496449,16.011,0.046
54061.440536,16.033,0.041
54061.453081,16.015,0.039
54061.465636,16.069,0.039
54061.478187,16.055,0.041
54061.490739,16.07,0.039
54064.442297,16.209,0.053
54064.457439,16.191,0.051
54064.471541,16.145,0.048
54064.484624,16.227,0.049
54064.497187,16.3,0.049
54066.468759,16.335,0.059
54066.481201,16.331,0.065
54067.455739,16.264,0.037
54067.468809,16.243,0.037
54067.48189,16.284,0.039
54067.495143,16.226,0.037
54067.508226,16.278,0.035
54082.417642,16.41,0.122
54082.430038,16.494,0.129
54084.518521,16.138,0.048
54087.461091,16.061,0.094
54112.395495,16.454,0.063
54112.408055,16.298,0.064
54112.420583,16.449,0.064
54112.433173,16.408,0.063
54121.34094,16.456,0.045
54121.353402,16.43,0.041
54121.365875,16.437,0.04
54121.378504,16.415,0.041
54121.391025,16.422,0.041
54124.377954,16.471,0.041
54124.393081,16.483,0.043
54144.328445,16.435,0.051
54144.340366,16.435,0.053
54144.35229,16.476,0.059
54144.364239,16.394,0.054
54144.376493,16.489,0.058
54149.334848,16.08,0.04
54149.346856,16.126,0.04
54149.359277,16.149,0.041
54149.371343,16.144,0.043
54149.383378,16.153,0.043
54153.284753,16.512,0.056
54153.296995,16.549,0.058
54153.308666,16.513,0.056
54153.320667,16.169,0.04
54153.332655,16.119,0.04
54175.273484,16.073,0.031
54175.284144,16.049,0.031
54175.294791,16.045,0.031
54175.305447,16.133,0.033
54175.316247,16.125,0.033
54201.236814,16.084,0.038
54201.246188,16.084,0.038
54201.255417,16.115,0.038
54201.264676,16.168,0.041
54201.273958,16.14,0.04
54207.223914,16.236,0.044
54207.233059,16.204,0.044
54207.242299,16.255,0.043
54207.251444,16.231,0.043
54207.260984,16.261,0.041
54210.222372,16.305,0.043
54210.231306,16.309,0.043
54210.240191,16.333,0.044
54210.249107,16.326,0.046
54210.258018,16.345,0.046
54454.392555,16.22,0.044
54454.445722,16.314,0.033
54475.390885,15.917,0.024
54475.403811,15.852,0.031
54475.416824,15.897,0.03
54475.429664,15.89,0.022
54475.442508,15.935,0.022
54495.443577,15.914,0.028
54508.348781,16.418,0.037
54524.348093,15.867,0.02
54524.359804,15.831,0.022
54537.269418,16.344,0.035
54537.280524,16.164,0.039
54537.291581,16.114,0.041
54537.30259,16.072,0.039
54537.313653,15.893,0.024
54555.270334,16.329,0.03
54555.282223,16.31,0.031
54555.294004,16.367,0.03
54559.13164,15.883,0.026
54559.154687,15.852,0.024
54559.166137,15.82,0.024
54559.177638,15.885,0.024
54564.276903,16.336,0.035
54581.19571,16.289,0.043
54581.206392,16.257,0.041
54581.217053,16.299,0.043
54581.227734,16.335,0.044
54581.238452,16.371,0.046
54586.194268,16.504,0.067
54586.204453,16.587,0.105
54586.214644,16.457,0.05
54586.235147,16.144,0.044
54592.197224,15.873,0.051
54594.203315,16.352,0.048
54594.213725,16.356,0.046
54594.224059,16.363,0.048
54594.234405,16.354,0.052
54594.244725,16.343,0.052
54618.160826,15.917,0.031
54618.171025,15.939,0.039
54618.181236,15.975,0.035
54618.191462,15.999,0.035
54618.201656,16.018,0.035
