mjd,m,merr
52614.454061,15.873,0.068
52614.469492,15.937,0.078
52614.484852,15.984,0.044
52614.500062,16.118,0.044
52614.51522,16.272,0.048
52619.460225,15.823,0.035
52619.475659,15.956,0.041
52619.491199,16.105,0.046
52619.506593,16.33,0.055
52619.522111,16.342,0.054
52644.394778,15.846,0.026
52644.43246,16.057,0.033
52644.447482,16.207,0.037
52644.462403,16.368,0.041
52644.477303,16.25,0.039
52648.328363,16.185,0.05
52648.34298,16.012,0.041
52648.357757,16.016,0.154
52648.372592,15.891,0.035
52648.38727,15.841,0.031
52666.38892,16.029,0.043
52666.403861,16.275,0.046
52666.418509,16.352,0.053
52666.433144,16.196,0.043
52666.447891,15.97,0.036
52671.389925,16.217,0.041
52671.405193,16.4,0.046
52671.420492,16.274,0.043
52671.435675,16.038,0.035
52671.451011,15.948,0.033
52674.331663,15.889,0.031
52674.346802,15.912,0.031
52674.361073,15.939,0.033
52674.375134,16.112,0.041
52674.3893,16.356,0.046
52698.303017,15.898,0.028
52698.316437,16.015,0.03
52698.33113,16.16,0.033
52698.345497,16.371,0.043
52698.360057,16.35,0.043
52704.306393,16.019,0.033
52704.319846,16.166,0.039
52704.333206,16.407,0.046
52704.346791,16.327,0.044
52704.360312,16.157,0.039
52725.313466,16.257,0.058
52725.326936,16.074,0.076
52725.339679,15.943,0.076
52725.352609,15.853,0.058
52725.365444,15.887,0.056
52728.232182,15.853,0.03
52728.244146,15.933,0.031
52728.256605,15.991,0.031
52728.268894,16.13,0.035
52728.281389,16.3,0.041
52754.201101,15.981,0.033
52754.213262,16.088,0.037
52754.225545,16.308,0.048
52754.237725,16.427,0.054
52754.249861,16.322,0.05
52760.199669,16.064,0.033
52760.211699,16.218,0.039
52760.223625,16.402,0.046
52760.235561,16.342,0.044
52760.24749,16.141,0.041
52767.152149,15.875,0.048
52767.164633,15.91,0.049
52767.17648,15.99,0.051
52767.188338,16.149,0.061
52767.200361,16.287,0.069
52789.165691,16.394,0.057
52789.176025,16.466,0.061
52789.186364,16.319,0.055
52789.196685,16.115,0.046
52789.207177,16.018,0.044
52794.165307,16.337,0.063
52794.175344,16.252,0.055
52794.185246,16.121,0.055
52794.195189,16.019,0.05
52794.205124,15.942,0.05
52967.441884,15.879,0.035
52967.454544,15.87,0.035
52967.467281,15.854,0.031
52967.480072,15.925,0.033
52967.492678,15.973,0.035
52974.457842,15.845,0.031
52974.470523,15.905,0.031
52974.483236,16.001,0.035
52974.495879,16.232,0.041
52974.508819,16.395,0.048
52996.414092,15.847,0.024
52996.440842,16.113,0.028
53001.40357,15.896,0.022
53001.416576,15.938,0.024
53001.429567,16.077,0.026
53001.455806,16.334,0.031
53027.334422,15.832,0.02
53027.347153,15.874,0.02
53027.360009,15.922,0.02
53027.372806,16.062,0.024
53027.385479,16.238,0.026
53032.391952,16.389,0.04
53032.404313,16.281,0.036
53032.416695,16.074,0.031
53032.429544,15.972,0.028
53032.442086,15.927,0.028
53033.336275,15.91,0.033
53033.348499,15.988,0.035
53033.360825,16.07,0.038
53033.373135,16.249,0.059
53033.385637,16.535,0.069
53052.280082,15.866,0.026
53052.291927,15.882,0.026
53052.303766,15.944,0.028
53052.315677,16.035,0.03
53052.327637,16.214,0.035
53079.230543,15.854,0.031
53084.282005,16.387,0.03
53084.292915,16.325,0.028
53084.303803,16.107,0.024
53084.315042,15.984,0.022
53084.328295,15.927,0.02
53086.333007,15.891,0.03
53086.344588,15.831,0.026
53110.203313,16.056,0.043
53110.214225,16.205,0.049
53110.225163,16.418,0.061
53110.236104,16.367,0.058
53115.249002,16.019,0.028
53115.260363,15.941,0.026
53115.271459,15.891,0.026
53115.282539,15.823,0.024
53115.293643,15.836,0.024
53117.25545,15.926,0.025
53138.168887,16.343,0.053
53138.179265,16.363,0.049
53138.188883,16.324,0.049
53348.396948,15.803,0.039
53348.410365,15.912,0.041
53348.42368,15.973,0.043
53348.437028,16.017,0.043
53348.449882,16.327,0.055
53354.393846,15.843,0.035
53354.406967,15.938,0.037
53354.420115,15.979,0.037
53354.433271,16.171,0.041
53354.446406,16.379,0.048
53357.445659,16.369,0.046
53357.459052,16.226,0.041
53357.474222,16.034,0.035
53357.489298,15.907,0.031
53357.504058,15.875,0.031
53377.403478,16.423,0.048
53377.416773,16.237,0.041
53377.429929,16.071,0.033
53377.444364,15.933,0.031
53377.458467,15.898,0.03
53382.438502,15.892,0.035
53382.467919,15.822,0.031
53382.482661,15.905,0.033
53382.497295,15.949,0.035
53404.367951,16.08,0.03
53404.380785,15.944,0.028
53404.393579,15.905,0.028
53404.406446,15.857,0.028
53404.419891,15.813,0.028
53410.474315,16.41,0.041
53410.487465,16.253,0.035
53410.499927,16.091,0.031
53410.512383,15.934,0.028
53415.355831,15.935,0.031
53415.368295,15.849,0.03
53415.38072,15.831,0.03
53415.393776,15.848,0.03
53415.406198,15.826,0.031
53433.357059,15.839,0.028
53433.368492,15.855,0.028
53433.37992,15.898,0.03
53433.39251,16.004,0.035
53433.404292,16.145,0.043
53441.279679,16.316,0.041
53441.29109,16.117,0.033
53441.302503,16.009,0.03
53441.31395,15.941,0.03
53441.325353,15.865,0.028
53471.261618,15.868,0.033
53471.272283,15.845,0.033
53471.282322,15.848,0.033
53471.292262,15.895,0.035
53471.302007,15.88,0.035
53493.245444,15.827,0.041
53493.255629,15.851,0.043
53493.266616,15.89,0.048
53493.277431,15.998,0.054
53493.287683,16.146,0.061
53502.148614,16.378,0.054
53502.159395,16.27,0.048
53502.169951,16.14,0.044
53502.180788,15.967,0.039
53502.191224,15.945,0.039
53523.166519,15.832,0.046
53523.177038,15.811,0.039
53523.187579,15.799,0.037
53523.198115,15.834,0.063
53523.208642,15.912,0.044
53526.207694,15.906,0.059
53706.470585,16.143,0.039
53706.508697,15.858,0.033
53709.443588,16.401,0.057
53709.456461,16.229,0.048
53709.469961,16.009,0.039
53709.482668,15.933,0.033
53709.495501,15.855,0.028
53712.461287,16.053,0.044
53712.474796,15.94,0.039
53712.488327,15.856,0.035
53712.501466,15.854,0.035
53712.514421,15.846,0.035
53733.395581,16.298,0.05
53733.408402,16.132,0.043
53733.421064,15.98,0.037
53733.433771,15.894,0.035
53733.446649,15.815,0.031
53738.408312,15.994,0.039
53738.421344,15.973,0.039
53738.434331,15.868,0.035
53738.447363,15.788,0.031
53769.385287,15.855,0.026
53769.398985,15.858,0.026
53769.412425,15.923,0.028
53769.425799,16.046,0.039
53769.439003,16.195,0.044
53788.465157,15.883,0.039
53788.47708,15.802,0.039
53788.489046,15.864,0.043
53788.501046,15.832,0.043
53788.513132,15.857,0.048
53789.34891,15.799,0.086
53789.361819,15.94,0.076
53789.374282,15.875,0.048
53789.386694,16.018,0.035
53789.399312,16.233,0.046
53791.359445,15.888,0.033
53791.371179,15.946,0.035
53791.382927,16.043,0.041
53791.394677,16.19,0.046
53791.406435,16.352,0.054
53794.341813,15.846,0.03
53794.353443,15.884,0.028
53794.365273,15.969,0.031
53794.376907,16.046,0.035
53794.388539,16.197,0.039
53818.278961,15.85,0.033
53818.289576,15.827,0.033
53818.300197,15.876,0.035
53818.310886,15.909,0.037
53818.321687,15.976,0.039
53823.260062,15.872,0.031
53823.27066,15.854,0.031
53823.281641,15.854,0.031
53823.292267,15.889,0.033
53823.304768,15.939,0.035
53825.277717,15.821,0.033
53825.28879,15.904,0.035
53825.301235,15.939,0.041
53825.311548,16.011,0.039
53825.32327,16.185,0.05
53829.230325,15.971,0.07
53829.273198,15.828,0.076
53845.192468,16.043,0.046
53845.203167,15.954,0.043
53845.214034,15.909,0.041
53845.224762,15.868,0.041
53845.235509,15.841,0.046
53848.23973,15.883,0.043
53848.25018,15.867,0.052
53848.260923,16.012,0.052
53848.271791,16.012,0.054
53848.282275,16.127,0.057
53849.247481,15.896,0.037
53849.258218,15.966,0.039
53849.268908,16.109,0.044
53849.279603,16.29,0.054
53849.290507,16.394,0.061
53852.194783,15.867,0.041
53852.202051,15.878,0.039
53852.205044,15.852,0.043
53852.213885,15.882,0.041
53852.215247,15.85,0.043
53852.22529,15.884,0.043
53852.225416,15.806,0.043
53852.23561,15.857,0.045
53852.236712,15.849,0.041
53852.251843,15.93,0.044
53855.19976,15.869,0.037
53855.210431,15.869,0.037
53855.221126,15.877,0.039
53855.23178,15.93,0.041
53855.242471,15.953,0.043
53858.193698,15.871,0.12
53858.203801,15.782,0.087
53858.213905,15.824,0.074
53858.234345,15.876,0.05
53881.160693,15.803,0.038
53881.162864,15.835,0.043
53881.170645,15.882,0.041
53881.174019,15.892,0.044
53881.180873,15.89,0.041
53881.185079,15.901,0.044
53881.19324,15.982,0.045
53881.19625,15.996,0.048
53881.203346,16.055,0.048
53881.207397,16.055,0.054
53883.166158,15.797,0.043
53883.1792,15.869,0.046
53883.191629,16.021,0.054
53883.203027,16.119,0.059
53883.214532,16.29,0.074
53886.157901,15.846,0.048
53886.167917,15.807,0.046
53886.177944,15.862,0.048
53886.190647,16.029,0.059
53886.200444,16.11,0.064
53887.165156,15.907,0.073
53887.175292,15.925,0.081
53887.185704,15.943,0.084
53887.196095,16.01,0.094
53887.206507,16.219,0.117
54054.419738,15.942,0.055
54054.43148,16.064,0.061
54054.443056,16.263,0.067
54054.454551,16.355,0.072
54054.466324,16.257,0.063
54058.437947,16.302,0.055
54058.445561,16.296,0.064
54058.450458,16.291,0.052
54058.458688,16.219,0.059
54058.462999,16.144,0.044
54058.471277,16.022,0.048
54058.475497,15.987,0.037
54058.483763,15.961,0.045
54058.488007,15.912,0.035
54058.496163,15.919,0.041
54061.440002,16.375,0.054
54061.452545,16.262,0.046
54061.465104,16.071,0.039
54061.477654,15.919,0.033
54061.490209,15.846,0.031
54064.442007,16.245,0.061
54064.457154,16.042,0.049
54064.471254,16.003,0.046
54064.484338,15.87,0.04
54064.4969,15.855,0.038
54066.480653,15.767,0.148
54067.455442,16.04,0.031
54067.468512,15.944,0.03
54067.481594,15.86,0.028
54067.494846,15.82,0.026
54067.507929,15.821,0.026
54083.452035,15.781,0.074
54083.491411,15.858,0.078
54084.476758,15.832,0.033
54084.490484,15.866,0.035
54084.504217,16.014,0.044
54084.517947,16.258,0.055
54121.340413,16.061,0.04
54121.352875,15.951,0.035
54121.365348,15.845,0.031
54121.377975,15.85,0.033
54121.390497,15.82,0.03
54124.331356,16.048,0.03
54124.348391,15.908,0.026
54124.362812,15.887,0.026
54124.377374,15.857,0.024
54124.392499,15.892,0.026
54144.328303,15.884,0.033
54144.340226,15.85,0.031
54144.352151,15.884,0.036
54144.3641,15.966,0.036
54144.376353,16.063,0.041
54149.33429,15.818,0.031
54149.346328,15.864,0.033
54149.358413,15.935,0.035
54149.370829,16.061,0.04
54149.382865,16.271,0.048
54153.284614,15.936,0.033
54153.296857,15.887,0.033
54153.308527,15.812,0.031
54153.320528,15.848,0.031
54153.332517,15.844,0.033
54175.27299,15.841,0.026
54175.283651,15.848,0.026
54175.294297,15.864,0.026
54175.30495,15.938,0.028
54175.315749,16.042,0.03
54207.223474,15.843,0.03
54207.23262,15.895,0.033
54207.24186,15.973,0.033
54207.251006,16.007,0.033
54207.260546,16.144,0.037
54208.2122,15.834,0.038
54208.220938,15.885,0.041
54208.229666,15.872,0.041
54208.238492,15.945,0.043
54208.247226,16.109,0.049
54210.221938,15.949,0.031
54210.230874,15.965,0.033
54210.23976,16.007,0.033
54210.248675,16.121,0.039
54210.257588,16.224,0.043
54422.472989,15.852,0.024
54422.485599,15.818,0.022
54422.498257,15.85,0.022
54422.51092,15.87,0.024
54424.451424,15.97,0.03
54424.464097,15.88,0.026
54424.47673,15.837,0.024
54424.489477,15.816,0.024
54424.502242,15.824,0.024
54447.396148,15.961,0.026
54447.409124,15.853,0.024
54447.422097,15.83,0.024
54447.435061,15.816,0.024
54447.448027,15.833,0.024
54454.391977,15.866,0.031
54454.405272,15.881,0.03
54454.418438,15.863,0.028
54454.431716,15.839,0.024
54454.445144,15.934,0.024
54475.390398,15.878,0.022
54475.403325,15.927,0.043
54475.416339,16.024,0.035
54475.429178,16.201,0.03
54475.442022,16.417,0.033
54483.325073,15.869,0.044
54495.404994,16.378,0.044
54495.417529,16.285,0.041
54495.430171,16.091,0.033
54495.442956,15.971,0.031
54495.455617,15.885,0.03
54509.276029,15.896,0.022
54509.288096,15.826,0.02
54509.300087,15.842,0.02
54509.312299,15.839,0.018
54509.324307,15.895,0.02
54524.33605,16.259,0.03
54524.347532,16.35,0.031
54524.359241,16.22,0.03
54524.370735,16.044,0.026
54524.382281,15.931,0.024
54555.246118,15.949,0.024
54555.258091,16.108,0.028
54555.269847,16.321,0.031
54555.281735,16.435,0.037
54555.293517,16.391,0.033
54559.130869,16.378,0.037
54559.142524,16.287,0.033
54559.154116,16.097,0.03
54559.165567,15.989,0.026
54559.177067,15.914,0.024
54564.242611,16.061,0.028
54564.253907,16.232,0.031
54564.265242,16.337,0.035
54564.276552,16.251,0.031
54564.287883,16.06,0.028
54581.195457,15.995,0.035
54581.206139,16.119,0.041
54581.2168,16.288,0.046
54581.227481,16.464,0.054
54581.238199,16.472,0.055
54586.193881,16.035,0.063
54586.214256,16.321,0.041
54592.1871,16.12,0.061
54592.197109,16.149,0.064
54592.206905,16.407,0.081
54592.216922,16.36,0.076
54592.22688,16.218,0.068
54594.202925,16.348,0.048
54594.213335,16.36,0.046
54594.223668,16.181,0.041
54594.234012,16.058,0.039
54594.244333,15.958,0.037
54618.160496,16.385,0.046
54618.170694,16.302,0.048
54618.180904,16.112,0.037
54618.191132,15.997,0.033
54618.201328,15.968,0.033
