mjd,m,merr
52612.463759,16.244,0.049
52612.478969,16.275,0.046
52612.494085,16.191,0.043
52612.509257,16.103,0.04
52612.524285,16.02,0.038
52620.459343,16.081,0.037
52620.474483,16.029,0.05
52620.489559,15.944,0.057
52620.504869,16.051,0.046
52620.51995,16.098,0.05
52623.447353,15.923,0.041
52623.463091,15.911,0.043
52623.494694,15.904,0.044
52623.51071,15.928,0.044
52650.295529,15.929,0.037
52650.311886,15.924,0.035
52650.326283,15.942,0.031
52650.340572,15.945,0.031
52650.355027,15.954,0.031
52652.382448,16.051,0.035
52652.397613,16.058,0.035
52652.412889,16.066,0.031
52652.42822,16.071,0.031
52652.44338,16.095,0.031
52664.284428,16.026,0.033
52664.299679,15.989,0.031
52664.314955,15.95,0.03
52664.330294,15.935,0.03
52664.345544,15.878,0.03
52680.332182,15.927,0.033
52680.35637,15.945,0.031
52680.374715,15.984,0.03
52680.409205,16.017,0.033
52681.281189,16.154,0.065
52681.298251,16.15,0.061
52681.316731,16.169,0.044
52681.335355,16.201,0.041
52695.309759,16.203,0.043
52695.309877,16.059,0.036
52695.323571,16.268,0.043
52695.323687,16.092,0.036
52695.337354,16.24,0.046
52695.351131,16.08,0.054
52695.364948,16.194,0.117
52695.365065,16.11,0.099
52712.284467,15.925,0.05
52712.297756,15.983,0.055
52722.240051,16.189,0.04
52722.240654,16.129,0.036
52722.252179,16.26,0.041
52722.252785,16.107,0.035
52722.264645,16.279,0.043
52722.265248,16.139,0.036
52722.276969,16.27,0.043
52722.277571,16.18,0.038
52722.289117,16.264,0.041
52722.289718,16.125,0.036
52751.19872,15.941,0.041
52751.209823,15.987,0.096
52751.21042,15.906,0.045
52751.220631,15.935,0.04
52751.221228,15.91,0.036
52751.231466,15.943,0.04
52751.242465,15.9,0.038
52751.243062,15.906,0.038
52770.156984,16.134,0.096
52770.16854,16.117,0.098
52770.180272,16.191,0.1
52770.192005,16.242,0.107
52770.203712,16.138,0.102
52782.163155,16.168,0.051
52782.195782,16.161,0.073
52782.206913,16.219,0.124
52800.187949,16.094,0.122
52800.197988,16.13,0.126
52800.208028,16.273,0.142
52810.171521,16.075,0.052
52810.181519,16.063,0.052
52810.191403,16.065,0.055
52812.172458,16.079,0.052
52812.182756,16.202,0.059
52812.192994,16.171,0.059
52812.203302,16.118,0.059
52812.21364,16.111,0.061
52976.400188,16.148,0.033
52976.413519,16.164,0.031
52976.426653,16.133,0.031
52976.439681,16.142,0.033
52976.452738,16.142,0.033
52990.400351,16.044,0.037
52990.413642,16.131,0.035
52990.427648,16.115,0.035
52990.44058,16.162,0.044
52990.453853,16.089,0.043
53023.342209,15.897,0.02
53023.355674,15.912,0.022
53023.368652,15.91,0.022
53023.381625,15.897,0.022
53023.394396,15.867,0.022
53035.350658,16.283,0.046
53035.363275,16.196,0.041
53035.376311,16.161,0.04
53035.389445,16.11,0.036
53035.403041,16.054,0.033
53046.346561,15.955,0.037
53046.358498,15.966,0.037
53046.370465,15.896,0.033
53046.382569,15.962,0.037
53046.394565,15.908,0.035
53065.279097,16.21,0.041
53065.290408,16.213,0.039
53065.301648,16.202,0.039
53065.312988,16.271,0.044
53065.324291,16.222,0.043
53093.22868,16.043,0.035
53093.239072,16.002,0.033
53093.249443,16.037,0.031
53093.259699,16.03,0.033
53093.269964,16.06,0.033
53107.240955,16.093,0.03
53107.252227,16.098,0.031
53107.263421,16.064,0.031
53107.274631,16.063,0.033
53107.285901,16.078,0.031
53122.235004,16.191,0.049
53136.197439,16.188,0.044
53136.206796,16.213,0.046
53136.216103,16.219,0.046
53136.225405,16.253,0.048
53136.234722,16.193,0.048
53153.165865,16.016,0.053
53153.17433,15.995,0.053
53153.183199,16.025,0.053
53153.191736,16.024,0.054
53154.168397,16.001,0.074
53154.17719,16.112,0.07
53154.185947,16.11,0.068
53154.194734,16.074,0.068
53154.203534,16.192,0.074
53164.170509,16.134,0.046
53164.180712,16.152,0.043
53164.190923,16.162,0.057
53164.201142,16.161,0.043
53164.211362,16.181,0.044
53178.171252,16.164,0.045
53178.180671,16.127,0.045
53178.190595,16.165,0.045
53178.200153,16.174,0.048
53178.209534,16.223,0.053
53313.436977,16.043,0.081
53313.448905,16.104,0.083
53313.460827,16.124,0.081
53313.472752,16.092,0.08
53313.484676,16.14,0.078
53319.461403,16.073,0.048
53319.473256,16.176,0.052
53319.485153,16.127,0.048
53319.497009,16.142,0.048
53319.508873,16.186,0.05
53331.451406,16.118,0.065
53331.463787,16.069,0.052
53331.476165,16.031,0.05
53331.488537,16.046,0.05
53331.50091,16.081,0.05
53341.475373,16.042,0.078
53341.499521,15.919,0.068
53341.512104,15.927,0.07
53349.459171,16.114,0.05
53349.475629,16.098,0.052
53349.487873,16.141,0.052
53349.500303,16.226,0.055
53349.513957,16.134,0.054
53355.468931,15.994,0.035
53355.482888,15.939,0.035
53355.496683,15.921,0.033
53355.510018,15.969,0.033
53355.522854,15.904,0.044
53359.408033,15.966,0.036
53359.424216,15.957,0.035
53359.440308,15.952,0.033
53359.456397,15.995,0.035
53359.472634,16.005,0.033
53389.487877,15.993,0.031
53389.503857,15.987,0.033
53389.519841,16.023,0.033
53422.322344,16.226,0.107
53422.334318,16.144,0.093
53450.270661,16.019,0.057
53450.281798,16.097,0.061
53450.292822,16.096,0.061
53450.3039,16.119,0.065
53450.314582,16.211,0.07
53479.228153,16.257,0.118
53479.238343,16.199,0.118
53479.25018,16.118,0.111
53479.261151,16.389,0.142
53479.270655,16.252,0.124
53537.170554,16.17,0.107
53537.190692,16.025,0.126
53537.200765,16.052,0.113
53684.441881,16.054,0.061
53684.454258,15.973,0.052
53684.466827,15.984,0.044
53684.479682,15.99,0.052
53684.492124,15.978,0.05
53700.448738,15.965,0.041
53700.4618,15.973,0.041
53700.474555,15.945,0.037
53700.487268,15.939,0.035
53700.500212,15.855,0.033
53728.401256,16.144,0.048
53728.414705,16.182,0.044
53728.428206,16.251,0.054
53728.441279,16.193,0.055
53728.454469,16.198,0.046
53772.29124,16.064,0.043
53772.303983,16.063,0.043
53772.316677,16.098,0.043
53772.329357,16.113,0.043
53772.342146,16.171,0.044
53825.234495,16.027,0.03
53825.245743,16.035,0.031
53825.256891,16.058,0.031
53825.268126,16.057,0.033
53825.2794,16.084,0.035
53842.242054,16.041,0.058
53855.193318,15.947,0.04
53855.204075,16.034,0.045
53855.214605,15.987,0.041
53855.225201,16.003,0.043
53855.235792,16.038,0.046
53878.163179,15.918,0.054
53878.178896,15.959,0.061
53878.199259,16.0,0.059
53878.215114,15.989,0.059
53878.230386,16.023,0.066
53892.175649,15.812,0.093
53892.206306,15.921,0.105
53903.169738,16.015,0.059
53903.184563,16.037,0.059
53903.202933,15.989,0.056
53903.213235,16.009,0.063
54053.448643,16.252,0.081
54053.47626,16.143,0.076
54070.452127,15.958,0.036
54070.465561,15.973,0.036
54070.47856,15.981,0.036
54070.491545,15.949,0.038
54070.504606,15.997,0.038
54081.393473,15.962,0.044
54081.406904,15.986,0.046
54081.419999,15.998,0.043
54081.432968,16.017,0.041
54081.44575,16.043,0.041
54086.36688,15.899,0.049
54086.380341,15.92,0.049
54086.393748,15.951,0.046
54086.407641,15.892,0.045
54086.421231,15.938,0.043
54109.324687,15.936,0.081
54109.336526,15.815,0.079
54109.360076,15.916,0.084
54140.334148,16.19,0.046
54140.346309,16.143,0.043
54140.358678,16.146,0.045
54140.37069,16.146,0.045
54140.382747,16.192,0.046
54187.23105,15.96,0.063
54187.241437,15.967,0.063
54187.252197,16.036,0.066
54187.263166,15.952,0.063
54187.273715,15.99,0.066
54200.226742,16.085,0.031
54200.236715,16.011,0.078
54200.256399,16.061,0.031
54210.219217,15.957,0.036
54210.228252,15.95,0.035
54210.236963,15.936,0.035
54210.245666,15.939,0.035
54210.254605,15.934,0.035
54218.233039,16.249,0.115
54218.241619,16.1,0.096
54218.250213,16.144,0.1
54218.258816,16.236,0.113
54509.323388,15.912,0.035
54509.335404,15.94,0.035
54509.347468,15.917,0.033
54509.359491,16.001,0.035
54509.371508,15.998,0.036
54527.281781,16.126,0.12
54527.294286,16.0,0.125
54527.306655,16.069,0.045
54527.318094,16.058,0.04
54527.329231,16.099,0.041
54536.268884,16.157,0.051
54536.279769,16.099,0.04
54536.290879,16.034,0.038
54536.301758,16.016,0.038
54536.31267,16.054,0.038
54560.245504,16.228,0.056
54560.268926,16.098,0.049
54560.292227,16.076,0.051
54584.195693,15.996,0.048
54584.205766,16.041,0.049
54584.215767,15.994,0.046
54584.225974,16.048,0.049
54584.235998,16.01,0.049
