mjd,m,merr
52612.462981,15.563,0.028
52612.478192,15.522,0.026
52612.493308,15.556,0.026
52612.508482,15.658,0.028
52612.523513,15.697,0.03
52620.458065,15.549,0.024
52620.473199,15.634,0.031
52620.48828,15.764,0.033
52620.518672,15.878,0.033
52623.446488,15.637,0.03
52623.462314,15.724,0.035
52623.478012,15.677,0.046
52623.493908,15.53,0.031
52623.509927,15.45,0.031
52650.294105,15.957,0.039
52650.310563,15.767,0.031
52650.324974,15.587,0.024
52650.339251,15.509,0.022
52650.353702,15.496,0.022
52652.38094,15.54,0.022
52652.3961,15.496,0.022
52652.411312,15.436,0.018
52652.426707,15.486,0.02
52652.441868,15.563,0.02
52664.283648,15.78,0.026
52664.2989,15.748,0.026
52664.314175,15.623,0.022
52664.329512,15.532,0.02
52664.344763,15.534,0.022
52680.331543,15.902,0.036
52680.355733,15.676,0.028
52680.374076,15.561,0.023
52680.390584,15.508,0.023
52680.408565,15.522,0.025
52681.279588,15.557,0.037
52681.296566,15.566,0.035
52681.314935,15.628,0.028
52681.333474,15.706,0.028
52695.309396,15.558,0.025
52695.309514,15.511,0.026
52695.32321,15.657,0.028
52695.323327,15.612,0.028
52695.336995,15.769,0.031
52695.337111,15.694,0.033
52695.350771,15.837,0.043
52695.350888,15.799,0.046
52695.364591,15.85,0.079
52695.364707,15.728,0.079
52712.283668,15.819,0.046
52712.296953,15.851,0.054
52722.239577,15.483,0.023
52722.240296,15.422,0.026
52722.251704,15.495,0.023
52722.252427,15.417,0.026
52722.264171,15.534,0.025
52722.264891,15.414,0.028
52722.276494,15.612,0.026
52722.277214,15.496,0.028
52722.288644,15.691,0.026
52722.289362,15.607,0.031
52751.198252,15.846,0.046
52751.209354,15.843,0.081
52751.220164,15.714,0.033
52751.230998,15.606,0.03
52751.241995,15.578,0.03
52782.18459,15.557,0.026
52782.20602,15.53,0.055
52800.187413,15.761,0.087
52800.197445,15.581,0.072
52800.207491,15.677,0.078
52812.171836,15.832,0.041
52812.182198,15.872,0.044
52812.202752,15.713,0.041
52812.213097,15.642,0.039
52947.477554,15.743,0.039
52947.489877,15.806,0.041
52947.502131,15.786,0.037
52976.398914,15.681,0.023
52976.409978,15.589,0.02
52976.421057,15.523,0.02
52976.432107,15.514,0.02
52976.443184,15.513,0.02
52990.399447,15.687,0.026
52990.412737,15.651,0.024
52990.426743,15.595,0.022
52990.439676,15.588,0.026
52990.452948,15.625,0.028
53023.341274,15.715,0.018
53023.354615,15.801,0.02
53023.367686,15.773,0.02
53023.380571,15.661,0.018
53023.393461,15.555,0.017
53046.345853,15.815,0.031
53046.357788,15.724,0.03
53046.369756,15.639,0.028
53046.381843,15.592,0.026
53046.393856,15.561,0.026
53065.232324,15.683,0.026
53065.244274,15.591,0.023
53065.256213,15.552,0.023
53065.268117,15.511,0.021
53065.280018,15.521,0.021
53077.30518,15.623,0.124
53094.225047,15.884,0.03
53094.234679,15.818,0.028
53094.244368,15.715,0.026
53094.25426,15.616,0.023
53094.263925,15.564,0.021
53107.240313,15.539,0.018
53107.251527,15.53,0.018
53107.26278,15.549,0.02
53107.27399,15.589,0.02
53107.285259,15.634,0.022
53122.19346,15.753,0.056
53122.203697,15.833,0.061
53122.21404,15.906,0.046
53122.224376,15.753,0.045
53122.234708,15.704,0.031
53127.196959,15.652,0.061
53127.206905,15.727,0.063
53127.216814,15.81,0.067
53127.236652,15.675,0.063
53136.19687,15.812,0.031
53136.206227,15.831,0.033
53136.215534,15.793,0.031
53136.224836,15.729,0.031
53136.234153,15.643,0.03
53153.165595,15.693,0.04
53153.17406,15.649,0.036
53153.182929,15.579,0.035
53153.191465,15.545,0.035
53153.200028,15.492,0.033
53154.176628,15.807,0.05
53154.185385,15.815,0.05
53154.194155,15.753,0.05
53154.20297,15.616,0.043
53164.169947,15.618,0.031
53164.180149,15.758,0.03
53164.19036,15.819,0.03
53164.200578,15.799,0.037
53164.210799,15.724,0.031
53319.461006,15.521,0.03
53319.47286,15.496,0.028
53319.484756,15.554,0.03
53319.496613,15.581,0.03
53319.508475,15.682,0.031
53340.401713,15.616,0.064
53340.414039,15.633,0.064
53340.426461,15.629,0.064
53340.443451,15.842,0.076
53340.455876,16.043,0.089
53355.467965,15.827,0.03
53355.481924,15.807,0.031
53355.495718,15.746,0.03
53355.509052,15.667,0.028
53355.521887,15.69,0.068
53358.403262,15.657,0.026
53358.416284,15.767,0.03
53358.429354,15.875,0.033
53358.442426,15.742,0.03
53358.456299,15.623,0.026
53359.440079,15.78,0.028
53359.472402,15.731,0.026
53389.486902,15.822,0.031
53389.502879,15.82,0.03
53389.518864,15.647,0.026
53401.347875,15.571,0.03
53401.360492,15.531,0.028
53401.373114,15.512,0.028
53401.385741,15.541,0.03
53401.398498,15.657,0.055
53430.303915,15.771,0.037
53430.315623,15.866,0.033
53430.327866,15.83,0.033
53430.339667,15.739,0.031
53430.35619,15.597,0.028
53479.227546,15.782,0.078
53479.237736,15.852,0.083
53479.249573,15.824,0.078
53479.260546,15.623,0.067
53479.270049,15.644,0.068
53491.195236,15.692,0.039
53491.216677,15.569,0.03
53491.227634,15.504,0.031
53491.238148,15.487,0.03
53684.440892,15.62,0.037
53684.453266,15.609,0.035
53684.465837,15.621,0.031
53684.478572,15.672,0.039
53684.491135,15.727,0.041
53700.447219,15.765,0.035
53700.460281,15.608,0.03
53700.472996,15.562,0.026
53700.485746,15.502,0.024
53700.498694,15.474,0.022
53727.402462,15.795,0.035
53727.41532,15.704,0.041
53727.428099,15.586,0.028
53727.441002,15.542,0.026
53727.453778,15.534,0.03
53757.324246,15.72,0.031
53757.336984,15.642,0.03
53757.3497,15.595,0.028
53757.362513,15.592,0.028
53757.375303,15.539,0.028
53773.351796,15.874,0.037
53773.364542,15.734,0.031
53773.377744,15.62,0.028
53773.390644,15.557,0.026
53773.403444,15.48,0.022
53825.233773,15.703,0.025
53825.256173,15.544,0.021
53842.193625,15.603,0.03
53842.205588,15.536,0.028
53842.217186,15.467,0.03
53842.240665,15.428,0.036
53904.167273,15.835,0.048
53904.177202,15.777,0.046
53904.187159,15.751,0.044
53904.197205,15.633,0.043
53904.207237,15.64,0.043
54052.452728,15.905,0.043
54052.465189,15.828,0.041
54052.477448,15.657,0.033
54052.489702,15.592,0.031
54052.50197,15.528,0.028
54071.396013,15.634,0.056
54071.43446,15.948,0.059
54081.39271,15.571,0.031
54081.406142,15.646,0.033
54081.419237,15.666,0.031
54081.432206,15.77,0.033
54081.444988,15.869,0.035
54098.422165,15.817,0.033
54124.370301,15.607,0.026
54124.382723,15.547,0.025
54140.333529,15.466,0.026
54140.345548,15.47,0.026
54140.358067,15.534,0.028
54140.370073,15.678,0.031
54140.38213,15.747,0.035
54187.230638,15.85,0.059
54187.24102,15.796,0.058
54187.251779,15.816,0.059
54198.225188,15.57,0.026
54198.254039,15.661,0.028
54198.263685,15.751,0.03
54210.218713,15.798,0.033
54210.227754,15.815,0.033
54210.236464,15.753,0.031
54210.245166,15.7,0.03
54210.253873,15.625,0.028
54481.333731,15.708,0.036
54481.345975,15.75,0.036
54481.358101,15.841,0.038
54481.370676,15.849,0.041
54481.383235,15.787,0.04
54498.326624,15.729,0.035
54498.339068,15.605,0.031
54498.350884,15.574,0.03
54498.362713,15.548,0.03
54498.374579,15.524,0.028
54526.278283,15.686,0.03
54526.289563,15.802,0.031
54526.300943,15.819,0.033
54526.312267,15.755,0.031
54526.323543,15.651,0.028
54537.265437,15.481,0.035
54537.276377,15.45,0.04
54537.287409,15.513,0.046
54537.29847,15.528,0.035
54537.309482,15.55,0.049
54559.287022,15.942,0.045
54569.236563,15.521,0.035
54569.247788,15.557,0.035
54569.258692,15.593,0.036
54569.269613,15.63,0.038
54569.280558,15.679,0.04
54584.195063,15.878,0.048
54584.205136,15.959,0.049
54584.215138,15.743,0.043
54584.225342,15.701,0.041
54584.235369,15.626,0.04
54615.197941,15.472,0.054
54615.208354,15.546,0.054
