mjd,m,merr
52613.450947,16.857,0.089
52613.466121,16.938,0.096
52613.481468,16.827,0.087
52613.496663,16.979,0.098
52613.511954,16.999,0.1
52618.457451,16.502,0.096
52618.472749,16.482,0.157
52618.488181,16.622,0.087
52618.503757,16.657,0.093
52618.519096,16.572,0.07
52640.484595,16.887,0.069
52640.499512,16.967,0.071
52643.440004,17.013,0.089
52643.453991,16.993,0.081
52643.467941,16.917,0.076
52643.481943,17.023,0.08
52643.49623,16.948,0.072
52647.398524,16.938,0.093
52647.413035,16.947,0.093
52647.427448,16.93,0.093
52647.441854,16.911,0.091
52647.456299,16.956,0.094
52667.401955,16.629,0.063
52667.416994,16.697,0.066
52667.431747,16.654,0.068
52667.446694,16.637,0.079
52673.304449,16.818,0.074
52673.319735,16.857,0.076
52673.334993,16.817,0.072
52673.350316,16.916,0.081
52703.30985,17.179,0.339
52703.32365,17.167,0.263
52703.336982,16.854,0.202
52703.351063,16.893,0.089
52707.307428,16.969,0.08
52707.321249,16.952,0.08
52707.33437,16.905,0.074
52707.348163,16.831,0.072
52707.3614,16.9,0.08
52730.238675,17.0,0.085
52730.250379,17.028,0.091
52730.262056,17.034,0.093
52730.273724,17.136,0.104
52730.285534,17.122,0.104
52731.171749,16.642,0.135
52731.183806,16.698,0.083
52731.195905,16.81,0.107
52731.207952,16.682,0.176
52733.250704,16.822,0.076
52733.262766,16.858,0.08
52733.275005,16.904,0.081
52733.287915,16.944,0.089
52733.299867,16.914,0.124
52738.235377,16.749,0.074
52738.246797,16.634,0.067
52738.258736,16.632,0.067
52738.270157,16.686,0.068
52738.281695,16.671,0.068
52755.199763,16.696,0.068
52755.217175,16.687,0.068
52755.23031,16.659,0.068
52755.242339,16.638,0.068
52755.254466,16.659,0.07
52758.203611,17.042,0.08
52758.21546,17.038,0.083
52758.227315,17.003,0.083
52758.239275,17.039,0.085
52758.251211,17.037,0.087
52788.169623,16.895,0.137
52788.179873,17.026,0.203
52793.220801,16.904,0.139
52793.230856,16.927,0.142
52793.240801,16.948,0.159
52966.464426,16.948,0.098
52966.476839,16.935,0.094
52966.489384,16.922,0.093
52966.501922,16.983,0.096
52973.430245,16.75,0.089
52973.442155,16.692,0.083
52973.454302,16.685,0.079
52973.466579,16.727,0.083
52973.478561,16.742,0.081
52994.473691,16.904,0.055
52994.487,16.886,0.054
52994.500949,16.887,0.055
52994.514223,16.952,0.057
52994.527595,16.947,0.055
52997.431185,16.661,0.285
52997.444149,16.674,0.117
53025.373914,16.723,0.08
53028.359017,16.886,0.055
53028.371617,16.941,0.059
53028.384101,16.967,0.057
53028.39659,16.979,0.057
53033.335102,16.773,0.072
53033.347402,16.767,0.072
53033.359537,16.855,0.078
53033.37201,16.762,0.08
53033.38427,16.889,0.096
53053.346398,16.744,0.063
53053.358014,16.704,0.059
53053.369685,16.698,0.08
53053.381331,16.655,0.131
53053.393537,16.594,0.08
53061.326643,16.759,0.048
53061.337708,16.741,0.048
53061.348773,16.732,0.048
53061.35984,16.722,0.05
53061.370954,16.764,0.054
53062.296443,16.612,0.125
53064.280361,16.939,0.093
53064.292859,17.135,0.104
53064.305367,17.094,0.109
53064.329627,17.09,0.087
53064.348173,17.129,0.094
53065.294102,16.818,0.073
53065.318151,16.812,0.071
53079.255097,16.982,0.074
53079.265739,16.972,0.072
53079.276548,17.093,0.08
53079.287248,17.006,0.074
53079.305722,17.046,0.08
53082.287561,16.812,0.048
53082.298886,16.857,0.052
53082.310715,16.871,0.054
53082.32227,16.867,0.054
53082.333885,16.896,0.055
53091.281338,16.691,0.046
53091.291826,16.808,0.05
53091.302392,16.781,0.048
53091.312813,16.799,0.048
53110.191146,16.877,0.087
53110.201836,16.847,0.087
53110.212521,16.871,0.087
53110.223269,16.858,0.087
53110.234029,16.863,0.089
53116.259393,16.987,0.12
53116.270528,16.913,0.089
53116.28166,17.033,0.187
53116.292884,17.011,0.178
53116.304083,16.926,0.083
53138.158621,16.754,0.07
53138.168487,16.745,0.068
53138.178289,16.763,0.07
53138.188129,16.804,0.074
53138.197923,16.794,0.072
53141.209416,17.033,0.085
53141.219601,17.041,0.091
53141.229284,16.875,0.081
53141.239502,16.827,0.078
53141.249177,16.735,0.074
53166.176612,16.644,0.085
53166.185964,16.864,0.115
53166.195316,16.872,0.118
53166.204694,16.738,0.113
53166.214055,16.785,0.117
53346.439542,16.507,0.087
53346.451831,16.519,0.091
53346.464298,16.691,0.099
53346.47652,16.755,0.102
53346.488723,16.592,0.099
53351.488651,16.94,0.112
53351.503171,16.826,0.104
53351.517478,16.722,0.097
53351.53184,16.872,0.12
53353.401238,17.066,0.137
53353.414175,17.01,0.126
53353.427118,17.234,0.146
53353.440107,17.1,0.135
53353.455519,17.064,0.122
53376.47942,16.709,0.068
53376.493358,16.835,0.074
53376.507165,16.906,0.076
53376.52444,16.913,0.076
53381.421557,17.119,0.163
53381.434411,17.681,0.507
53381.473201,17.083,0.185
53403.351614,16.952,0.102
53403.365077,16.965,0.091
53403.377932,16.954,0.091
53403.39189,16.998,0.098
53403.404684,16.978,0.098
53410.352617,16.776,0.057
53410.365399,16.825,0.057
53410.377906,16.816,0.057
53410.390998,16.852,0.065
53410.40396,16.87,0.061
53432.345677,16.655,0.176
53432.368472,16.711,0.115
53432.379828,16.584,0.07
53432.391526,16.651,0.076
53437.292105,17.008,0.08
53437.303726,16.979,0.08
53437.315739,17.093,0.089
53437.327437,16.992,0.081
53437.339081,17.11,0.093
53440.301747,16.875,0.076
53440.315532,16.851,0.074
53440.328091,16.824,0.072
53440.3412,16.876,0.076
53440.35526,16.854,0.08
53443.270606,17.126,0.085
53443.281454,17.11,0.083
53443.292945,17.209,0.089
53443.30379,17.074,0.081
53443.315207,17.083,0.083
53446.225431,16.863,0.081
53446.236031,16.849,0.081
53446.247152,16.882,0.081
53446.258354,16.84,0.078
53446.268999,16.833,0.094
53464.290512,16.695,0.068
53464.300691,16.683,0.074
53464.310841,16.719,0.067
53464.32104,16.771,0.081
53464.331195,16.707,0.08
53468.232946,16.551,0.124
53468.24287,16.723,0.1
53468.254268,16.703,0.174
53468.263846,16.658,0.154
53495.202059,17.005,0.142
53495.212378,17.043,0.146
53495.222596,16.92,0.135
53495.232927,16.873,0.141
53495.243198,17.056,0.191
53503.186157,17.198,0.118
53503.195015,17.045,0.104
53503.204865,17.136,0.113
53503.215235,17.113,0.113
53503.225014,17.14,0.115
53522.163524,16.865,0.094
53522.173747,16.727,0.087
53522.18399,16.621,0.083
53522.194316,16.571,0.081
53522.204889,16.727,0.098
53705.460315,16.978,0.104
53705.472933,16.988,0.102
53705.485751,16.944,0.093
53705.498326,16.935,0.091
53705.51103,16.941,0.089
53708.457715,16.691,0.076
53708.470481,16.646,0.07
53708.483463,16.763,0.08
53708.49618,16.677,0.074
53708.508956,16.691,0.074
53710.451705,16.714,0.096
53710.465119,16.747,0.104
53710.477652,16.773,0.1
53710.490294,16.7,0.098
53710.502946,16.691,0.094
53732.421441,16.966,0.141
53732.434229,16.922,0.13
53732.446908,16.794,0.109
53732.459665,16.721,0.102
53732.47246,16.72,0.104
53735.464443,16.953,0.122
53735.477841,17.081,0.239
53735.490613,17.039,0.148
53735.516357,17.159,0.17
53746.400908,16.813,0.12
53746.413371,16.906,0.13
53746.425927,16.963,0.137
53746.438613,16.956,0.133
53746.451078,16.845,0.115
53759.405205,16.84,0.087
53759.417882,16.798,0.102
53759.430609,16.897,0.154
53759.443227,17.057,0.179
53762.409808,16.813,0.076
53762.422509,16.637,0.07
53762.435124,16.674,0.078
53762.447724,16.724,0.142
53762.46054,16.579,0.081
53787.463776,16.952,0.109
53787.50002,16.919,0.124
53790.29432,16.955,0.086
53790.306249,17.088,0.094
53790.318224,17.073,0.092
53790.339217,17.155,0.113
53790.342127,17.126,0.094
53790.350915,17.082,0.107
53790.362604,17.003,0.1
53790.374296,17.034,0.105
53790.386,16.99,0.104
53793.344741,16.881,0.117
53793.356472,16.887,0.08
53793.368196,16.983,0.091
53793.379936,16.913,0.081
53793.391678,16.915,0.12
53797.247511,16.95,0.08
53797.25907,16.99,0.113
53797.282298,17.084,0.17
53799.333869,17.0,0.1
53799.345314,16.895,0.093
53799.356733,16.968,0.12
53799.36817,16.919,0.133
53799.379612,16.964,0.172
53802.301603,16.446,0.089
53802.313615,16.839,0.241
53802.325806,16.514,0.13
53802.338037,16.773,0.112
53802.350143,16.716,0.083
53819.287505,16.744,0.098
53819.322463,16.814,0.083
53819.333629,17.0,0.096
53826.283345,16.623,0.067
53826.319626,16.669,0.104
53826.331471,16.725,0.08
53827.295591,16.889,0.089
53827.306704,16.97,0.102
53827.31763,16.744,0.216
53827.328399,16.843,0.091
53827.339412,16.933,0.105
53832.221392,16.726,0.131
53845.202153,16.618,0.076
53845.213305,16.708,0.083
53845.23547,16.631,0.112
53846.244788,17.041,0.141
53846.255589,16.852,0.118
53846.2664,16.982,0.133
53846.277205,17.091,0.15
53846.288016,17.14,0.163
53850.204232,17.3,0.14
53850.214721,17.088,0.122
53850.225231,17.01,0.116
53850.23581,17.167,0.149
53850.270803,17.066,0.113
53850.282312,16.978,0.107
53850.293173,16.848,0.096
53850.305332,16.726,0.089
53850.316778,16.835,0.102
53853.240251,16.905,0.109
53853.251727,16.888,0.109
53853.262753,16.989,0.12
53853.273479,17.126,0.139
53853.283947,16.974,0.12
53879.160107,16.713,0.069
53879.181656,16.846,0.083
53879.204012,16.905,0.092
53882.166049,17.152,0.118
53882.178975,17.151,0.122
53882.191964,17.112,0.12
53882.203188,16.844,0.093
53882.215098,16.866,0.098
53884.160022,16.826,0.111
53884.17176,16.762,0.107
53884.183515,16.765,0.109
53884.195308,16.719,0.113
53884.207081,16.602,0.102
53885.155915,16.96,0.096
53885.16672,16.899,0.092
53885.17787,17.026,0.107
53885.188628,16.955,0.101
53885.199918,16.897,0.099
54059.460482,16.684,0.089
54059.499711,16.743,0.084
54060.438092,17.008,0.12
54060.452019,16.924,0.107
54060.464929,17.015,0.115
54060.477837,17.002,0.111
54060.490909,17.02,0.111
54083.466876,16.73,0.126
54083.494069,16.731,0.12
54086.371363,17.001,0.118
54086.384293,16.964,0.105
54086.39723,17.052,0.105
54086.410171,16.988,0.093
54086.423109,16.975,0.089
54091.368702,16.652,0.097
54091.376614,16.783,0.083
54091.381335,16.724,0.101
54091.3892,16.773,0.081
54091.393239,16.81,0.106
54091.402115,16.724,0.078
54091.405357,16.839,0.107
54091.414709,16.81,0.083
54091.427307,16.812,0.081
54113.388476,16.733,0.079
54113.416141,16.648,0.084
54113.428925,16.659,0.092
54113.44182,16.607,0.087
54115.410092,16.58,0.076
54115.435848,16.757,0.091
54123.341808,16.886,0.102
54123.379119,16.877,0.096
54123.391772,16.828,0.091
54144.358907,16.908,0.085
54144.370381,16.917,0.08
54144.381465,16.953,0.087
54144.393119,16.996,0.085
54144.405426,16.969,0.089
54148.336959,17.018,0.099
54148.3486,16.958,0.094
54148.360161,17.033,0.102
54152.28809,16.992,0.072
54152.299984,17.007,0.074
54152.311875,17.052,0.078
54152.32378,17.101,0.081
54152.335693,17.144,0.085
54154.280625,17.019,0.08
54154.292104,17.05,0.081
54154.303597,17.095,0.083
54154.315067,17.062,0.08
54154.326508,16.983,0.074
54173.265898,16.764,0.083
54173.269613,16.717,0.052
54173.280359,16.745,0.055
54173.287657,16.502,0.068
54173.291011,16.648,0.05
54173.298358,16.558,0.069
54173.301658,16.643,0.05
54173.30906,16.531,0.066
54173.312379,16.67,0.048
54176.274633,17.011,0.08
54176.285264,17.006,0.08
54176.295969,17.042,0.083
54176.306652,16.959,0.074
54176.317206,16.981,0.076
54179.290642,16.81,0.063
54179.301585,16.717,0.061
54179.312989,16.781,0.067
54179.324054,16.809,0.07
54179.335318,16.795,0.07
54185.228561,16.879,0.129
54185.238762,16.794,0.12
54185.248979,16.865,0.125
54185.259176,16.886,0.125
54185.269594,16.86,0.124
54186.291698,16.717,0.054
54186.303148,16.745,0.055
54186.314511,16.647,0.05
54186.325935,16.643,0.05
54186.337124,16.67,0.048
54200.217752,16.935,0.15
54200.227223,16.893,0.144
54200.236782,16.947,0.206
54200.256219,16.874,0.144
54206.262084,17.023,0.078
54206.271411,17.013,0.08
54206.280807,16.91,0.076
54206.289958,17.007,0.085
54206.2991,17.027,0.087
54209.2199,17.055,0.25
54209.228884,16.809,0.146
54209.238501,17.068,0.451
54209.248273,16.915,0.176
54439.446745,17.037,0.067
54439.459635,17.105,0.068
54439.472514,17.183,0.074
54439.48538,17.084,0.068
54507.33014,16.531,0.041
54507.342184,16.561,0.041
54507.35431,16.619,0.041
54507.378437,16.606,0.041
54507.462162,16.744,0.083
54507.474121,16.844,0.099
54507.485975,16.609,0.063
54507.498787,16.656,0.069
54522.392936,16.699,0.065
54522.404608,16.696,0.067
54522.416272,16.705,0.067
54522.427916,16.751,0.072
54522.43957,16.663,0.07
54529.336472,17.066,0.065
54529.347768,17.023,0.065
54529.35907,17.044,0.067
54529.370364,17.076,0.07
54535.390805,16.636,0.086
54535.401819,16.658,0.087
54535.412818,16.697,0.087
54535.42382,16.666,0.092
54535.434976,16.606,0.089
54536.269988,16.893,0.055
54536.291953,16.957,0.055
54536.30292,16.945,0.057
54536.313926,16.937,0.055
54553.303223,17.074,0.126
54553.315121,17.031,0.081
54553.327003,17.019,0.078
54553.339073,17.069,0.087
54553.351004,17.077,0.091
54558.130243,16.528,0.055
54558.141885,16.616,0.057
54558.153435,16.575,0.054
54558.16502,16.632,0.057
54558.176645,16.597,0.057
54562.249221,16.803,0.05
54562.260829,16.815,0.05
54562.272506,16.833,0.052
54562.28422,16.842,0.052
54562.295909,16.91,0.054
54580.200417,16.857,0.109
54580.210667,16.831,0.104
54580.220898,16.64,0.091
54580.231772,16.692,0.106
54580.242759,16.697,0.104
54584.248292,16.749,0.063
54584.258958,16.727,0.063
54584.269534,16.754,0.065
54584.280107,16.729,0.063
54584.290729,16.719,0.065
54591.190421,17.291,0.239
54591.200014,17.034,0.188
54591.200693,17.097,0.091
54591.20977,17.158,0.196
54591.210965,17.06,0.091
54591.219985,17.501,0.285
54591.221238,17.015,0.089
54591.231523,17.072,0.1
54591.241813,17.015,0.098
54611.160628,17.343,0.272
54611.168932,17.066,0.2
54611.177162,16.854,0.165
54611.185375,16.945,0.181
54611.193579,17.1,0.219
54614.162549,16.636,0.061
54614.172516,16.613,0.061
54614.182486,16.723,0.067
54614.192468,16.658,0.065
54614.202441,16.717,0.072
