mjd,m,merr
52643.414781,15.137,0.02
52643.430934,15.149,0.02
52643.447211,15.203,0.018
52643.463562,15.231,0.018
52643.480016,15.245,0.018
52649.466872,15.266,0.018
52649.483358,15.248,0.018
52649.498041,15.308,0.02
52649.512188,15.32,0.02
52649.526578,15.324,0.02
52666.393945,15.091,0.018
52666.408886,15.104,0.018
52666.423538,15.137,0.02
52666.438175,15.17,0.018
52666.453011,15.216,0.018
52670.42539,15.307,0.023
52670.440066,15.105,0.018
52670.454646,14.78,0.015
52670.469265,14.512,0.012
52670.48387,14.49,0.012
52676.292867,15.405,0.026
52676.30829,15.34,0.024
52676.323836,15.174,0.02
52676.339486,14.821,0.015
52676.355203,14.547,0.011
52698.307592,14.468,0.009
52698.321337,14.51,0.009
52698.335978,14.578,0.009
52698.35086,14.638,0.009
52698.364996,14.692,0.011
52701.310453,15.172,0.026
52701.310568,16.279,0.073
52701.323709,15.262,0.04
52701.323824,17.537,0.373
52701.336795,15.279,0.023
52701.336909,15.872,0.041
52701.349835,15.243,0.02
52701.34995,15.868,0.041
52701.363342,15.251,0.02
52701.363456,15.782,0.041
52725.320115,15.168,0.025
52725.32023,15.137,0.033
52725.333544,15.207,0.028
52725.333659,15.159,0.036
52725.346023,15.264,0.03
52725.346138,15.168,0.036
52725.359021,15.244,0.035
52725.372106,15.232,0.031
52725.372222,15.175,0.04
52729.238182,15.276,0.02
52729.250284,15.309,0.02
52729.250644,16.243,0.063
52729.2633,15.348,0.021
52729.276179,15.335,0.021
52732.248795,15.112,0.02
52732.24915,15.026,0.026
52732.26092,15.146,0.02
52732.261275,15.084,0.025
52732.273424,15.167,0.02
52732.273778,15.099,0.028
52732.28538,15.216,0.021
52732.297339,15.194,0.02
52754.204643,15.166,0.017
52754.216804,15.173,0.017
52754.229099,15.178,0.018
52754.24128,15.177,0.018
52754.253406,15.203,0.018
52761.203622,15.242,0.026
52761.215661,15.226,0.039
52761.227745,15.251,0.028
52761.239823,15.262,0.022
52761.251843,15.237,0.018
52768.207625,15.271,0.035
52768.219498,15.264,0.035
52768.231494,15.216,0.035
52768.243431,15.268,0.037
52768.255135,15.238,0.037
52789.169336,15.209,0.03
52789.179947,15.209,0.031
52789.201204,15.244,0.031
52791.169992,15.185,0.043
52974.462175,14.636,0.013
52974.474856,14.498,0.011
52974.487567,14.491,0.009
52974.500425,14.553,0.011
52974.513656,14.612,0.011
52993.452575,15.157,0.013
52993.465089,15.188,0.013
53000.437518,15.201,0.012
53000.452186,15.241,0.012
53000.481882,15.229,0.012
53000.496207,15.244,0.012
53002.457716,14.958,0.009
53002.471017,14.982,0.009
53002.484617,15.039,0.011
53002.49802,15.064,0.011
53002.511493,15.063,0.011
53033.340856,14.514,0.01
53033.353187,14.503,0.01
53033.365396,14.574,0.012
53033.377924,14.59,0.013
53033.390217,14.707,0.013
53052.332135,15.205,0.015
53052.344458,15.178,0.015
53052.356939,15.243,0.017
53052.368798,15.231,0.015
53052.380638,15.213,0.015
53062.364356,14.885,0.023
53062.37742,14.935,0.015
53062.38971,14.976,0.018
53062.401713,15.042,0.036
53079.27875,15.343,0.02
53079.289902,15.4,0.02
53079.300889,15.351,0.02
53079.311884,15.333,0.018
53079.322905,15.245,0.018
53080.278798,15.293,0.016
53080.279662,15.275,0.017
53080.289977,15.303,0.016
53080.291167,15.297,0.017
53080.30141,15.253,0.016
53080.303192,15.282,0.017
53080.312618,15.276,0.016
53080.31456,15.283,0.017
53080.323869,15.29,0.016
53080.325873,15.305,0.017
53087.331007,15.344,0.013
53087.341418,15.299,0.013
53087.351865,15.19,0.013
53087.362509,14.929,0.009
53087.373093,14.774,0.009
53110.240811,15.235,0.021
53110.251692,15.27,0.021
53110.262537,15.238,0.021
53110.273537,15.248,0.021
53110.284438,15.202,0.02
53118.25369,15.274,0.013
53118.265932,15.268,0.013
53118.277335,15.264,0.013
53118.287563,15.273,0.013
53118.297832,15.259,0.013
53138.202914,15.125,0.016
53138.212784,14.856,0.013
53138.222668,14.723,0.012
53138.232455,14.538,0.012
53138.242284,14.49,0.012
53148.241608,15.226,0.02
53148.250569,15.231,0.018
53148.259413,15.215,0.018
53148.268034,15.213,0.02
53148.27706,15.203,0.02
53166.170112,14.829,0.018
53166.181071,14.889,0.02
53166.190838,14.881,0.021
53166.2007,14.889,0.021
53166.210475,14.911,0.021
53175.171471,14.513,0.01
53175.181091,14.501,0.01
53175.190686,14.548,0.01
53175.20043,14.597,0.012
53175.209994,14.616,0.012
53342.445108,16.237,0.25
53348.482904,15.339,0.025
53348.496784,15.351,0.03
53348.510713,15.36,0.025
53348.525075,15.392,0.026
53355.406018,15.335,0.055
53404.380338,14.994,0.013
53404.393735,14.988,0.013
53404.406714,15.044,0.015
53404.41967,15.061,0.015
53404.432611,15.09,0.016
53410.479341,15.238,0.015
53410.491787,15.25,0.015
53410.504251,15.246,0.015
53410.516662,15.215,0.015
53438.410231,15.361,0.02
53438.422628,15.345,0.02
53438.4346,15.263,0.018
53438.446407,15.027,0.017
53438.45827,14.796,0.013
53445.410137,14.872,0.013
53445.421862,14.706,0.011
53445.433408,14.519,0.009
53445.445763,14.488,0.009
53445.457292,14.549,0.009
53446.278945,15.227,0.03
53446.289399,15.234,0.031
53446.300332,15.257,0.018
53446.311254,15.264,0.017
53446.322778,15.257,0.017
53471.265726,14.946,0.015
53471.276361,14.948,0.015
53471.286424,14.966,0.017
53471.29632,15.003,0.017
53471.306061,15.006,0.017
53502.194541,14.566,0.011
53502.205706,14.541,0.013
53502.216179,14.641,0.013
53502.227787,14.684,0.015
53502.240234,14.74,0.015
53523.169877,14.882,0.02
53523.180408,14.913,0.017
53523.190968,14.922,0.017
53523.201485,14.962,0.018
53523.212012,14.984,0.018
53712.466121,15.243,0.024
53712.479895,14.85,0.015
53712.493095,14.698,0.013
53712.506207,14.521,0.011
53712.519162,14.493,0.011
53738.478886,15.149,0.035
53738.491812,15.238,0.05
53738.518076,15.193,0.022
53769.390287,14.974,0.013
53769.403994,15.007,0.013
53769.417366,15.031,0.013
53769.430634,15.047,0.02
53769.443835,15.084,0.017
53789.354286,15.268,0.056
53789.367048,15.338,0.058
53789.379393,15.266,0.018
53789.392055,15.273,0.018
53789.404416,15.269,0.02
53845.261748,14.519,0.035
53845.272603,14.597,0.018
53845.283453,14.65,0.017
53852.198473,14.497,0.013
53852.218933,14.535,0.015
53852.229105,14.621,0.015
53881.1666,14.743,0.017
53881.177772,14.783,0.017
53881.188838,14.847,0.017
53881.200012,14.856,0.017
53881.211166,14.839,0.018
53886.184213,15.229,0.026
53886.194047,15.266,0.028
53886.203853,15.252,0.028
53887.168612,15.063,0.03
53887.178776,15.042,0.031
53887.18917,15.116,0.035
53887.19956,15.12,0.035
53887.209949,15.17,0.036
53902.170051,15.127,0.033
54064.44672,15.17,0.028
54064.462269,15.24,0.028
54064.475797,15.197,0.026
54064.488866,15.289,0.026
54064.501447,15.273,0.025
54067.460199,14.899,0.013
54067.473276,14.909,0.013
54067.486358,14.927,0.013
54067.499612,14.962,0.013
54067.512694,14.985,0.013
54083.470059,14.708,0.028
54144.332635,15.376,0.023
54144.344557,15.36,0.021
54144.356473,15.337,0.026
54144.368727,15.158,0.021
54144.380711,14.854,0.016
54153.336981,15.266,0.02
54153.348917,15.256,0.02
54153.36062,15.266,0.026
54153.372546,15.189,0.036
54153.384324,15.255,0.033
54208.216055,14.889,0.016
54208.22473,14.915,0.018
54208.233613,14.941,0.018
54208.242271,14.922,0.018
54208.251012,14.953,0.018
54452.454672,15.223,0.013
54452.467839,15.239,0.015
54452.480974,15.234,0.013
54452.494136,15.231,0.013
54452.507288,15.232,0.013
54476.401206,14.966,0.009
54476.414075,15.006,0.011
54476.426935,15.026,0.011
54476.439937,15.049,0.011
54476.453184,15.096,0.011
54484.332546,14.725,0.02
54509.331185,15.344,0.013
54509.343402,15.366,0.013
54509.355455,15.312,0.013
54509.367495,15.204,0.011
54509.379564,14.886,0.009
54533.281824,15.238,0.011
54533.293183,15.229,0.011
54533.304338,15.22,0.011
54533.315933,15.244,0.011
54533.327007,15.234,0.011
54538.305116,14.537,0.007
54538.316228,14.505,0.007
54538.327316,14.546,0.007
54538.338329,14.586,0.007
54538.349479,14.642,0.007
54540.270084,15.264,0.038
54540.272071,15.248,0.013
54540.281325,15.269,0.038
54540.283518,15.261,0.013
54540.292199,15.278,0.038
54540.29502,15.262,0.013
54540.303099,15.279,0.036
54540.306206,15.256,0.013
54540.313979,15.275,0.038
54540.317731,15.237,0.013
54559.182765,14.505,0.007
54559.194329,14.506,0.007
54559.205896,14.54,0.007
54559.2176,14.606,0.007
54559.229184,14.663,0.009
54581.19943,14.778,0.013
54581.210106,14.793,0.013
54581.220778,14.828,0.013
54581.231475,14.879,0.013
54581.242173,14.901,0.013
54587.247142,15.146,0.017
54587.257552,15.178,0.018
54587.268096,15.198,0.018
54587.278504,15.216,0.018
54587.28889,15.23,0.018
54592.19085,15.274,0.031
54592.200926,15.276,0.031
54592.210757,15.298,0.031
54592.220552,15.295,0.031
54592.230433,15.254,0.031
54595.199607,14.975,0.015
54595.209554,15.016,0.017
54595.219696,15.037,0.02
54595.229635,15.063,0.017
54595.23959,15.072,0.017
54619.163524,14.61,0.011
54619.173822,14.655,0.011
54619.184019,14.679,0.011
54619.194266,14.732,0.015
54619.204468,14.768,0.013
