mjd,m,merr
52639.444457,15.951,0.031
52639.459244,16.124,0.037
52639.474602,16.389,0.046
52639.489256,16.341,0.044
52639.50405,16.16,0.039
52649.442525,16.082,0.04
52649.457726,16.018,0.038
52649.472811,15.957,0.035
52649.487878,16.006,0.038
52649.503328,16.086,0.041
52665.383906,15.96,0.031
52665.398204,16.081,0.035
52665.412569,16.317,0.043
52665.42688,16.353,0.046
52665.441431,16.117,0.037
52676.291118,16.414,0.061
52676.307587,16.251,0.053
52676.322924,16.029,0.046
52676.339673,15.925,0.041
52676.355082,15.966,0.041
52677.380196,15.955,0.05
52677.409031,15.963,0.035
52677.423413,16.081,0.065
52677.437737,16.183,0.087
52706.304769,16.215,0.039
52706.318116,16.496,0.05
52706.33141,16.278,0.041
52706.344662,16.062,0.033
52706.358138,15.972,0.031
52710.302687,16.272,0.046
52710.316198,16.117,0.041
52710.329399,15.993,0.035
52710.342658,15.931,0.033
52710.355909,15.933,0.033
52711.245293,16.145,0.056
52711.2584,16.038,0.049
52711.271493,15.942,0.045
52711.284547,15.905,0.043
52711.297669,15.977,0.045
52724.29352,16.114,0.033
52724.30507,16.362,0.041
52724.335284,16.151,0.035
52724.347601,16.027,0.031
52739.242531,16.125,0.048
52739.254025,16.267,0.053
52739.265713,16.431,0.064
52739.27762,16.565,0.071
52739.28911,16.267,0.056
52753.196526,16.156,0.041
52753.20959,15.985,0.035
52753.222564,15.952,0.033
52753.234594,15.943,0.033
52753.246655,15.913,0.033
52794.168602,16.086,0.048
52794.178991,16.229,0.058
52794.189656,16.493,0.069
52794.200433,16.481,0.071
52794.21084,16.369,0.064
52797.199546,15.845,0.065
52811.170447,16.003,0.054
52811.180358,15.922,0.05
52811.190289,15.846,0.048
52811.200187,15.834,0.046
52811.210082,15.829,0.048
52966.405671,16.01,0.049
52966.41442,16.001,0.046
52966.422716,16.08,0.048
52966.431181,16.328,0.056
52966.440191,16.457,0.063
52974.461051,15.946,0.036
52974.472785,16.031,0.038
52974.484658,16.19,0.043
52974.495646,16.261,0.045
52974.508702,16.381,0.048
52992.407168,16.095,0.037
52992.420499,16.034,0.033
52992.433687,15.971,0.03
52992.460705,16.028,0.028
53003.381472,16.253,0.03
53003.393642,16.091,0.026
53003.405884,16.033,0.033
53003.417917,15.983,0.054
53003.430217,15.923,0.073
53006.390485,16.333,0.05
53006.402637,16.459,0.052
53006.415381,16.301,0.044
53006.427612,16.068,0.035
53006.444966,16.009,0.033
53034.344638,16.195,0.044
53034.356959,16.038,0.035
53034.36954,15.983,0.033
53034.382215,15.962,0.031
53034.394471,15.938,0.031
53051.332595,15.94,0.026
53051.344831,15.996,0.028
53051.356424,16.055,0.03
53051.368153,16.159,0.035
53051.379749,16.343,0.041
53078.319184,15.928,0.035
53078.330208,15.935,0.035
53078.341131,15.982,0.035
53078.352093,16.056,0.04
53089.280493,16.042,0.024
53089.291089,15.975,0.022
53089.301482,15.938,0.022
53089.311974,15.947,0.02
53089.322392,15.929,0.028
53109.235696,16.422,0.054
53109.25015,16.216,0.046
53109.262061,16.053,0.041
53109.272744,15.969,0.038
53109.291581,15.982,0.038
53119.243163,16.031,0.028
53119.253593,16.111,0.03
53119.264384,16.269,0.035
53119.274858,16.487,0.043
53119.288992,16.369,0.038
53137.205055,15.943,0.04
53137.214718,15.928,0.04
53137.225063,15.927,0.038
53137.234977,15.952,0.038
53137.244561,16.033,0.041
53149.21097,16.352,0.051
53149.219517,16.186,0.043
53149.228276,16.121,0.04
53149.237104,16.109,0.04
53165.171768,16.015,0.063
53165.18166,16.09,0.059
53165.191587,16.175,0.091
53165.21752,16.3,0.071
53165.227336,16.158,0.059
53349.482227,16.488,0.081
53349.495974,16.458,0.078
53349.509553,16.099,0.056
53355.482056,16.015,0.038
53355.495218,15.958,0.036
53355.508947,15.943,0.036
53449.265889,16.359,0.067
53449.276322,16.512,0.113
53449.28677,16.203,0.065
53449.297742,16.088,0.065
53449.30824,16.055,0.046
53500.194141,15.985,0.035
53500.204767,16.159,0.043
53500.216221,16.404,0.052
53500.226246,16.407,0.054
53500.236159,16.302,0.048
53528.171264,16.092,0.055
53528.182907,16.009,0.054
53528.19384,15.986,0.054
53528.204541,15.899,0.05
53528.215148,15.919,0.052
53540.181108,16.411,0.17
53703.462792,16.058,0.039
53703.475538,15.93,0.035
53703.488217,15.913,0.033
53703.500972,15.944,0.033
53703.513889,15.985,0.033
53714.455111,16.022,0.037
53714.467904,15.985,0.033
53714.48096,15.948,0.031
53714.493696,15.947,0.03
53714.506604,16.083,0.031
53740.406016,15.973,0.035
53740.420208,15.971,0.031
53740.433885,15.96,0.031
53740.446864,16.07,0.033
53740.46035,16.238,0.039
53770.351662,16.027,0.033
53770.366336,16.147,0.037
53770.379634,16.359,0.044
53770.392633,16.385,0.048
53770.405554,16.228,0.041
53787.415001,16.043,0.043
53813.309626,15.966,0.052
53813.320626,15.924,0.05
53813.331634,15.941,0.052
53813.342649,15.922,0.05
53813.353666,15.964,0.054
53823.246659,16.027,0.033
53823.257775,15.961,0.031
53823.268759,15.971,0.031
53823.279797,15.982,0.031
53823.290585,16.05,0.035
53844.233357,16.376,0.059
53844.243578,16.392,0.057
53844.253878,16.267,0.054
53844.264099,16.147,0.048
53844.274326,16.058,0.046
53853.196485,15.971,0.046
53853.207037,16.071,0.051
53853.217541,16.125,0.054
53853.228142,16.266,0.061
53853.23879,16.26,0.064
53887.173359,15.907,0.063
53887.185243,15.948,0.067
53887.196476,15.976,0.07
53887.207832,15.971,0.072
53887.219177,16.074,0.078
53902.170347,16.039,0.068
53902.193533,16.269,0.081
54056.451241,16.73,0.109
54056.463903,16.366,0.074
54056.476909,16.221,0.063
54056.489585,16.062,0.049
54056.502276,15.966,0.045
54070.463573,16.418,0.048
54070.476453,16.434,0.05
54070.489339,16.296,0.044
54070.502223,16.098,0.039
54084.453091,16.021,0.061
54084.465931,16.096,0.058
54084.478859,16.368,0.069
54084.491702,16.528,0.086
54084.504623,16.461,0.087
54098.371362,16.032,0.043
54098.383377,16.27,0.046
54098.395332,16.327,0.044
54098.407281,16.264,0.041
54098.41931,16.079,0.035
54110.405321,16.155,0.092
54110.418043,16.406,0.116
54110.43082,16.538,0.135
54110.443511,16.502,0.132
54121.33527,15.962,0.03
54121.347447,15.95,0.028
54121.359635,15.89,0.026
54121.371904,15.948,0.028
54121.384087,16.022,0.03
54155.297699,16.457,0.066
54155.309439,16.372,0.059
54155.321879,16.188,0.048
54155.334611,15.999,0.04
54155.347164,15.97,0.038
54206.226052,16.216,0.045
54206.235383,16.306,0.049
54206.244716,16.538,0.059
54206.254416,16.441,0.054
54206.2638,16.339,0.049
54453.3985,16.468,0.039
54453.411513,16.326,0.033
54453.424533,16.102,0.026
54453.437552,15.973,0.022
54453.450603,15.948,0.022
54478.401331,16.412,0.087
54478.414309,16.231,0.08
54478.427418,16.058,0.052
54478.440403,16.052,0.087
54478.453385,15.915,0.052
54529.20523,16.113,0.051
54529.21852,16.389,0.059
54529.229858,16.492,0.064
54529.241641,16.402,0.063
54529.252719,16.157,0.049
54568.235466,16.042,0.035
54568.246557,16.243,0.043
54568.257536,16.431,0.05
54568.268648,16.349,0.044
54568.279795,16.136,0.037
54582.241065,15.961,0.033
54582.251418,16.04,0.035
54582.261842,16.134,0.041
54582.272177,16.292,0.044
54582.282524,16.475,0.054
54597.202007,15.985,0.059
54597.212607,16.087,0.063
54597.223327,16.168,0.07
54597.233902,16.356,0.083
54597.244503,16.393,0.085
54613.160676,16.207,0.041
54613.170657,16.1,0.037
54613.180515,16.063,0.037
54613.190535,15.996,0.035
54613.200404,16.081,0.041
54620.17072,16.089,0.035
54620.180933,16.024,0.033
54620.191059,15.976,0.033
54620.201182,15.93,0.03
54620.211299,15.928,0.031
