mjd,m,merr
52613.445838,15.753,0.04
52613.462413,15.562,0.03
52613.477766,15.46,0.028
52613.493164,15.355,0.041
52613.508608,15.351,0.045
52614.359249,15.753,0.04
52614.374023,15.562,0.03
52614.388585,15.46,0.028
52614.403059,15.355,0.041
52614.417575,15.351,0.045
52623.369568,15.782,0.035
52623.384866,15.583,0.028
52623.400131,15.365,0.022
52623.415425,15.338,0.02
52623.430692,15.258,0.02
52637.316921,15.323,0.02
52646.324677,15.246,0.021
52646.339776,15.296,0.021
52646.354943,15.399,0.021
52646.370169,15.538,0.026
52646.385248,15.725,0.031
52648.245468,15.919,0.036
52648.261032,15.74,0.03
52648.276129,15.511,0.025
52648.291384,15.364,0.023
52648.308183,15.292,0.021
52649.291068,15.446,0.064
52649.306127,15.311,0.02
52649.321368,15.308,0.02
52649.336481,15.31,0.02
52649.351555,15.398,0.021
52652.306616,15.27,0.018
52652.321827,15.234,0.018
52652.336781,15.259,0.018
52652.351834,15.328,0.02
52652.366721,15.415,0.022
52672.24969,15.556,0.026
52672.264876,15.807,0.04
52672.280197,15.801,0.041
52672.295261,15.473,0.043
52672.310075,15.36,0.026
52675.252301,15.379,0.064
52695.236639,15.257,0.035
52695.237693,15.268,0.035
52695.265253,15.372,0.023
52695.279317,15.517,0.026
52695.293276,15.764,0.031
52722.174626,15.622,0.026
52722.186826,15.714,0.028
52722.199124,15.666,0.028
52722.211338,15.473,0.025
52722.223553,15.387,0.023
52733.180957,15.605,0.03
52733.193348,15.809,0.036
52733.205414,15.826,0.036
52733.217276,15.608,0.031
52733.229156,15.443,0.026
52751.137251,15.319,0.026
52751.148286,15.319,0.061
52751.159065,15.337,0.053
52751.169989,15.385,0.053
52751.181725,15.398,0.03
52913.449709,15.341,0.026
52913.462923,15.291,0.024
52913.476179,15.262,0.02
52935.435521,15.759,0.046
52935.447022,15.49,0.036
52935.458468,15.414,0.033
52935.470158,15.336,0.031
52935.481817,15.27,0.028
52947.416213,15.665,0.028
52947.428309,15.884,0.033
52947.440459,15.857,0.033
52947.452424,15.659,0.028
52947.464445,15.453,0.024
52976.342406,15.591,0.023
52976.353553,15.427,0.018
52976.364695,15.362,0.016
52976.375796,15.298,0.015
52976.386948,15.256,0.013
52990.330707,15.777,0.024
52990.344507,15.665,0.022
52990.358258,15.446,0.018
52990.384612,15.308,0.017
53002.343959,15.863,0.016
53002.357591,15.782,0.016
53002.371215,15.527,0.013
53002.384727,15.364,0.012
53002.398557,15.29,0.012
53003.312686,15.322,0.011
53003.325443,15.435,0.013
53003.337369,15.591,0.015
53003.349265,15.723,0.015
53003.361395,15.671,0.015
53023.276637,15.312,0.011
53023.28927,15.244,0.011
53023.301986,15.222,0.011
53023.314936,15.248,0.011
53023.327673,15.319,0.013
53035.285102,15.305,0.023
53035.297931,15.234,0.021
53035.310877,15.213,0.02
53035.323247,15.221,0.02
53035.33554,15.276,0.021
53037.329168,15.228,0.02
53046.234879,15.515,0.018
53046.246908,15.664,0.022
53046.258786,15.699,0.024
53046.271434,15.588,0.022
53046.283306,15.427,0.02
53089.176167,15.581,0.022
53089.186606,15.452,0.018
53089.196974,15.348,0.017
53089.207383,15.31,0.015
53089.217991,15.309,0.015
53107.183554,15.702,0.026
53107.194791,15.612,0.022
53107.206032,15.468,0.02
53107.217277,15.399,0.018
53107.228525,15.294,0.018
53127.146024,15.238,0.031
53127.156089,15.232,0.033
53127.166117,15.334,0.037
53127.176107,15.402,0.041
53127.18615,15.512,0.046
53136.1499,15.289,0.022
53136.159126,15.296,0.024
53136.168344,15.355,0.026
53136.177569,15.429,0.03
53136.186837,15.463,0.03
53273.415557,15.332,0.035
53273.452062,15.3,0.031
53273.464226,15.331,0.022
53286.426423,15.378,0.028
53286.437409,15.344,0.026
53286.448363,15.306,0.024
53286.459321,15.306,0.024
53286.470285,15.322,0.024
53294.450986,15.301,0.018
53294.462417,15.293,0.018
53294.473837,15.306,0.018
53294.485362,15.337,0.018
53302.432223,15.415,0.024
53302.444126,15.359,0.024
53302.456024,15.304,0.022
53302.46794,15.293,0.022
53302.479844,15.277,0.022
53328.415057,15.817,0.038
53328.440979,15.641,0.031
53348.345899,15.304,0.028
53348.360063,15.282,0.03
53348.374302,15.257,0.03
53348.388248,15.298,0.021
53348.402095,15.365,0.023
53354.354929,15.303,0.02
53354.369896,15.297,0.02
53354.3843,15.261,0.018
53354.398633,15.303,0.018
53354.413036,15.384,0.02
53387.483549,15.718,0.033
53387.498347,15.567,0.028
53387.512259,15.419,0.026
53387.526334,15.325,0.026
53401.308631,15.323,0.021
53401.321208,15.367,0.023
53401.333723,15.517,0.026
53401.346285,15.724,0.033
53401.358825,15.845,0.04
53450.200906,15.289,0.043
53491.154803,15.561,0.044
53491.164664,15.778,0.041
53677.449774,15.261,0.024
53677.461764,15.266,0.02
53677.473702,15.321,0.05
53684.377494,15.69,0.031
53684.389841,15.732,0.031
53684.402469,15.57,0.026
53684.414988,15.436,0.024
53684.427401,15.33,0.02
53700.38341,15.543,0.024
53700.395915,15.707,0.028
53700.408583,15.669,0.028
53700.421294,15.532,0.022
53700.433848,15.419,0.02
53727.337787,15.332,0.02
53727.350552,15.296,0.018
53727.363421,15.283,0.018
53727.37638,15.32,0.02
53727.389073,15.381,0.02
53757.259936,15.274,0.015
53757.272631,15.314,0.015
53757.285294,15.378,0.017
53757.297828,15.552,0.018
53757.310436,15.766,0.022
53772.162772,15.434,0.026
53772.176134,15.631,0.028
53772.189526,15.763,0.031
53772.202876,15.665,0.028
53772.215639,15.489,0.024
53825.176701,15.283,0.018
53825.187801,15.299,0.02
53825.19908,15.292,0.018
53825.210201,15.342,0.02
53825.22148,15.481,0.025
53842.135357,15.885,0.038
53842.147009,15.621,0.03
53842.158558,15.426,0.026
53842.170073,15.368,0.025
53842.181632,15.3,0.025
53866.16461,15.79,0.091
54011.417466,15.355,0.028
54011.432044,15.462,0.03
54011.445968,15.719,0.036
54011.459478,15.856,0.04
54011.472562,15.663,0.031
54025.428062,15.334,0.026
54025.439931,15.422,0.028
54025.452804,15.625,0.033
54025.465136,15.842,0.04
54025.477163,15.842,0.04
54053.37952,15.494,0.028
54053.392868,15.383,0.025
54053.406925,15.321,0.025
54053.419776,15.21,0.03
54053.432774,15.307,0.036
54070.333291,15.354,0.028
54070.346159,15.455,0.031
54070.359232,15.689,0.036
54070.372107,15.86,0.041
54070.385416,15.78,0.036
54081.327293,15.332,0.017
54081.340167,15.356,0.018
54081.352953,15.413,0.018
54081.366036,15.555,0.022
54081.378832,15.74,0.028
54098.312305,15.259,0.025
54098.324433,15.216,0.023
54098.336513,15.233,0.025
54098.34877,15.298,0.023
54098.361033,15.347,0.025
54109.314021,15.356,0.044
54109.326638,15.296,0.043
54124.26994,15.57,0.025
54124.282276,15.729,0.028
54124.29486,15.717,0.026
54124.307158,15.55,0.023
54124.319959,15.367,0.02
54140.271734,15.374,0.02
54140.283705,15.518,0.021
54140.295735,15.663,0.026
54140.307743,15.719,0.03
54140.319811,15.614,0.028
54187.172148,15.283,0.051
54187.182341,15.294,0.051
54187.192554,15.45,0.061
54187.217787,15.587,0.069
54198.176144,15.289,0.02
54198.195254,15.403,0.022
54198.204748,15.487,0.024
54198.214243,15.653,0.028
54210.172042,15.243,0.025
54210.180936,15.259,0.025
54210.189619,15.279,0.025
54210.19848,15.338,0.026
54210.207249,15.393,0.028
54218.143693,15.378,0.041
54218.152261,15.327,0.039
54218.160838,15.324,0.041
54218.169453,15.277,0.039
54218.17808,15.264,0.039
54397.425993,15.493,0.038
54397.43884,15.658,0.043
54397.452102,15.743,0.045
54397.464856,15.609,0.038
54397.477412,15.445,0.033
54437.447458,15.297,0.013
54437.460191,15.391,0.013
54437.472922,15.555,0.015
54437.485652,15.715,0.018
54437.498413,15.663,0.017
54453.269764,15.279,0.015
54453.283023,15.247,0.015
54453.295862,15.242,0.013
54453.308733,15.298,0.015
54453.321713,15.358,0.015
54477.272079,15.431,0.013
54477.285166,15.368,0.013
54477.298029,15.294,0.013
54477.323776,15.245,0.013
54481.270772,15.553,0.031
54481.282843,15.416,0.028
54481.294934,15.377,0.028
54481.307015,15.334,0.028
54481.319106,15.325,0.026
54527.21675,15.394,0.069
54527.227976,15.23,0.033
54537.207269,15.34,0.025
54537.21816,15.299,0.025
54537.228969,15.271,0.026
54537.240218,15.242,0.03
54537.251024,15.244,0.023
54567.12836,15.299,0.018
54567.139659,15.312,0.02
54567.150635,15.333,0.02
54567.161672,15.359,0.022
54567.172631,15.422,0.022
54584.143663,15.263,0.03
54584.153926,15.241,0.03
54584.163942,15.225,0.03
54584.173956,15.273,0.031
54584.184082,15.337,0.033
