mjd,m,merr
52612.459495,16.334,0.052
52612.474673,16.503,0.057
52612.489819,16.787,0.07
52612.505146,16.881,0.08
52612.520334,16.693,0.067
52618.452132,16.19,0.084
52618.467229,16.35,0.114
52618.497331,16.631,0.112
52618.512362,16.917,0.127
52622.440877,16.478,0.068
52622.455617,16.362,0.059
52622.470289,16.318,0.058
52622.484716,16.411,0.058
52622.500148,16.491,0.063
52638.463276,16.48,0.299
52638.478799,16.5,0.229
52638.494136,16.39,0.063
52638.509505,16.392,0.051
52650.393333,16.383,0.049
52650.408154,16.317,0.046
52650.426883,16.405,0.049
52650.44161,16.525,0.054
52650.456238,16.89,0.074
52665.392503,16.775,0.076
52665.407237,16.478,0.056
52665.422271,16.451,0.053
52665.452757,16.359,0.049
52677.354439,16.36,0.063
52677.372081,16.439,0.081
52677.388452,16.648,0.092
52677.404565,17.076,0.106
52696.339702,16.957,0.068
52696.35242,16.685,0.054
52696.364813,16.424,0.043
52696.37728,16.424,0.12
52696.390281,16.377,0.043
52711.25018,16.947,0.094
52711.263851,16.584,0.068
52711.277482,16.426,0.057
52711.290812,16.357,0.054
52711.304311,16.326,0.052
52723.3349,16.294,0.055
52739.241593,16.408,0.055
52739.2531,16.303,0.05
52739.264512,16.435,0.055
52739.275907,16.414,0.055
52739.287394,16.574,0.065
52752.233791,16.917,0.08
52752.244054,16.651,0.063
52752.254311,16.506,0.055
52752.264679,16.415,0.054
52752.274981,16.411,0.054
52770.206976,16.306,0.091
52770.218857,16.38,0.098
52770.231176,16.46,0.107
52770.243151,16.671,0.133
52770.25547,16.837,0.159
52787.166924,16.743,0.078
52787.17782,16.933,0.097
52787.18925,16.81,0.087
52787.20041,16.636,0.071
52787.211228,16.562,0.066
52811.172159,16.365,0.083
52811.182174,16.422,0.087
52811.192147,16.416,0.084
52811.202221,16.396,0.084
52811.212514,16.472,0.092
52977.452621,16.367,0.05
52977.464912,16.314,0.048
52977.477081,16.337,0.046
52977.4895,16.357,0.048
52977.501817,16.436,0.052
52991.486867,16.335,0.036
52991.499589,16.32,0.036
52991.512202,16.361,0.038
52991.524748,16.388,0.049
53006.386437,16.486,0.064
53006.398757,16.388,0.056
53006.411076,16.424,0.053
53006.423437,16.428,0.056
53006.436826,16.503,0.059
53024.378608,16.679,0.284
53024.393036,16.941,0.046
53024.408062,16.87,0.081
53024.421649,16.543,0.086
53035.405517,16.735,0.055
53035.430208,16.999,0.068
53035.442798,16.764,0.061
53035.455556,16.541,0.048
53049.332452,16.876,0.055
53049.344316,16.875,0.055
53049.356179,16.621,0.044
53049.368041,16.451,0.039
53049.379906,16.37,0.039
53065.282616,16.468,0.048
53065.293847,16.395,0.044
53065.305088,16.346,0.043
53065.316443,16.376,0.044
53065.32773,16.359,0.043
53093.231747,16.438,0.043
53093.242256,16.346,0.041
53093.252511,16.304,0.044
53093.262766,16.351,0.037
53093.273069,16.374,0.037
53107.236242,16.916,0.071
53107.246595,16.719,0.058
53107.256991,16.578,0.051
53107.267475,16.525,0.053
53107.277971,16.423,0.046
53121.198793,16.357,0.039
53121.209312,16.371,0.039
53121.219831,16.36,0.039
53121.230235,16.464,0.043
53121.240645,16.567,0.046
53136.197296,16.722,0.079
53136.207598,16.461,0.061
53136.216351,16.435,0.061
53136.225043,16.351,0.059
53136.233912,16.368,0.063
53150.229627,16.816,0.191
53154.212862,16.688,0.155
53154.221123,16.68,0.157
53154.229548,16.666,0.162
53154.23789,16.834,0.19
53164.171843,16.402,0.059
53164.181323,16.27,0.053
53164.19092,16.296,0.053
53164.200538,16.298,0.058
53164.210105,16.44,0.066
53177.172854,16.758,0.078
53177.1828,16.645,0.076
53319.465142,16.394,0.072
53319.477017,16.379,0.067
53319.488892,16.562,0.078
53319.500754,16.663,0.081
53319.512615,16.945,0.104
53341.468744,16.591,0.15
53341.481286,16.556,0.142
53341.495071,16.481,0.13
53341.508086,16.381,0.119
53341.520622,16.453,0.125
53349.467013,17.044,0.117
53349.479004,16.773,0.094
53349.49125,16.58,0.076
53349.503682,16.446,0.068
53349.517329,16.371,0.063
53359.413133,16.324,0.049
53359.429262,16.33,0.051
53359.445389,16.463,0.054
53359.461485,16.609,0.064
53359.477783,16.885,0.076
53389.492114,16.339,0.043
53389.508095,16.378,0.039
53389.52408,16.463,0.044
53474.246559,16.566,0.061
53474.257431,16.736,0.07
53474.269196,16.912,0.083
53474.279558,16.954,0.087
53474.2897,16.761,0.072
53498.211882,17.028,0.359
53498.22342,16.881,0.155
53498.234046,16.549,0.072
53498.244501,16.384,0.057
53499.207755,16.839,0.074
53499.218317,16.881,0.076
53499.229141,16.624,0.061
53499.239706,16.448,0.054
53499.250643,16.425,0.052
53521.163005,16.737,0.087
53521.1732,16.511,0.109
53521.183651,16.41,0.155
53521.193843,16.38,0.068
53521.204082,16.262,0.146
53538.172037,16.692,0.172
53538.181803,16.804,0.192
53538.191345,16.8,0.192
53538.200901,16.799,0.196
53538.210536,16.594,0.172
53550.172905,16.322,0.063
53550.192668,16.59,0.091
53550.202557,16.881,0.12
53550.212444,16.936,0.13
53702.444105,16.562,0.065
53702.456777,16.698,0.07
53702.469547,16.867,0.08
53702.48213,16.848,0.081
53702.494973,16.501,0.055
53741.412949,16.507,0.043
53741.425847,16.735,0.05
53741.438865,16.951,0.059
53741.451488,16.919,0.055
53741.464365,16.635,0.043
53771.350583,16.504,0.122
53771.363511,16.627,0.287
53786.35954,16.487,0.112
53786.372669,16.452,0.049
53786.38592,16.667,0.16
53812.300014,16.408,0.066
53812.311652,16.366,0.063
53843.257038,16.372,0.051
53843.2684,16.429,0.058
53843.279775,16.412,0.063
53843.291414,16.536,0.073
53843.302799,16.638,0.084
53854.195988,16.529,0.097
53854.206347,16.753,0.144
53854.216615,16.986,0.102
53854.226833,17.065,0.111
53854.236986,16.778,0.087
53882.16408,16.976,0.107
53882.185984,16.671,0.079
53882.196851,16.459,0.066
53882.207955,16.342,0.059
53886.175917,16.844,0.104
53886.186578,16.883,0.107
53886.197318,16.585,0.087
53886.208105,16.424,0.072
53886.219001,16.393,0.07
53903.171642,16.497,0.093
53903.18173,16.418,0.093
53903.191866,16.502,0.098
53903.202165,16.783,0.12
53903.212383,16.994,0.146
54054.462762,16.863,0.117
54054.475495,16.963,0.116
54054.487987,16.816,0.097
54054.501069,16.567,0.074
54054.514567,16.428,0.066
54068.459284,16.334,0.054
54068.486838,16.597,0.083
54068.500325,17.144,0.234
54085.408735,16.903,0.117
54085.421727,17.046,0.142
54085.434543,16.909,0.107
54085.447551,16.624,0.099
54085.460547,16.43,0.068
54123.3309,16.349,0.046
54123.343387,16.382,0.044
54123.355606,16.513,0.052
54123.367811,16.661,0.057
54123.380098,16.862,0.065
54156.316003,16.449,0.059
54156.32701,16.706,0.074
54156.3381,16.83,0.081
54156.349122,16.878,0.083
54156.360211,16.76,0.074
54201.236928,16.463,0.044
54201.246733,16.371,0.039
54201.25615,16.348,0.037
54201.265658,16.301,0.037
54201.275849,16.349,0.037
54207.226587,16.903,0.087
54207.236172,16.891,0.089
54207.245988,16.576,0.063
54207.256664,16.426,0.054
54207.270116,16.366,0.049
54216.219087,16.666,0.098
54216.227732,16.742,0.104
54216.23638,16.966,0.126
54216.245035,16.962,0.126
54216.253691,16.952,0.124
54508.354475,16.949,0.071
54508.367156,16.57,0.051
54508.379349,16.437,0.048
54508.391357,16.355,0.043
54508.403466,16.401,0.045
54543.281215,16.625,0.173
54543.292074,16.71,0.181
54543.315216,16.912,0.205
54561.198221,16.541,0.089
54561.209598,16.698,0.083
54561.221033,16.981,0.091
54573.260043,16.718,0.142
54573.270778,16.812,0.154
54573.281514,16.608,0.126
54582.239383,16.503,0.081
54582.250094,16.563,0.084
54582.260243,16.732,0.099
54582.270385,16.986,0.125
54582.280572,16.981,0.12
54613.161851,16.455,0.074
54613.172162,16.321,0.066
54613.182362,16.42,0.073
54613.192659,16.45,0.074
54613.202894,16.489,0.079
