mjd,m,merr
52620.463811,15.422,0.024
52620.478952,15.406,0.046
52620.494154,15.431,0.035
52620.509335,15.411,0.024
52620.52442,15.482,0.031
52623.439329,15.658,0.035
52623.454168,15.629,0.036
52623.469775,15.62,0.041
52623.485359,15.57,0.045
52623.500238,15.603,0.033
52637.456591,15.562,0.384
52650.360089,15.572,0.024
52650.374387,15.572,0.022
52650.388476,15.603,0.022
52650.402648,15.594,0.022
52650.416675,15.605,0.022
52652.405942,15.573,0.023
52652.421039,15.587,0.023
52652.436116,15.646,0.023
52652.451641,15.643,0.025
52652.466596,15.667,0.025
52664.359263,15.544,0.03
52664.375555,15.457,0.045
52664.425132,15.392,0.073
52680.337292,15.376,0.023
52680.361544,15.387,0.021
52680.379818,15.404,0.02
52680.396328,15.468,0.021
52680.414531,15.582,0.025
52681.284462,15.708,0.046
52681.299435,15.628,0.038
52681.314372,15.603,0.031
52681.329118,15.497,0.025
52681.343877,15.433,0.023
52696.342503,15.536,0.023
52696.356451,15.581,0.023
52696.370752,15.629,0.03
52696.397894,15.685,0.028
52712.288742,15.6,0.035
52712.301967,15.617,0.035
52723.255524,15.33,0.021
52723.267626,15.337,0.02
52752.193246,15.734,0.033
52752.203886,15.682,0.03
52752.214524,15.665,0.031
52752.225489,15.648,0.03
52752.236114,15.57,0.028
52770.206042,15.684,0.056
52770.217694,15.587,0.049
52770.229346,15.615,0.051
52770.240956,15.537,0.049
52770.252428,15.504,0.048
52782.188332,15.601,0.031
52782.199148,15.653,0.045
52782.210364,15.647,0.071
52800.200422,15.676,0.08
52800.210464,15.729,0.08
52810.173944,15.469,0.028
52810.183943,15.472,0.028
52810.213815,15.559,0.081
52812.175144,15.376,0.026
52812.185373,15.368,0.026
52812.19573,15.373,0.028
52812.205917,15.386,0.028
52812.216273,15.436,0.03
52976.456902,15.627,0.022
52976.470297,15.538,0.022
52976.48351,15.487,0.02
52976.496929,15.425,0.018
52976.510122,15.351,0.018
52990.457813,15.454,0.026
52990.470397,15.484,0.021
52990.483012,15.476,0.021
52990.495599,15.526,0.021
52990.508692,15.559,0.021
53023.351864,15.428,0.016
53023.363929,15.48,0.016
53035.353946,15.394,0.021
53035.366969,15.367,0.02
53035.379613,15.327,0.018
53035.392739,15.35,0.018
53035.406323,15.37,0.025
53037.349533,15.685,0.028
53037.36214,15.642,0.026
53037.374804,15.566,0.025
53037.390127,15.525,0.025
53037.404361,15.456,0.021
53046.349994,15.645,0.03
53046.361929,15.563,0.028
53046.373911,15.516,0.028
53046.386053,15.41,0.024
53046.398098,15.36,0.024
53065.285872,15.623,0.021
53065.29795,15.654,0.023
53065.309871,15.696,0.023
53065.321853,15.698,0.023
53065.333673,15.7,0.023
53094.228413,15.256,0.016
53094.23806,15.244,0.016
53094.247873,15.332,0.016
53094.257641,15.291,0.016
53094.267446,15.37,0.018
53095.273181,15.358,0.024
53095.283599,15.38,0.024
53095.294022,15.377,0.024
53095.30431,15.464,0.026
53095.314676,15.482,0.026
53107.244071,15.661,0.02
53107.255328,15.658,0.02
53107.266521,15.595,0.02
53107.27773,15.555,0.02
53107.289003,15.472,0.018
53116.203068,15.45,0.028
53116.214203,15.575,0.048
53116.225335,15.617,0.043
53116.236718,15.587,0.044
53122.19887,15.439,0.024
53122.209401,15.372,0.024
53122.219787,15.339,0.026
53122.230269,15.34,0.02
53122.240754,15.325,0.02
53136.200012,15.549,0.024
53136.209367,15.588,0.026
53136.218673,15.589,0.026
53136.227974,15.635,0.028
53136.237295,15.671,0.03
53153.206981,15.608,0.033
53153.215933,15.637,0.033
53153.224676,15.62,0.033
53153.233543,15.609,0.035
53153.242321,15.613,0.035
53154.206485,15.557,0.041
53154.21539,15.625,0.044
53154.22423,15.595,0.044
53154.233064,15.655,0.05
53154.24188,15.671,0.05
53164.173229,15.45,0.022
53164.183435,15.468,0.022
53164.193649,15.522,0.024
53164.203863,15.528,0.024
53164.214103,15.542,0.024
53178.173478,15.549,0.024
53178.183615,15.532,0.024
53178.193695,15.51,0.024
53178.203909,15.469,0.026
53178.213988,15.487,0.024
53319.465539,15.457,0.031
53319.477414,15.43,0.03
53319.489289,15.357,0.026
53319.501151,15.366,0.026
53319.513012,15.312,0.024
53330.477833,15.826,0.045
53330.492127,15.748,0.04
53330.507075,15.587,0.036
53331.454716,15.664,0.041
53331.467097,15.644,0.039
53331.479475,15.664,0.039
53331.491845,15.686,0.037
53331.50422,15.598,0.035
53341.466568,15.696,0.063
53341.490701,15.688,0.061
53341.503291,15.781,0.063
53341.515363,15.67,0.057
53356.475351,15.411,0.021
53356.488894,15.354,0.02
53356.502395,15.323,0.018
53356.515781,15.338,0.018
53356.529238,15.372,0.018
53358.46104,15.726,0.028
53358.47367,15.687,0.026
53358.486312,15.66,0.026
53358.498943,15.6,0.024
53358.511579,15.495,0.022
53360.426201,15.551,0.031
53360.439343,15.629,0.057
53360.452483,15.649,0.07
53386.417351,15.598,0.024
53386.430495,15.549,0.024
53386.443552,15.558,0.024
53386.456703,15.619,0.024
53386.473448,15.578,0.024
53401.377506,15.509,0.031
53401.390542,15.527,0.033
53422.338101,15.413,0.055
53422.350103,15.497,0.05
53422.362089,15.511,0.041
53422.374131,15.526,0.055
53441.339593,15.397,0.018
53441.35232,15.435,0.018
53441.363351,15.44,0.018
53441.374374,15.497,0.02
53441.385937,15.538,0.022
53450.274163,15.413,0.031
53450.285655,15.344,0.03
53450.296745,15.365,0.03
53450.307433,15.393,0.031
53450.319359,15.359,0.031
53479.231637,15.66,0.061
53479.24172,15.562,0.057
53479.253114,15.66,0.061
53479.264064,15.505,0.057
53479.273573,15.446,0.054
53537.203189,15.586,0.072
53551.181256,15.538,0.035
53551.191278,15.536,0.031
53551.201435,15.478,0.03
53551.211354,15.481,0.031
53684.445218,15.63,0.05
53684.457818,15.668,0.044
53684.470542,15.703,0.041
53684.483018,15.616,0.043
53684.495461,15.554,0.037
53701.455266,15.601,0.039
53701.468017,15.575,0.037
53701.480578,15.455,0.033
53701.493041,15.423,0.059
53701.50553,15.402,0.028
53728.405128,15.64,0.03
53728.418409,15.634,0.028
53728.431814,15.6,0.031
53728.444882,15.559,0.03
53728.458052,15.511,0.024
53742.415566,15.382,0.017
53742.428402,15.386,0.018
53742.441408,15.457,0.017
53742.454156,15.459,0.018
53742.466973,15.501,0.018
53772.349816,15.642,0.026
53772.362568,15.609,0.024
53772.375388,15.583,0.024
53772.38837,15.562,0.024
53772.401414,15.496,0.022
53812.311246,15.427,0.031
53812.322296,15.383,0.033
53825.238199,15.574,0.021
53825.249342,15.547,0.02
53825.260582,15.563,0.021
53825.271752,15.535,0.021
53825.283021,15.544,0.021
53826.256114,15.575,0.08
53827.234447,15.506,0.022
53827.244884,15.517,0.02
53827.255862,15.556,0.022
53827.266749,15.592,0.022
53827.277627,15.587,0.022
53828.225663,15.481,0.026
53828.236656,15.495,0.026
53828.247711,15.493,0.055
53828.25882,15.517,0.035
53843.252062,15.582,0.03
53843.263289,15.563,0.031
53843.274488,15.534,0.033
53843.285692,15.536,0.035
53843.297522,15.488,0.035
53855.196221,15.511,0.028
53855.206888,15.527,0.028
53855.217402,15.514,0.028
53855.227997,15.49,0.028
53855.23859,15.516,0.028
53878.233211,15.436,0.035
53878.243959,15.461,0.035
53878.254703,15.424,0.033
53878.2655,15.46,0.035
53878.276457,15.486,0.038
53892.168278,15.505,0.067
53892.178331,15.438,0.065
53892.188494,15.487,0.067
53903.172525,15.464,0.035
53903.192841,15.474,0.035
53903.205574,15.506,0.033
53903.21584,15.533,0.038
53903.2254,15.564,0.038
54053.453122,15.402,0.033
54053.467521,15.285,0.031
54053.48027,15.292,0.033
54070.455749,15.462,0.026
54070.469164,15.472,0.025
54070.482162,15.514,0.026
54070.495162,15.559,0.028
54070.508222,15.588,0.03
54086.370465,15.369,0.035
54086.383988,15.389,0.033
54086.397784,15.407,0.031
54086.411211,15.412,0.03
54086.424835,15.419,0.028
54109.399356,15.449,0.073
54169.275295,15.501,0.017
54169.28619,15.458,0.018
54169.297192,15.461,0.018
54169.3081,15.457,0.018
54169.319044,15.415,0.02
54187.27758,15.464,0.035
54187.288164,15.454,0.035
54187.298779,15.484,0.035
54187.309642,15.468,0.035
54200.230006,15.563,0.02
54200.269188,15.633,0.039
54209.218009,15.614,0.046
54209.227503,15.582,0.054
54209.236324,15.617,0.049
54209.245921,15.631,0.046
54217.217062,15.475,0.044
54217.225711,15.551,0.044
54217.234368,15.567,0.048
54217.243027,15.54,0.043
54218.23651,15.653,0.076
54218.245369,15.569,0.068
54218.254598,15.642,0.071
54218.263424,15.579,0.068
54509.327622,15.544,0.028
54509.339691,15.537,0.028
54509.351702,15.512,0.026
54509.36373,15.519,0.026
54509.376378,15.5,0.026
54527.310241,15.623,0.033
54527.321683,15.602,0.03
54527.332894,15.588,0.028
54536.272331,15.598,0.03
54536.283212,15.61,0.028
54536.294324,15.586,0.028
54536.305235,15.611,0.028
54536.316109,15.611,0.028
54560.248632,15.599,0.036
54560.260511,15.484,0.033
54560.272286,15.438,0.033
54560.283877,15.404,0.031
54560.29536,15.4,0.031
