mjd,m,merr
52620.44419,16.334,0.058
52620.459129,16.32,0.056
52620.473771,16.403,0.076
52620.488334,16.35,0.059
52620.503019,16.379,0.13
52623.450591,16.309,0.065
52623.451377,16.406,0.065
52623.466259,16.324,0.065
52623.467047,16.364,0.065
52623.482103,16.289,0.087
52623.48289,16.35,0.083
52623.497887,16.365,0.068
52623.498793,16.41,0.067
52623.513893,16.36,0.072
52623.514686,16.438,0.07
52651.288259,15.984,0.053
52651.303438,16.061,0.051
52651.318611,16.064,0.049
52651.333774,16.093,0.048
52651.349907,16.121,0.046
52652.385231,15.744,0.028
52652.385738,15.758,0.026
52652.400288,15.772,0.028
52652.400793,15.786,0.026
52652.415612,15.856,0.026
52652.416219,15.826,0.024
52652.430897,15.894,0.026
52652.431406,15.879,0.024
52652.44606,15.887,0.028
52652.446569,15.904,0.026
52664.349189,15.828,0.028
52664.34997,15.855,0.03
52664.364466,15.938,0.035
52664.36525,15.895,0.033
52664.379689,15.944,0.059
52664.380469,16.048,0.094
52664.411095,15.85,0.111
52681.284218,16.406,0.078
52681.284791,16.41,0.076
52681.301551,16.451,0.074
52681.302131,16.402,0.072
52681.320123,16.392,0.052
52681.320762,16.336,0.048
52681.338473,16.462,0.05
52681.339102,16.348,0.043
52695.331244,15.767,0.024
52695.332336,15.699,0.022
52695.350503,15.846,0.035
52695.351593,15.821,0.033
52695.367319,15.907,0.096
52722.341722,16.198,0.035
52722.342779,16.136,0.033
52722.35434,16.194,0.037
52722.355474,16.194,0.035
52722.367453,16.245,0.037
52722.368508,16.204,0.035
52722.3805,16.262,0.041
52722.381553,16.258,0.039
52722.392998,16.235,0.043
52722.394057,16.258,0.041
52751.25297,16.505,0.054
52751.253807,16.426,0.046
52751.263684,16.494,0.05
52751.264521,16.462,0.048
52751.274383,16.543,0.054
52751.275218,16.518,0.052
52751.285739,16.555,0.055
52751.286576,16.463,0.05
52751.298591,16.576,0.057
52751.299427,16.486,0.052
52771.195327,16.478,0.159
52782.166429,16.464,0.055
52782.209695,16.442,0.139
52809.181522,16.35,0.068
52809.211482,15.953,0.053
52976.402236,16.069,0.033
52976.402796,16.2,0.036
52976.413315,16.07,0.033
52976.413873,16.182,0.035
52976.424371,16.167,0.035
52976.424933,16.26,0.04
52976.436014,16.265,0.038
52976.447077,16.177,0.036
52978.447889,16.342,0.055
52978.44874,16.336,0.055
52978.460937,16.343,0.048
52978.46174,16.352,0.046
52978.473783,16.365,0.048
52978.474564,16.378,0.046
52978.486641,16.281,0.044
52978.48742,16.379,0.048
52978.499357,16.344,0.052
52978.500192,16.347,0.05
52988.395243,16.287,0.078
52988.408201,16.294,0.076
52988.421148,16.294,0.078
52988.434004,16.272,0.072
52988.447689,16.247,0.072
53008.413926,16.245,0.054
53008.414691,16.292,0.054
53008.426626,16.041,0.043
53008.427391,16.026,0.041
53008.439214,15.872,0.037
53008.439979,15.876,0.037
53008.451823,15.673,0.031
53008.452592,15.741,0.031
53038.341646,15.84,0.036
53038.342515,15.835,0.036
53038.354162,15.856,0.041
53038.354937,15.89,0.041
53038.367545,15.942,0.051
53038.379289,15.989,0.045
53038.38006,15.871,0.046
53038.392444,15.878,0.076
53094.234071,16.483,0.046
53094.234811,16.484,0.041
53094.24516,16.446,0.044
53094.245895,16.511,0.043
53094.255618,16.481,0.044
53094.256353,16.493,0.043
53094.266288,16.483,0.044
53094.267124,16.575,0.044
53094.276753,16.502,0.046
53094.277487,16.493,0.043
53096.268205,16.049,0.068
53096.278079,16.02,0.066
53096.287949,15.911,0.066
53096.307746,16.097,0.086
53125.209944,16.391,0.173
53125.238759,16.539,0.152
53134.199605,16.488,0.056
53134.217618,16.527,0.076
53134.226637,16.505,0.078
53134.235674,16.497,0.14
53155.210136,15.665,0.069
53155.218793,15.58,0.063
53155.227359,15.696,0.064
53155.235691,15.724,0.063
53155.244082,15.777,0.064
53169.174621,16.304,0.053
53169.204108,16.351,0.061
53193.17355,16.176,0.058
53193.182826,16.305,0.081
53193.192044,16.25,0.069
53193.201267,16.284,0.068
53330.463638,16.493,0.076
53330.478239,16.678,0.094
53330.491529,16.582,0.078
53340.460491,16.512,0.106
53340.472999,16.459,0.099
53340.488542,16.451,0.094
53340.506355,16.333,0.083
53340.518804,16.39,0.078
53356.475798,16.315,0.045
53356.489351,16.353,0.045
53356.50284,16.263,0.04
53356.516234,16.327,0.041
53356.529675,16.349,0.041
53358.461242,16.392,0.048
53358.461535,16.425,0.044
53358.47387,16.438,0.05
53358.474164,16.416,0.044
53358.486513,16.429,0.046
53358.486807,16.42,0.043
53358.499144,16.489,0.052
53358.499437,16.461,0.044
53358.51178,16.461,0.05
53358.512074,16.473,0.046
53360.425526,15.718,0.033
53360.426544,15.751,0.037
53360.438669,15.833,0.063
53360.439685,15.764,0.061
53360.451809,15.812,0.109
53360.452826,15.732,0.117
53386.416319,16.421,0.044
53386.416837,16.375,0.041
53386.429462,16.413,0.044
53386.429981,16.388,0.041
53386.442519,16.398,0.043
53386.443038,16.405,0.041
53386.455668,16.413,0.044
53386.456187,16.425,0.043
53386.472417,16.411,0.043
53386.472934,16.341,0.039
53387.415355,16.137,0.039
53387.428629,16.182,0.041
53387.441935,16.21,0.041
53387.455849,16.272,0.041
53387.469835,16.216,0.041
53401.351567,16.401,0.065
53401.352181,16.442,0.063
53401.364185,16.412,0.067
53401.3648,16.439,0.061
53401.376808,16.457,0.068
53401.377423,16.422,0.065
53401.389432,16.333,0.061
53401.390105,16.462,0.061
53421.358752,16.003,0.05
53421.370624,16.06,0.055
53421.382544,16.017,0.048
53421.394601,16.073,0.05
53430.308085,16.032,0.041
53430.308693,16.024,0.037
53430.319791,16.092,0.043
53430.320399,16.036,0.039
53430.332134,16.17,0.044
53430.33274,16.129,0.043
53430.343825,16.166,0.044
53430.344434,16.066,0.043
53430.360495,16.108,0.044
53430.361102,16.106,0.044
53480.236502,16.271,0.118
53480.245547,16.22,0.1
53480.246249,15.993,0.078
53480.254505,16.063,0.094
53480.255212,15.954,0.074
53480.263941,15.969,0.085
53480.264646,15.861,0.068
53491.198639,16.157,0.054
53491.199855,16.066,0.048
53491.219927,16.216,0.055
53491.220462,16.176,0.052
53491.230872,16.216,0.046
53491.23139,16.201,0.043
53491.241458,16.23,0.052
53491.241978,16.124,0.046
53536.171587,16.403,0.107
53536.172312,16.374,0.102
53536.181522,16.427,0.122
53536.182252,16.271,0.1
53536.191528,16.393,0.12
53536.192253,16.288,0.105
53536.201572,16.44,0.131
53536.202304,16.244,0.107
53536.2116,16.335,0.126
53536.212328,16.333,0.126
53552.172232,16.402,0.076
53552.172525,16.374,0.076
53552.182421,16.404,0.083
53552.182713,16.315,0.074
53552.192606,16.452,0.085
53552.192897,16.402,0.08
53552.203009,16.438,0.087
53552.203302,16.426,0.083
53552.213668,16.451,0.091
53552.213963,16.491,0.091
53685.451409,15.956,0.061
53700.451495,15.904,0.039
53700.452002,15.847,0.035
53700.464472,15.944,0.039
53700.464983,15.905,0.035
53700.477229,15.903,0.037
53700.47774,15.912,0.033
53700.490184,15.996,0.037
53700.490695,15.967,0.035
53700.50294,16.056,0.037
53700.50345,15.987,0.033
53727.458023,16.318,0.057
53727.458674,16.141,0.05
53727.496715,16.355,0.115
53727.497406,16.095,0.087
53757.32826,16.299,0.052
53757.328921,16.301,0.039
53757.341062,16.344,0.054
53757.341709,16.385,0.046
53757.353713,16.412,0.059
53757.354358,16.277,0.043
53757.366555,16.351,0.055
53757.367217,16.362,0.046
53757.37938,16.365,0.057
53757.380024,16.34,0.044
53773.355798,16.242,0.046
53773.356467,16.111,0.043
53773.368552,16.286,0.05
53773.36922,16.156,0.043
53773.381752,16.222,0.044
53773.382417,16.244,0.044
53773.394645,16.246,0.044
53773.395312,16.23,0.041
53773.407415,16.312,0.044
53773.408081,16.273,0.041
53826.282868,15.775,0.023
53826.293541,15.788,0.028
53826.315174,15.862,0.026
53827.257594,16.391,0.04
53827.268303,16.418,0.04
53827.279078,16.37,0.038
53827.289863,16.403,0.04
53827.300519,16.388,0.038
53842.244965,16.301,0.073
53842.256543,16.396,0.081
53842.279791,16.31,0.079
53842.291436,16.241,0.071
53877.2506,16.444,0.147
53877.261227,16.328,0.084
53904.169904,16.383,0.07
53904.17037,16.329,0.067
53904.179837,16.369,0.07
53904.180304,16.356,0.068
53904.189808,16.409,0.07
53904.190276,16.421,0.072
53904.199928,16.409,0.074
53904.200397,16.37,0.07
53904.210024,16.48,0.08
53904.210493,16.397,0.072
54052.456608,16.222,0.061
54052.457261,15.98,0.052
54052.469067,16.109,0.054
54052.469717,15.989,0.046
54052.481323,16.183,0.055
54052.481974,16.124,0.052
54052.493582,16.108,0.054
54052.494233,16.174,0.052
54052.505908,16.199,0.061
54052.506558,16.127,0.05
54080.467786,15.945,0.055
54098.377743,16.021,0.043
54098.389949,16.042,0.04
54098.402093,16.131,0.04
54098.414423,16.108,0.041
54098.426709,16.195,0.041
54124.337231,16.431,0.051
54124.349731,16.387,0.049
54124.362438,16.422,0.051
54124.3749,16.452,0.056
54124.387316,16.483,0.053
54140.355455,16.383,0.046
54140.356363,16.338,0.041
54140.367528,16.356,0.046
54140.368435,16.346,0.041
54140.379883,16.405,0.048
54140.380793,16.394,0.043
54140.392058,16.417,0.052
54140.392967,16.383,0.044
54140.404268,16.434,0.055
54140.405173,16.401,0.046
54158.33424,16.251,0.064
54158.345339,16.293,0.064
54158.378388,16.349,0.068
54188.269028,16.138,0.092
54188.288851,15.934,0.074
54188.298646,15.74,0.064
54188.30846,15.671,0.056
54198.228593,16.377,0.057
54198.22914,16.379,0.061
54198.238232,16.465,0.098
54198.247847,16.556,0.142
54198.248398,16.389,0.105
54198.25746,16.438,0.055
54198.25801,16.387,0.054
54198.267099,16.448,0.05
54198.267653,16.451,0.05
54212.220592,15.814,0.04
54212.229109,15.783,0.04
54212.237749,15.831,0.04
54212.246226,15.865,0.041
54212.254812,15.941,0.045
54218.235185,15.856,0.07
54218.235596,15.859,0.068
54218.243765,15.974,0.078
54218.244176,15.983,0.074
54218.252366,16.015,0.08
54218.252777,15.986,0.076
54218.260967,16.021,0.08
54218.26138,15.96,0.072
54498.331526,16.441,0.058
54498.343957,16.48,0.059
54498.355781,16.44,0.058
54498.367606,16.482,0.058
54498.379479,16.557,0.063
54526.282945,16.393,0.049
54526.294281,16.31,0.043
54526.305589,16.38,0.045
54526.317022,16.426,0.048
54526.328186,16.387,0.046
54537.269856,15.67,0.031
54537.280799,15.691,0.041
54537.291909,15.824,0.056
54537.302889,15.769,0.053
54537.313903,15.857,0.043
54559.244149,16.532,0.069
54559.256378,16.555,0.071
54559.268241,16.494,0.064
54559.279681,16.372,0.058
54559.291075,16.071,0.045
54569.24053,16.386,0.058
54569.251618,16.35,0.058
54569.262542,16.299,0.054
54569.273484,16.425,0.059
54569.284397,16.385,0.059
54585.245102,16.343,0.104
54585.255224,16.27,0.061
54585.265252,16.315,0.081
54585.27537,16.308,0.056
54618.166057,16.409,0.091
54618.176552,16.453,0.106
54618.186845,16.383,0.096
54618.197193,16.416,0.089
54618.208013,16.351,0.086
