mjd,m,merr
52641.460519,16.518,0.054
52641.475906,16.568,0.057
52641.506312,16.597,0.057
52641.521418,16.63,0.061
52643.445935,16.631,0.063
52643.459995,16.671,0.063
52643.473895,16.673,0.061
52643.48819,16.661,0.057
52643.502348,16.741,0.061
52647.463293,16.739,0.076
52647.478101,16.768,0.078
52647.492949,16.791,0.08
52647.507187,16.599,0.068
52647.521603,16.239,0.261
52667.400998,16.643,0.061
52667.416408,16.694,0.065
52667.43179,16.667,0.065
52667.447186,16.703,0.074
52667.462453,16.644,0.068
52670.402904,16.498,0.061
52670.416815,16.524,0.057
52670.430838,16.503,0.057
52670.444747,16.489,0.055
52670.458664,16.554,0.061
52673.372798,16.282,0.044
52673.388011,16.216,0.041
52673.403254,16.191,0.039
52673.418639,16.223,0.041
52673.433994,16.256,0.043
52703.316684,16.557,0.113
52703.330006,16.783,0.276
52703.344085,16.747,0.07
52703.370578,16.659,0.124
52704.368732,16.404,0.05
52704.382051,16.452,0.055
52704.395375,16.451,0.054
52704.408593,16.458,0.055
52704.421664,16.531,0.061
52707.309711,16.713,0.073
52707.32276,16.652,0.069
52707.322875,16.677,0.068
52707.336053,16.474,0.056
52707.349245,16.359,0.053
52707.34936,16.32,0.049
52707.362821,16.311,0.053
52707.362936,16.244,0.048
52727.369156,16.799,0.488
52730.292747,16.643,0.061
52730.304315,16.615,0.061
52730.315948,16.606,0.059
52730.327507,16.653,0.063
52730.339065,16.627,0.063
52737.250485,16.604,0.067
52737.263352,16.64,0.067
52737.275047,16.633,0.065
52737.286886,16.686,0.067
52737.298697,16.61,0.061
52756.202219,16.572,0.069
52756.202329,16.648,0.073
52756.214262,16.565,0.071
52756.214371,16.557,0.066
52756.226506,16.76,0.081
52756.238755,16.565,0.074
52756.250745,16.55,0.073
52756.250856,16.627,0.073
52758.208836,16.744,0.063
52758.220692,16.7,0.059
52758.232587,16.745,0.065
52758.244587,16.714,0.063
52758.256443,16.77,0.067
52788.174599,16.378,0.117
52788.184876,16.481,0.078
52788.205928,16.554,0.268
52788.216216,16.42,0.216
52793.235759,16.507,0.089
52793.245766,16.613,0.1
52966.470042,16.629,0.089
52966.48246,16.66,0.085
52966.495038,16.733,0.087
52966.507695,16.633,0.074
52972.454543,16.484,0.061
52972.467464,16.362,0.05
52972.480238,16.315,0.046
52972.492994,16.246,0.044
52972.505863,16.207,0.041
52987.507413,16.875,0.13
52995.467472,16.635,0.043
52995.481002,16.67,0.044
52995.495054,16.675,0.044
52995.508353,16.692,0.044
52995.522296,16.679,0.046
53000.422196,16.517,0.043
53000.435361,16.557,0.041
53000.448684,16.579,0.039
53000.461881,16.573,0.039
53000.475477,16.622,0.039
53026.41722,16.764,0.054
53026.431255,16.797,0.109
53026.444193,16.74,0.093
53026.457246,16.817,0.091
53026.471528,16.776,0.176
53033.340139,16.68,0.07
53033.352354,16.801,0.076
53033.364471,16.728,0.068
53033.389293,16.794,0.085
53054.370199,16.134,0.031
53054.384715,16.142,0.031
53054.39673,16.246,0.035
53054.409378,16.285,0.037
53054.423017,16.314,0.039
53058.341657,16.573,0.035
53058.354197,16.543,0.035
53058.366561,16.534,0.035
53058.378711,16.593,0.037
53058.396973,16.597,0.039
53080.285364,16.451,0.046
53080.296954,16.484,0.05
53080.308898,16.477,0.048
53080.320247,16.453,0.046
53080.331529,16.482,0.048
53083.336012,16.188,0.03
53083.346697,16.226,0.031
53083.35773,16.249,0.033
53083.368905,16.283,0.033
53083.379718,16.303,0.035
53086.342475,16.781,0.063
53086.353279,16.888,0.07
53086.364023,16.839,0.068
53086.375018,16.794,0.063
53086.385971,16.765,0.057
53092.32916,16.582,0.048
53092.339656,16.523,0.046
53092.349834,16.587,0.048
53092.360016,16.635,0.05
53092.370196,16.565,0.048
53114.251876,16.317,0.033
53114.263181,16.318,0.035
53114.274318,16.334,0.033
53114.285385,16.34,0.035
53114.296696,16.431,0.039
53117.299579,16.362,0.039
53117.310107,16.3,0.037
53117.320764,16.265,0.037
53117.331437,16.222,0.037
53117.341963,16.2,0.037
53139.201371,16.726,0.076
53139.21068,16.773,0.078
53139.219982,16.72,0.076
53139.229282,16.717,0.081
53139.238748,16.853,0.087
53142.21116,16.654,0.093
53142.22069,16.618,0.046
53142.239854,16.544,0.13
53142.249381,16.619,0.059
53146.209431,16.83,0.059
53146.218581,16.692,0.054
53146.227757,16.574,0.046
53146.236801,16.484,0.044
53146.245883,16.396,0.043
53169.171119,16.525,0.068
53169.181224,16.544,0.074
53169.191337,16.625,0.078
53169.201436,16.569,0.074
53169.211543,16.571,0.076
53171.170709,16.682,0.067
53171.180913,16.753,0.078
53171.191224,16.627,0.07
53171.201452,16.739,0.08
53171.211751,16.675,0.078
53346.456113,16.69,0.102
53346.469454,16.529,0.085
53346.483129,16.44,0.074
53346.495784,16.399,0.07
53346.507927,16.409,0.068
53353.462523,16.226,0.065
53353.475935,16.174,0.055
53353.488775,16.209,0.054
53353.501617,16.287,0.055
53353.515042,16.255,0.052
53376.487892,16.641,0.061
53376.501698,16.616,0.059
53376.515083,16.67,0.057
53376.53197,16.685,0.059
53381.427577,16.517,0.111
53381.466366,16.361,0.363
53403.411352,16.522,0.072
53403.427131,16.634,0.072
53403.440687,16.645,0.074
53403.454807,16.605,0.072
53403.467767,16.671,0.078
53432.36268,16.718,0.228
53432.374139,16.587,0.078
53432.385501,16.569,0.067
53432.397191,16.626,0.072
53440.42453,16.367,0.055
53440.435025,16.463,0.063
53440.445521,16.465,0.067
53440.457201,16.391,0.067
53440.468284,16.458,0.076
53464.336796,16.343,0.052
53464.346849,16.347,0.057
53464.356957,16.341,0.055
53464.367598,16.405,0.055
53464.377686,16.378,0.054
53465.278653,16.685,0.074
53465.289784,16.698,0.072
53465.300716,16.711,0.074
53465.312684,16.688,0.072
53465.323312,16.767,0.08
53467.223298,16.709,0.072
53467.233301,16.666,0.067
53467.243833,16.69,0.068
53467.25364,16.821,0.08
53467.26421,16.778,0.078
53478.234881,16.523,0.12
53478.255212,16.552,0.122
53478.265358,16.537,0.126
53495.249678,16.46,0.13
53495.259784,16.429,0.126
53495.269853,16.429,0.139
53495.279929,16.487,0.154
53496.199857,16.695,0.085
53496.210087,16.719,0.091
53496.220405,16.722,0.093
53496.230592,16.74,0.096
53496.240868,16.744,0.098
53525.167298,16.655,0.091
53525.177481,16.636,0.087
53525.187665,16.713,0.093
53525.197857,16.747,0.105
53525.208017,16.663,0.098
53527.168042,16.69,0.087
53527.178329,16.455,0.07
53527.188214,16.408,0.07
53527.197995,16.339,0.067
53527.207762,16.303,0.068
53732.479043,16.267,0.072
53732.492598,16.221,0.07
53732.505493,16.244,0.068
53732.518271,16.191,0.063
53732.530993,16.192,0.061
53735.470731,16.515,0.139
53735.522692,16.588,0.224
53746.406134,16.259,0.074
53746.418615,16.324,0.078
53746.431248,16.291,0.076
53746.443841,16.31,0.072
53746.45631,16.382,0.074
53759.411504,16.726,0.08
53759.424276,16.763,0.118
53759.436867,16.877,0.176
53759.462076,16.68,0.17
53762.416044,16.787,0.096
53762.428787,16.716,0.068
53762.441428,16.796,0.133
53762.454166,16.71,0.12
53762.46697,16.694,0.078
53790.345343,16.807,0.081
53790.357045,16.739,0.076
53790.368739,16.706,0.076
53790.380434,16.541,0.065
53790.392144,16.479,0.063
53791.355484,16.651,0.059
53791.367371,16.69,0.061
53791.379168,16.631,0.058
53791.390794,16.659,0.061
53791.402679,16.627,0.059
53793.398529,16.671,0.126
53793.410387,16.657,0.25
53793.4341,16.469,0.379
53797.311808,16.473,0.065
53797.323379,16.452,0.046
53797.334951,16.377,0.044
53797.346591,16.351,0.046
53799.339669,16.338,0.048
53799.351098,16.319,0.046
53799.362531,16.411,0.05
53799.37397,16.523,0.059
53799.385417,16.491,0.068
53815.301271,16.653,0.093
53815.312457,16.666,0.081
53815.32364,16.707,0.087
53815.334837,16.605,0.083
53817.2672,16.709,0.063
53817.27846,16.778,0.068
53817.289731,16.674,0.063
53817.301057,16.639,0.063
53817.312378,16.705,0.068
53819.35681,16.915,0.189
53819.371323,16.444,0.072
53819.385341,16.306,0.068
53819.397825,16.288,0.063
53820.346263,16.698,0.085
53826.340031,16.164,0.05
53827.361013,16.615,0.089
53827.372737,16.592,0.083
53832.275035,16.682,0.085
53832.285077,16.733,0.089
53832.296629,16.667,0.085
53832.30655,16.657,0.085
53832.316496,16.639,0.083
53846.23719,16.718,0.076
53846.247764,16.738,0.076
53846.258361,16.797,0.079
53846.269058,16.817,0.083
53846.279637,16.698,0.074
53848.24529,16.863,0.113
53848.25574,16.837,0.109
53848.266482,16.954,0.126
53848.277371,16.867,0.118
53848.287853,16.854,0.115
53850.198383,16.629,0.079
53850.208769,16.423,0.068
53850.219287,16.47,0.073
53850.229783,16.269,0.059
53850.24046,16.301,0.061
53850.32429,16.272,0.055
53850.335547,16.325,0.059
53850.347222,16.364,0.063
53850.360081,16.46,0.072
53850.371311,16.388,0.074
53853.247132,16.716,0.087
53853.258235,16.807,0.094
53853.268533,16.866,0.102
53853.279312,16.837,0.096
53853.289736,16.788,0.098
53856.279981,16.756,0.087
53856.292748,16.75,0.087
53856.304275,16.784,0.091
53856.314422,16.703,0.085
53856.324594,16.743,0.093
53880.21366,16.623,0.083
53880.224732,16.592,0.079
53880.235992,16.624,0.084
53880.247284,16.628,0.087
53880.258283,16.712,0.092
53882.173561,16.668,0.076
53882.186533,16.679,0.072
53882.197755,16.752,0.081
53882.209631,16.704,0.078
53882.220789,16.617,0.072
53884.164688,16.806,0.102
53884.165458,16.749,0.087
53884.176263,16.735,0.087
53884.176439,16.899,0.111
53884.187419,16.725,0.091
53884.188199,16.806,0.109
53884.198151,16.73,0.094
53884.199997,16.702,0.102
53884.209033,16.702,0.094
53884.211774,16.616,0.091
53901.186898,16.981,0.222
53901.196909,16.892,0.2
53901.206923,16.916,0.244
54086.429567,16.157,0.052
54086.442517,16.162,0.052
54086.455365,16.231,0.054
54086.468219,16.29,0.054
54086.481191,16.34,0.057
54113.395242,16.798,0.102
54113.409352,16.718,0.102
54113.42246,16.506,0.094
54113.435157,16.419,0.089
54113.448065,16.349,0.081
54115.468365,16.354,0.068
54115.481112,16.448,0.083
54115.49394,16.362,0.081
54115.507796,16.494,0.096
54115.520553,16.444,0.081
54123.398481,16.696,0.076
54123.410789,16.864,0.086
54123.423204,16.849,0.086
54123.436244,16.733,0.079
54123.44875,17.009,0.097
54144.364933,16.251,0.044
54144.376019,16.277,0.043
54144.387681,16.341,0.044
54144.398757,16.37,0.044
54144.411103,16.395,0.048
54148.342987,16.693,0.078
54148.354566,16.62,0.071
54148.366146,16.619,0.074
54148.378096,16.573,0.074
54148.389795,16.547,0.071
54154.33329,16.668,0.052
54154.345636,16.53,0.046
54154.357243,16.396,0.041
54154.368882,16.392,0.041
54154.380495,16.27,0.037
54155.352628,16.676,0.055
54155.364454,16.702,0.055
54155.37629,16.714,0.055
54155.388238,16.657,0.054
54155.400085,16.719,0.059
54156.323832,16.219,0.041
54156.335441,16.321,0.043
54156.346955,16.309,0.043
54156.358481,16.304,0.041
54156.370008,16.368,0.043
54173.31824,16.224,0.037
54173.32898,16.218,0.039
54173.339709,16.267,0.039
54173.351031,16.31,0.041
54173.36208,16.324,0.041
54174.27373,16.724,0.074
54174.284591,16.594,0.066
54174.295657,16.694,0.076
54174.306709,16.737,0.086
54174.317823,16.619,0.069
54176.324264,16.839,0.067
54176.335139,16.805,0.065
54176.346111,16.809,0.065
54176.357046,16.798,0.063
54176.367919,16.683,0.057
54179.342078,16.741,0.065
54179.352874,16.758,0.067
54179.3639,16.799,0.068
54179.374981,16.767,0.068
54179.386028,16.785,0.072
54180.281834,16.265,0.046
54180.292293,16.36,0.049
54180.302645,16.372,0.048
54180.313379,16.388,0.049
54180.323736,16.381,0.051
54186.343656,16.224,0.039
54186.355421,16.218,0.039
54186.366796,16.267,0.039
54186.378561,16.31,0.041
54186.39019,16.324,0.041
54200.222417,16.791,0.097
54200.231968,17.003,0.114
54200.241534,16.904,0.309
54200.260898,17.322,0.393
54206.267662,16.603,0.052
54206.277161,16.604,0.052
54206.286308,16.608,0.055
54206.295453,16.625,0.055
54206.304594,16.59,0.055
54209.26357,16.303,0.107
54209.272641,16.372,0.096
54209.281712,16.356,0.107
54209.290772,16.514,0.135
54209.299831,16.554,0.183
54440.476578,16.561,0.044
54448.453238,16.204,0.031
54448.466381,16.21,0.03
54448.479488,16.233,0.03
54448.492584,16.295,0.03
54448.505679,16.345,0.041
54474.401012,16.507,0.065
54474.414014,16.475,0.057
54474.427027,16.477,0.039
54474.440051,16.478,0.039
54474.453045,16.511,0.078
54507.458189,16.73,0.074
54507.470046,16.667,0.068
54507.481992,16.652,0.081
54507.494798,16.858,0.076
54508.355778,16.395,0.035
54508.367972,16.392,0.035
54508.380156,16.41,0.035
54508.392512,16.459,0.039
54508.40487,16.469,0.037
54523.398115,16.246,0.035
54523.40992,16.283,0.037
54523.421808,16.246,0.037
54523.433636,16.316,0.041
54523.445496,16.305,0.041
54530.336812,16.224,0.044
54530.34806,16.286,0.046
54530.359324,16.321,0.035
54530.370595,16.322,0.03
54530.381868,16.351,0.033
54535.486768,16.482,0.076
54537.277277,16.305,0.055
54537.288295,16.302,0.048
54537.299347,16.339,0.031
54537.31046,16.369,0.068
54537.321419,16.304,0.089
54554.30597,16.379,0.03
54554.318117,16.389,0.031
54554.330088,16.387,0.031
54554.34217,16.447,0.033
54554.354109,16.447,0.039
54563.297239,16.664,0.043
54563.308945,16.605,0.039
54563.320373,16.671,0.043
54563.331809,16.651,0.041
54563.343256,16.702,0.054
54580.199115,16.462,0.048
54580.209726,16.487,0.05
54580.220335,16.473,0.052
54580.230999,16.495,0.059
54580.241619,16.468,0.061
54585.245161,16.471,0.08
54585.25543,16.488,0.052
54585.265709,16.483,0.059
54585.276022,16.521,0.044
54585.286318,16.529,0.048
54592.241784,16.606,0.057
54592.252487,16.632,0.059
54592.262957,16.65,0.059
54592.273391,16.667,0.063
54592.283805,16.647,0.061
54611.165177,16.594,0.05
54611.175448,16.596,0.05
54611.185404,16.627,0.052
54611.195315,16.624,0.052
54611.205121,16.625,0.052
54615.169471,16.762,0.067
54615.179952,16.794,0.072
54615.190402,16.81,0.072
54615.200865,16.816,0.074
54615.211337,16.73,0.07
