mjd,m,merr
52646.408036,16.476,0.069
52646.423788,16.467,0.063
52646.438758,16.463,0.063
52646.453872,16.497,0.063
52646.468856,16.536,0.066
52649.468601,15.836,0.03
52649.484672,15.671,0.026
52649.499357,15.736,0.026
52649.513507,15.783,0.028
52649.527966,15.856,0.03
52666.39014,15.9,0.031
52666.405371,16.007,0.03
52666.420453,16.035,0.033
52666.435728,16.07,0.031
52666.450657,16.088,0.033
52672.39541,16.428,0.058
52672.411383,16.592,0.069
52672.433712,16.568,0.068
52672.454124,16.541,0.191
52676.356875,16.441,0.057
52676.3725,16.591,0.065
52676.388077,16.549,0.059
52676.404812,16.402,0.052
52676.42395,15.98,0.035
52698.308576,16.512,0.044
52698.322507,16.091,0.031
52698.336949,15.874,0.026
52698.351823,15.743,0.024
52698.365979,15.719,0.031
52701.310933,16.262,0.091
52701.324188,16.273,0.096
52701.337275,16.27,0.048
52701.350315,16.241,0.046
52701.363822,16.31,0.046
52725.320712,15.708,0.036
52725.334142,15.748,0.043
52725.346984,15.767,0.049
52725.359618,15.875,0.048
52725.372707,15.96,0.056
52729.23878,15.783,0.03
52729.250881,15.722,0.028
52729.263895,15.727,0.028
52729.276776,15.761,0.028
52729.292442,15.858,0.031
52732.249385,16.317,0.051
52732.261511,16.278,0.048
52732.274014,16.339,0.053
52732.285979,16.41,0.058
52732.297931,16.417,0.058
52754.205459,16.264,0.044
52754.217623,16.301,0.046
52754.229917,16.351,0.048
52754.242096,16.37,0.048
52754.254225,16.449,0.052
52761.204172,16.484,0.091
52761.216218,16.455,0.116
52761.228254,16.47,0.078
52761.240503,16.132,0.051
52761.252604,15.915,0.038
52768.208548,16.273,0.078
52768.220307,16.25,0.076
52768.232376,16.247,0.078
52768.244226,16.309,0.083
52768.255936,16.407,0.093
52792.179518,16.508,0.116
52792.190432,16.448,0.107
52792.201389,16.534,0.097
52792.212289,16.624,0.104
52793.2152,16.508,0.116
52793.225514,16.448,0.107
52793.236055,16.534,0.097
52793.246378,16.624,0.104
52974.463125,16.505,0.055
52974.475806,16.524,0.054
52974.488517,16.55,0.054
52974.501374,16.507,0.05
52974.514607,16.53,0.052
53001.424176,16.52,0.036
53001.46407,16.538,0.036
53001.482196,16.522,0.033
53003.380338,15.775,0.018
53003.392504,15.733,0.018
53003.404657,15.734,0.024
53003.416619,15.811,0.043
53003.42879,15.907,0.07
53034.340713,15.979,0.04
53034.352555,15.975,0.038
53034.364478,16.051,0.038
53034.376496,16.136,0.041
53034.388445,16.193,0.043
53052.33293,15.952,0.028
53052.345251,16.019,0.03
53052.357736,16.031,0.03
53052.369585,16.096,0.03
53052.381432,16.135,0.031
53062.339985,15.939,0.137
53062.353034,15.976,0.093
53062.365228,15.733,0.035
53062.377498,15.728,0.03
53062.388932,15.71,0.024
53079.279651,15.879,0.028
53079.301788,15.991,0.031
53080.33478,15.793,0.025
53080.34593,15.724,0.025
53080.357181,15.714,0.025
53080.368393,15.791,0.026
53080.37965,15.839,0.028
53087.293132,16.299,0.03
53087.304589,16.329,0.03
53087.315919,16.335,0.03
53087.326967,16.349,0.031
53087.339013,16.384,0.033
53089.274058,16.508,0.039
53089.284571,16.455,0.037
53089.287095,16.475,0.035
53089.295169,16.274,0.031
53089.298182,16.178,0.028
53089.305561,15.981,0.028
53089.309344,15.936,0.021
53089.316055,15.845,0.022
53089.320465,15.729,0.063
53110.241473,16.156,0.046
53110.252341,16.093,0.043
53110.263178,16.173,0.045
53110.274188,16.158,0.045
53110.285083,16.204,0.046
53118.266479,16.429,0.035
53118.288124,16.465,0.036
53118.298382,16.499,0.038
53138.203538,15.741,0.028
53138.213391,15.677,0.026
53138.223275,15.712,0.026
53138.233059,15.77,0.03
53138.242901,15.82,0.031
53148.242523,16.453,0.056
53148.251204,16.532,0.054
53148.260048,16.562,0.058
53148.277806,16.422,0.056
53166.17068,16.582,0.081
53166.181633,16.501,0.079
53166.1914,16.578,0.091
53166.201261,16.5,0.086
53166.211038,16.651,0.096
53175.172068,16.406,0.051
53175.181707,16.444,0.053
53175.191284,16.473,0.054
53175.201026,16.559,0.061
53175.210715,16.477,0.056
53348.484183,16.236,0.059
53348.498083,16.272,0.054
53348.511992,16.34,0.056
53348.526372,16.304,0.053
53445.410763,16.573,0.048
53445.422521,16.537,0.046
53445.434053,16.426,0.043
53445.44639,16.274,0.039
53445.457921,16.054,0.031
53450.267518,16.479,0.083
53450.278179,16.555,0.089
53450.289658,16.561,0.089
53450.300754,16.503,0.081
53450.311439,16.575,0.091
53451.279494,16.242,0.07
53451.290509,16.324,0.074
53451.301515,16.38,0.08
53471.266673,16.558,0.059
53471.277282,16.5,0.057
53471.28734,16.275,0.046
53471.297238,16.003,0.037
53471.30698,15.892,0.033
53501.197661,16.055,0.041
53501.209372,16.083,0.041
53501.219747,16.105,0.044
53501.229741,16.12,0.044
53501.240079,16.146,0.046
53523.170642,16.316,0.054
53523.181175,16.31,0.054
53523.191734,16.278,0.054
53523.20225,16.341,0.057
53523.212781,16.357,0.083
53712.467095,16.251,0.05
53712.480612,16.229,0.046
53712.493811,16.169,0.044
53712.506925,16.32,0.046
53712.51988,16.247,0.044
53738.492533,16.578,0.065
53738.518799,16.544,0.065
53769.391521,16.497,0.046
53769.405046,16.535,0.046
53769.41842,16.527,0.044
53769.43169,16.587,0.065
53769.444891,16.474,0.05
53788.354206,16.312,0.035
53788.366789,16.349,0.04
53788.379471,16.317,0.099
53788.39209,16.418,0.081
53788.404749,16.392,0.074
53813.31801,16.485,0.074
53813.329467,16.478,0.078
53813.340956,16.529,0.081
53813.352349,16.551,0.084
53813.36424,16.673,0.094
53845.251529,16.579,0.244
53845.273521,16.527,0.078
53845.284369,16.5,0.074
53848.241869,15.868,0.03
53848.252746,15.698,0.046
53848.263564,15.708,0.028
53848.274639,15.784,0.061
53848.285541,15.82,0.03
53849.189953,16.429,0.055
53849.200738,16.467,0.055
53849.211524,16.483,0.057
53849.222548,16.457,0.057
53849.233661,16.507,0.061
53850.244669,16.437,0.057
53881.167339,16.466,0.067
53881.178511,16.411,0.063
53881.189586,16.535,0.068
53881.200759,16.486,0.067
53881.211913,16.505,0.074
53887.200236,16.231,0.089
53902.170709,16.091,0.076
54067.461242,16.112,0.033
54067.474317,16.148,0.035
54067.4874,16.169,0.035
54067.500656,16.138,0.031
54067.513737,16.24,0.033
54144.333609,15.768,0.03
54144.345535,15.867,0.033
54144.357451,15.922,0.038
54144.369702,15.951,0.036
54144.381693,15.954,0.051
54153.337977,15.906,0.031
54153.349892,15.908,0.038
54153.361594,16.025,0.045
54153.37353,16.055,0.058
54153.385304,16.025,0.076
54208.216384,16.524,0.059
54208.225059,16.46,0.058
54208.233941,16.394,0.053
54208.2426,16.544,0.061
54208.251341,16.542,0.059
54452.455983,16.517,0.039
54452.469152,16.556,0.041
54452.482285,16.563,0.039
54452.495451,16.558,0.037
54452.508617,16.525,0.037
54476.402232,16.036,0.022
54476.415104,16.114,0.022
54476.427961,16.147,0.024
54476.440964,16.148,0.024
54476.454205,16.213,0.024
54533.328156,16.46,0.028
54533.339958,16.461,0.028
54533.351287,16.485,0.028
54533.362622,16.52,0.03
54533.374042,16.462,0.028
54539.261714,15.889,0.024
54539.272581,15.893,0.022
54539.283451,15.962,0.022
54539.294371,16.001,0.022
54539.305364,16.021,0.022
54559.184042,16.49,0.037
54559.195615,16.502,0.037
54559.207177,16.486,0.037
54559.218902,16.5,0.037
54559.230468,16.511,0.039
54567.236589,16.542,0.046
54567.247788,16.516,0.044
54567.259043,16.436,0.043
54567.27027,16.043,0.03
54567.28147,15.909,0.028
54581.243609,16.531,0.048
54581.254184,16.541,0.054
54581.264734,16.592,0.063
54581.275387,16.61,0.07
54581.28594,16.576,0.074
54587.24774,16.422,0.044
54587.25815,16.439,0.044
54587.268698,16.477,0.048
54587.279109,16.516,0.05
54587.289493,16.54,0.052
54592.201719,16.516,0.089
54592.231228,16.629,0.096
54595.200539,16.452,0.052
54595.210511,16.516,0.055
54595.220626,16.532,0.057
54595.230575,16.474,0.054
54595.240513,16.454,0.052
54619.164378,16.271,0.041
54619.174677,16.253,0.039
54619.18487,16.308,0.041
54619.195112,16.302,0.043
54619.205315,16.293,0.043
