mjd,m,merr
52641.460898,15.531,0.026
52641.476281,15.631,0.026
52641.4915,15.525,0.026
52641.506687,15.599,0.026
52641.521797,15.649,0.026
52643.446528,15.819,0.035
52643.46059,15.818,0.033
52643.474489,15.94,0.035
52643.488786,15.996,0.033
52643.503031,16.047,0.035
52647.463741,15.84,0.041
52647.478494,15.785,0.039
52647.493306,15.997,0.043
52647.507544,16.054,0.044
52647.52196,16.126,0.104
52667.401518,15.701,0.026
52667.416971,15.752,0.028
52667.432311,15.767,0.03
52667.463936,15.86,0.037
52667.479211,15.726,0.041
52667.494461,15.824,0.044
52667.509592,15.735,0.044
52667.52506,16.096,0.048
52670.403498,15.38,0.028
52670.417411,15.413,0.028
52670.431433,15.388,0.026
52670.445341,15.398,0.026
52670.459257,15.484,0.03
52673.373703,16.084,0.041
52673.388916,16.028,0.037
52673.404162,15.991,0.033
52673.419547,16.015,0.035
52673.434899,15.95,0.033
52703.31747,15.846,0.065
52703.317593,15.929,0.078
52703.330796,15.75,0.076
52703.33092,15.792,0.085
52703.344868,15.637,0.026
52703.344992,15.541,0.028
52703.358088,15.636,0.043
52703.358207,15.643,0.046
52703.37136,15.634,0.046
52703.371485,15.597,0.048
52707.310183,15.962,0.038
52707.323231,15.897,0.036
52707.336526,15.681,0.03
52707.349719,15.628,0.03
52707.35032,15.642,0.028
52707.363295,15.639,0.03
52707.363894,15.723,0.03
52727.370069,15.494,0.13
52730.293438,16.005,0.031
52730.293551,15.706,0.035
52730.305004,15.967,0.03
52730.305117,15.847,0.037
52730.316629,16.039,0.031
52730.316742,15.896,0.037
52730.328189,16.059,0.033
52730.328302,15.928,0.037
52730.339745,16.073,0.033
52730.339859,15.834,0.039
52737.251306,15.537,0.028
52737.264174,15.615,0.028
52737.275892,15.649,0.028
52737.287728,15.681,0.03
52737.299571,15.71,0.03
52756.198726,15.901,0.043
52756.210444,16.103,0.039
52756.210557,15.996,0.041
52756.222309,16.109,0.037
52756.222422,15.993,0.041
52756.234152,16.126,0.039
52756.234265,15.902,0.041
52756.245991,16.091,0.039
52756.246104,15.979,0.043
52758.209615,15.503,0.024
52758.221476,15.425,0.026
52758.233434,15.487,0.026
52758.245368,15.582,0.028
52758.257221,15.671,0.03
52764.140482,15.591,0.02
52788.175234,15.951,0.044
52788.17534,15.821,0.044
52788.185512,15.924,0.055
52788.185618,15.995,0.059
52788.206669,16.057,0.179
52788.21703,16.134,0.113
52793.22602,15.847,0.052
52793.226109,15.898,0.052
52793.236031,15.835,0.05
52793.236119,15.77,0.046
52793.246037,15.703,0.046
52793.246125,15.797,0.046
52966.470878,16.019,0.052
52966.483295,15.96,0.048
52966.495874,16.079,0.052
52966.508531,16.031,0.046
52972.455109,15.671,0.03
52972.455251,15.576,0.033
52972.468031,15.596,0.026
52972.468172,15.493,0.028
52972.480805,15.619,0.026
52972.480947,15.441,0.028
52972.49356,15.491,0.024
52972.493701,15.411,0.028
52972.506434,15.551,0.024
52972.506575,15.347,0.026
52987.508232,15.706,0.054
52997.481953,15.759,0.072
53028.403407,15.968,0.024
53028.415797,15.965,0.024
53028.428186,15.965,0.024
53028.440704,16.054,0.035
53028.453095,15.972,0.026
53032.394621,16.009,0.03
53032.406913,16.09,0.031
53032.419101,16.066,0.033
53032.431296,16.03,0.031
53032.443663,16.004,0.031
53033.340414,15.825,0.041
53033.35263,15.864,0.041
53033.364747,15.827,0.039
53033.377171,16.041,0.065
53033.389568,15.783,0.048
53054.370749,15.363,0.02
53054.385266,15.561,0.02
53054.397282,15.467,0.02
53054.409933,15.489,0.022
53054.423568,15.491,0.024
53061.332237,15.999,0.024
53061.332407,15.657,0.024
53061.343301,15.947,0.024
53061.354367,15.909,0.024
53061.365484,15.926,0.024
53061.376656,15.953,0.026
53080.285957,15.605,0.024
53080.297472,15.668,0.026
53080.309431,15.752,0.028
53080.320764,15.617,0.026
53080.332047,15.672,0.026
53113.325119,15.951,0.161
53113.325292,16.016,0.163
53115.190788,16.066,0.028
53115.201557,16.047,0.028
53115.212344,16.12,0.03
53115.223583,16.115,0.03
53115.234418,16.122,0.03
53116.334272,15.589,0.02
53116.346357,15.64,0.022
53116.357552,15.719,0.024
53139.201824,15.818,0.039
53139.211133,15.963,0.041
53139.220436,16.006,0.044
53139.229735,16.093,0.048
53139.239202,16.001,0.046
53141.214244,15.559,0.022
53144.211558,15.855,0.051
53144.220505,15.894,0.056
53144.229737,15.857,0.061
53144.238606,15.843,0.074
53144.247396,15.883,0.111
53169.171549,15.98,0.043
53169.181673,15.859,0.041
53169.191768,15.79,0.039
53169.201866,15.673,0.035
53169.211973,15.577,0.031
53170.169239,15.645,0.024
53170.169377,15.545,0.026
53170.179455,15.56,0.022
53170.179594,15.537,0.026
53170.189576,15.619,0.024
53170.189715,15.683,0.028
53170.199686,15.593,0.026
53170.199824,15.652,0.028
53170.209797,15.709,0.028
53170.209936,15.668,0.03
53346.4564,15.978,0.061
53346.46974,15.97,0.057
53346.483416,16.029,0.057
53346.496071,15.991,0.054
53346.508214,15.968,0.052
53353.462932,15.758,0.052
53353.476344,15.796,0.046
53353.476446,15.879,0.041
53353.489184,15.816,0.043
53353.502026,15.952,0.046
53353.51545,15.895,0.046
53353.515552,16.009,0.041
53376.488385,15.378,0.026
53376.50219,15.439,0.026
53376.51578,15.505,0.026
53376.532462,15.592,0.026
53381.428472,15.653,0.044
53381.441326,15.848,0.091
53403.412211,15.935,0.046
53403.427868,16.038,0.043
53403.427991,16.025,0.046
53403.441426,16.05,0.043
53403.441549,15.968,0.046
53403.455543,16.019,0.043
53403.455666,16.033,0.046
53403.468502,16.013,0.044
53403.468625,15.942,0.046
53432.363526,16.123,0.139
53432.374979,15.855,0.05
53432.386344,15.811,0.044
53432.398031,15.768,0.044
53440.425029,15.985,0.039
53440.425154,16.012,0.044
53440.435524,15.913,0.039
53440.435649,15.901,0.043
53440.446022,15.877,0.039
53440.446147,15.848,0.043
53440.4577,15.794,0.039
53440.457825,15.72,0.039
53440.468783,15.667,0.037
53440.468907,15.644,0.037
53464.337507,15.846,0.035
53464.337827,15.931,0.035
53464.347568,15.925,0.041
53464.347896,15.973,0.039
53464.357674,15.941,0.048
53464.357989,15.991,0.044
53464.36831,15.885,0.041
53464.368621,16.043,0.039
53464.378411,15.954,0.041
53464.378728,16.066,0.043
53467.224,15.919,0.039
53467.233997,15.848,0.035
53467.24453,15.624,0.031
53467.254333,15.568,0.028
53467.265286,15.55,0.028
53468.226754,15.707,0.052
53468.236582,15.657,0.039
53468.246268,15.673,0.041
53468.257653,15.697,0.048
53468.26721,15.728,0.048
53469.233834,15.647,0.031
53469.243753,15.755,0.035
53469.253771,15.738,0.033
53469.2654,15.927,0.035
53469.274967,15.914,0.035
53495.250099,16.006,0.091
53495.260206,15.85,0.08
53495.260312,15.817,0.068
53495.27038,15.675,0.076
53495.280352,15.631,0.08
53495.280458,15.618,0.076
53495.290398,15.616,0.089
53495.290503,15.723,0.094
53496.193136,15.769,0.039
53496.200563,15.483,0.035
53496.203437,15.648,0.033
53496.210794,15.331,0.033
53496.213652,15.626,0.033
53496.221111,15.249,0.035
53496.22397,15.636,0.035
53496.231299,15.358,0.037
53496.234223,15.641,0.035
53496.24158,15.3,0.035
53504.187482,15.852,0.041
53504.197268,15.763,0.037
53504.206198,15.645,0.035
53525.167652,15.579,0.037
53525.16774,15.678,0.037
53525.177834,15.535,0.037
53525.177922,15.647,0.035
53525.188019,15.554,0.037
53525.188107,15.668,0.037
53525.19821,15.474,0.039
53525.198299,15.65,0.039
53525.208372,15.516,0.041
53525.208461,15.634,0.039
53530.16579,15.722,0.041
53530.16587,15.823,0.041
53530.175883,15.738,0.044
53530.175963,15.833,0.043
53530.185715,15.664,0.043
53530.185795,15.878,0.044
53530.195629,15.795,0.046
53530.195707,15.846,0.046
53530.205462,15.86,0.048
53530.205541,15.91,0.05
53732.480009,15.671,0.05
53732.493587,15.788,0.054
53732.506414,15.846,0.054
53732.519193,15.904,0.052
53732.531915,15.924,0.052
53735.471667,15.672,0.05
53735.485073,15.73,0.059
53735.523632,15.765,0.083
53759.412438,15.992,0.044
53759.42521,15.962,0.059
53759.4378,15.845,0.074
53759.450419,15.803,0.068
53759.463012,15.532,0.107
53762.416977,16.062,0.052
53762.429734,16.057,0.044
53762.442359,16.038,0.067
53762.455097,16.019,0.089
53762.468001,16.034,0.043
53790.393549,15.89,0.039
53790.405401,15.932,0.039
53790.417247,15.94,0.041
53790.429098,16.028,0.046
53790.441118,16.059,0.046
53791.355911,16.017,0.033
53791.367801,16.041,0.033
53791.379592,16.111,0.036
53791.391213,16.111,0.038
53791.403099,16.085,0.036
53793.399202,15.648,0.057
53793.411058,15.744,0.111
53793.434773,15.785,0.128
53793.446633,15.781,0.031
53797.300747,16.114,0.144
53797.324041,15.736,0.026
53797.335618,15.628,0.024
53797.347252,15.686,0.028
53799.340586,15.862,0.033
53799.352016,15.942,0.033
53799.363446,16.027,0.037
53799.374887,16.049,0.044
53799.386334,16.134,0.055
53815.290463,15.779,0.05
53815.301634,15.774,0.048
53815.31282,15.814,0.039
53815.324003,15.883,0.044
53815.3352,15.872,0.046
53819.343623,15.909,0.039
53819.35771,16.428,0.141
53819.372228,16.053,0.052
53819.386246,16.024,0.055
53819.398731,16.03,0.05
53826.341048,15.632,0.031
53827.373635,15.961,0.05
53827.387018,15.902,0.063
53827.400278,16.002,0.054
53832.275495,15.762,0.041
53832.285536,15.859,0.044
53832.297091,15.684,0.044
53832.307009,15.734,0.046
53832.316955,15.73,0.046
53833.231112,15.863,0.061
53833.260682,15.941,0.061
53833.270562,15.999,0.061
53846.237082,15.951,0.04
53846.247655,16.018,0.04
53846.258253,15.981,0.038
53846.268949,15.87,0.035
53846.279528,15.791,0.033
53848.256752,15.717,0.057
53848.267492,15.826,0.046
53848.278381,15.852,0.048
53848.288865,15.996,0.057
53850.325212,15.571,0.033
53850.336467,15.542,0.033
53850.348418,15.545,0.033
53850.361001,15.604,0.037
53850.372236,15.664,0.043
53853.24804,15.996,0.048
53853.259141,15.99,0.048
53853.269846,16.109,0.054
53853.280207,16.075,0.05
53853.290626,15.997,0.048
53856.280732,15.866,0.039
53856.280859,15.885,0.043
53856.293495,15.978,0.043
53856.293619,15.826,0.044
53856.305024,16.028,0.043
53856.30515,15.903,0.046
53856.315172,15.986,0.044
53856.315297,15.894,0.048
53856.325344,16.089,0.05
53856.325469,15.89,0.05
53880.214179,15.584,0.033
53880.225252,15.658,0.036
53880.236515,15.678,0.036
53880.247807,15.729,0.038
53880.258808,15.779,0.041
53882.221935,16.036,0.046
53882.222057,16.12,0.044
53882.233157,16.049,0.048
53882.244384,16.03,0.048
53882.255619,16.026,0.048
53882.266857,16.02,0.052
53884.176611,15.577,0.031
53884.187744,15.628,0.035
53884.198478,15.72,0.038
53884.20936,16.012,0.049
54086.43051,15.896,0.046
54086.443459,15.725,0.039
54086.456307,15.561,0.035
54086.469278,15.505,0.031
54086.482133,15.462,0.033
54113.394738,15.882,0.048
54113.396297,16.024,0.053
54113.407269,15.845,0.044
54113.407396,15.96,0.041
54113.410503,16.091,0.058
54113.421004,15.924,0.052
54113.421132,16.024,0.048
54113.423393,16.189,0.111
54113.433926,15.883,0.052
54113.434055,16.05,0.05
54113.436171,16.137,0.069
54113.446455,15.846,0.048
54113.446583,16.099,0.05
54113.449044,16.208,0.071
54115.469033,15.703,0.04
54115.481782,15.77,0.043
54115.494613,15.725,0.045
54115.508474,15.889,0.053
54115.521225,15.855,0.048
54123.399407,15.724,0.031
54123.411825,15.683,0.03
54123.424119,15.719,0.031
54123.43716,15.662,0.031
54123.449668,15.733,0.031
54144.365657,15.701,0.033
54144.36578,15.61,0.033
54144.376747,15.624,0.022
54144.376869,15.634,0.024
54144.388405,15.657,0.022
54144.388527,15.607,0.026
54144.399484,15.685,0.022
54144.399606,15.661,0.026
54144.411824,15.702,0.024
54144.411947,15.662,0.026
54147.34115,16.136,0.045
54147.353454,16.099,0.041
54147.366219,16.072,0.041
54147.378643,16.021,0.04
54147.390588,15.965,0.038
54148.343615,15.693,0.031
54148.355193,15.606,0.03
54148.378725,15.624,0.031
54148.390425,15.641,0.033
54154.334145,15.916,0.024
54154.334286,15.682,0.026
54154.346492,15.958,0.026
54154.346635,15.897,0.03
54154.3581,15.98,0.026
54154.358242,15.957,0.03
54154.369736,16.014,0.028
54154.369879,15.976,0.03
54154.381351,16.079,0.028
54154.381494,16.005,0.031
54156.324557,15.812,0.031
54156.336164,15.688,0.028
54156.347681,15.597,0.024
54156.359206,15.598,0.024
54156.370735,15.63,0.024
54173.319127,15.591,0.022
54173.329862,15.619,0.024
54173.340588,15.619,0.024
54173.352224,15.646,0.024
54173.362953,15.679,0.024
54175.277015,15.951,0.036
54175.288327,15.976,0.036
54175.299162,16.033,0.038
54175.310013,16.084,0.04
54175.320892,16.042,0.038
54176.325031,15.98,0.03
54176.325162,15.847,0.031
54176.335926,15.866,0.028
54176.336057,15.828,0.03
54176.346887,15.764,0.024
54176.347019,15.736,0.026
54176.357801,15.667,0.022
54176.357933,15.607,0.024
54176.368673,15.674,0.022
54176.368804,15.481,0.022
54179.34272,16.043,0.037
54179.353522,16.074,0.037
54179.364546,16.019,0.039
54179.375494,16.068,0.035
54179.375625,16.049,0.039
54179.386742,16.019,0.039
54186.344624,15.591,0.022
54186.356394,15.619,0.024
54186.367712,15.619,0.024
54186.379509,15.647,0.024
54186.391106,15.679,0.024
54198.239065,15.669,0.059
54198.258635,15.591,0.036
54198.268175,15.564,0.036
54206.268148,15.66,0.022
54206.268273,15.582,0.022
54206.277647,15.674,0.022
54206.277772,15.521,0.024
54206.286792,15.678,0.024
54206.286916,15.562,0.024
54206.295937,15.674,0.024
54206.296061,15.576,0.026
54206.305077,15.725,0.026
54206.3052,15.617,0.026
54209.264056,15.903,0.107
54209.264177,16.091,0.187
54209.273128,15.957,0.076
54209.273253,15.918,0.063
54209.282199,15.946,0.055
54209.282329,15.874,0.055
54209.291261,15.833,0.081
54209.291385,15.691,0.091
54209.300318,15.67,0.081
54209.300442,15.7,0.1
54448.454069,15.784,0.03
54448.467207,15.863,0.028
54448.480314,15.862,0.028
54448.49341,15.838,0.026
54448.506501,15.95,0.039
54506.460834,15.716,0.031
54506.47273,15.637,0.03
54506.484589,15.656,0.03
54506.49649,15.711,0.031
54506.508347,15.691,0.031
54507.338017,15.84,0.028
54507.33819,15.696,0.026
54507.350111,15.676,0.018
54507.350284,15.502,0.02
54507.362208,15.616,0.018
54507.362381,15.452,0.018
54507.374258,15.608,0.017
54507.374431,15.457,0.018
54507.386321,15.632,0.017
54507.386497,15.444,0.017
54522.447862,15.649,0.028
54522.459577,15.558,0.028
54522.471285,15.542,0.03
54522.483095,15.53,0.03
54522.494851,15.576,0.031
54523.398698,15.376,0.022
54523.42239,15.366,0.022
54523.434216,15.427,0.024
54523.446079,15.467,0.026
54530.337595,16.046,0.039
54530.348842,16.036,0.041
54530.360108,15.975,0.03
54530.371381,15.902,0.028
54530.382653,15.866,0.026
54536.322231,15.666,0.017
54536.322403,15.451,0.017
54536.333348,15.643,0.015
54536.333521,15.422,0.017
54536.344469,15.633,0.015
54536.344641,15.413,0.017
54536.355758,15.662,0.015
54536.355931,15.485,0.017
54536.366874,15.703,0.017
54536.367048,15.529,0.017
54553.358218,15.851,0.026
54553.370297,15.867,0.028
54553.382399,15.925,0.031
54554.306491,15.854,0.022
54554.318635,15.806,0.022
54554.330606,15.849,0.022
54554.342688,15.938,0.026
54554.354629,15.938,0.028
54562.302834,15.868,0.018
54562.314351,15.886,0.02
54562.325862,15.901,0.018
54562.337432,15.903,0.02
54562.348951,15.967,0.022
54563.298012,15.862,0.026
54563.309713,15.986,0.026
54563.321143,15.963,0.026
54563.33258,15.93,0.024
54563.344028,15.947,0.031
54568.291807,15.908,0.045
54568.302764,15.849,0.043
54568.313921,15.761,0.041
54568.324947,15.645,0.038
54568.335927,15.694,0.038
54584.254515,16.087,0.035
54584.254643,16.094,0.031
54584.265174,16.0,0.033
54584.265302,16.071,0.033
54584.275748,16.04,0.033
54584.275879,16.048,0.031
54584.286344,16.004,0.031
54584.286472,16.068,0.031
54584.296968,15.935,0.031
54584.297097,15.986,0.03
54591.248188,15.739,0.033
54591.248311,15.881,0.033
54591.258332,15.813,0.035
54591.258455,15.936,0.035
54591.268509,15.851,0.037
54591.268632,15.958,0.035
54591.278672,15.892,0.039
54591.278795,15.991,0.039
54591.288821,15.928,0.041
54591.288944,16.042,0.043
54614.168663,15.947,0.028
54614.178621,15.878,0.026
54614.188593,15.743,0.024
54614.198597,15.667,0.022
54614.208551,15.638,0.022
