mjd,m,merr
52636.430026,15.573,0.028
52636.444076,15.505,0.026
52636.458321,15.48,0.026
52636.472419,15.504,0.024
52636.486463,15.486,0.024
52653.389606,15.512,0.026
52653.404717,15.594,0.028
52653.434971,15.833,0.03
52653.45009,16.129,0.037
52695.332928,15.536,0.02
52695.352166,15.56,0.03
52722.343324,16.024,0.03
52722.356519,15.845,0.028
52722.369056,15.709,0.024
52722.382107,15.616,0.024
52722.394602,15.587,0.024
52723.225653,16.037,0.05
52723.24854,16.053,0.035
52723.259934,15.894,0.028
52723.27145,15.756,0.03
52751.254273,15.749,0.028
52751.264988,15.693,0.026
52751.275689,15.604,0.024
52751.287046,15.605,0.024
52751.299896,15.577,0.024
52772.16063,15.731,0.061
52772.172685,15.65,0.054
52772.184466,15.598,0.059
52772.196582,15.542,0.048
52772.208308,15.596,0.052
52781.165556,15.7,0.026
52781.176436,15.806,0.03
52781.187215,15.93,0.033
52781.198068,16.114,0.039
52781.208898,16.168,0.043
52809.171963,16.046,0.114
52977.445871,16.216,0.043
52977.456947,16.425,0.054
52977.468053,16.317,0.048
52977.479425,16.082,0.038
52977.490437,15.933,0.035
52978.449402,15.577,0.028
52978.462403,15.568,0.024
52978.475226,15.565,0.022
52978.488083,15.63,0.026
52978.500854,15.694,0.028
52988.396664,15.736,0.044
52988.409621,15.66,0.041
52988.422575,15.565,0.037
52988.435504,15.5,0.035
52988.44911,15.524,0.035
53008.415347,15.583,0.03
53008.428046,15.552,0.028
53008.440635,15.569,0.028
53008.453246,15.572,0.028
53038.343284,16.005,0.043
53038.355708,15.831,0.038
53038.368311,15.784,0.041
53038.380825,15.634,0.036
53038.393214,15.677,0.053
53096.268844,15.778,0.053
53096.278717,15.917,0.059
53096.288584,16.042,0.069
53096.298533,16.351,0.114
53096.308383,16.052,0.078
53125.240029,15.626,0.058
53125.249775,15.501,0.051
53125.259371,15.58,0.051
53125.268917,15.46,0.046
53125.278456,15.542,0.049
53134.20018,15.55,0.025
53134.209203,15.598,0.025
53134.21821,15.576,0.043
53134.22721,15.612,0.033
53134.236248,15.746,0.066
53155.210718,15.717,0.066
53155.219369,15.65,0.058
53155.227978,15.594,0.053
53155.236288,15.509,0.049
53155.244641,15.555,0.048
53169.175169,16.059,0.043
53169.184923,15.964,0.041
53169.194735,15.798,0.036
53169.204655,15.664,0.033
53169.214416,15.593,0.031
53193.173995,16.017,0.053
53193.18327,15.941,0.066
53193.210958,15.732,0.041
53340.432006,15.508,0.044
53340.444263,15.524,0.043
53340.456555,15.546,0.043
53340.46937,15.565,0.041
53340.482088,15.644,0.043
53356.454513,15.576,0.028
53356.467533,15.623,0.028
53356.480543,15.701,0.03
53356.493827,15.902,0.033
53356.506976,16.093,0.039
53358.417976,15.584,0.028
53358.432738,15.54,0.026
53358.447315,15.606,0.026
53358.461827,15.638,0.028
53362.47437,15.853,0.036
53451.287691,15.515,0.033
53451.298672,15.523,0.033
53451.309997,15.597,0.035
53451.321156,15.613,0.037
53451.332241,15.706,0.041
53480.227624,15.724,0.083
53480.246858,16.06,0.08
53480.255822,16.133,0.091
53480.265259,16.086,0.081
53490.244061,16.066,0.037
53490.256371,16.117,0.039
53490.267364,16.001,0.035
53490.2786,15.845,0.03
53490.290405,15.719,0.028
53536.18274,15.614,0.052
53536.19274,15.654,0.055
53536.202795,15.769,0.067
53536.212818,15.899,0.08
53697.473211,15.386,0.046
53697.486091,15.453,0.039
53726.424971,15.532,0.028
53726.4386,15.647,0.035
53726.452178,15.725,0.046
53726.465776,15.878,0.054
53726.479474,16.107,0.065
53756.361347,15.434,0.043
53756.374286,15.506,0.048
53756.387444,15.471,0.043
53774.351833,15.492,0.031
53774.379644,15.449,0.026
53774.392875,15.548,0.028
53774.406331,15.603,0.028
53802.311351,15.546,0.035
53802.323453,15.501,0.03
53802.335774,15.454,0.031
53802.347882,15.443,0.023
53802.359914,15.484,0.025
53806.315685,15.543,0.046
53806.327412,15.498,0.044
53806.338952,15.509,0.048
53806.350243,15.439,0.043
53806.361494,15.532,0.046
53828.23764,16.101,0.043
53828.248123,16.006,0.073
53828.258955,15.932,0.043
53828.280452,15.571,0.058
53834.251391,15.943,0.063
53834.261174,15.732,0.049
53834.270949,15.664,0.046
53842.243857,15.977,0.052
53842.255861,15.755,0.046
53842.267614,15.693,0.044
53842.279371,15.575,0.041
53842.290607,15.545,0.039
53857.286623,15.73,0.035
53857.296603,15.871,0.049
53857.306588,16.217,0.114
53876.217927,16.085,0.147
53876.228541,16.048,0.066
53876.23914,15.866,0.046
53904.17476,15.828,0.031
53904.185289,15.965,0.036
53904.195163,16.202,0.045
53904.205493,16.176,0.045
53904.215458,16.114,0.043
54051.468458,15.47,0.033
54051.480666,15.521,0.031
54051.492853,15.481,0.03
54051.505473,15.536,0.031
54072.452849,16.293,0.102
54072.466608,16.289,0.101
54072.479542,16.263,0.092
54072.492376,16.119,0.076
54080.468429,16.185,0.063
54125.326154,15.988,0.041
54125.337809,16.073,0.045
54125.349437,16.083,0.043
54125.361049,15.939,0.038
54125.372629,15.782,0.033
54140.357146,15.507,0.02
54140.39375,15.711,0.026
54140.405957,15.888,0.031
54212.221213,15.891,0.043
54212.22973,15.709,0.036
54212.23837,15.677,0.035
54212.246846,15.626,0.033
54212.255434,15.582,0.033
54483.387235,15.756,0.043
54483.399492,15.732,0.041
54483.412511,15.792,0.043
54483.436789,15.751,0.04
54497.333056,16.011,0.094
54497.345027,15.786,0.045
54497.35699,15.676,0.033
54497.368957,15.646,0.035
54497.381283,15.621,0.04
54525.346473,15.605,0.028
54525.369554,15.516,0.03
54525.380892,15.49,0.031
54558.24452,15.636,0.04
54558.256134,15.588,0.043
54558.267899,15.612,0.041
54558.279509,15.571,0.048
54558.291075,15.626,0.04
54570.241117,15.564,0.035
54570.252919,15.536,0.033
54570.275137,15.511,0.033
54570.286299,15.529,0.033
54586.236287,15.663,0.049
54586.246375,15.598,0.036
54586.256714,15.57,0.061
54586.266973,15.6,0.038
54586.276961,15.594,0.038
54598.199904,15.583,0.063
54598.209296,15.466,0.054
54598.218689,15.473,0.054
54598.228719,15.432,0.054
54598.238109,15.435,0.054
54619.165612,15.573,0.036
54619.176073,15.579,0.043
54619.186275,15.618,0.036
54619.196537,15.708,0.048
54619.206729,15.737,0.04
