mjd,m,merr
52618.453947,14.67,0.026
52618.469036,14.329,0.018
52618.484119,14.42,0.02
52618.499137,14.447,0.016
52618.51417,14.561,0.016
52622.44283,15.032,0.02
52622.457632,15.011,0.018
52622.472238,15.018,0.018
52622.486712,15.043,0.018
52622.5021,15.084,0.018
52638.496516,14.932,0.016
52638.51155,14.996,0.015
52650.395459,14.413,0.01
52650.411625,14.328,0.01
52650.429011,14.312,0.01
52650.443771,14.364,0.01
52650.459281,14.412,0.01
52665.395033,15.258,0.02
52665.409767,15.521,0.025
52665.424799,15.93,0.033
52665.440578,16.772,0.073
52665.45528,15.893,0.033
52677.406608,14.463,0.012
52677.421749,14.522,0.013
52677.436639,14.6,0.023
52677.451617,14.67,0.013
52677.467108,14.698,0.015
52696.342019,14.338,0.007
52696.354625,14.379,0.007
52696.367052,14.412,0.007
52696.392477,14.538,0.009
52711.25247,14.444,0.011
52711.266097,14.476,0.011
52711.279741,14.565,0.011
52711.293212,14.628,0.011
52711.306567,14.707,0.013
52723.336405,14.568,0.011
52739.243357,14.963,0.015
52739.254872,15.022,0.017
52739.266278,15.014,0.017
52739.277676,15.02,0.017
52739.289161,15.021,0.017
52752.235467,14.995,0.015
52752.245731,14.996,0.015
52752.255987,15.012,0.015
52752.266354,15.04,0.015
52752.276653,15.017,0.015
52770.208122,14.735,0.02
52770.220003,14.796,0.022
52770.232305,14.834,0.024
52770.244291,14.853,0.024
52770.25662,14.872,0.033
52787.213168,14.464,0.009
52787.223958,14.376,0.009
52787.234637,14.321,0.007
52787.245223,14.288,0.007
52787.255796,14.283,0.009
52811.173334,14.986,0.025
52811.183256,15.011,0.025
52811.193226,15.016,0.025
52811.203301,14.995,0.025
52811.213613,15.042,0.026
52977.466628,14.404,0.009
52977.478797,14.505,0.011
52977.491217,14.524,0.011
52977.503533,14.56,0.011
52991.502054,14.969,0.011
52991.515224,14.951,0.011
52991.528963,14.941,0.015
53006.400843,15.004,0.015
53006.413155,15.016,0.015
53006.425515,15.076,0.016
53006.438917,15.066,0.015
53024.386305,14.739,0.024
53024.39921,14.811,0.011
53035.407401,14.446,0.009
53035.419744,14.51,0.009
53035.43211,14.566,0.009
53035.445142,14.583,0.013
53035.457477,14.658,0.009
53050.328688,14.689,0.018
53050.340374,14.749,0.022
53050.352057,14.786,0.033
53050.363667,14.792,0.026
53050.375278,14.828,0.022
53065.284601,14.968,0.013
53065.295834,14.98,0.013
53065.307181,15.005,0.013
53065.318428,15.037,0.013
53065.329715,15.03,0.013
53078.282109,14.989,0.013
53078.29291,14.989,0.013
53078.303659,14.985,0.013
53078.314398,15.006,0.013
53078.325062,14.997,0.013
53093.272843,15.059,0.012
53093.28273,14.995,0.012
53093.292652,14.913,0.01
53093.303811,14.806,0.01
53093.313774,14.677,0.008
53109.241915,14.725,0.011
53109.253033,14.744,0.011
53109.264172,14.762,0.011
53109.275217,14.792,0.011
53109.286301,14.832,0.011
53121.200256,14.452,0.007
53121.210778,14.508,0.007
53121.221182,14.555,0.009
53121.231593,14.595,0.009
53121.241995,14.629,0.009
53137.202548,15.021,0.017
53137.212128,15.006,0.017
53137.221716,15.036,0.017
53150.204553,14.927,0.061
53150.230827,15.004,0.031
53165.1732,14.657,0.015
53165.183185,14.546,0.015
53165.193167,14.47,0.018
53165.203144,14.414,0.011
53165.213164,14.388,0.011
53177.174009,15.074,0.017
53177.183958,15.093,0.017
53177.193881,15.32,0.026
53319.479181,15.041,0.022
53319.491057,14.981,0.022
53319.50292,15.004,0.02
53341.469806,14.22,0.016
53341.48235,14.226,0.016
53341.509149,14.38,0.016
53341.521685,14.443,0.018
53349.468566,14.66,0.015
53349.480557,14.723,0.017
53349.505235,14.762,0.017
53349.518887,14.848,0.017
53443.380723,15.067,0.026
53443.391367,15.07,0.017
53443.402006,15.085,0.03
53443.412628,15.119,0.065
53443.423252,15.115,0.043
53473.384507,14.914,0.017
53473.396471,14.935,0.017
53473.406306,14.959,0.018
53473.416182,14.967,0.018
53473.425797,14.99,0.02
53498.212974,14.408,0.041
53498.224513,14.267,0.015
53498.235141,14.228,0.011
53498.245629,14.256,0.009
53499.208847,14.435,0.009
53499.219408,14.503,0.009
53499.230236,14.53,0.009
53499.240801,14.576,0.011
53499.251736,14.617,0.011
53528.172647,15.005,0.02
53528.195461,15.042,0.022
53528.206062,15.057,0.022
53528.216534,15.021,0.024
53539.172457,14.68,0.026
53539.181977,14.7,0.028
53539.191506,14.762,0.03
53539.201024,14.772,0.03
53539.210541,14.779,0.031
53550.173942,14.297,0.011
53550.193708,14.351,0.013
53550.203594,14.414,0.013
53550.213483,14.43,0.015
53702.44511,14.733,0.013
53702.457786,14.769,0.013
53702.470557,14.807,0.013
53702.483136,14.845,0.015
53702.496079,14.862,0.015
53741.414947,14.794,0.011
53741.427756,14.808,0.011
53741.440614,14.846,0.011
53741.453337,14.877,0.011
53741.466133,14.918,0.011
53771.353201,14.587,0.03
53786.339021,14.559,0.009
53786.350961,14.561,0.017
53786.362897,14.654,0.013
53786.374935,14.71,0.018
53812.301117,14.662,0.015
53843.258369,14.497,0.01
53843.269731,14.383,0.01
53843.281339,14.269,0.01
53843.292746,14.232,0.01
53843.304132,14.24,0.01
53854.239138,15.001,0.015
53854.249249,14.995,0.015
53854.259203,15.02,0.016
53854.279378,15.045,0.048
53886.177241,14.95,0.02
53886.1879,14.98,0.02
53886.198652,14.97,0.02
53886.209442,15.001,0.02
53886.220344,15.023,0.02
53903.172984,14.376,0.015
53903.183051,14.462,0.017
53903.193254,14.543,0.017
53903.2035,14.547,0.017
53903.213725,14.617,0.017
54055.447285,14.835,0.023
54055.459828,14.879,0.021
54055.472862,14.901,0.021
54055.487856,14.928,0.018
54055.500758,14.979,0.018
54067.459457,14.832,0.013
54067.472324,14.885,0.013
54067.486184,14.934,0.015
54067.499331,14.94,0.013
54067.51195,14.962,0.013
54085.462336,14.374,0.012
54085.475261,14.476,0.012
54085.488172,14.528,0.012
54085.501171,14.567,0.012
54085.514372,14.658,0.012
54123.332629,15.095,0.017
54123.345117,15.092,0.015
54123.35733,15.044,0.015
54123.369541,14.973,0.013
54123.381828,14.831,0.011
54156.31701,14.377,0.01
54156.328014,14.302,0.008
54156.339104,14.254,0.008
54156.35013,14.265,0.008
54156.361232,14.3,0.008
54207.227961,15.034,0.016
54207.237514,15.051,0.018
54207.247327,15.042,0.015
54207.258034,15.047,0.016
54207.27147,15.082,0.016
54216.220358,14.286,0.011
54216.229007,14.357,0.011
54216.237656,14.466,0.013
54216.246311,14.479,0.013
54216.254962,14.555,0.013
54529.208179,14.27,0.013
54529.221474,14.243,0.013
54529.23315,14.241,0.013
54529.244577,14.309,0.013
54529.255655,14.368,0.013
54543.27659,14.774,0.017
54543.287486,14.789,0.017
54543.298437,14.82,0.015
54543.309321,14.844,0.015
54543.320187,14.865,0.017
54573.261428,14.475,0.018
54573.272162,14.485,0.018
54613.203986,14.29,0.013
54613.214245,14.389,0.013
54613.225113,14.43,0.015
54613.235369,14.475,0.015
54613.245779,14.483,0.015
