mjd,m,merr
52641.453335,15.661,0.03
52641.468165,15.53,0.026
52641.482931,15.416,0.025
52641.497823,15.351,0.023
52641.513506,15.333,0.021
52643.446293,15.698,0.028
52643.460357,15.728,0.028
52643.474255,15.709,0.026
52643.488551,15.613,0.022
52643.502707,15.438,0.02
52647.463982,15.433,0.026
52647.478734,15.49,0.026
52647.493545,15.705,0.031
52647.507785,15.776,0.057
52647.522201,15.743,0.091
52668.428879,15.317,0.1
52670.403265,15.706,0.031
52670.417177,15.652,0.028
52670.4312,15.522,0.026
52670.445108,15.436,0.022
52670.459026,15.34,0.022
52673.374359,15.696,0.028
52673.389574,15.505,0.022
52673.404817,15.389,0.02
52673.420202,15.332,0.018
52673.435608,15.317,0.018
52703.317353,15.299,0.035
52703.330676,15.31,0.043
52703.344749,15.32,0.02
52703.35797,15.356,0.031
52703.371242,15.393,0.039
52708.315979,15.282,0.021
52708.316334,15.253,0.023
52708.329021,15.29,0.023
52708.329377,15.254,0.023
52708.342082,15.34,0.023
52708.342436,15.335,0.026
52708.355151,15.416,0.025
52708.355509,15.395,0.028
52708.368289,15.511,0.028
52708.368646,15.468,0.03
52727.369829,15.534,0.142
52730.293322,15.316,0.018
52730.304889,15.407,0.02
52730.316513,15.477,0.022
52730.328074,15.584,0.024
52730.33963,15.698,0.028
52737.25108,15.413,0.024
52737.263949,15.367,0.022
52737.275662,15.326,0.022
52737.287483,15.297,0.02
52737.299342,15.33,0.02
52756.1985,15.698,0.028
52756.210332,15.741,0.03
52756.222197,15.659,0.028
52756.234039,15.512,0.026
52756.245878,15.416,0.024
52758.209392,15.641,0.024
52758.221248,15.678,0.026
52758.233143,15.68,0.026
52758.245144,15.646,0.026
52758.256999,15.516,0.022
52788.175129,15.424,0.031
52788.185409,15.337,0.031
52788.195762,15.299,0.159
52793.226198,15.411,0.033
52793.236208,15.494,0.037
52793.246212,15.604,0.041
52966.47064,15.452,0.03
52966.483056,15.387,0.028
52966.495635,15.318,0.024
52966.508293,15.325,0.022
52986.460344,15.282,0.028
52986.473374,15.361,0.028
52986.486527,15.464,0.03
52986.499478,15.594,0.033
52986.512591,15.675,0.035
52997.482325,15.323,0.044
53028.403769,15.702,0.017
53028.416159,15.677,0.017
53028.428548,15.558,0.015
53028.441067,15.429,0.018
53028.453459,15.36,0.02
53032.394501,15.345,0.018
53032.406794,15.377,0.018
53032.418981,15.455,0.02
53032.431176,15.594,0.022
53032.443543,15.685,0.024
53054.354189,15.336,0.016
53054.365992,15.433,0.018
53054.377778,15.505,0.02
53054.389819,15.646,0.021
53054.401921,15.688,0.021
53061.33275,15.251,0.013
53061.343813,15.233,0.013
53061.354879,15.28,0.013
53061.365996,15.296,0.015
53061.377168,15.378,0.015
53080.284469,15.518,0.023
53080.295813,15.434,0.021
53080.307063,15.362,0.02
53080.318199,15.347,0.02
53080.329621,15.318,0.018
53082.34178,15.259,0.013
53082.353221,15.268,0.015
53082.364334,15.253,0.015
53082.381539,15.341,0.015
53082.39279,15.33,0.017
53091.330099,15.678,0.018
53091.340701,15.483,0.017
53091.351067,15.355,0.015
53091.36161,15.307,0.015
53091.371901,15.28,0.015
53094.27112,15.669,0.025
53094.280764,15.664,0.025
53094.291629,15.616,0.023
53094.301485,15.453,0.02
53094.311101,15.423,0.021
53096.269952,15.49,0.048
53096.280344,15.686,0.059
53096.290795,15.752,0.087
53096.301105,15.724,0.072
53096.311414,15.69,0.067
53111.241081,15.667,0.033
53111.251827,15.707,0.033
53111.264284,15.683,0.031
53111.275189,15.534,0.028
53111.289586,15.416,0.025
53116.311965,15.252,0.015
53116.323641,15.299,0.018
53116.334797,15.321,0.017
53116.346882,15.375,0.017
53116.358202,15.498,0.02
53139.199107,15.278,0.023
53139.209051,15.313,0.021
53139.218207,15.352,0.023
53139.227883,15.365,0.025
53139.237029,15.402,0.025
53141.214702,15.276,0.018
53141.224884,15.253,0.018
53141.234637,15.292,0.018
53141.244787,15.315,0.02
53141.254462,15.374,0.02
53144.211842,15.42,0.035
53144.220806,15.441,0.036
53144.230022,15.648,0.053
53144.238888,15.747,0.064
53144.247678,15.841,0.107
53170.169517,15.369,0.018
53170.179734,15.342,0.018
53170.189855,15.35,0.02
53170.199964,15.381,0.02
53170.210076,15.412,0.022
53346.456691,15.295,0.033
53346.47003,15.261,0.031
53346.483706,15.299,0.031
53346.49636,15.332,0.031
53346.508505,15.418,0.033
53353.463242,15.272,0.028
53353.476652,15.314,0.026
53353.489492,15.321,0.024
53353.502336,15.385,0.026
53353.515759,15.459,0.026
53376.488757,15.345,0.02
53376.502563,15.327,0.018
53376.516153,15.282,0.017
53376.532835,15.325,0.018
53381.428217,15.671,0.048
53381.441071,15.575,0.08
53403.411965,15.511,0.028
53403.427744,15.413,0.026
53403.441303,15.353,0.024
53403.45542,15.324,0.024
53403.468379,15.325,0.024
53432.36328,15.625,0.091
53432.374738,15.499,0.03
53432.386103,15.413,0.024
53432.397791,15.389,0.026
53464.338032,15.325,0.022
53464.348101,15.292,0.022
53464.358198,15.294,0.024
53464.368826,15.364,0.022
53464.378934,15.389,0.022
53467.224505,15.693,0.03
53467.234514,15.716,0.03
53467.245036,15.624,0.028
53467.254891,15.49,0.024
53467.266004,15.418,0.024
53469.23404,15.708,0.028
53469.243961,15.702,0.028
53469.253978,15.681,0.028
53469.265604,15.631,0.026
53469.275172,15.528,0.024
53495.250309,15.609,0.061
53495.260416,15.642,0.063
53495.270485,15.663,0.072
53495.280564,15.521,0.068
53495.290607,15.41,0.08
53504.187383,15.338,0.026
53504.197162,15.308,0.026
53504.206097,15.263,0.024
53504.215469,15.294,0.026
53504.225053,15.337,0.026
53525.167828,15.622,0.039
53525.178008,15.595,0.035
53525.188194,15.484,0.031
53525.198386,15.374,0.031
53525.208548,15.325,0.03
53530.165947,15.523,0.033
53530.17604,15.457,0.031
53530.185873,15.375,0.03
53530.195785,15.332,0.03
53530.205618,15.292,0.03
53732.479699,15.318,0.03
53732.493254,15.314,0.031
53732.506148,15.299,0.03
53732.518927,15.362,0.03
53732.531648,15.386,0.03
53735.471396,15.324,0.05
53735.523361,15.723,0.08
53759.412169,15.374,0.026
53759.424941,15.382,0.035
53759.43753,15.324,0.035
53759.450149,15.377,0.048
53762.416707,15.358,0.022
53762.429449,15.425,0.026
53762.44209,15.515,0.057
53762.45483,15.687,0.087
53762.467633,15.704,0.03
53790.346012,15.722,0.031
53790.357718,15.64,0.03
53790.369408,15.545,0.028
53790.381103,15.426,0.024
53790.392815,15.354,0.024
53793.398937,15.42,0.052
53793.410796,15.45,0.057
53793.446369,15.712,0.03
53797.312207,15.444,0.037
53797.323518,15.533,0.021
53797.323779,15.541,0.022
53797.335355,15.682,0.026
53797.33588,15.694,0.025
53797.34699,15.67,0.026
53797.348334,15.692,0.028
53799.340326,15.488,0.026
53799.351757,15.626,0.026
53799.363189,15.71,0.028
53799.374629,15.711,0.031
53799.386075,15.687,0.039
53815.290706,15.489,0.041
53815.301878,15.43,0.039
53815.313063,15.341,0.026
53815.324247,15.318,0.026
53815.335443,15.332,0.028
53819.385992,15.291,0.03
53819.398477,15.318,0.026
53826.340795,15.546,0.028
53826.352359,15.472,0.035
53827.349111,15.392,0.026
53827.361654,15.455,0.033
53827.373383,15.54,0.035
53827.386764,15.67,0.055
53827.400026,15.726,0.043
53832.275799,15.414,0.028
53832.285843,15.344,0.028
53832.297397,15.332,0.028
53832.307319,15.33,0.028
53832.317263,15.343,0.028
53833.23084,15.345,0.033
53833.240683,15.269,0.037
53833.260411,15.286,0.033
53833.270292,15.377,0.033
53846.236884,15.694,0.036
53846.247457,15.698,0.035
53846.258055,15.646,0.033
53846.268752,15.556,0.03
53846.27933,15.424,0.026
53846.295292,15.355,0.031
53846.306314,15.313,0.03
53846.31733,15.319,0.031
53846.328351,15.307,0.031
53846.339359,15.323,0.03
53850.32495,15.473,0.028
53850.336204,15.418,0.026
53850.348158,15.34,0.026
53850.360737,15.281,0.026
53850.37197,15.26,0.028
53853.24778,15.741,0.037
53853.25888,15.726,0.035
53853.269235,15.688,0.035
53853.279959,15.57,0.031
53853.290385,15.45,0.03
53856.28061,15.326,0.026
53856.293373,15.286,0.024
53856.304903,15.342,0.026
53856.315049,15.35,0.026
53856.325222,15.4,0.03
53879.212445,15.412,0.023
53879.226145,15.479,0.025
53879.238536,15.605,0.028
53879.251011,15.737,0.033
53879.262931,15.722,0.033
53882.222178,15.746,0.035
53882.233401,15.726,0.035
53882.244629,15.588,0.031
53882.255864,15.452,0.028
53882.267101,15.374,0.028
53885.162651,15.677,0.031
53885.173808,15.664,0.031
53885.184603,15.674,0.031
53885.195675,15.664,0.033
53885.206652,15.499,0.03
54081.444467,15.282,0.061
54086.430246,15.338,0.026
54086.443195,15.269,0.024
54086.456043,15.275,0.022
54086.469014,15.3,0.022
54086.481869,15.359,0.024
54113.407524,15.345,0.024
54113.410141,15.407,0.033
54113.42126,15.392,0.028
54113.42312,15.409,0.045
54113.434184,15.532,0.031
54113.435906,15.582,0.038
54113.446716,15.687,0.035
54113.448777,15.731,0.048
54115.468767,15.65,0.036
54115.481515,15.684,0.041
54115.494347,15.72,0.046
54115.508208,15.614,0.043
54115.520959,15.445,0.035
54123.399137,15.567,0.03
54123.411449,15.673,0.033
54123.423861,15.71,0.035
54123.4369,15.728,0.036
54123.449409,15.621,0.031
54144.365539,15.276,0.03
54144.376628,15.284,0.017
54144.388286,15.327,0.018
54144.399365,15.353,0.018
54144.411706,15.451,0.02
54147.340848,15.279,0.023
54147.353151,15.324,0.023
54147.365918,15.413,0.026
54147.378343,15.517,0.028
54147.390287,15.646,0.03
54148.343366,15.732,0.035
54148.354945,15.686,0.033
54148.366525,15.582,0.03
54148.378475,15.41,0.026
54148.390175,15.398,0.026
54154.334012,15.286,0.015
54154.346353,15.296,0.017
54154.357961,15.339,0.017
54154.369599,15.367,0.017
54154.381212,15.459,0.018
54157.327703,15.41,0.022
54157.339334,15.513,0.024
54157.350981,15.647,0.026
54157.362632,15.757,0.028
54157.374281,15.74,0.028
54173.318879,15.332,0.017
54173.329609,15.327,0.017
54173.340335,15.306,0.017
54173.351655,15.335,0.017
54173.362701,15.376,0.018
54175.264442,15.656,0.024
54175.268037,15.702,0.031
54175.275134,15.701,0.024
54175.277452,15.69,0.03
54175.278944,15.715,0.03
54175.285773,15.664,0.022
54175.288762,15.684,0.028
54175.290147,15.676,0.028
54175.296423,15.611,0.022
54175.299597,15.601,0.026
54175.301008,15.57,0.026
54175.307078,15.487,0.02
54175.310448,15.452,0.025
54175.311864,15.445,0.023
54175.321328,15.374,0.021
54176.324903,15.355,0.018
54176.335797,15.478,0.02
54176.346757,15.571,0.022
54176.357672,15.651,0.024
54176.368544,15.697,0.024
54179.34246,15.671,0.026
54179.35326,15.549,0.024
54179.364285,15.436,0.02
54179.375363,15.389,0.02
54179.386483,15.32,0.02
54186.344356,15.334,0.017
54186.356126,15.327,0.018
54186.367445,15.308,0.017
54186.379212,15.34,0.017
54186.390841,15.381,0.018
54198.248485,15.374,0.043
54198.258418,15.321,0.028
54198.267956,15.344,0.03
54206.268027,15.698,0.024
54206.277526,15.74,0.026
54206.28667,15.69,0.026
54206.295815,15.57,0.022
54206.304956,15.456,0.02
54209.263942,15.458,0.059
54209.273012,15.344,0.041
54209.282083,15.346,0.033
54209.291142,15.278,0.061
54209.3002,15.216,0.078
54485.407269,15.312,0.033
54485.419959,15.344,0.033
54485.432641,15.366,0.035
54485.445368,15.51,0.037
54485.45804,15.668,0.043
54506.461186,15.509,0.028
54506.473083,15.674,0.033
54506.484941,15.734,0.035
54506.496842,15.708,0.033
54506.508702,15.681,0.031
54507.337842,15.311,0.017
54507.349936,15.312,0.015
54507.362033,15.333,0.015
54507.374084,15.372,0.015
54507.386144,15.434,0.015
54522.448033,15.261,0.02
54522.459747,15.228,0.02
54522.471456,15.25,0.022
54522.483266,15.314,0.024
54522.495023,15.355,0.026
54529.331565,15.315,0.013
54529.342879,15.35,0.015
54529.354173,15.436,0.017
54529.365471,15.586,0.018
54529.376784,15.658,0.018
54536.322054,15.328,0.013
54536.333173,15.343,0.013
54536.344295,15.404,0.013
54536.355583,15.477,0.015
54536.3667,15.601,0.015
54553.358369,15.671,0.024
54553.370448,15.688,0.026
54553.38255,15.628,0.026
54562.302628,15.276,0.011
54562.314148,15.247,0.011
54562.325659,15.269,0.011
54562.337229,15.265,0.013
54562.348746,15.355,0.013
54568.292234,15.602,0.036
54568.303191,15.68,0.04
54568.314348,15.64,0.04
54568.325373,15.691,0.04
54568.336355,15.601,0.036
54584.25525,15.315,0.017
54584.265812,15.276,0.017
54584.276396,15.282,0.017
54584.286992,15.301,0.017
54584.297612,15.359,0.018
54591.248816,15.391,0.022
54591.258976,15.363,0.022
54591.269141,15.321,0.022
54591.2793,15.279,0.02
54591.289452,15.309,0.022
54614.169138,15.272,0.017
54614.179104,15.275,0.017
54614.189064,15.298,0.017
54614.199068,15.315,0.018
54614.209047,15.376,0.018
54622.167201,15.526,0.099
54622.168707,15.559,0.059
54622.177548,15.631,0.094
54622.17908,15.663,0.043
54622.187661,15.664,0.076
54622.189313,15.691,0.039
54622.197716,15.648,0.074
54622.199541,15.667,0.035
54622.207773,15.603,0.069
