mjd,m,merr
52618.368975,15.053,0.033
52618.400211,15.082,0.043
52618.415393,15.138,0.02
52618.430554,15.147,0.021
52636.294307,14.809,0.015
52636.308343,14.651,0.013
52636.322893,14.531,0.011
52636.337029,14.5,0.011
52636.35119,14.541,0.013
52650.242399,15.117,0.02
52650.257618,15.134,0.02
52650.274075,15.143,0.02
52650.289354,15.145,0.02
52650.304842,15.162,0.02
52653.3063,15.254,0.022
52653.32164,15.191,0.022
52653.337031,15.218,0.022
52653.352374,15.09,0.02
52653.36775,14.772,0.015
52660.239829,14.525,0.018
52660.254423,14.552,0.017
52660.268987,14.59,0.017
52660.283591,14.646,0.018
52660.298178,14.639,0.018
52693.260078,14.53,0.009
52693.27542,14.578,0.009
52693.292043,14.619,0.009
52693.307603,14.672,0.011
52693.323107,14.724,0.011
52711.174779,14.996,0.035
52711.201561,15.036,0.035
52711.215125,15.057,0.026
52711.228805,15.048,0.026
52721.179745,14.595,0.009
52721.192554,14.639,0.011
52721.205318,14.671,0.011
52721.218105,14.717,0.011
52721.230946,14.749,0.011
52750.13236,15.086,0.037
52750.14295,14.882,0.015
52750.15356,14.789,0.013
52750.164174,14.675,0.011
52750.174777,14.556,0.011
52914.433545,15.107,0.033
52914.446436,15.075,0.022
52914.459594,15.132,0.072
52914.47247,15.064,0.057
52914.485951,15.138,0.033
52964.438619,15.023,0.012
52964.453239,15.029,0.013
52964.470496,15.05,0.013
52967.240181,14.93,0.015
52967.248207,14.945,0.015
52967.256965,14.953,0.015
52967.264964,14.988,0.015
52967.272903,14.995,0.015
52977.339411,14.575,0.013
52977.350503,14.616,0.012
52977.361706,14.644,0.013
52977.37301,14.679,0.013
52978.378934,15.269,0.022
52978.391655,15.185,0.02
52978.404378,15.007,0.017
52978.417113,14.784,0.015
52978.429975,14.687,0.013
52988.326437,14.931,0.015
52988.33951,14.927,0.015
52988.352487,15.005,0.015
52988.365459,15.034,0.015
52988.378345,15.044,0.015
53006.265871,15.314,0.031
53006.291709,15.153,0.023
53008.277099,15.005,0.02
53008.289612,15.026,0.02
53008.302167,15.059,0.02
53038.311662,14.743,0.02
53038.327794,14.717,0.018
53038.343066,14.744,0.02
53045.215486,14.894,0.015
53045.226846,14.908,0.015
53045.238222,14.935,0.015
53045.249409,14.933,0.017
53045.260976,14.972,0.017
53075.217132,14.535,0.05
53108.190212,15.157,0.018
53108.201411,14.983,0.017
53108.212676,14.826,0.015
53108.223968,14.713,0.013
53108.235266,14.591,0.013
53121.142437,15.069,0.024
53121.153201,15.067,0.024
53121.163898,15.1,0.022
53121.174758,15.077,0.024
53121.185479,15.094,0.024
53125.14598,15.126,0.046
53125.155983,15.093,0.043
53125.166698,15.114,0.046
53125.176995,15.137,0.055
53134.148832,15.087,0.022
53134.158296,15.091,0.024
53134.167773,15.097,0.022
53134.177257,15.104,0.022
53262.412775,15.235,0.023
53262.424919,15.236,0.021
53262.436992,15.282,0.021
53262.449121,15.258,0.021
53262.46175,15.153,0.018
53294.368351,14.74,0.013
53294.379396,14.614,0.011
53294.390452,14.491,0.011
53294.401512,14.521,0.009
53294.412586,14.549,0.009
53301.379786,14.874,0.015
53301.39159,14.905,0.017
53301.403468,14.937,0.017
53301.415409,14.937,0.017
53301.427243,14.979,0.017
53303.430255,15.214,0.028
53303.442125,15.162,0.024
53303.453989,14.96,0.018
53303.465855,14.772,0.024
53303.477804,14.697,0.03
53312.375682,15.082,0.031
53312.387864,15.095,0.031
53312.399928,15.074,0.031
53312.411961,15.111,0.031
53312.424026,15.098,0.03
53319.411865,14.769,0.015
53319.425037,14.615,0.013
53319.439518,14.532,0.012
53319.454655,14.561,0.012
53319.468899,14.615,0.013
53329.453435,15.15,0.021
53329.465909,15.145,0.021
53329.478714,15.145,0.021
53329.491188,15.133,0.02
53329.503915,15.111,0.02
53349.395749,15.146,0.02
53349.407847,15.129,0.02
53349.421737,15.137,0.02
53349.434262,15.139,0.02
53349.446399,15.138,0.022
53350.395525,15.012,0.018
53350.4087,15.018,0.018
53350.422465,15.049,0.02
53350.435934,15.068,0.02
53350.449105,15.086,0.02
53355.429776,14.857,0.013
53355.442661,14.881,0.013
53359.340793,14.671,0.013
53359.356811,14.713,0.013
53359.372854,14.746,0.012
53359.388982,14.795,0.013
53362.359322,15.042,0.033
53362.373696,14.999,0.033
53362.401287,15.02,0.03
53385.417751,15.078,0.017
53385.43067,14.797,0.013
53385.443599,14.719,0.013
53385.45708,14.577,0.011
53385.470637,14.506,0.011
53415.236433,14.857,0.011
53415.248726,14.936,0.013
53415.261758,14.962,0.013
53415.27408,14.979,0.013
53415.286383,14.982,0.013
53437.175791,15.25,0.015
53437.187748,15.264,0.017
53437.200361,15.268,0.017
53437.212701,15.229,0.017
53437.227546,15.015,0.013
53461.178429,14.534,0.011
53461.188834,14.524,0.011
53461.199152,14.54,0.011
53461.209648,14.588,0.011
53461.219915,14.613,0.013
53490.14426,15.28,0.02
53490.154663,15.245,0.02
53490.165054,15.14,0.018
53490.175797,14.951,0.017
53686.400651,15.039,0.018
53686.413248,15.021,0.015
53686.425875,15.027,0.015
53686.438378,15.111,0.015
53697.401048,14.67,0.017
53726.345199,15.164,0.026
53726.359337,15.244,0.018
53726.373084,15.236,0.018
53726.386437,15.194,0.018
53726.40479,15.089,0.017
53756.288643,15.034,0.018
53756.302199,15.055,0.02
53756.315153,15.078,0.022
53756.328482,15.084,0.022
53774.229047,14.886,0.03
53774.242048,14.722,0.024
53774.254969,14.621,0.018
53774.268586,14.496,0.015
53774.281502,14.498,0.017
53802.242642,14.704,0.018
53802.254955,14.714,0.018
53802.267261,14.745,0.021
53828.179307,15.147,0.02
53828.189961,15.114,0.018
53828.200582,15.097,0.023
53828.211182,15.079,0.028
53828.221848,15.129,0.021
53842.135268,14.816,0.015
53842.146499,14.814,0.015
53842.157889,14.851,0.017
53842.16945,14.873,0.017
53842.180766,14.883,0.017
53990.442781,15.233,0.041
53990.454878,15.269,0.041
53990.467805,15.286,0.04
53995.426582,15.065,0.028
53995.440326,15.123,0.028
53995.454004,15.142,0.026
54051.426377,15.299,0.035
54051.438572,15.224,0.035
54051.450751,15.089,0.018
54072.319677,15.08,0.036
54072.336226,15.117,0.036
54072.351075,15.119,0.035
54072.364903,15.124,0.035
54072.378165,15.123,0.035
54080.306914,15.113,0.018
54080.318807,15.108,0.018
54080.330701,15.102,0.018
54080.342595,15.118,0.018
54080.354773,15.129,0.018
54108.275828,15.102,0.023
54108.28791,15.116,0.023
54108.300373,15.162,0.025
54108.312892,15.186,0.025
54108.326256,15.218,0.026
54125.260726,15.085,0.018
54125.272404,15.107,0.018
54125.284863,15.132,0.018
54125.296455,15.124,0.018
54125.307975,15.124,0.018
54139.21865,14.652,0.012
54139.23069,14.697,0.012
54139.242489,14.72,0.012
54139.254363,14.772,0.012
54139.265809,14.795,0.013
54167.238692,14.93,0.02
54167.250016,14.96,0.021
54167.261094,14.955,0.023
54407.401522,14.805,0.016
54407.413667,14.848,0.018
54407.42708,14.865,0.018
54407.438774,14.873,0.018
54407.450524,14.91,0.018
54416.378384,14.68,0.015
54416.390315,14.543,0.013
54416.402214,14.512,0.013
54416.414212,14.539,0.013
54416.426319,14.584,0.013
54470.262621,15.167,0.023
54470.275048,15.179,0.023
54470.287474,15.164,0.023
54483.267037,15.056,0.025
54483.279279,15.085,0.026
54483.291548,15.093,0.026
54483.303731,15.089,0.026
54483.315994,15.087,0.026
54497.26327,14.599,0.013
54497.275169,14.639,0.015
54497.287375,14.675,0.02
54497.299265,14.722,0.016
54497.312492,14.731,0.02
54525.2227,14.777,0.016
54525.234427,14.801,0.018
54525.245804,14.86,0.02
54525.257186,14.872,0.018
54525.268907,14.885,0.018
54539.1623,15.125,0.03
54539.172698,15.113,0.03
54539.183086,15.111,0.03
54539.1935,15.097,0.028
54539.204088,15.118,0.03
54571.138854,15.246,0.04
54571.149542,15.274,0.043
54571.160318,15.288,0.043
54571.17101,15.273,0.043
54571.182281,15.185,0.04
54586.14037,14.76,0.023
54586.150558,14.768,0.023
