mjd,m,merr
52646.470779,18.674,0.487
52646.485817,18.11,0.249
52646.501028,17.957,0.208
52646.530833,17.766,0.183
52649.470572,16.664,0.065
52649.486227,16.647,0.065
52649.50091,16.555,0.059
52649.515082,16.578,0.063
52649.529524,16.488,0.057
52676.358567,16.817,0.087
52676.37428,16.844,0.089
52676.389895,16.833,0.081
52676.40665,16.881,0.083
52676.425747,16.886,0.087
52698.309674,16.554,0.05
52698.323685,16.579,0.052
52698.338434,16.547,0.05
52698.353056,16.595,0.054
52698.367223,16.594,0.063
52701.312962,16.664,0.066
52701.326217,16.892,0.221
52701.339299,16.717,0.068
52701.352338,16.748,0.071
52701.365847,16.667,0.064
52725.375472,16.935,0.101
52725.387956,16.949,0.086
52725.400475,16.873,0.081
52725.412683,17.064,0.099
52725.425139,16.836,0.086
52733.24999,16.958,0.089
52733.286216,17.058,0.099
52733.298421,16.877,0.101
52754.206485,16.561,0.057
52754.218649,16.585,0.059
52754.230943,16.475,0.055
52754.243125,16.481,0.055
52754.255253,16.474,0.055
52761.205535,16.914,0.147
52761.217581,17.068,0.175
52761.229612,16.926,0.119
52761.241868,16.918,0.101
52761.254277,16.952,0.094
52768.209568,16.905,0.137
52768.221336,17.003,0.148
52768.233404,16.799,0.124
52768.245254,16.871,0.133
52768.257103,16.766,0.124
52974.464199,16.599,0.07
52974.476974,16.689,0.072
52974.48959,16.684,0.068
52974.502448,16.753,0.07
52974.515681,16.628,0.063
52993.479442,16.879,0.058
53003.381957,16.796,0.057
53003.394122,16.827,0.059
53003.40625,16.674,0.072
53033.343243,16.595,0.064
53033.380325,16.703,0.073
53033.392614,16.656,0.078
53052.334385,16.842,0.068
53052.346707,16.848,0.067
53052.35919,16.924,0.072
53052.371045,16.922,0.068
53052.382891,16.886,0.067
53062.354269,16.75,0.313
53062.366462,16.861,0.109
53062.378733,16.868,0.091
53062.390168,16.932,0.104
53110.275367,16.717,0.076
53118.289223,16.981,0.058
53118.299481,16.921,0.058
53148.269603,16.776,0.071
53175.201925,16.627,0.064
53175.211613,16.583,0.063
53348.499499,16.861,0.102
53348.513431,16.86,0.097
53355.459845,16.577,0.24
53404.435292,16.819,0.074
53404.448243,16.859,0.079
53404.461357,16.844,0.081
53404.47412,16.789,0.083
53404.487344,16.871,0.094
53410.481653,16.534,0.044
53410.494121,16.559,0.046
53410.506572,16.538,0.046
53410.518983,16.552,0.046
53438.412605,16.489,0.052
53438.42506,16.495,0.054
53438.436962,16.469,0.055
53438.448836,16.536,0.057
53438.460653,16.483,0.057
53445.412249,16.978,0.076
53445.423971,16.945,0.074
53445.435541,16.869,0.07
53445.447855,16.99,0.08
53445.459356,17.003,0.083
53471.268469,17.047,0.096
53471.278633,16.972,0.093
53471.288453,17.097,0.104
53471.298352,17.006,0.098
53471.308093,16.967,0.096
53502.196411,16.73,0.08
53502.207575,16.649,0.074
53502.218043,16.585,0.072
53502.229656,16.634,0.078
53502.242103,16.581,0.072
53523.171616,16.633,0.074
53523.18215,16.63,0.074
53523.192711,16.622,0.078
53523.203226,16.722,0.081
53523.213758,16.653,0.074
53712.469004,16.655,0.085
53712.482184,16.551,0.072
53712.495448,16.538,0.07
53712.5085,16.614,0.07
53712.521456,16.654,0.074
53738.520385,16.863,0.087
53769.39287,16.807,0.067
53769.406403,16.809,0.063
53769.419866,16.793,0.063
53769.433047,16.874,0.094
53769.44635,16.879,0.072
53789.356755,16.735,0.234
53789.369518,16.877,0.19
53789.381922,16.8,0.068
53789.394542,16.846,0.064
53789.407134,16.816,0.097
53845.252747,16.678,0.333
53845.263878,16.302,0.185
53845.274736,16.813,0.104
53845.28559,16.701,0.144
53852.262245,16.443,0.071
53852.282499,16.492,0.079
53881.168272,16.776,0.091
53881.179446,16.826,0.096
53881.190523,16.872,0.094
53881.2017,16.822,0.094
53881.212853,16.822,0.102
53902.171553,16.934,0.165
53902.211276,16.808,0.137
54067.488917,16.56,0.055
54067.501996,16.596,0.054
54153.33923,17.012,0.091
54153.386553,16.685,0.153
54208.217818,16.732,0.079
54208.226503,16.667,0.078
54208.235385,16.77,0.084
54208.244055,16.68,0.078
54452.457688,16.703,0.052
54452.470851,16.678,0.05
54452.483986,16.553,0.044
54452.497152,16.539,0.043
54452.510318,16.531,0.041
54476.403876,16.699,0.044
54476.416743,16.695,0.044
54476.429735,16.679,0.046
54476.442609,16.755,0.046
54476.45585,16.75,0.046
54484.363409,16.986,0.122
54484.376335,16.936,0.113
54484.389604,16.982,0.113
54533.32954,16.906,0.044
54533.341337,16.893,0.044
54533.352631,16.903,0.044
54533.364015,16.951,0.048
54533.37539,16.919,0.044
54539.26365,16.665,0.063
54539.274511,16.599,0.041
54539.285375,16.521,0.039
54539.30729,16.503,0.035
54559.185758,16.913,0.059
54559.197319,16.933,0.059
54559.208888,16.891,0.057
54559.220614,16.923,0.057
54559.232181,16.992,0.063
54567.238014,16.638,0.052
54567.249214,16.558,0.048
54567.260467,16.515,0.046
54567.271696,16.513,0.048
54567.282896,16.469,0.044
54581.244853,16.874,0.068
54581.255429,16.771,0.07
54581.265976,16.739,0.078
54581.276638,16.796,0.091
54581.287187,16.863,0.102
54587.248957,16.914,0.072
54587.259372,16.954,0.076
54587.269912,16.85,0.072
54587.280323,16.836,0.07
54587.290708,16.69,0.063
54592.19277,17.058,0.14
54592.202743,17.042,0.137
54592.212572,16.984,0.127
54592.222372,17.074,0.142
54592.232248,17.106,0.144
54595.201623,16.617,0.063
54595.211624,16.627,0.065
54595.221703,16.542,0.059
54595.231668,16.554,0.059
54595.241593,16.511,0.057
54619.165329,16.776,0.067
54619.175622,16.806,0.068
54619.185823,16.84,0.07
54619.196062,16.856,0.08
54619.206264,16.884,0.111
