mjd,m,merr
52618.454851,16.766,0.178
52618.469936,16.566,0.116
52618.485019,16.368,0.12
52618.500039,16.56,0.109
52618.515068,16.675,0.099
52622.458493,17.151,0.117
52622.473096,17.035,0.111
52622.488052,16.816,0.087
52622.502955,16.723,0.079
52638.497415,17.118,0.109
52650.363724,16.697,0.067
52650.377826,16.792,0.07
52650.391958,16.8,0.068
52650.396599,16.826,0.078
52650.406089,16.838,0.068
52650.41275,16.904,0.079
52650.420184,16.942,0.076
52650.430118,16.882,0.078
52650.444894,16.986,0.084
52650.460392,16.946,0.081
52665.395156,16.684,0.073
52665.409889,16.811,0.078
52665.4407,16.94,0.091
52665.455402,16.963,0.087
52677.407505,16.758,0.081
52677.422645,16.871,0.149
52677.437537,16.779,0.134
52677.452513,16.836,0.086
52677.468004,16.765,0.087
52696.342142,17.094,0.081
52696.354748,17.152,0.085
52696.367175,17.109,0.081
52696.3926,17.193,0.091
52711.309441,16.881,0.085
52711.323483,16.915,0.087
52711.337861,16.892,0.083
52711.35204,16.944,0.089
52711.366167,17.019,0.094
52723.337485,16.975,0.45
52739.243591,17.05,0.1
52739.255107,17.054,0.1
52739.266513,16.985,0.094
52739.27791,16.935,0.089
52739.289397,16.79,0.08
52752.235581,16.965,0.087
52752.245844,17.091,0.098
52752.256101,17.145,0.098
52752.266467,17.146,0.102
52752.276766,17.18,0.107
52770.208802,16.885,0.146
52770.220681,16.894,0.154
52770.232981,16.94,0.163
52770.245037,16.908,0.161
52770.257296,17.022,0.181
52787.214001,16.656,0.059
52787.224749,16.62,0.059
52787.23538,16.683,0.063
52787.245962,16.753,0.067
52787.256541,16.786,0.076
52811.173606,17.561,0.244
52811.183525,17.273,0.19
52811.193496,17.421,0.211
52811.20357,17.49,0.231
52811.213882,17.242,0.188
52977.454439,17.036,0.098
52977.466729,17.16,0.107
52977.478898,17.041,0.096
52977.491318,17.183,0.111
52977.503634,17.227,0.115
52991.502238,16.993,0.072
52991.515493,16.959,0.07
52991.529147,17.11,0.105
53006.439229,16.714,0.073
53024.386484,17.127,0.228
53024.399389,17.043,0.107
53035.407511,17.051,0.1
53035.419854,17.092,0.102
53035.432221,17.126,0.08
53035.445252,16.904,0.117
53035.457603,17.023,0.078
53050.329529,16.76,0.104
53050.341216,16.799,0.137
53050.364509,16.654,0.163
53050.37612,16.995,0.17
53065.284734,16.739,0.065
53065.295966,16.683,0.061
53065.307314,16.647,0.057
53065.318616,16.607,0.057
53065.329847,16.614,0.059
53078.282909,17.134,0.08
53078.293711,17.077,0.08
53078.304459,17.07,0.074
53078.315198,16.989,0.072
53078.325861,16.937,0.07
53079.360702,16.652,0.054
53079.372022,16.626,0.054
53079.38322,16.622,0.055
53079.394435,16.652,0.057
53079.406117,16.619,0.059
53080.335206,16.853,0.064
53080.346368,16.737,0.058
53080.357616,16.635,0.054
53080.368829,16.709,0.058
53080.380085,16.651,0.054
53091.275501,16.997,0.055
53091.278637,17.059,0.058
53091.285912,17.042,0.057
53091.28865,17.098,0.059
53091.296398,17.05,0.057
53091.298831,17.1,0.058
53091.306972,17.097,0.057
53091.309314,17.039,0.054
53091.317387,17.032,0.054
53091.319476,17.067,0.054
53093.276427,17.045,0.067
53093.287001,17.014,0.063
53093.297286,17.051,0.065
53093.30758,17.128,0.067
53093.317897,17.015,0.061
53095.274287,17.055,0.109
53095.284705,17.022,0.107
53095.295129,17.063,0.107
53095.305418,17.087,0.111
53095.31579,17.164,0.118
53096.270199,16.971,0.163
53096.280589,17.262,0.239
53096.30135,17.099,0.255
53096.311662,17.082,0.229
53109.242101,16.825,0.067
53109.253218,16.81,0.067
53109.264357,16.858,0.07
53109.275402,16.86,0.07
53109.286488,16.918,0.074
53121.200798,16.65,0.052
53121.21132,16.667,0.054
53121.221723,16.631,0.05
53121.232134,16.631,0.05
53121.242537,16.641,0.052
53137.203232,17.075,0.102
53137.21281,17.081,0.098
53137.222401,17.019,0.096
53150.205034,17.295,0.255
53150.231309,17.067,0.215
53165.173373,16.9,0.111
53165.18336,16.786,0.126
53165.193339,16.776,0.191
53165.203318,16.889,0.094
53165.213338,17.012,0.148
53166.236907,17.086,0.137
53166.239987,16.918,0.1
53166.246561,17.104,0.137
53166.249434,17.137,0.113
53166.256265,17.083,0.142
53166.258883,17.112,0.115
53166.268335,17.229,0.133
53166.277872,17.176,0.128
53177.174471,16.74,0.076
53177.184421,16.741,0.074
53177.194345,16.741,0.081
53319.467403,16.804,0.12
53319.479279,16.834,0.12
53319.491154,16.877,0.118
53319.503017,16.891,0.115
53341.470284,16.604,0.137
53341.484085,16.499,0.124
53341.496613,16.645,0.139
53341.509628,16.598,0.125
53341.522165,16.762,0.145
53349.469023,16.693,0.094
53349.481013,16.624,0.087
53349.493259,16.656,0.091
53349.505689,16.582,0.083
53349.519343,16.631,0.081
53443.380971,17.031,0.152
53443.391614,17.074,0.091
53443.402253,17.006,0.17
53443.412876,16.822,0.29
53443.423499,17.03,0.248
53473.384705,16.669,0.08
53473.396671,16.806,0.093
53473.406504,16.703,0.085
53473.416381,16.768,0.094
53473.425995,16.774,0.1
53498.21369,16.989,0.226
53498.225213,16.886,0.159
53498.235843,16.96,0.118
53498.246328,16.983,0.105
53499.209546,16.811,0.074
53499.220142,16.906,0.081
53499.230937,16.872,0.08
53499.2415,16.901,0.081
53499.252443,16.994,0.089
53528.173294,16.992,0.124
53528.184941,16.826,0.111
53528.1961,16.724,0.1
53528.206762,16.685,0.098
53528.217255,16.702,0.102
53539.172621,17.164,0.246
53539.18214,17.063,0.228
53539.19167,17.164,0.255
53539.201188,17.044,0.237
53539.210704,16.979,0.228
53550.174034,17.046,0.122
53550.1938,17.205,0.172
53550.203686,17.015,0.13
53550.213575,17.248,0.174
53702.445836,16.934,0.1
53702.45859,17.003,0.107
53702.471282,17.016,0.105
53702.483864,16.996,0.098
53702.496805,16.988,0.096
53741.41509,16.86,0.059
53741.427899,16.768,0.054
53741.440758,16.705,0.052
53741.453481,16.602,0.046
53741.466277,16.607,0.046
53786.339307,16.631,0.061
53786.351246,16.698,0.105
53786.363183,16.76,0.08
53786.375222,17.007,0.163
53812.301829,17.175,0.137
53812.313476,17.174,0.137
53843.258755,16.653,0.071
53843.270118,16.715,0.081
53843.281734,16.922,0.106
53843.293133,16.793,0.097
53843.304517,16.729,0.096
53854.239416,16.609,0.079
53854.249525,16.647,0.083
53854.25948,16.62,0.083
53854.269606,16.666,0.2
53854.279654,16.523,0.195
53882.209924,17.225,0.137
53882.220422,16.926,0.104
53882.231067,17.074,0.122
53882.24178,17.028,0.117
53882.252308,17.14,0.142
53886.17751,16.74,0.096
53886.188173,16.894,0.111
53886.198923,16.863,0.111
53886.209718,16.921,0.115
53886.220618,17.044,0.13
53903.173604,16.756,0.12
53903.183679,16.789,0.13
53903.19389,16.699,0.115
53903.204114,16.715,0.113
53903.214343,16.87,0.128
54067.459752,16.686,0.079
54067.472618,16.542,0.071
54067.486477,16.64,0.078
54067.499624,16.58,0.068
54067.512243,16.582,0.063
54085.46318,17.283,0.172
54085.476104,17.108,0.14
54085.489012,16.985,0.112
54085.502014,16.938,0.104
54085.515209,16.966,0.106
54123.382641,16.669,0.059
54123.394952,16.578,0.055
54123.407293,16.603,0.055
54123.41982,16.689,0.059
54123.43234,16.765,0.063
54156.317742,17.022,0.111
54156.328743,17.033,0.107
54156.339834,17.088,0.112
54156.350859,17.18,0.116
54156.36196,17.143,0.111
54207.228818,17.098,0.111
54207.238376,17.124,0.119
54207.248187,17.065,0.102
54207.258894,17.069,0.102
54207.272407,17.098,0.109
54216.22119,16.86,0.115
54216.22984,16.923,0.117
54216.238488,16.97,0.124
54216.247141,16.913,0.117
54216.255793,17.019,0.128
54529.20848,16.953,0.092
54529.221774,17.145,0.109
54529.233449,17.072,0.099
54529.244877,17.27,0.114
54529.255952,16.946,0.086
54562.122779,17.062,0.132
54562.177594,16.647,0.083
54573.262311,16.465,0.113
54573.273046,16.692,0.135
54573.283799,16.715,0.141
54582.240951,16.679,0.097
54582.251648,16.596,0.089
54582.261799,16.627,0.092
54582.271941,16.587,0.089
54582.282126,16.523,0.084
54613.204312,16.82,0.111
54613.214569,17.088,0.13
54613.225439,16.888,0.114
54613.235695,17.097,0.139
54613.246106,16.967,0.125
