mjd,m,merr
52612.46093,15.954,0.044
52612.476108,15.973,0.043
52612.491257,15.969,0.039
52612.50658,16.052,0.043
52612.521766,16.077,0.043
52620.465842,15.873,0.039
52620.48098,15.96,0.054
52620.51136,15.971,0.068
52620.52645,16.095,0.041
52622.443441,15.626,0.035
52622.458245,15.706,0.035
52622.472853,15.707,0.035
52622.487809,15.784,0.036
52622.502711,15.856,0.04
52623.428862,15.896,0.045
52623.443365,15.63,0.035
52623.443501,15.593,0.036
52623.458334,15.377,0.035
52623.459205,15.333,0.031
52623.474683,15.338,0.04
52623.474903,15.326,0.035
52623.489573,15.392,0.035
52623.490791,15.383,0.031
52623.506732,15.432,0.031
52638.49716,15.59,0.03
52638.512194,15.66,0.03
52650.363492,15.796,0.033
52650.377594,15.86,0.035
52650.391725,15.868,0.033
52650.405856,15.932,0.033
52650.419952,16.009,0.033
52665.395412,16.131,0.043
52665.410146,16.098,0.041
52665.425649,16.144,0.043
52665.440957,16.065,0.041
52665.45566,16.058,0.04
52677.407252,15.877,0.036
52677.422392,15.65,0.045
52677.437283,15.398,0.033
52677.467747,15.35,0.026
52680.4175,16.09,0.041
52680.44728,16.062,0.04
52680.462025,16.074,0.041
52696.34177,15.89,0.03
52696.354371,15.948,0.031
52696.3668,15.984,0.031
52696.392224,16.015,0.033
52712.251124,15.653,0.061
52712.277557,15.68,0.044
52712.290791,15.664,0.039
52712.304043,15.723,0.041
52723.324981,16.298,0.351
52723.336648,16.199,0.048
52752.235242,15.774,0.031
52752.245509,15.613,0.026
52752.276431,15.308,0.02
52770.208348,16.103,0.076
52770.220232,16.03,0.078
52770.232529,16.073,0.08
52770.244516,16.064,0.081
52770.256848,16.168,0.094
52787.168706,15.883,0.036
52787.179941,15.921,0.038
52787.191008,15.918,0.04
52787.202167,15.984,0.04
52787.213225,15.99,0.04
52811.173699,15.793,0.049
52811.183619,15.826,0.051
52811.19359,15.84,0.051
52811.203681,15.795,0.051
52811.213975,15.859,0.054
52977.454136,15.806,0.037
52977.466426,15.83,0.037
52977.478595,15.83,0.039
52977.491015,15.907,0.041
52977.503331,15.855,0.039
52991.488819,16.016,0.03
52991.501325,16.023,0.028
52991.513942,16.009,0.03
52991.526485,15.982,0.033
53024.423235,15.702,0.028
53035.40718,16.066,0.043
53035.419523,16.068,0.037
53035.43189,16.065,0.035
53035.444921,16.13,0.044
53035.457256,16.192,0.041
53049.333659,16.107,0.033
53049.345525,16.163,0.033
53049.357388,16.195,0.035
53049.369249,16.19,0.035
53049.381113,16.154,0.035
53093.275783,15.327,0.015
53093.29664,15.468,0.017
53093.317253,15.522,0.017
53107.237264,15.573,0.023
53107.247621,15.598,0.023
53107.258015,15.65,0.025
53107.268501,15.691,0.026
53107.279005,15.691,0.025
53122.197472,15.548,0.028
53122.207813,15.574,0.025
53122.218089,15.67,0.038
53122.228437,15.668,0.026
53122.238737,15.692,0.026
53136.198938,15.834,0.036
53136.209226,15.87,0.04
53136.217962,15.908,0.04
53136.226686,15.868,0.04
53136.235539,15.908,0.041
53153.204064,15.573,0.035
53153.213477,15.536,0.035
53153.22366,15.608,0.036
53153.232616,15.592,0.036
53153.241207,15.646,0.038
53154.203991,15.319,0.045
53154.214523,15.24,0.043
53154.222752,15.269,0.048
53154.23949,15.285,0.051
53164.173417,16.143,0.046
53164.182903,16.083,0.045
53164.192575,16.088,0.048
53164.202165,16.156,0.048
53164.211731,16.06,0.048
53178.17409,16.159,0.041
53178.183521,16.186,0.043
53178.19345,16.152,0.041
53178.202988,16.059,0.04
53178.212406,15.815,0.031
53319.46711,15.736,0.048
53319.478986,15.722,0.046
53319.490861,15.744,0.044
53319.502724,15.788,0.044
53341.470095,15.885,0.074
53341.483894,15.885,0.071
53341.496422,15.881,0.071
53341.509437,15.99,0.073
53341.521973,16.088,0.079
53349.468384,15.896,0.052
53349.480375,15.958,0.052
53349.492621,15.939,0.052
53349.505053,15.973,0.052
53349.518705,15.972,0.048
53474.248303,16.18,0.046
53474.258814,16.208,0.048
53474.270292,16.204,0.048
53474.280657,16.225,0.048
53474.290794,16.156,0.046
53498.213293,16.152,0.17
53498.224816,16.07,0.085
53498.235444,16.194,0.061
53498.245931,16.118,0.046
53499.209149,16.086,0.039
53499.219745,16.073,0.041
53499.230539,16.04,0.039
53499.241102,16.06,0.041
53499.252045,16.051,0.041
53521.205156,16.147,0.083
53521.215495,16.151,0.067
53521.225791,16.124,0.065
53521.236121,16.222,0.109
53521.246442,16.149,0.083
53538.192918,15.785,0.093
53538.202473,15.887,0.102
53550.173756,16.237,0.057
53550.193521,16.151,0.063
53550.213296,15.627,0.041
53702.445549,16.168,0.052
53702.458303,16.185,0.054
53702.470996,16.173,0.052
53702.483577,16.245,0.054
53702.496519,16.242,0.052
53741.414651,16.082,0.033
53741.427465,16.1,0.033
53741.440323,16.065,0.031
53741.453046,16.047,0.031
53741.465843,16.104,0.031
53786.374103,16.232,0.053
53812.301554,15.776,0.04
53812.313205,15.857,0.041
53843.258893,15.758,0.035
53843.270254,15.764,0.038
53843.281871,15.764,0.041
53843.29327,15.796,0.041
53843.304655,15.778,0.045
53854.238953,16.123,0.083
53854.249063,16.05,0.081
53854.259017,16.133,0.086
53854.269142,16.131,0.163
53882.209564,15.51,0.03
53882.220061,15.545,0.03
53882.230707,15.606,0.031
53882.24136,15.626,0.033
53882.251947,15.701,0.038
53886.177035,16.049,0.055
53886.187693,16.041,0.055
53886.198444,16.059,0.055
53886.209232,16.027,0.054
53886.220134,16.106,0.057
53903.183323,15.972,0.061
53903.193514,15.931,0.059
53903.203755,15.937,0.057
54054.464093,15.902,0.061
54054.476824,16.011,0.061
54054.489841,15.883,0.049
54054.502402,16.009,0.053
54054.516032,16.128,0.058
54068.461096,16.082,0.051
54068.48819,16.105,0.046
54085.462701,15.887,0.048
54085.475625,15.965,0.049
54085.488534,15.979,0.046
54085.501533,16.031,0.045
54085.514732,16.056,0.046
54123.382176,15.888,0.037
54123.394487,15.936,0.037
54123.406827,15.938,0.037
54123.419352,15.966,0.039
54123.431874,15.964,0.041
54156.317447,15.336,0.025
54156.32845,15.25,0.023
54156.33954,15.273,0.023
54156.350566,15.333,0.023
54156.361665,15.425,0.025
54201.277594,15.51,0.022
54201.287661,15.536,0.024
54201.298083,15.582,0.024
54201.307784,15.606,0.024
54201.317428,15.635,0.024
54207.228333,15.776,0.058
54207.237882,15.736,0.058
54207.247697,15.771,0.058
54207.258405,15.813,0.061
54207.271837,15.828,0.063
54216.220725,15.333,0.026
54216.229374,15.458,0.028
54216.246676,15.472,0.028
54216.25533,15.543,0.03
54508.356388,16.065,0.036
54508.369027,16.078,0.035
54508.381217,16.028,0.036
54508.393407,16.093,0.036
54508.405343,16.106,0.035
54543.282489,15.392,0.053
54543.293349,15.342,0.051
54543.304257,15.39,0.049
54543.316483,15.397,0.051
54561.199702,16.05,0.086
54561.211079,16.058,0.059
54561.222512,16.025,0.053
54573.2618,15.411,0.044
54573.272536,15.52,0.048
54573.283275,15.546,0.048
54582.251765,16.173,0.079
54582.282245,15.616,0.049
54613.204419,16.095,0.087
54613.214677,16.137,0.089
54613.225547,16.238,0.092
54613.235802,16.237,0.091
54613.246214,16.114,0.081
