mjd,m,merr
52641.463036,15.151,0.018
52641.478322,15.188,0.02
52641.493534,15.206,0.02
52641.508727,15.278,0.02
52641.523842,15.336,0.02
52644.486954,15.277,0.02
52644.501764,15.317,0.026
52644.516697,15.333,0.03
52644.531424,15.317,0.026
52648.397362,15.453,0.028
52648.412413,15.355,0.026
52648.427104,15.276,0.024
52648.442253,15.132,0.02
52648.457606,15.049,0.018
52667.465749,15.052,0.017
52667.481019,15.0,0.018
52667.496268,15.081,0.02
52667.511401,15.046,0.02
52667.526864,15.107,0.02
52671.399157,15.234,0.02
52671.414515,15.255,0.02
52671.429699,15.287,0.02
52671.444972,15.334,0.022
52671.460301,15.328,0.022
52674.39897,15.266,0.02
52674.412963,15.31,0.022
52674.426958,15.318,0.022
52674.440837,15.379,0.022
52674.454775,15.4,0.024
52704.370659,15.363,0.022
52704.383887,15.372,0.022
52704.39725,15.369,0.022
52704.410428,15.344,0.022
52704.423504,15.347,0.022
52707.31752,15.312,0.018
52707.330715,15.315,0.018
52707.344435,15.357,0.02
52707.357719,15.402,0.02
52707.371079,15.416,0.02
52728.290885,15.188,0.018
52728.303436,15.205,0.018
52728.3162,15.221,0.018
52728.328724,15.269,0.018
52728.342501,15.27,0.018
52731.310727,15.304,0.043
52731.322699,15.326,0.02
52731.334691,15.44,0.048
52731.346701,15.391,0.028
52738.243571,15.27,0.02
52738.255009,15.228,0.018
52738.266928,15.133,0.018
52738.278461,15.05,0.017
52738.289982,14.997,0.015
52755.206042,15.001,0.018
52755.218005,14.996,0.018
52755.229935,14.996,0.018
52755.241909,15.018,0.018
52755.25382,15.073,0.02
52760.206357,15.228,0.017
52760.218285,15.143,0.017
52760.230214,15.076,0.017
52760.242154,15.051,0.017
52760.254078,15.069,0.017
52764.143987,14.988,0.009
52764.157079,15.013,0.011
52764.169422,15.078,0.011
52764.182637,15.13,0.011
52764.194944,15.148,0.011
52766.258133,15.228,0.063
52767.207472,15.288,0.025
52767.207582,15.262,0.023
52767.220124,15.311,0.025
52767.220233,15.324,0.025
52767.231856,15.346,0.025
52767.243511,15.339,0.025
52767.255973,15.428,0.028
52767.256082,15.391,0.026
52789.214057,15.48,0.026
52789.224351,15.438,0.026
52789.234776,15.416,0.024
52789.245092,15.376,0.024
52789.255479,15.29,0.022
52794.171839,15.273,0.022
52794.181845,15.274,0.022
52794.191783,15.287,0.024
52794.201724,15.317,0.024
52794.211682,15.322,0.026
52816.169004,15.31,0.031
52816.178793,15.413,0.033
52816.189435,15.446,0.037
52816.199308,15.418,0.041
52816.209143,15.388,0.046
52967.450029,15.267,0.033
52967.462764,15.335,0.031
52967.475532,15.218,0.028
52967.488153,15.119,0.026
52967.500848,15.116,0.024
52995.469483,15.089,0.015
52995.48294,15.035,0.015
52995.496886,15.153,0.015
52995.524127,15.297,0.015
53000.517464,15.085,0.011
53000.53038,15.102,0.011
53026.419037,15.185,0.015
53026.43307,15.176,0.017
53026.446087,15.231,0.054
53026.460607,15.175,0.02
53026.473431,15.149,0.026
53033.393406,15.048,0.02
53033.40571,15.05,0.017
53033.418222,15.072,0.017
53033.430275,15.11,0.018
53033.442423,15.124,0.017
53054.373475,14.975,0.013
53054.387033,14.959,0.013
53054.399046,14.968,0.013
53054.411701,14.962,0.013
53054.425333,15.032,0.013
53058.344322,15.02,0.011
53058.356672,15.071,0.011
53058.369015,15.14,0.011
53058.380417,15.158,0.013
53058.398677,15.205,0.013
53080.287566,15.278,0.017
53080.29953,15.317,0.018
53080.310882,15.352,0.018
53080.322213,15.37,0.018
53080.333498,15.377,0.018
53083.337706,15.264,0.015
53083.34839,15.267,0.015
53083.359516,15.295,0.015
53083.370598,15.298,0.015
53083.381441,15.236,0.015
53086.344169,15.118,0.015
53086.354973,15.114,0.017
53086.365754,15.057,0.015
53086.37671,14.998,0.015
53086.387665,15.022,0.015
53089.282133,15.433,0.015
53089.293221,15.393,0.015
53089.304386,15.356,0.015
53089.315521,15.281,0.018
53092.330653,15.068,0.013
53092.341148,15.076,0.015
53092.351327,15.053,0.013
53092.361507,15.054,0.013
53092.371688,15.024,0.013
53115.255476,14.989,0.013
53115.266707,15.051,0.015
53115.277786,15.011,0.015
53115.288869,15.157,0.015
53115.299972,15.203,0.015
53117.262706,15.174,0.013
53117.273175,15.165,0.013
53117.283977,15.153,0.013
53117.295063,15.178,0.013
53117.305448,15.18,0.013
53139.203278,14.977,0.017
53139.212588,14.988,0.017
53139.221888,14.982,0.017
53139.231188,15.032,0.017
53139.240652,15.074,0.018
53143.232966,15.226,0.018
53143.242409,15.267,0.018
53143.251816,15.253,0.018
53143.261158,15.236,0.017
53143.270505,15.296,0.018
53147.20606,15.02,0.015
53147.214842,15.026,0.015
53147.22366,15.043,0.015
53147.232822,15.073,0.015
53147.241903,15.082,0.015
53169.172754,15.137,0.02
53169.182878,15.165,0.02
53169.192973,15.184,0.02
53169.20307,15.196,0.022
53169.213179,15.249,0.022
53172.173205,15.081,0.017
53172.184159,15.096,0.017
53172.194589,15.144,0.018
53172.204885,15.162,0.028
53172.215133,15.174,0.02
53174.172171,15.158,0.018
53174.181988,15.142,0.018
53174.19396,15.091,0.018
53174.203783,15.067,0.018
53174.213971,15.034,0.018
53346.447544,15.032,0.035
53346.460004,14.978,0.031
53346.472233,15.036,0.033
53346.484435,15.055,0.031
53346.49673,15.07,0.03
53348.458637,15.353,0.031
53348.471575,15.35,0.03
53348.484027,15.266,0.03
53348.497855,15.217,0.033
53348.511044,15.202,0.031
53351.497632,15.118,0.025
53351.512099,15.163,0.026
53351.526371,15.172,0.026
53354.45499,14.946,0.018
53354.467935,14.912,0.018
53354.482079,14.92,0.017
53354.494904,14.953,0.018
53354.507861,14.975,0.018
53377.412393,15.275,0.022
53377.425558,15.253,0.022
53377.440006,15.293,0.02
53377.453532,15.275,0.02
53377.467237,15.238,0.02
53382.506919,15.297,0.02
53382.521669,15.254,0.02
53382.537255,15.286,0.02
53404.429745,15.294,0.022
53404.442057,15.326,0.022
53404.454943,15.339,0.022
53404.467821,15.358,0.024
53404.480721,15.314,0.024
53433.364744,15.133,0.017
53433.376195,15.123,0.017
53433.38765,15.106,0.017
53433.400319,15.109,0.018
53433.411993,15.097,0.018
53447.305912,14.949,0.017
53447.317257,14.989,0.015
53447.328056,15.011,0.017
53447.338825,15.039,0.018
53447.349617,15.096,0.017
53465.289009,15.351,0.022
53465.299925,15.34,0.022
53465.311855,15.292,0.022
53465.322539,15.264,0.022
53465.33382,15.205,0.02
53468.276514,15.236,0.055
53468.285969,15.097,0.026
53468.295971,15.098,0.03
53473.274425,15.375,0.024
53473.286728,15.384,0.024
53473.298038,15.354,0.024
53473.308917,15.328,0.024
53473.32086,15.292,0.024
53478.225774,15.249,0.043
53478.236726,15.318,0.041
53478.246782,15.279,0.039
53478.256924,15.356,0.041
53478.266977,15.313,0.041
53479.32239,14.969,0.043
53493.295691,15.218,0.026
53493.30598,15.2,0.026
53493.316646,15.278,0.028
53493.326707,15.251,0.026
53493.336792,15.268,0.028
53496.202115,14.992,0.02
53496.212314,14.983,0.02
53496.222636,14.991,0.02
53496.232904,15.008,0.02
53496.243106,15.0,0.02
53498.218826,15.387,0.104
53498.229452,15.355,0.05
53498.239594,15.279,0.041
53499.206416,15.124,0.018
53499.21697,15.111,0.018
53499.227794,15.098,0.02
53499.238178,15.097,0.02
53499.249101,15.084,0.02
53503.232196,15.229,0.02
53503.24083,15.236,0.02
53503.249717,15.225,0.018
53503.258741,15.154,0.02
53503.267978,15.108,0.018
53526.193048,15.255,0.05
53526.214029,15.209,0.03
53527.16963,15.33,0.026
53527.179921,15.329,0.026
53527.189821,15.372,0.028
53527.199582,15.341,0.028
53527.209383,15.355,0.028
53733.455785,15.123,0.02
53733.468433,15.127,0.02
53733.481167,15.122,0.026
53746.460978,15.102,0.028
53746.473398,15.108,0.024
53746.486092,15.031,0.022
53746.498548,14.995,0.02
53746.511064,15.001,0.018
53791.357764,15.339,0.018
53791.367776,15.213,0.02
53791.369545,15.303,0.018
53791.379517,15.254,0.02
53791.381335,15.295,0.018
53791.391272,15.264,0.02
53791.392957,15.305,0.018
53791.403024,15.249,0.022
53791.404841,15.312,0.018
53791.414784,15.221,0.022
53794.397507,15.42,0.02
53794.409119,15.375,0.02
53794.42075,15.348,0.02
53794.432376,15.345,0.02
53794.444005,15.271,0.018
53817.269304,15.244,0.02
53817.28057,15.176,0.018
53817.291839,15.14,0.018
53817.303172,15.134,0.018
53817.314482,15.076,0.016
53818.331254,15.318,0.022
53818.342867,15.31,0.022
53818.355264,15.33,0.022
53818.366843,15.361,0.024
53818.380021,15.366,0.024
53823.316086,15.159,0.018
53823.328834,15.187,0.02
53823.341983,15.147,0.018
53823.357706,15.161,0.02
53825.285558,15.171,0.02
53825.298036,15.124,0.024
53825.309054,15.092,0.02
53825.319399,15.047,0.018
53825.331104,15.061,0.022
53829.283612,15.127,0.091
53829.325136,15.294,0.039
53845.254453,15.005,0.036
53845.265689,15.04,0.031
53845.276928,15.072,0.031
53845.288212,15.119,0.023
53848.291067,15.201,0.028
53848.301824,15.176,0.026
53848.31248,15.207,0.028
53848.323268,15.205,0.028
53848.334161,15.26,0.03
53849.254573,15.273,0.022
53849.265314,15.223,0.022
53849.27601,15.195,0.022
53849.286709,15.198,0.022
53849.297702,15.181,0.022
53850.242885,15.12,0.023
53850.253279,15.092,0.02
53850.263562,15.095,0.02
53850.2739,15.147,0.021
53850.284297,15.199,0.023
53852.25903,15.307,0.028
53852.26984,15.261,0.026
53852.280212,15.192,0.026
53852.29125,15.127,0.024
53852.303004,15.057,0.022
53855.250069,15.259,0.024
53855.261178,15.22,0.024
53855.272816,15.176,0.024
53855.283722,15.18,0.024
53855.294405,15.136,0.022
53858.243487,15.137,0.052
53858.256583,15.095,0.072
53858.267266,15.134,0.048
53858.278293,15.16,0.031
53858.288925,15.135,0.026
53880.215722,15.16,0.021
53880.226907,15.131,0.021
53880.238059,15.118,0.021
53880.249351,15.139,0.021
53880.26036,15.121,0.021
53883.222081,15.194,0.026
53883.233487,15.179,0.026
53883.244993,15.257,0.028
53883.256442,15.242,0.03
53883.26787,15.286,0.031
53884.166649,15.283,0.028
53884.178397,15.305,0.028
53884.190164,15.288,0.03
53884.201964,15.314,0.03
53884.210592,15.387,0.026
53884.213742,15.337,0.03
53884.223443,15.443,0.03
53884.236044,15.37,0.028
53884.248782,15.409,0.03
53884.261032,15.339,0.028
53901.17891,15.392,0.057
53901.188849,15.29,0.043
53901.198862,15.254,0.041
53901.208926,15.202,0.054
54080.46567,15.122,0.068
54080.47823,15.219,0.051
54080.490786,15.216,0.049
54080.503403,15.241,0.048
54084.527643,14.745,0.028
54121.399406,15.241,0.021
54121.412155,15.228,0.021
54121.424715,15.271,0.023
54121.437117,15.238,0.023
54121.449643,15.289,0.023
54124.402928,15.295,0.018
54124.419838,15.321,0.018
54124.432732,15.309,0.018
54124.446548,15.297,0.018
54124.459634,15.286,0.018
54149.392014,15.281,0.02
54149.403727,15.22,0.018
54149.415583,15.118,0.018
54149.428255,15.051,0.016
54149.44016,15.036,0.016
54155.355293,15.113,0.015
54155.367116,15.077,0.015
54155.378952,15.091,0.015
54155.390905,15.107,0.015
54155.402747,15.121,0.015
54174.275758,15.385,0.023
54174.286713,15.332,0.021
54174.297692,15.283,0.021
54174.308741,15.262,0.021
54174.319859,15.199,0.02
54175.325411,15.126,0.015
54175.336166,15.163,0.017
54175.346785,15.202,0.017
54175.357505,15.242,0.017
54175.368183,15.273,0.018
54180.283823,15.142,0.016
54180.294281,15.14,0.016
54180.304859,15.155,0.016
54180.315371,15.18,0.018
54180.325733,15.208,0.018
54200.263081,15.299,0.155
54200.282174,15.453,0.101
54200.291649,15.361,0.04
54200.301119,15.383,0.043
54207.268026,14.978,0.013
54207.277172,14.963,0.013
54207.286358,14.998,0.015
54210.264819,15.062,0.015
54210.273837,15.008,0.013
54210.282824,15.007,0.015
54210.291817,15.007,0.015
54210.300842,14.986,0.015
54447.456657,14.914,0.013
54447.469729,14.893,0.013
54447.483508,14.898,0.017
54447.496558,14.888,0.013
54454.473385,15.207,0.017
54454.486542,15.227,0.017
54454.512602,15.133,0.017
54474.403018,15.262,0.017
54474.416019,15.21,0.02
54474.429032,15.151,0.017
54474.455038,15.026,0.024
54483.393819,15.038,0.022
54483.420187,14.937,0.018
54483.433107,15.035,0.017
54483.446003,15.095,0.017
54495.467409,15.008,0.017
54495.480015,14.985,0.015
54495.49262,14.919,0.015
54495.505234,14.964,0.015
54495.517817,14.951,0.015
54508.359491,15.07,0.013
54508.371694,15.063,0.013
54508.384032,15.121,0.013
54508.396228,15.155,0.015
54508.408582,15.179,0.013
54524.392687,15.102,0.015
54524.404682,15.193,0.015
54524.41646,15.196,0.017
54524.428163,15.283,0.017
54524.440008,15.28,0.018
54535.457529,15.264,0.03
54535.468416,15.278,0.031
54535.479294,15.244,0.03
54537.324082,15.04,0.037
54537.335148,15.05,0.017
54537.346135,15.086,0.018
54537.357088,15.139,0.018
54537.368065,15.13,0.017
54555.302695,15.314,0.015
54555.314505,15.362,0.015
54555.326451,15.277,0.015
54555.338475,15.246,0.015
54555.350319,15.208,0.013
54558.187037,15.122,0.02
54558.198605,15.168,0.024
54558.210165,15.158,0.022
54558.221734,15.272,0.044
54558.233354,15.231,0.024
54564.295484,14.971,0.011
54564.306895,14.949,0.011
54564.318255,14.93,0.011
54564.329595,14.908,0.011
54564.340921,14.937,0.011
54580.24357,15.251,0.022
54580.254202,15.237,0.022
54580.264798,15.176,0.02
54580.275402,15.102,0.02
54580.285998,15.051,0.02
54585.247635,15.303,0.039
54585.257896,15.192,0.018
54585.268198,15.207,0.02
54585.278496,15.19,0.015
54585.288793,15.198,0.015
54590.200162,15.247,0.036
54590.20993,15.229,0.035
54590.219597,15.265,0.038
54590.229556,15.261,0.035
54590.23923,15.355,0.038
54592.244303,15.077,0.015
54592.254991,15.082,0.017
54592.265471,15.098,0.017
54592.275899,15.094,0.017
54592.286315,15.119,0.017
54611.207445,15.136,0.015
54611.217339,15.19,0.015
54611.227193,15.186,0.017
54611.237199,15.209,0.017
54611.247016,15.242,0.017
54615.213604,15.341,0.022
54615.224317,15.362,0.022
54615.234776,15.305,0.022
54615.245093,15.314,0.022
54615.245219,15.314,0.022
54615.255735,15.248,0.022
