mjd,m,merr
52621.449993,15.357,0.025
52621.465078,15.398,0.025
52621.48035,15.381,0.023
52621.495237,15.42,0.025
52621.5102,15.466,0.025
52636.43194,15.177,0.02
52636.445985,15.141,0.02
52636.460234,15.149,0.018
52636.474333,15.114,0.018
52636.488379,15.047,0.017
52653.39166,15.331,0.024
52653.406784,15.361,0.022
52653.421904,15.382,0.022
52653.437034,15.382,0.02
52653.452154,15.386,0.02
52695.335259,15.418,0.02
52695.354099,15.442,0.024
52722.345154,15.348,0.017
52722.358344,15.377,0.018
52722.370881,15.404,0.018
52722.38392,15.415,0.018
52722.396417,15.423,0.02
52751.255932,15.277,0.018
52751.26665,15.317,0.018
52751.277352,15.315,0.018
52751.288707,15.347,0.018
52751.301556,15.366,0.02
52772.210143,15.254,0.043
52772.221893,15.305,0.044
52772.245208,15.302,0.043
52781.211137,15.081,0.017
52781.22189,15.089,0.017
52781.232537,15.085,0.017
52781.243321,15.024,0.017
52781.253952,15.11,0.017
52801.16709,15.294,0.074
52809.173951,15.125,0.056
52809.183916,15.355,0.026
52809.213954,15.397,0.028
52977.481022,15.229,0.02
52977.492017,15.243,0.021
52978.450515,15.074,0.02
52978.463511,15.087,0.017
52978.476334,15.09,0.017
52978.489192,15.062,0.017
52978.501965,15.017,0.017
52988.39776,15.074,0.026
52988.410718,15.031,0.024
52988.42367,15.012,0.024
52988.4366,15.016,0.024
52988.450202,15.028,0.024
53008.416527,15.415,0.026
53008.429136,15.419,0.026
53008.441723,15.448,0.026
53008.454352,15.399,0.024
53038.344335,15.031,0.018
53038.356758,15.058,0.02
53038.369362,15.141,0.025
53038.381874,15.098,0.021
53038.394265,15.19,0.03
53096.269695,15.123,0.028
53096.279564,15.142,0.028
53096.289432,15.162,0.03
53096.299383,15.232,0.043
53096.309235,15.212,0.036
53125.240631,15.149,0.036
53125.25036,15.151,0.036
53125.259955,15.189,0.038
53125.269503,15.252,0.038
53125.279234,15.263,0.038
53134.200956,15.175,0.018
53134.209963,15.125,0.016
53134.218986,15.103,0.025
53134.227985,15.091,0.02
53134.237025,15.086,0.036
53155.211476,14.895,0.036
53155.228734,14.932,0.03
53155.237067,14.975,0.031
53155.245382,15.004,0.03
53169.175892,15.353,0.023
53169.185661,15.342,0.023
53169.195476,15.349,0.023
53169.205381,15.338,0.023
53169.215139,15.236,0.023
53193.174783,15.41,0.028
53193.193226,15.361,0.028
53193.202422,15.317,0.028
53340.462612,15.241,0.035
53340.478095,15.294,0.035
53340.490661,15.305,0.035
53340.508476,15.368,0.033
53340.520942,15.346,0.03
53358.4058,15.395,0.025
53358.420252,15.384,0.025
53358.435049,15.419,0.025
53358.449658,15.411,0.025
53358.464187,15.401,0.023
53401.354753,15.23,0.022
53401.367376,15.275,0.022
53401.379998,15.281,0.024
53401.39268,15.295,0.024
53421.349409,15.293,0.026
53421.361273,15.239,0.024
53421.373147,15.171,0.024
53421.385242,15.174,0.022
53421.397123,15.146,0.022
53430.365184,15.42,0.024
53430.376894,15.378,0.024
53430.390773,15.404,0.024
53430.403081,15.418,0.024
53430.414439,15.42,0.026
53451.290121,15.321,0.028
53451.301126,15.316,0.028
53451.312529,15.384,0.03
53451.323748,15.396,0.028
53451.335061,15.383,0.03
53480.238709,15.305,0.044
53480.247692,15.368,0.039
53480.256625,15.352,0.043
53480.266062,15.276,0.039
53490.245487,15.409,0.02
53490.257803,15.407,0.02
53490.268792,15.394,0.02
53490.280049,15.321,0.018
53490.291838,15.231,0.017
53536.173599,15.023,0.033
53536.183545,15.162,0.035
53536.193547,15.153,0.035
53536.203601,15.169,0.037
53697.475043,15.142,0.031
53697.488056,15.118,0.028
53697.501263,15.1,0.026
53697.514171,15.097,0.035
53726.482648,14.991,0.024
53726.509859,14.989,0.022
53756.442089,15.233,0.055
53773.359261,15.056,0.018
53773.372417,15.049,0.017
53773.385393,15.044,0.017
53773.398189,15.034,0.015
53773.410868,15.056,0.015
53802.362536,15.066,0.016
53802.374744,15.104,0.016
53802.387057,15.103,0.018
53802.399204,15.189,0.02
53802.411247,15.197,0.018
53806.317993,15.401,0.043
53806.329352,15.479,0.043
53806.340776,15.41,0.043
53806.352066,15.439,0.041
53806.363321,15.475,0.043
53826.284573,15.037,0.013
53826.316881,15.055,0.015
53826.327619,15.065,0.013
53827.303052,15.436,0.016
53827.314079,15.367,0.016
53827.325656,15.368,0.016
53827.336536,15.33,0.016
53827.347901,15.295,0.015
53842.245564,15.161,0.026
53842.25757,15.164,0.026
53842.269326,15.062,0.026
53842.281084,15.065,0.026
53842.292318,15.05,0.026
53857.288148,15.301,0.023
53857.298129,15.301,0.03
53857.308172,15.396,0.028
53877.220593,15.344,0.059
53877.252541,15.172,0.033
53877.263172,15.152,0.031
53904.176343,15.373,0.023
53904.186871,15.412,0.021
53904.196747,15.396,0.023
53904.207096,15.363,0.023
53904.217041,15.378,0.025
54052.472421,15.118,0.022
54052.48467,15.116,0.02
54052.496931,15.135,0.02
54052.509255,15.092,0.018
54080.457542,15.107,0.041
54080.469504,15.28,0.028
54108.444194,14.856,0.036
54125.375198,15.272,0.021
54125.387286,15.282,0.023
54125.398895,15.274,0.023
54125.411679,15.299,0.025
54125.42396,15.359,0.026
54140.358184,15.425,0.02
54140.370745,15.408,0.02
54140.382614,15.385,0.02
54140.394787,15.379,0.018
54140.407132,15.272,0.018
54188.270683,15.307,0.043
54188.280393,15.355,0.051
54188.290514,15.432,0.043
54188.300305,15.4,0.045
54188.310135,15.369,0.043
54212.222104,15.259,0.025
54212.230632,15.226,0.025
54212.239191,15.253,0.025
54212.247671,15.354,0.025
54212.256261,15.367,0.026
54497.347134,15.0,0.03
54497.371057,15.002,0.026
54525.336998,15.373,0.03
54525.348468,15.411,0.031
54525.360215,15.426,0.03
54525.371549,15.487,0.033
54525.382875,15.399,0.038
54558.246277,15.135,0.031
54558.257891,15.14,0.033
54558.269655,15.066,0.028
54558.281261,15.081,0.04
54558.292827,14.997,0.026
54570.24243,15.237,0.026
54570.254229,15.284,0.028
54570.265141,15.409,0.028
54570.276762,15.32,0.028
54570.287607,15.41,0.03
54585.246695,15.171,0.028
54585.256821,15.159,0.028
54585.276962,15.121,0.023
54598.201366,15.277,0.051
54598.210759,15.195,0.048
54598.23018,15.201,0.048
54598.23957,15.276,0.048
54618.209461,15.296,0.036
54618.219822,15.257,0.035
54618.230171,15.306,0.038
54618.240521,15.296,0.038
54618.251371,15.386,0.04
