mjd,m,merr
52635.459444,15.582,0.031
52635.473796,15.625,0.031
52635.488166,15.613,0.031
52635.5028,15.651,0.033
52635.517472,15.681,0.033
52654.392999,15.72,0.045
52654.407911,15.859,0.061
52654.423331,15.799,0.046
52654.438233,15.772,0.041
52654.453694,15.801,0.053
52662.397081,15.987,0.046
52662.411891,16.026,0.051
52662.426812,15.864,0.043
52662.441719,15.712,0.041
52662.457355,15.531,0.031
52693.323269,15.922,0.035
52693.336968,15.96,0.038
52693.350992,15.997,0.041
52693.364762,16.002,0.043
52693.37953,16.007,0.043
52721.295737,16.015,0.04
52721.308407,15.979,0.04
52721.320999,15.841,0.035
52721.333128,15.762,0.035
52721.345698,15.674,0.031
52750.240953,15.368,0.023
52750.251863,15.439,0.025
52750.263,15.447,0.046
52750.285636,15.567,0.041
52780.223771,15.79,0.045
52780.234576,15.58,0.038
52780.245506,15.457,0.043
52780.256398,15.353,0.058
53009.434632,15.54,0.033
53009.448736,15.571,0.033
53009.462746,15.594,0.031
53009.476718,15.615,0.033
53009.49076,15.684,0.033
53017.520056,15.965,0.041
53074.286917,15.64,0.033
53074.297937,15.651,0.035
53074.309042,15.721,0.036
53074.320043,15.699,0.035
53074.331335,15.788,0.038
53104.252416,15.582,0.028
53104.263043,15.578,0.031
53104.280604,15.63,0.035
53104.291359,15.679,0.036
53133.227812,15.814,0.035
53133.236837,15.835,0.035
53156.207347,15.789,0.051
53156.216075,15.756,0.051
53156.224483,15.746,0.049
53156.233069,15.823,0.054
53156.241367,15.823,0.054
53162.184116,15.844,0.054
53162.193718,15.894,0.043
53162.2034,15.889,0.045
53192.172274,15.915,0.043
53192.181541,15.971,0.046
53192.190783,15.952,0.045
53192.20017,15.916,0.045
53192.209438,15.984,0.049
53339.440308,15.965,0.079
53339.452739,16.044,0.084
53339.465113,15.868,0.071
53339.477456,15.936,0.073
53339.489786,16.077,0.078
53359.355989,15.704,0.033
53359.371375,15.752,0.031
53359.384653,15.689,0.03
53359.397428,15.758,0.031
53359.410215,15.74,0.03
53362.455898,15.893,0.046
53362.469613,15.84,0.05
53362.484776,15.878,0.037
53362.500606,15.842,0.035
53390.401261,15.507,0.03
53390.414436,15.389,0.024
53390.430229,15.348,0.022
53390.443321,15.35,0.02
53390.456486,15.375,0.02
53429.327388,15.482,0.028
53429.338606,15.54,0.03
53429.349868,15.587,0.031
53429.361099,15.592,0.031
53429.372378,15.568,0.031
53452.298542,15.46,0.063
53452.309381,15.52,0.055
53452.320753,15.522,0.054
53460.274703,15.953,0.033
53460.284968,16.003,0.035
53460.295424,15.985,0.037
53460.30657,15.9,0.037
53460.317565,15.999,0.043
53461.275639,15.823,0.03
53461.288796,15.836,0.03
53461.299408,15.812,0.03
53461.310177,15.815,0.03
53461.320872,15.857,0.031
53488.243693,15.563,0.026
53488.254579,15.564,0.028
53488.266365,15.623,0.031
53488.277462,15.585,0.033
53488.287686,15.646,0.039
53534.169109,15.52,0.037
53534.178715,15.603,0.039
53534.188348,15.535,0.035
53534.197967,15.584,0.039
53534.207673,15.601,0.039
53562.202096,16.011,0.063
53562.212793,16.077,0.074
53687.448498,15.655,0.043
53687.461021,15.627,0.035
53687.473339,15.653,0.031
53687.485804,15.7,0.031
53687.498084,15.65,0.031
53695.446841,15.864,0.057
53695.472556,15.737,0.052
53695.485197,15.637,0.044
53695.498284,15.655,0.046
53724.401978,15.292,0.041
53724.415072,15.34,0.035
53724.428002,15.456,0.037
53724.441082,15.495,0.037
53724.454071,15.54,0.039
53754.433527,15.582,0.048
53775.358766,15.92,0.057
53775.371534,15.993,0.089
53775.3846,15.957,0.067
53775.397246,15.913,0.074
53775.40973,15.942,0.068
53775.42757,15.868,0.081
53860.251624,15.937,0.049
53860.262086,15.983,0.051
53860.274452,15.948,0.051
53860.285924,15.985,0.051
53860.295871,16.025,0.051
53906.175665,15.989,0.054
53906.185191,15.969,0.054
53906.194707,15.923,0.056
53906.20427,15.95,0.061
53906.213798,15.973,0.066
53934.162514,15.642,0.04
53934.172961,15.738,0.049
53934.183472,15.716,0.043
53934.19397,15.719,0.043
53934.204527,15.802,0.051
54078.454984,15.706,0.048
54078.468107,15.741,0.05
54078.481123,15.719,0.048
54078.494137,15.36,0.08
54107.423874,15.789,0.071
54107.437023,15.791,0.071
54107.44993,15.852,0.074
54107.462893,15.797,0.069
54107.475769,15.857,0.071
54126.33102,15.938,0.045
54126.34288,15.966,0.045
54139.32994,16.037,0.044
54139.341697,16.04,0.041
54139.35339,16.068,0.055
54139.365178,16.07,0.057
54139.37686,16.093,0.068
54167.282262,15.237,0.022
54167.293357,15.304,0.031
54167.304453,15.381,0.024
54167.315552,15.394,0.03
54464.389522,15.933,0.046
54464.402213,15.941,0.046
54464.415169,16.008,0.046
54464.428028,16.042,0.049
54464.440731,15.98,0.046
54484.388123,16.045,0.059
54484.401817,16.051,0.056
54484.414252,16.077,0.059
54484.426422,15.994,0.054
54484.438537,16.155,0.063
54495.410842,15.694,0.033
54523.353618,15.983,0.035
54523.365128,15.941,0.035
54523.376819,15.995,0.036
54540.27949,15.779,0.033
54540.290366,15.843,0.035
54540.301264,15.907,0.035
54540.312143,15.881,0.035
54540.323015,15.878,0.035
54554.252173,15.601,0.028
54554.264433,15.618,0.028
54554.276456,15.653,0.03
54554.288269,15.669,0.03
54554.300474,15.688,0.03
54572.28817,15.949,0.079
54621.210128,15.988,0.056
54621.220254,16.027,0.059
54621.230332,16.097,0.064
54621.240626,16.077,0.061
54621.250712,16.108,0.064
