mjd,m,merr
52641.463538,15.444,0.022
52641.478824,15.442,0.022
52641.494035,15.45,0.022
52641.509228,15.525,0.024
52641.524341,15.63,0.026
52643.449263,15.573,0.024
52643.463323,15.495,0.022
52643.477213,15.45,0.02
52643.491568,15.387,0.018
52643.505877,15.488,0.02
52647.466016,15.674,0.031
52647.480775,15.694,0.03
52647.495616,15.528,0.026
52647.524409,15.437,0.037
52667.466564,15.44,0.024
52667.481796,15.451,0.024
52667.497045,15.431,0.028
52667.51218,15.531,0.028
52667.527641,15.624,0.03
52670.406212,15.525,0.026
52670.42021,15.484,0.024
52670.434148,15.439,0.024
52670.448057,15.426,0.022
52670.461975,15.434,0.024
52673.376819,15.535,0.024
52673.392064,15.453,0.02
52673.407287,15.443,0.02
52673.422675,15.453,0.022
52673.438191,15.475,0.022
52703.320415,15.514,0.031
52703.333749,15.52,0.03
52703.347821,15.485,0.028
52703.374355,15.672,0.028
52707.313652,15.652,0.03
52707.313768,15.594,0.03
52707.326696,15.557,0.026
52707.326811,15.431,0.028
52707.33999,15.478,0.025
52707.340105,15.444,0.026
52707.353244,15.454,0.023
52707.353359,15.4,0.026
52707.366755,15.445,0.025
52707.366869,15.398,0.026
52730.296087,15.476,0.024
52730.307653,15.492,0.024
52730.319275,15.558,0.026
52730.330833,15.647,0.028
52730.342408,15.721,0.03
52737.303439,15.456,0.022
52737.328019,15.57,0.024
52737.339894,15.666,0.024
52737.351795,15.729,0.028
52737.363843,15.701,0.026
52756.200953,15.573,0.024
52756.212785,15.727,0.028
52756.224655,15.701,0.028
52756.236496,15.677,0.028
52756.248351,15.561,0.026
52758.260969,15.653,0.024
52758.272818,15.582,0.022
52758.28459,15.489,0.024
52758.296504,15.464,0.022
52758.308342,15.465,0.022
52764.144741,15.54,0.017
52764.157831,15.616,0.017
52764.170174,15.706,0.018
52764.183388,15.697,0.018
52764.195699,15.607,0.017
52788.230188,15.446,0.039
52788.240648,15.45,0.028
52788.261604,15.525,0.033
52793.237731,15.542,0.031
52793.247727,15.492,0.033
52815.16961,15.536,0.035
52815.189653,15.507,0.037
52815.199653,15.52,0.039
52815.20957,15.529,0.041
52987.510575,15.587,0.039
52995.470216,15.485,0.018
52995.483673,15.437,0.018
52995.49762,15.418,0.017
52995.510917,15.426,0.017
52995.524859,15.464,0.017
53000.479322,15.458,0.017
53000.492202,15.42,0.015
53000.505048,15.408,0.015
53000.518187,15.485,0.015
53000.531104,15.497,0.015
53026.433795,15.757,0.03
53026.446812,15.662,0.033
53026.461332,15.547,0.024
53026.474158,15.613,0.048
53033.393773,15.485,0.026
53033.406077,15.519,0.022
53033.418589,15.562,0.024
53033.430642,15.66,0.026
53033.442791,15.739,0.028
53054.373916,15.533,0.018
53054.387474,15.489,0.018
53054.399487,15.462,0.017
53054.412142,15.458,0.018
53054.425776,15.477,0.018
53055.374961,15.465,0.022
53055.393584,15.737,0.091
53055.404691,15.798,0.1
53058.345004,15.505,0.015
53058.357354,15.629,0.017
53058.369696,15.728,0.017
53058.381099,15.716,0.018
53058.399359,15.582,0.017
53080.288189,15.519,0.02
53080.300152,15.49,0.02
53080.311503,15.595,0.02
53080.322834,15.608,0.022
53080.334119,15.714,0.024
53083.338383,15.521,0.017
53083.341839,16.601,0.041
53083.349067,15.455,0.015
53083.353292,19.197,0.447
53083.360193,15.464,0.017
53083.371276,15.434,0.015
53083.382119,15.469,0.017
53086.344847,15.447,0.018
53086.355687,15.459,0.018
53086.366431,15.499,0.022
53086.377494,15.541,0.018
53086.388493,15.673,0.024
53092.331316,15.759,0.024
53092.341812,15.764,0.024
53092.35199,15.687,0.022
53092.362171,15.578,0.02
53092.372352,15.519,0.018
53114.254121,15.402,0.017
53114.265429,15.422,0.017
53114.276564,15.475,0.017
53114.287768,15.57,0.018
53114.298943,15.663,0.018
53117.301769,15.505,0.018
53117.312385,15.455,0.018
53117.32295,15.453,0.017
53117.333629,15.46,0.018
53117.34415,15.444,0.018
53139.20364,15.572,0.026
53139.212953,15.638,0.026
53139.222251,15.726,0.031
53139.231554,15.804,0.033
53139.241015,15.783,0.033
53142.213119,15.828,0.028
53142.232269,15.607,0.018
53142.241814,15.525,0.024
53142.251342,15.51,0.018
53146.220496,15.591,0.018
53146.229672,15.727,0.02
53146.238743,15.764,0.022
53146.247798,15.804,0.022
53169.17327,15.725,0.031
53169.183394,15.646,0.03
53169.193488,15.513,0.028
53169.203588,15.51,0.026
53171.172533,15.686,0.026
53171.182831,15.803,0.03
53171.193048,15.767,0.028
53171.203276,15.617,0.026
53171.213576,15.534,0.024
53174.172971,15.572,0.022
53174.183041,15.537,0.02
53174.193561,15.5,0.02
53174.203795,15.482,0.02
53174.214098,15.522,0.02
53346.458703,15.358,0.059
53346.48572,15.482,0.055
53346.498376,15.576,0.057
53346.51052,15.73,0.061
53353.465292,15.432,0.031
53353.478702,15.458,0.03
53353.491543,15.535,0.03
53353.504386,15.599,0.031
53376.491224,15.402,0.022
53376.505031,15.407,0.02
53376.518647,15.422,0.02
53376.535395,15.493,0.02
53403.431278,15.395,0.037
53403.444267,15.372,0.026
53403.458393,15.401,0.028
53403.47135,15.424,0.03
53432.400648,15.454,0.026
53432.424148,15.452,0.028
53432.436161,15.438,0.026
53432.447727,15.463,0.026
53440.427155,15.603,0.028
53440.437645,15.745,0.031
53440.448141,15.74,0.033
53440.459821,15.745,0.035
53440.470904,15.617,0.031
53464.339964,15.54,0.024
53464.350049,15.455,0.024
53464.360184,15.484,0.028
53464.370778,15.419,0.022
53464.380876,15.449,0.022
53465.281006,15.542,0.026
53465.281103,15.532,0.026
53465.292371,15.517,0.026
53465.292468,15.517,0.026
53465.304307,15.488,0.026
53465.30441,15.451,0.024
53465.314957,15.454,0.024
53465.315055,15.455,0.024
53465.325457,15.5,0.026
53465.325554,15.49,0.026
53467.276306,15.743,0.037
53467.286395,15.604,0.031
53467.306519,15.48,0.065
53467.317362,15.469,0.039
53469.235921,15.465,0.022
53469.245821,15.442,0.022
53469.255839,15.519,0.024
53469.267552,15.605,0.024
53469.277567,15.695,0.026
53478.282607,15.559,0.048
53495.252427,15.462,0.054
53495.262536,15.53,0.057
53496.202616,15.462,0.03
53496.212831,15.535,0.031
53496.223136,15.586,0.033
53496.233407,15.691,0.039
53496.243626,15.712,0.039
53525.169611,15.455,0.031
53525.179794,15.45,0.033
53525.189979,15.588,0.035
53525.200167,15.572,0.039
53525.210324,15.772,0.044
53530.167687,15.406,0.031
53530.177775,15.509,0.035
53530.187608,15.597,0.037
53530.197528,15.668,0.041
53530.207407,15.707,0.043
53732.482932,15.623,0.043
53732.4965,15.679,0.048
53732.509321,15.671,0.048
53732.522148,15.582,0.039
53732.534857,15.498,0.033
53759.415428,15.465,0.037
53759.428157,15.66,0.052
53759.440759,15.808,0.063
53759.453365,15.86,0.109
53762.471202,15.416,0.024
53762.48462,15.432,0.02
53762.497914,15.441,0.024
53762.510992,15.505,0.024
53762.523899,15.534,0.024
53791.358328,15.545,0.021
53791.370111,15.633,0.025
53791.381893,15.728,0.026
53791.393519,15.712,0.026
53791.405404,15.632,0.025
53793.401992,15.794,0.054
53793.449424,15.49,0.024
53797.315343,15.703,0.028
53797.326915,15.66,0.024
53797.338548,15.616,0.022
53797.350187,15.526,0.02
53799.343438,15.742,0.033
53799.354862,15.702,0.031
53799.366293,15.569,0.026
53799.377735,15.476,0.024
53799.389188,15.431,0.024
53815.292845,15.522,0.041
53815.304022,15.447,0.026
53815.315207,15.452,0.028
53815.326394,15.499,0.03
53815.337596,15.535,0.033
53819.34648,15.428,0.022
53819.360567,15.434,0.024
53819.376366,15.477,0.028
53819.3891,15.561,0.028
53819.401593,15.575,0.031
53820.350085,15.73,0.048
53826.344273,15.414,0.044
53826.378843,15.422,0.031
53827.352913,15.622,0.03
53827.364712,15.725,0.037
53827.376422,15.743,0.041
53827.389826,15.62,0.039
53827.40308,15.507,0.03
53832.278377,15.473,0.028
53832.288422,15.455,0.028
53832.299975,15.456,0.028
53832.309907,15.486,0.028
53832.319845,15.514,0.03
53833.272885,15.594,0.037
53833.282717,15.683,0.041
53833.293135,15.801,0.046
53833.303197,15.828,0.046
53833.313159,15.765,0.044
53846.239155,15.726,0.035
53846.24973,15.706,0.033
53846.26033,15.624,0.031
53846.271026,15.507,0.028
53846.281609,15.499,0.028
53848.291387,15.538,0.035
53848.302146,15.494,0.033
53848.312802,15.515,0.037
53848.323593,15.502,0.037
53848.334481,15.448,0.035
53850.328193,15.462,0.026
53850.339454,15.467,0.026
53850.351476,15.414,0.024
53850.363887,15.439,0.028
53850.375109,15.445,0.028
53853.293769,15.498,0.028
53853.30426,15.449,0.028
53853.31537,15.448,0.028
53853.325817,15.447,0.03
53853.33626,15.501,0.028
53856.28481,15.444,0.026
53856.296447,15.468,0.026
53856.307857,15.474,0.026
53856.318005,15.524,0.028
53856.328192,15.616,0.031
53880.216048,15.715,0.035
53880.227232,15.569,0.03
53880.238475,15.513,0.03
53880.249676,15.509,0.03
53880.260686,15.44,0.028
53882.224048,15.705,0.031
53882.235284,15.657,0.031
53882.246511,15.607,0.03
53882.257743,15.477,0.028
53882.269003,15.435,0.028
53884.211247,15.47,0.03
53884.224076,15.62,0.033
53884.236681,15.783,0.04
53884.24942,15.732,0.038
53884.261686,15.667,0.04
54081.460115,15.562,0.059
54081.47264,15.562,0.054
54081.485185,15.497,0.051
54081.497778,15.464,0.049
54086.433487,15.476,0.033
54086.446429,15.424,0.03
54086.459279,15.392,0.028
54086.472252,15.374,0.026
54086.485106,15.373,0.026
54113.397237,15.524,0.028
54113.410976,15.491,0.028
54113.423502,15.505,0.057
54113.436427,15.438,0.03
54113.448952,15.467,0.028
54115.471985,15.48,0.031
54115.484911,15.536,0.036
54115.497572,15.773,0.045
54115.511477,15.738,0.048
54115.524526,15.744,0.043
54123.402264,15.46,0.028
54123.414682,15.503,0.028
54123.426979,15.556,0.028
54123.440056,15.541,0.028
54123.452531,15.757,0.033
54144.414598,15.408,0.022
54144.425787,15.401,0.022
54144.437267,15.427,0.022
54144.44845,15.44,0.022
54144.459932,15.498,0.024
54147.343578,15.617,0.028
54147.355871,15.487,0.026
54147.368637,15.491,0.025
54147.381054,15.533,0.026
54147.392996,15.441,0.025
54148.393253,15.751,0.038
54148.404891,15.75,0.038
54148.416486,15.633,0.033
54148.428179,15.506,0.03
54148.440077,15.466,0.03
54154.337426,15.671,0.024
54154.349772,15.584,0.022
54154.361391,15.504,0.02
54154.373022,15.496,0.02
54154.384642,15.438,0.018
54156.326879,15.546,0.024
54156.338491,15.707,0.026
54156.350009,15.678,0.026
54156.361536,15.599,0.024
54156.373061,15.611,0.022
54173.321898,15.684,0.022
54173.332634,15.714,0.024
54173.343365,15.622,0.022
54173.354997,15.508,0.02
54173.365946,15.463,0.018
54175.324642,15.599,0.026
54175.335475,15.709,0.028
54175.346224,15.792,0.03
54175.357036,15.753,0.031
54175.36774,15.7,0.03
54176.338901,15.449,0.02
54176.349864,15.432,0.018
54176.360771,15.427,0.018
54176.371751,15.424,0.018
54179.34557,15.441,0.02
54179.356369,15.522,0.022
54179.36742,15.58,0.022
54179.378626,15.695,0.026
54179.38981,15.69,0.026
54198.270338,15.757,0.043
54198.289598,15.484,0.056
54198.29921,15.525,0.068
54206.308313,15.542,0.02
54206.317584,15.615,0.022
54206.326835,15.626,0.024
54206.336102,15.73,0.026
54206.345357,15.763,0.028
54209.266871,15.564,0.076
54209.275935,15.5,0.043
54209.285009,15.612,0.052
54209.294066,15.702,0.061
54440.480045,15.527,0.043
54448.456109,15.387,0.018
54448.46924,15.375,0.017
54448.482343,15.377,0.017
54448.495442,15.456,0.018
54448.508532,15.565,0.055
54474.403837,15.672,0.02
54474.416837,15.627,0.026
54474.442869,15.422,0.018
54474.455857,15.427,0.035
54508.409001,15.441,0.017
54508.421109,15.376,0.015
54508.433198,15.394,0.015
54508.445289,15.429,0.017
54508.457427,15.451,0.017
54523.462249,15.666,0.024
54523.473998,15.539,0.024
54523.485855,15.491,0.022
54523.498013,15.401,0.022
54530.33951,15.723,0.033
54530.35076,15.659,0.024
54530.362022,15.507,0.017
54530.373297,15.463,0.017
54530.384568,15.436,0.015
54537.32485,15.735,0.043
54537.335911,15.749,0.033
54537.346901,15.739,0.031
54537.357852,15.63,0.022
54537.368828,15.516,0.024
54554.357551,15.468,0.017
54554.369502,15.43,0.017
54554.381434,15.407,0.017
54554.393386,15.411,0.018
54554.405398,15.432,0.02
54563.299909,15.444,0.015
54563.311596,15.459,0.015
54563.323029,15.532,0.017
54563.334463,15.618,0.017
54563.34591,15.68,0.018
54568.294674,15.49,0.033
54568.305593,15.568,0.035
54568.316854,15.675,0.038
54568.327776,15.751,0.04
54568.338761,15.745,0.04
54585.248338,15.462,0.05
54585.258593,15.461,0.026
54585.268899,15.489,0.024
54585.279197,15.496,0.018
54585.289556,15.569,0.02
54592.255709,15.431,0.02
54592.27661,15.445,0.02
54592.287025,15.491,0.022
54615.214229,15.59,0.026
54615.224947,15.706,0.03
54615.235278,15.745,0.031
54615.235402,15.744,0.031
54615.245845,15.734,0.031
54622.210082,15.549,0.068
