mjd,m,merr
52646.472069,15.774,0.033
52646.487106,15.695,0.028
52646.502316,15.641,0.026
52646.517239,15.625,0.026
52646.53212,15.655,0.028
52666.457125,15.601,0.025
52672.398548,15.638,0.025
52672.414635,15.658,0.026
52672.436852,15.798,0.031
52676.360129,15.623,0.028
52676.376016,15.692,0.03
52676.391469,15.744,0.03
52676.408511,15.962,0.033
52676.427242,16.148,0.043
52698.310771,15.74,0.024
52698.324782,15.905,0.026
52698.339712,16.055,0.031
52698.35428,16.013,0.03
52698.368877,15.922,0.067
52698.451421,15.711,0.033
52701.443688,15.972,0.038
52701.462634,16.038,0.043
52701.481647,15.849,0.04
52701.496043,15.73,0.035
52701.511793,15.707,0.036
52710.310721,15.641,0.03
52710.325684,15.725,0.033
52710.338803,15.863,0.035
52710.352141,16.036,0.04
52710.365235,16.19,0.046
52725.37631,15.852,0.043
52725.38879,15.786,0.031
52725.401313,15.69,0.028
52725.41352,15.648,0.028
52725.425976,15.645,0.03
52733.250573,15.833,0.033
52733.26266,15.967,0.038
52733.274604,16.153,0.043
52733.2868,16.029,0.04
52733.299005,15.829,0.04
52754.20739,16.137,0.039
52754.219555,16.044,0.035
52754.23185,15.809,0.03
52754.24403,15.717,0.028
52754.256158,15.679,0.026
52761.206219,15.681,0.043
52761.218268,15.635,0.049
52761.230299,15.712,0.04
52761.242552,15.748,0.035
52761.254961,15.864,0.035
52768.210621,16.107,0.059
52768.222377,15.935,0.05
52768.234431,15.764,0.044
52768.246292,15.715,0.043
52768.258165,15.689,0.043
52793.237989,16.142,0.058
52793.248313,16.193,0.059
52974.465275,15.651,0.028
52974.47805,15.622,0.026
52974.490665,15.621,0.026
52974.503523,15.658,0.024
52974.516757,15.671,0.026
53033.39507,16.065,0.051
53033.407438,15.835,0.031
53033.420098,15.724,0.026
53033.432372,15.654,0.025
53033.444847,15.592,0.025
53052.335296,16.168,0.035
53052.34761,15.988,0.028
53052.360095,15.815,0.026
53052.37195,15.727,0.022
53052.383794,15.7,0.022
53062.342284,15.796,0.091
53062.355332,15.89,0.115
53062.367525,16.076,0.059
53062.379797,15.987,0.041
53062.391234,15.838,0.044
53079.281996,15.611,0.023
53079.293005,15.618,0.023
53079.303934,15.705,0.025
53079.315011,15.756,0.026
53079.325935,15.838,0.028
53087.295464,15.758,0.018
53087.329303,15.627,0.016
53087.341354,15.621,0.016
53089.289584,15.683,0.018
53089.322819,15.629,0.03
53089.33382,15.599,0.068
53092.275148,15.613,0.02
53092.285536,15.567,0.018
53092.29601,15.597,0.018
53092.306372,15.632,0.018
53092.31693,15.683,0.02
53110.243457,15.587,0.028
53110.254267,15.658,0.03
53110.265125,15.683,0.03
53110.276094,15.707,0.03
53110.287056,15.797,0.033
53119.245533,15.868,0.022
53119.256158,15.759,0.02
53119.266652,15.697,0.02
53119.277167,15.671,0.018
53119.287742,15.637,0.018
53120.196121,15.863,0.043
53120.216432,16.163,0.048
53149.207378,15.987,0.033
53149.216356,15.982,0.033
53149.225412,15.87,0.03
53149.23439,15.75,0.026
53149.243533,15.674,0.024
53166.172373,16.003,0.046
53166.183301,15.976,0.049
53166.193103,15.981,0.051
53166.202935,15.828,0.045
53166.21273,15.762,0.041
53348.487258,16.079,0.053
53348.501151,15.889,0.048
53348.515074,15.749,0.036
53410.482763,15.652,0.018
53410.495235,15.619,0.018
53410.507663,15.632,0.018
53410.52008,15.674,0.02
53438.413703,16.119,0.035
53438.426121,16.135,0.037
53438.438035,15.986,0.033
53438.449881,15.74,0.028
53438.46231,15.704,0.028
53445.413412,15.609,0.018
53445.425054,15.62,0.02
53445.436748,15.624,0.02
53445.448957,15.649,0.022
53445.460393,15.775,0.024
53446.331542,16.081,0.03
53446.331977,16.103,0.03
53446.342844,16.166,0.031
53446.343281,16.188,0.031
53446.353556,16.079,0.03
53446.353991,16.032,0.028
53446.364286,15.899,0.026
53446.364722,15.876,0.024
53446.375005,15.786,0.022
53446.37544,15.739,0.022
53447.297671,15.726,0.03
53447.308464,15.815,0.028
53447.319832,15.935,0.031
53447.341393,15.948,0.033
53471.26977,15.776,0.03
53471.279802,15.734,0.03
53471.289565,15.688,0.028
53471.29946,15.687,0.028
53471.309201,15.657,0.028
53502.198103,16.006,0.039
53502.208396,15.962,0.039
53502.218861,15.908,0.037
53502.230478,15.793,0.033
53502.242924,15.678,0.03
53523.17259,15.673,0.03
53523.183142,15.681,0.03
53523.193684,15.591,0.028
53523.204203,15.633,0.028
53523.214729,15.634,0.03
53712.470148,15.705,0.033
53712.483503,15.853,0.033
53712.496592,16.11,0.043
53712.509646,16.239,0.046
53712.522604,16.104,0.041
53713.461804,15.702,0.063
53713.474635,15.768,0.083
53738.508668,16.015,0.039
53738.521538,16.149,0.046
53769.394181,15.727,0.024
53769.407607,15.674,0.022
53769.421071,15.636,0.02
53769.434253,15.642,0.026
53769.447558,15.648,0.024
53789.358225,15.653,0.086
53789.370677,15.702,0.045
53789.38308,15.684,0.025
53789.395704,15.745,0.023
53789.408304,15.853,0.031
53845.253759,15.708,0.065
53845.26489,15.753,0.083
53845.275751,15.793,0.046
53845.286603,15.938,0.068
53850.212892,15.78,0.031
53850.223521,15.841,0.031
53850.234159,16.029,0.037
53850.245063,16.139,0.043
53850.256076,16.198,0.043
53881.214488,15.936,0.044
53881.225528,16.073,0.052
53881.236577,15.949,0.046
53881.247637,15.85,0.044
53881.259027,15.751,0.043
53887.171043,15.977,0.058
53887.181201,15.875,0.059
53887.201973,15.776,0.054
53887.212337,15.682,0.051
53902.172395,15.837,0.057
53914.18154,16.09,0.086
53914.191593,16.078,0.089
54064.45029,15.662,0.045
54064.466547,15.706,0.043
54064.479561,15.819,0.046
54064.492433,15.863,0.045
54064.504999,16.008,0.048
54144.335975,15.591,0.028
54144.347908,15.631,0.028
54144.359818,15.627,0.031
54144.372068,15.688,0.031
54144.384302,15.853,0.059
54153.340338,15.942,0.035
54153.352247,15.799,0.035
54153.363972,15.766,0.031
54153.375932,15.727,0.051
54153.387656,15.666,0.028
54208.2187,15.833,0.033
54208.227401,15.746,0.031
54208.236271,15.74,0.03
54208.244958,15.676,0.028
54208.253701,15.611,0.026
54452.459383,16.009,0.026
54452.47254,15.814,0.02
54452.485681,15.728,0.018
54452.498842,15.668,0.017
54452.512012,15.639,0.017
54477.401275,15.62,0.02
54477.414219,15.628,0.02
54477.427286,15.671,0.02
54477.440134,15.712,0.02
54477.45299,15.825,0.02
54484.339362,15.659,0.043
54484.352697,15.634,0.037
54484.378717,15.851,0.043
54484.391847,16.073,0.048
54539.26543,16.215,0.037
54539.276317,16.154,0.028
54539.287165,16.011,0.024
54539.298077,15.832,0.02
54539.309075,15.736,0.018
54559.18718,15.799,0.022
54559.198746,15.927,0.024
54559.21031,16.036,0.026
54559.222037,15.959,0.024
54559.233602,15.843,0.022
54567.239314,15.757,0.024
54567.250514,15.915,0.026
54567.261821,16.076,0.03
54567.272993,16.199,0.033
54567.284197,16.1,0.031
54581.245837,15.754,0.024
54581.256411,15.849,0.028
54581.266958,15.986,0.035
54581.277619,16.067,0.044
54581.288168,15.916,0.039
54592.193767,15.829,0.056
54592.203659,15.767,0.051
54592.233161,15.742,0.049
54597.205063,15.709,0.041
54597.215615,15.697,0.041
54597.226346,15.84,0.046
54597.236954,15.873,0.048
54597.247507,16.126,0.059
54620.173154,16.162,0.037
54620.183327,16.016,0.031
54620.193449,15.877,0.028
54620.203574,15.746,0.026
54620.21369,15.704,0.024
