mjd,m,merr
52646.47194,14.792,0.016
52646.486976,14.724,0.013
52646.502186,14.577,0.012
52646.53199,14.335,0.01
52666.398003,14.524,0.012
52666.412666,14.508,0.012
52666.427307,14.525,0.012
52666.441941,14.557,0.012
52666.456877,14.58,0.012
52672.398422,14.769,0.013
52672.414509,14.787,0.015
52672.436726,14.775,0.015
52672.457119,14.747,0.063
52676.35974,14.641,0.013
52676.375461,14.691,0.013
52676.391077,14.708,0.013
52676.408121,14.741,0.013
52676.426867,14.748,0.013
52698.391769,14.769,0.036
52698.406611,14.706,0.013
52698.421226,14.687,0.013
52698.436289,14.731,0.015
52701.313677,14.703,0.013
52701.327532,14.81,0.068
52701.340005,14.736,0.013
52701.340605,14.735,0.016
52701.353048,14.753,0.013
52701.353652,14.711,0.016
52701.366556,14.749,0.013
52725.366244,14.139,0.009
52725.380931,14.173,0.007
52725.393985,14.195,0.007
52725.406937,14.257,0.007
52725.419376,14.277,0.009
52729.29503,14.824,0.015
52729.307151,14.85,0.015
52729.319549,14.814,0.015
52729.331635,14.749,0.013
52729.343938,14.664,0.013
52732.251736,14.531,0.012
52732.26393,14.46,0.012
52732.276362,14.367,0.012
52732.288326,14.289,0.01
52732.300278,14.244,0.01
52754.207165,14.829,0.013
52754.21933,14.86,0.013
52754.231625,14.838,0.013
52754.243806,14.82,0.013
52754.255933,14.727,0.013
52761.206334,14.768,0.02
52761.218386,14.653,0.023
52761.230415,14.57,0.016
52761.242667,14.388,0.012
52761.255077,14.355,0.012
52768.21027,14.335,0.013
52768.222018,14.237,0.011
52768.234081,14.189,0.011
52768.245953,14.202,0.011
52768.257782,14.227,0.013
52792.247259,14.437,0.013
52792.257997,14.446,0.013
52793.2379,14.437,0.013
52793.248223,14.446,0.013
52797.171694,14.452,0.021
52797.181985,14.358,0.02
52797.192245,14.343,0.02
52797.202458,14.309,0.02
52797.212794,14.316,0.02
52813.175015,14.743,0.021
52813.184859,14.762,0.02
52813.194751,14.755,0.02
52813.204591,14.764,0.021
52813.214439,14.745,0.021
52973.463049,14.454,0.011
52973.475908,14.427,0.011
52973.488875,14.482,0.011
52973.501794,14.525,0.011
52973.514638,14.484,0.011
52993.455144,14.722,0.009
52993.481763,14.733,0.009
53003.434345,14.478,0.03
53033.344111,14.709,0.013
53033.368748,14.731,0.013
53033.381193,14.71,0.015
53033.393471,14.736,0.021
53052.335057,14.518,0.009
53052.34738,14.574,0.009
53052.359863,14.563,0.009
53052.371726,14.599,0.009
53052.383563,14.611,0.009
53062.341928,14.695,0.033
53062.354976,14.76,0.041
53062.36717,14.712,0.017
53062.379441,14.703,0.015
53062.390878,14.734,0.018
53079.303736,14.571,0.01
53087.317904,14.735,0.008
53089.289234,14.396,0.007
53089.30031,14.459,0.007
53089.311333,14.412,0.007
53110.275908,14.602,0.012
53110.286869,14.61,0.012
53118.255897,14.451,0.007
53118.268123,14.476,0.007
53118.300042,14.495,0.007
53138.205143,14.706,0.012
53138.215042,14.712,0.012
53138.224883,14.729,0.012
53138.234724,14.725,0.013
53138.244547,14.744,0.013
53148.24392,14.775,0.012
53148.252616,14.667,0.012
53148.261441,14.635,0.01
53148.27008,14.557,0.01
53148.279231,14.527,0.01
53166.183141,14.798,0.018
53166.192942,14.764,0.018
53175.173411,14.558,0.01
53175.183048,14.56,0.01
53175.192625,14.591,0.01
53175.202367,14.618,0.012
53348.486661,14.619,0.015
53348.500578,14.639,0.015
53348.514498,14.663,0.015
53404.436317,14.416,0.01
53404.449281,14.373,0.01
53404.462376,14.413,0.01
53404.475136,14.444,0.01
53404.488364,14.463,0.012
53410.482329,14.622,0.009
53410.494812,14.625,0.009
53410.507232,14.625,0.009
53410.519663,14.627,0.009
53438.413278,14.688,0.011
53438.425722,14.7,0.011
53438.437613,14.696,0.011
53438.449478,14.715,0.011
53438.46191,14.718,0.013
53445.412749,14.722,0.011
53445.424469,14.722,0.011
53445.436068,14.736,0.011
53445.448353,14.763,0.011
53445.459855,14.801,0.011
53450.267638,14.399,0.013
53450.267753,14.435,0.013
53450.278299,14.427,0.013
53450.278414,14.429,0.013
53450.289777,14.425,0.013
53450.289892,14.443,0.013
53450.300873,14.456,0.015
53450.300988,14.453,0.013
53450.311558,14.467,0.015
53450.311673,14.487,0.015
53451.279785,14.727,0.02
53451.2908,14.639,0.017
53451.301805,14.532,0.015
53451.31321,14.482,0.013
53451.324428,14.413,0.013
53471.269566,14.547,0.011
53471.279562,14.564,0.011
53471.289362,14.587,0.011
53471.299257,14.592,0.011
53471.308997,14.596,0.011
53502.197751,14.748,0.013
53502.208085,14.775,0.015
53502.218551,14.766,0.015
53502.230166,14.784,0.015
53502.242612,14.79,0.015
53523.172373,14.709,0.013
53523.182922,14.594,0.013
53523.193465,14.465,0.011
53523.203985,14.287,0.009
53523.214511,14.172,0.009
53712.469574,14.656,0.017
53712.482928,14.665,0.015
53712.496018,14.647,0.015
53712.50907,14.662,0.013
53712.522029,14.665,0.013
53738.508089,14.684,0.015
53738.520959,14.657,0.018
53769.39377,14.772,0.011
53769.407306,14.762,0.011
53769.420771,14.733,0.011
53769.433951,14.711,0.013
53769.447256,14.649,0.011
53789.357478,14.522,0.03
53789.37024,14.475,0.02
53789.382643,14.505,0.01
53789.395265,14.55,0.01
53845.253458,14.726,0.031
53845.264589,14.731,0.031
53845.275447,14.745,0.018
53845.286299,14.746,0.024
53880.162692,14.266,0.011
53880.173854,14.237,0.011
53880.185057,14.245,0.011
53880.196219,14.268,0.011
53880.207413,14.293,0.011
53885.164921,14.708,0.017
53885.177117,14.659,0.017
53885.189211,14.68,0.017
53885.201346,14.7,0.017
53885.213473,14.698,0.017
53901.200289,14.523,0.018
53901.210556,14.545,0.025
53912.200125,14.453,0.018
54064.449864,14.514,0.016
54064.466123,14.452,0.015
54064.479068,14.47,0.015
54064.492013,14.374,0.013
54064.504575,14.334,0.012
54112.440878,14.808,0.02
54112.453506,14.803,0.02
54112.466397,14.723,0.03
54112.479036,14.83,0.018
54112.491881,14.814,0.02
54144.335696,14.781,0.015
54144.347629,14.782,0.013
54144.359539,14.746,0.013
54144.371791,14.65,0.013
54144.384024,14.555,0.015
54153.34006,14.59,0.012
54153.351969,14.596,0.013
54153.363695,14.63,0.013
54153.375654,14.642,0.016
54153.387381,14.647,0.016
54201.280523,14.227,0.012
54201.28986,14.256,0.012
54201.299188,14.299,0.012
54201.308649,14.323,0.012
54201.318055,14.349,0.012
54452.45882,14.677,0.009
54452.485118,14.684,0.009
54476.443425,14.434,0.007
54533.331034,14.408,0.006
54533.34232,14.43,0.006
54533.353624,14.413,0.006
54533.364975,14.437,0.006
54533.376355,14.449,0.006
54534.330049,14.862,0.015
54534.341094,14.852,0.015
54534.352239,14.852,0.015
54534.36357,14.768,0.015
54534.363778,14.671,0.006
54534.374655,14.66,0.013
54534.375006,14.614,0.007
54534.386092,14.478,0.007
54539.265106,14.577,0.009
54539.275978,14.62,0.007
54539.286842,14.617,0.007
54539.297756,14.651,0.007
54539.308754,14.652,0.007
54559.186755,14.717,0.009
54559.19832,14.748,0.009
54559.209886,14.753,0.009
54559.221612,14.754,0.009
54559.233176,14.771,0.009
54567.239029,14.721,0.009
54567.250228,14.702,0.009
54567.261536,14.693,0.009
54567.272709,14.707,0.009
54567.283911,14.701,0.009
54581.245594,14.776,0.013
54581.256171,14.783,0.013
54581.266715,14.805,0.015
54581.277377,14.811,0.017
54581.287925,14.779,0.017
54587.249567,14.377,0.009
54587.259978,14.39,0.009
54587.270521,14.4,0.009
54587.28093,14.438,0.009
54587.291317,14.437,0.009
54592.19354,14.731,0.021
54592.203432,14.714,0.021
54592.213307,14.702,0.021
54592.223262,14.72,0.021
54592.232935,14.734,0.021
54595.242317,14.371,0.009
54595.252315,14.299,0.009
54595.262291,14.208,0.009
54595.272236,14.206,0.007
54595.282213,14.228,0.007
54619.165964,14.492,0.009
54619.176254,14.497,0.011
54619.186448,14.507,0.011
54619.19669,14.512,0.013
54619.206894,14.565,0.013
