mjd,m,merr
52621.451001,16.536,0.069
52621.466083,16.434,0.063
52621.481356,16.373,0.056
52621.496247,16.365,0.056
52621.511206,16.33,0.053
52623.454261,16.418,0.076
52623.469934,16.34,0.081
52623.485784,16.191,0.087
52623.501702,16.244,0.063
52623.517583,16.317,0.08
52651.35583,16.62,0.074
52651.375196,16.538,0.061
52651.390479,16.469,0.056
52651.405926,16.391,0.053
52651.421104,16.295,0.049
52652.38864,16.314,0.048
52652.403694,16.394,0.048
52652.419121,16.448,0.044
52652.434315,16.517,0.048
52652.449568,16.571,0.052
52664.352869,16.319,0.052
52664.36812,16.329,0.057
52664.383357,16.467,0.152
52681.288141,16.615,0.098
52681.305745,16.565,0.085
52681.324388,16.472,0.057
52681.342909,16.366,0.05
52695.335931,16.318,0.043
52695.354774,16.273,0.054
52722.345799,16.377,0.043
52722.358988,16.273,0.039
52722.371518,16.314,0.041
52722.384558,16.283,0.043
52722.39706,16.226,0.041
52751.256522,16.308,0.044
52751.267242,16.359,0.046
52751.277943,16.426,0.05
52751.289298,16.417,0.05
52751.302147,16.575,0.057
52771.210852,16.397,0.128
52771.222464,16.487,0.105
52771.234117,16.436,0.096
52771.245812,16.513,0.105
52771.257547,16.614,0.117
52782.212073,16.57,0.152
52800.192969,16.362,0.189
52800.203,16.397,0.135
52800.213051,16.368,0.137
52810.17653,16.347,0.057
52810.186496,16.302,0.055
52810.216386,16.263,0.065
52812.177357,16.268,0.052
52812.187568,16.26,0.054
52812.197927,16.277,0.054
52812.208142,16.323,0.057
52812.218584,16.31,0.055
52976.405314,16.357,0.048
52976.416377,16.384,0.051
52976.427434,16.392,0.049
52976.438518,16.456,0.051
52976.449574,16.497,0.054
52990.461175,16.592,0.07
52990.474506,16.413,0.05
52990.487582,16.361,0.046
52990.500785,16.325,0.044
52990.513814,16.298,0.046
53023.400647,16.334,0.037
53023.413559,16.34,0.035
53023.426239,16.441,0.037
53023.438916,16.468,0.037
53023.451608,16.557,0.041
53046.352854,16.399,0.059
53046.364789,16.362,0.057
53046.376771,16.346,0.055
53046.388915,16.242,0.05
53046.400959,16.232,0.05
53094.28582,16.248,0.035
53094.296393,16.253,0.037
53094.306798,16.262,0.035
53094.31749,16.298,0.037
53094.327928,16.298,0.037
53107.246663,16.469,0.043
53107.257913,16.587,0.046
53107.269107,16.57,0.048
53107.280373,16.593,0.048
53107.29159,16.548,0.046
53127.252982,16.692,0.159
53127.263044,16.457,0.109
53127.273001,16.411,0.105
53127.283033,16.313,0.096
53136.20271,16.289,0.046
53136.212066,16.255,0.046
53136.221369,16.264,0.046
53136.230688,16.267,0.048
53136.239994,16.279,0.05
53154.208759,16.405,0.08
53154.217663,16.326,0.076
53154.226503,16.429,0.085
53154.235338,16.447,0.089
53154.244252,16.619,0.102
53164.175499,16.343,0.046
53164.185709,16.291,0.043
53164.195926,16.382,0.048
53164.206143,16.395,0.048
53164.216382,16.487,0.054
53340.463137,16.324,0.089
53340.47862,16.318,0.084
53340.491185,16.233,0.076
53340.509001,16.266,0.073
53358.407562,16.499,0.068
53358.422012,16.386,0.058
53358.436851,16.341,0.054
53358.451431,16.327,0.053
53358.465961,16.294,0.051
53401.355118,16.585,0.08
53401.367742,16.624,0.083
53401.380363,16.542,0.076
53401.393046,16.516,0.074
53421.349765,16.374,0.07
53421.361628,16.34,0.068
53421.373504,16.253,0.063
53421.385597,16.309,0.063
53421.397478,16.231,0.059
53430.365542,16.45,0.065
53430.377253,16.48,0.065
53430.391131,16.534,0.07
53430.403441,16.516,0.068
53430.414798,16.391,0.061
53479.234172,16.414,0.104
53479.244201,16.26,0.093
53479.25667,16.217,0.091
53479.266538,16.362,0.1
53479.276059,16.221,0.089
53491.244419,16.312,0.061
53491.258381,16.287,0.05
53491.270754,16.277,0.05
53491.284163,16.323,0.063
53491.295342,16.327,0.052
53537.175492,16.379,0.126
53537.195652,16.379,0.152
53537.205722,16.26,0.111
53566.216232,16.375,0.128
53700.454955,16.34,0.068
53700.468008,16.36,0.063
53700.480724,16.414,0.065
53700.493697,16.491,0.067
53700.506382,16.486,0.063
53727.500277,16.322,0.096
53757.383309,16.333,0.057
53757.395932,16.263,0.054
53757.408654,16.266,0.054
53757.421332,16.269,0.054
53757.434039,16.261,0.054
53773.359653,16.299,0.054
53773.372807,16.303,0.05
53773.385786,16.276,0.048
53773.398705,16.289,0.046
53773.41126,16.321,0.046
53826.285287,16.442,0.046
53826.295956,16.421,0.084
53826.317576,16.354,0.045
53826.328316,16.328,0.045
53827.303327,16.344,0.04
53827.314357,16.426,0.043
53827.326123,16.482,0.043
53827.336812,16.533,0.046
53827.348176,16.599,0.051
53835.293554,16.323,0.127
53842.247645,16.5,0.092
53842.259233,16.432,0.086
53842.2708,16.398,0.087
53842.282518,16.315,0.084
53842.294128,16.337,0.087
53856.267885,16.27,0.054
53856.27795,16.232,0.053
53856.28782,16.248,0.053
53856.297789,16.318,0.058
53856.307709,16.306,0.056
53877.220999,16.542,0.168
53877.252957,16.612,0.125
53877.263588,16.496,0.137
53904.17239,16.337,0.065
53904.182338,16.289,0.063
53904.192296,16.311,0.065
53904.202414,16.309,0.065
53904.212523,16.393,0.07
53918.169302,16.392,0.233
53933.163661,16.339,0.074
53933.174353,16.298,0.07
53933.185016,16.277,0.07
53933.195713,16.231,0.074
53933.206486,16.247,0.087
54052.472812,16.514,0.08
54052.485062,16.572,0.08
54052.49732,16.71,0.087
54052.509642,16.667,0.083
54071.454605,16.264,0.086
54071.467644,16.237,0.074
54071.480407,16.319,0.073
54071.493293,16.357,0.073
54071.506026,16.353,0.069
54098.380471,16.516,0.069
54098.39265,16.615,0.079
54098.404814,16.594,0.071
54098.417172,16.527,0.064
54098.429415,16.478,0.059
54109.461724,16.884,0.218
54124.390296,16.375,0.054
54124.402894,16.373,0.054
54124.415469,16.264,0.051
54124.42876,16.291,0.051
54124.441396,16.313,0.051
54140.340823,16.428,0.064
54140.353268,16.355,0.061
54140.365309,16.29,0.056
54140.377318,16.29,0.056
54140.389502,16.358,0.063
54158.336625,16.374,0.078
54158.347741,16.415,0.081
54158.358685,16.403,0.079
54158.369511,16.376,0.076
54158.380782,16.407,0.076
54188.271244,16.335,0.107
54188.280954,16.342,0.112
54188.291073,16.279,0.106
54188.300866,16.211,0.094
54188.310693,16.288,0.097
54198.270095,16.266,0.044
54198.279748,16.273,0.046
54198.299502,16.388,0.094
54210.224663,16.303,0.049
54210.233635,16.323,0.048
54210.242337,16.245,0.046
54210.251038,16.301,0.048
54210.259972,16.305,0.049
54218.23794,16.388,0.107
54218.24653,16.325,0.1
54218.255113,16.325,0.102
54218.263727,16.396,0.107
54481.391811,16.689,0.086
54481.404142,16.54,0.078
54481.416242,16.501,0.094
54481.428343,16.425,0.087
54481.440863,16.399,0.063
54498.382799,16.312,0.056
54498.394796,16.442,0.061
54498.407258,16.525,0.066
54498.419086,16.572,0.064
54498.430895,16.641,0.071
54526.331352,16.311,0.046
54526.343014,16.532,0.054
54526.354418,16.587,0.058
54526.365682,16.667,0.063
54526.379859,16.617,0.061
54537.272698,16.558,0.068
54537.283815,16.511,0.084
54537.294874,16.512,0.106
54537.305878,16.29,0.063
54537.31675,16.299,0.048
54559.246922,16.416,0.068
54559.259152,16.314,0.064
54559.271023,16.249,0.059
54559.282445,16.315,0.063
54559.293834,16.291,0.061
54569.243078,16.315,0.059
54569.254079,16.277,0.058
54569.265002,16.321,0.059
54569.275949,16.269,0.056
54569.286859,16.273,0.056
54585.247356,16.314,0.069
54585.257484,16.358,0.066
54585.267519,16.383,0.099
54585.277628,16.299,0.056
54599.238972,16.376,0.178
54618.210061,16.484,0.104
54618.220424,16.348,0.087
54618.23077,16.326,0.096
54618.241125,16.273,0.086
54618.251974,16.35,0.092
