mjd,m,merr
52641.464435,15.2,0.017
52641.479718,15.501,0.022
52641.494929,15.722,0.026
52641.51012,15.419,0.02
52641.525235,15.202,0.017
52644.488208,15.693,0.026
52644.503108,15.452,0.028
52644.517953,15.205,0.02
52644.53269,15.127,0.018
52648.39862,15.133,0.02
52648.413671,15.223,0.02
52648.428361,15.533,0.028
52648.443507,15.698,0.03
52648.459106,15.402,0.022
52667.46695,15.295,0.018
52667.482204,15.587,0.026
52667.497432,15.604,0.028
52667.512569,15.292,0.02
52667.528029,15.153,0.018
52671.400457,15.118,0.015
52671.415819,15.246,0.017
52671.431002,15.505,0.022
52671.446344,15.702,0.026
52671.4616,15.398,0.02
52674.400152,15.191,0.017
52674.414146,15.312,0.018
52674.428137,15.561,0.024
52674.442017,15.65,0.026
52674.455954,15.393,0.02
52704.371917,15.381,0.02
52704.385083,15.62,0.024
52704.398442,15.551,0.022
52704.411611,15.318,0.018
52704.42469,15.176,0.017
52707.314128,15.056,0.016
52707.327169,15.057,0.016
52707.340465,15.102,0.018
52707.353716,15.187,0.018
52707.367227,15.366,0.021
52728.292032,15.075,0.015
52728.304916,15.11,0.015
52728.317289,15.203,0.015
52728.330775,15.33,0.018
52728.3436,15.612,0.022
52731.323765,15.302,0.02
52731.335757,15.56,0.067
52731.34777,15.757,0.033
52737.304359,15.175,0.017
52737.328832,15.619,0.022
52737.340709,15.747,0.024
52737.352698,15.5,0.02
52737.364663,15.266,0.017
52756.205032,15.065,0.02
52756.217141,15.055,0.02
52756.229322,15.137,0.02
52756.241566,15.233,0.021
52756.25376,15.458,0.026
52760.20726,15.432,0.018
52760.219188,15.684,0.024
52760.231116,15.601,0.022
52760.243058,15.357,0.02
52760.254983,15.211,0.017
52764.146494,15.215,0.011
52764.159584,15.398,0.013
52764.172473,15.73,0.017
52764.185141,15.651,0.017
52764.197451,15.368,0.013
52767.208384,15.193,0.021
52767.221024,15.115,0.02
52767.232662,15.086,0.02
52767.244312,15.091,0.02
52767.256916,15.151,0.021
52789.214918,15.656,0.028
52789.225213,15.578,0.026
52789.235632,15.411,0.022
52789.245941,15.266,0.018
52789.256414,15.168,0.018
52794.172736,15.149,0.018
52794.182747,15.106,0.018
52794.192673,15.108,0.02
52794.202631,15.083,0.018
52794.212599,15.143,0.02
52816.169819,15.531,0.031
52816.179609,15.758,0.041
52816.190253,15.593,0.037
52816.200121,15.378,0.033
52816.209951,15.213,0.031
52823.170111,15.058,0.039
52823.18002,15.066,0.035
52823.189954,15.107,0.024
52823.199898,15.114,0.03
52987.498059,15.467,0.044
52995.525409,15.416,0.015
53000.479864,15.295,0.013
53000.50571,15.159,0.011
53000.51873,15.109,0.009
53000.531646,15.177,0.011
53026.420325,15.257,0.015
53026.43434,15.436,0.022
53026.447356,15.64,0.043
53026.461933,15.493,0.02
53033.394661,15.661,0.03
53033.406907,15.587,0.024
53033.419418,15.316,0.018
53033.431513,15.2,0.017
53033.44366,15.106,0.015
53054.375486,15.605,0.018
53054.388029,15.312,0.015
53054.400039,15.19,0.013
53054.412695,15.121,0.013
53054.426327,15.098,0.013
53058.345516,15.256,0.011
53058.357865,15.166,0.011
53058.370207,15.112,0.009
53058.38161,15.081,0.013
53058.39987,15.177,0.011
53080.336097,15.279,0.015
53080.347587,15.453,0.018
53080.358559,15.633,0.02
53080.370697,15.587,0.02
53080.382108,15.347,0.017
53083.338892,15.397,0.013
53083.349576,15.699,0.017
53083.360813,15.787,0.02
53083.371784,15.524,0.015
53083.382627,15.306,0.015
53086.345355,15.579,0.018
53086.356195,15.64,0.022
53086.366939,15.46,0.018
53086.378002,15.292,0.013
53086.389,15.173,0.015
53092.331814,15.509,0.017
53092.342309,15.669,0.02
53092.352488,15.544,0.018
53092.362669,15.35,0.015
53092.372851,15.228,0.013
53115.303267,15.15,0.013
53115.314398,15.213,0.013
53115.325559,15.323,0.015
53117.263674,15.706,0.02
53117.274147,15.558,0.018
53117.284944,15.346,0.015
53117.29605,15.204,0.013
53139.204099,15.585,0.026
53139.213407,15.358,0.02
53139.222705,15.239,0.018
53139.23201,15.163,0.018
53139.24147,15.081,0.017
53143.233872,15.229,0.017
53143.243375,15.366,0.018
53143.252721,15.549,0.02
53143.262063,15.761,0.024
53143.27141,15.724,0.022
53147.206892,15.47,0.02
53147.224492,15.616,0.023
53147.242733,15.296,0.018
53169.173702,15.275,0.02
53169.183824,15.187,0.018
53169.193919,15.101,0.017
53169.204018,15.071,0.018
53169.214128,15.097,0.017
53172.174055,15.233,0.017
53172.185008,15.171,0.015
53172.195438,15.139,0.015
53172.205734,15.104,0.018
53172.215982,15.142,0.015
53174.172964,15.677,0.028
53174.182782,15.753,0.028
53174.19477,15.477,0.023
53174.204593,15.245,0.02
53174.214765,15.147,0.018
53346.459865,15.448,0.048
53346.486587,15.57,0.048
53346.499243,15.289,0.035
53346.511387,15.146,0.03
53348.460377,15.126,0.026
53348.472836,15.174,0.024
53348.485291,15.263,0.024
53348.499118,15.525,0.03
53348.512308,15.626,0.03
53354.456292,15.131,0.018
53354.469237,15.229,0.02
53354.483382,15.378,0.022
53354.496207,15.624,0.028
53354.509163,15.539,0.026
53377.413714,15.205,0.018
53377.426878,15.112,0.017
53377.441328,15.082,0.017
53377.455436,15.117,0.017
53377.468558,15.199,0.017
53382.507893,15.28,0.018
53382.522684,15.506,0.022
53382.538252,15.609,0.026
53404.430856,15.295,0.018
53404.443171,15.525,0.024
53404.456613,15.744,0.028
53404.469485,15.564,0.024
53404.483213,15.262,0.02
53433.365817,15.158,0.015
53433.377266,15.124,0.015
53433.388721,15.097,0.015
53433.401637,15.111,0.015
53433.413345,15.181,0.017
53440.427529,15.255,0.018
53440.438019,15.165,0.018
53440.448516,15.136,0.018
53440.460196,15.087,0.018
53440.471821,15.125,0.02
53465.280713,15.174,0.018
53465.291814,15.293,0.02
53465.30336,15.486,0.024
53465.314665,15.78,0.031
53465.325164,15.766,0.031
53465.33537,15.465,0.022
53465.34613,15.281,0.018
53465.357824,15.185,0.017
53465.369267,15.16,0.017
53465.379539,15.088,0.017
53466.261406,15.451,0.024
53466.271284,15.698,0.031
53466.28063,15.716,0.03
53466.290832,15.516,0.026
53466.301842,15.257,0.02
53468.277803,15.226,0.043
53468.287315,15.274,0.026
53468.297287,15.367,0.035
53473.276717,15.134,0.017
53473.288122,15.087,0.017
53473.299327,15.098,0.017
53473.310213,15.173,0.018
53473.322585,15.263,0.02
53478.226745,15.217,0.035
53478.23771,15.357,0.037
53478.247872,15.634,0.046
53478.258107,15.824,0.055
53478.267959,15.671,0.048
53479.27858,15.09,0.033
53479.291658,15.172,0.037
53479.303928,15.216,0.041
53479.313848,15.278,0.044
53479.323682,15.469,0.057
53493.296608,15.116,0.02
53493.306955,15.117,0.022
53493.317684,15.2,0.022
53493.32762,15.263,0.024
53493.337703,15.432,0.028
53496.20292,15.234,0.022
53496.213132,15.41,0.026
53496.223443,15.723,0.035
53496.233708,15.802,0.037
53496.243931,15.563,0.03
53526.193836,15.713,0.05
53526.214823,15.342,0.033
53527.170155,15.278,0.022
53527.180451,15.179,0.02
53527.190347,15.118,0.02
53527.20011,15.097,0.02
53527.209914,15.06,0.02
53733.456972,15.69,0.031
53733.469617,15.755,0.033
53733.482349,15.422,0.046
53746.462253,15.113,0.024
53746.474675,15.09,0.022
53746.48737,15.191,0.022
53746.499826,15.296,0.022
53746.512345,15.524,0.026
53791.35905,15.182,0.016
53791.368961,15.122,0.017
53791.370837,15.081,0.015
53791.380701,15.081,0.017
53791.38262,15.039,0.015
53791.392456,15.082,0.017
53791.394245,15.055,0.015
53791.404212,15.111,0.017
53791.40613,15.116,0.015
53791.415976,15.206,0.018
53794.398684,15.117,0.015
53794.4103,15.181,0.015
53794.421925,15.333,0.018
53794.433556,15.561,0.02
53794.445184,15.646,0.022
53815.338663,15.092,0.022
53815.349809,15.045,0.022
53815.360944,15.102,0.022
53815.37211,15.169,0.024
53815.383273,15.27,0.028
53817.270561,15.059,0.016
53817.281827,15.087,0.016
53817.293091,15.165,0.016
53817.304431,15.305,0.02
53817.315784,15.58,0.025
53818.333374,15.114,0.017
53818.343977,15.075,0.017
53818.356537,15.097,0.017
53818.368312,15.166,0.018
53818.381743,15.269,0.02
53823.317253,15.777,0.03
53823.330516,15.552,0.024
53823.34316,15.27,0.018
53823.358959,15.12,0.017
53823.375794,15.089,0.017
53825.286612,15.086,0.018
53825.299085,15.085,0.022
53825.310104,15.119,0.02
53825.332789,15.293,0.035
53829.326472,15.409,0.035
53846.240302,15.131,0.02
53846.250934,15.08,0.018
53846.261476,15.037,0.018
53846.272176,15.071,0.02
53846.282756,15.131,0.02
53848.291927,15.062,0.022
53848.302689,15.095,0.022
53848.313346,15.112,0.024
53848.324135,15.173,0.026
53848.335022,15.278,0.028
53849.298707,15.361,0.024
53849.309496,15.596,0.03
53849.320271,15.678,0.031
53849.331372,15.494,0.028
53849.342138,15.248,0.022
53850.285383,15.54,0.03
53852.260004,15.072,0.02
53852.270824,15.137,0.02
53852.281192,15.181,0.022
53852.292233,15.378,0.026
53852.303982,15.645,0.033
53855.251517,15.063,0.018
53855.262137,15.076,0.018
53855.273776,15.199,0.02
53855.284679,15.298,0.022
53855.295357,15.488,0.028
53858.257595,15.086,0.054
53858.268278,15.201,0.052
53858.289928,15.533,0.031
53880.261405,15.172,0.021
53883.223139,15.782,0.039
53883.234551,15.648,0.035
53883.246052,15.371,0.028
53883.257503,15.199,0.024
53883.268929,15.121,0.024
53884.167794,15.448,0.028
53884.179549,15.725,0.035
53884.191314,15.74,0.039
53884.203111,15.402,0.028
53884.212197,15.195,0.021
53884.214895,15.226,0.024
53884.225002,15.113,0.021
53884.237604,15.074,0.021
53884.250349,15.051,0.021
53884.262613,15.108,0.021
53886.207512,15.414,0.031
53886.217541,15.583,0.036
53886.227621,15.606,0.036
53886.237822,15.337,0.03
53886.247793,15.2,0.026
53901.179742,15.301,0.055
53901.189686,15.577,0.046
53901.199699,15.756,0.057
53901.209757,15.613,0.063
53911.217572,15.129,0.045
54080.46706,15.317,0.068
54080.492177,15.132,0.046
54080.504799,15.16,0.046
54084.501479,15.471,0.03
54087.48378,15.256,0.024
54121.400584,15.485,0.025
54121.413336,15.722,0.033
54121.425896,15.618,0.03
54121.438295,15.33,0.025
54121.450825,15.176,0.02
54124.405048,15.644,0.022
54124.421143,15.508,0.018
54124.434036,15.278,0.017
54124.44785,15.161,0.015
54124.460938,15.081,0.013
54149.393159,15.025,0.016
54149.404876,15.085,0.016
54149.416733,15.183,0.018
54149.429407,15.343,0.021
54149.441313,15.695,0.028
54155.356167,15.151,0.013
54155.367988,15.085,0.013
54155.379827,15.066,0.013
54155.391785,15.112,0.013
54155.403626,15.192,0.015
54156.327316,15.096,0.015
54156.338931,15.104,0.015
54156.350447,15.129,0.015
54156.361974,15.19,0.017
54156.373501,15.295,0.017
54174.321105,15.067,0.018
54174.331747,15.123,0.046
54174.342416,15.224,0.02
54174.353173,15.432,0.025
54175.326543,15.763,0.024
54175.337297,15.644,0.022
54175.348024,15.359,0.017
54175.35862,15.229,0.015
54175.36931,15.152,0.015
54180.285018,15.085,0.016
54180.295481,15.046,0.015
54180.306054,15.067,0.016
54180.316567,15.099,0.015
54180.327118,15.181,0.016
54200.264054,15.455,0.028
54200.283128,15.179,0.026
54200.292562,15.156,0.023
54207.269027,15.111,0.015
54207.278172,15.159,0.015
54207.287356,15.19,0.018
54210.265921,15.138,0.017
54210.274926,15.15,0.017
54210.283907,15.262,0.018
54210.292899,15.374,0.02
54210.301923,15.601,0.026
54447.470932,15.121,0.015
54474.40443,15.389,0.015
54474.417428,15.216,0.017
54474.430443,15.13,0.017
54474.456447,15.098,0.024
54483.435333,15.141,0.017
54495.506679,15.207,0.017
54495.519281,15.145,0.017
54508.409758,15.743,0.018
54508.421867,15.527,0.015
54508.433951,15.275,0.013
54508.446046,15.174,0.013
54508.458182,15.16,0.013
54524.393995,15.147,0.013
54524.429466,15.235,0.015
54524.441313,15.38,0.017
54535.44806,15.126,0.021
54535.459079,15.247,0.023
54535.469963,15.474,0.028
54535.480842,15.707,0.035
54535.491933,15.668,0.035
54537.32559,15.141,0.018
54537.336651,15.101,0.018
54537.347639,15.135,0.028
54537.35859,15.135,0.015
54537.369566,15.201,0.018
54543.245135,15.268,0.026
54555.303826,15.141,0.011
54555.315639,15.11,0.011
54555.327581,15.155,0.011
54555.339629,15.208,0.013
54555.351448,15.34,0.015
54564.296722,15.137,0.013
54564.308127,15.14,0.011
54564.319485,15.204,0.013
54564.330832,15.269,0.013
54564.342156,15.408,0.015
54580.244744,15.117,0.018
54580.255375,15.155,0.018
54580.265971,15.234,0.02
54580.276573,15.382,0.024
54580.287182,15.659,0.031
54590.200891,15.113,0.035
54590.210659,15.216,0.033
54590.220325,15.354,0.041
54590.230283,15.573,0.045
54590.23996,15.58,0.046
54592.245414,15.227,0.017
54592.256111,15.354,0.017
54592.266582,15.602,0.022
54592.277015,15.805,0.026
54592.287432,15.59,0.022
54611.208221,15.761,0.022
54611.218115,15.621,0.02
54611.227973,15.381,0.017
54611.237997,15.22,0.015
54611.247779,15.155,0.015
54615.214604,15.113,0.017
54615.22532,15.088,0.017
54615.235648,15.137,0.017
54615.235774,15.136,0.017
54615.246218,15.194,0.018
54615.256734,15.292,0.02
