mjd,m,merr
52641.463922,15.721,0.03
52641.479203,15.758,0.031
52641.494416,15.758,0.033
52641.509607,15.813,0.031
52641.524721,15.918,0.035
52644.488079,15.871,0.035
52644.502978,15.912,0.043
52644.517822,16.016,0.043
52644.532559,16.042,0.044
52648.398493,15.69,0.035
52648.413541,15.703,0.037
52648.428232,15.777,0.037
52648.443378,15.798,0.035
52648.458976,15.833,0.035
52667.466692,15.943,0.039
52667.481923,15.745,0.035
52667.497172,15.708,0.037
52667.512308,15.711,0.033
52667.527769,15.648,0.033
52671.400323,16.034,0.039
52671.415685,15.987,0.039
52671.430868,15.96,0.037
52671.446211,15.825,0.033
52671.461467,15.704,0.031
52674.400396,16.032,0.043
52674.414389,15.93,0.035
52674.428381,15.903,0.037
52674.442259,15.779,0.033
52674.456198,15.685,0.03
52704.371776,15.806,0.031
52704.384941,15.822,0.033
52704.398303,15.885,0.035
52704.411474,15.908,0.037
52704.424553,15.96,0.039
52707.314372,15.759,0.031
52707.314487,15.683,0.03
52707.327412,15.78,0.031
52707.327526,15.728,0.03
52707.340707,15.837,0.031
52707.340823,15.787,0.031
52707.353956,15.912,0.035
52707.354071,15.767,0.031
52707.367466,15.888,0.035
52728.292273,16.0,0.037
52728.305161,16.033,0.037
52728.317529,16.022,0.037
52728.331015,15.984,0.037
52728.343897,15.989,0.037
52730.230146,15.936,0.031
52730.241781,15.994,0.031
52730.253481,15.969,0.031
52730.265217,16.055,0.033
52730.27683,16.048,0.033
52731.323988,15.992,0.043
52731.335981,16.026,0.12
52731.347994,15.849,0.041
52737.304126,15.86,0.031
52737.328598,15.709,0.028
52737.340475,15.688,0.026
52737.352374,15.66,0.028
52737.364427,15.677,0.028
52756.201066,15.686,0.028
52756.212899,15.679,0.03
52756.224768,15.661,0.028
52756.236609,15.673,0.03
52756.248464,15.671,0.03
52760.20714,15.637,0.024
52760.219068,15.631,0.026
52760.230995,15.667,0.026
52760.242938,15.667,0.028
52760.254862,15.693,0.028
52764.145992,15.627,0.018
52764.159082,15.621,0.018
52764.171973,15.59,0.018
52764.18464,15.613,0.017
52764.196951,15.602,0.018
52789.215129,16.017,0.043
52789.225424,16.073,0.044
52789.235842,16.004,0.041
52789.246152,16.0,0.043
52789.256624,15.868,0.035
52794.172638,16.08,0.044
52794.182649,16.087,0.046
52794.192575,16.088,0.05
52794.202532,16.053,0.046
52794.212501,16.005,0.048
52816.169996,15.619,0.039
52816.179786,15.623,0.041
52816.190429,15.681,0.044
52816.200301,15.669,0.05
52816.210127,15.655,0.057
52823.170291,15.798,0.089
52823.190135,15.776,0.048
52987.510693,15.844,0.05
52995.498535,15.616,0.02
52995.512051,15.648,0.02
52995.525776,15.658,0.02
53000.480226,15.596,0.018
53000.493107,15.585,0.018
53000.506071,15.572,0.017
53000.519092,15.636,0.017
53000.532008,15.67,0.018
53026.420767,15.89,0.035
53026.434702,15.94,0.057
53026.462296,15.952,0.039
53026.475064,16.223,0.216
53033.394845,15.916,0.039
53033.40709,15.922,0.035
53033.419602,15.959,0.037
53033.431697,15.967,0.037
53033.443844,15.936,0.035
53054.375265,15.73,0.024
53054.387808,15.684,0.022
53054.399818,15.656,0.022
53054.412473,15.632,0.022
53054.426107,15.629,0.022
53058.345857,15.725,0.018
53058.358206,15.672,0.018
53058.370549,15.673,0.018
53058.381951,15.674,0.024
53058.400211,15.622,0.022
53080.336305,15.845,0.028
53080.347794,15.878,0.03
53080.358767,15.938,0.031
53080.370905,15.943,0.031
53080.382315,15.94,0.031
53083.339231,15.878,0.024
53083.349915,15.922,0.024
53083.361286,15.926,0.026
53083.372262,15.935,0.024
53083.382966,15.972,0.028
53086.345694,15.954,0.028
53086.356533,15.943,0.031
53086.367277,15.983,0.033
53086.378341,15.958,0.031
53086.389339,15.99,0.033
53092.332146,15.951,0.03
53092.342642,15.934,0.03
53092.35282,15.964,0.03
53092.363002,15.996,0.03
53092.373184,15.98,0.03
53114.254816,15.812,0.024
53114.277257,15.669,0.02
53114.28846,15.65,0.02
53114.299635,15.695,0.02
53115.244395,15.826,0.025
53115.244572,15.801,0.025
53115.245206,15.87,0.026
53115.255451,15.724,0.023
53115.256432,15.785,0.024
53115.266236,15.667,0.021
53115.267663,15.681,0.024
53115.277022,15.613,0.021
53115.278742,15.616,0.022
53115.288359,15.622,0.021
53115.289828,15.677,0.024
53117.302443,15.669,0.022
53117.31306,15.638,0.022
53117.323627,15.601,0.02
53117.334303,15.648,0.022
53117.344828,15.629,0.022
53139.203917,15.71,0.031
53139.213225,15.742,0.031
53139.222523,15.789,0.033
53139.231826,15.844,0.035
53139.241288,15.814,0.035
53142.252841,15.899,0.03
53142.262327,15.943,0.03
53142.271816,15.992,0.03
53142.281301,15.916,0.048
53142.290911,16.134,0.159
53146.212041,15.867,0.026
53146.221087,15.877,0.024
53146.230263,15.864,0.026
53146.239336,15.893,0.026
53146.248388,15.947,0.028
53169.173875,16.025,0.044
53169.183996,16.002,0.044
53169.194091,15.957,0.041
53169.20419,15.871,0.039
53169.2143,15.77,0.035
53171.173096,15.895,0.033
53171.183393,15.828,0.033
53171.193609,15.752,0.031
53171.203839,15.678,0.03
53171.214138,15.628,0.03
53174.173528,15.767,0.028
53174.183597,15.671,0.024
53174.194117,15.663,0.026
53174.204352,15.662,0.026
53174.214654,15.649,0.026
53346.47312,16.203,0.148
53353.466729,16.02,0.057
53353.480137,16.01,0.054
53353.49298,16.008,0.052
53353.505823,15.967,0.048
53353.519246,15.925,0.044
53382.507746,15.883,0.035
53382.52252,15.915,0.035
53382.538103,15.91,0.037
53404.431102,16.052,0.043
53404.443418,16.086,0.043
53404.456865,15.981,0.041
53404.469739,15.989,0.041
53404.483459,15.902,0.039
53433.377504,15.565,0.026
53433.388958,15.641,0.028
53433.401877,15.656,0.03
53433.414151,15.696,0.031
53440.427779,15.931,0.039
53440.438269,15.937,0.041
53440.448764,15.96,0.043
53440.460446,15.957,0.044
53440.472072,15.984,0.048
53464.341393,16.018,0.041
53464.351483,15.998,0.044
53464.362071,15.975,0.044
53464.37221,15.928,0.037
53464.382309,15.953,0.039
53467.277696,15.972,0.043
53467.287849,15.989,0.05
53467.298366,16.011,0.039
53467.30792,15.979,0.055
53467.318767,16.022,0.072
53469.278004,16.048,0.039
53469.288227,16.016,0.039
53469.298166,16.021,0.037
53469.309995,16.009,0.037
53469.32022,16.052,0.039
53478.274874,16.013,0.072
53478.284133,16.062,0.076
53478.293112,15.914,0.067
53478.302464,15.84,0.063
53478.311457,15.832,0.063
53495.253695,15.675,0.068
53495.2638,15.655,0.068
53495.273873,15.701,0.065
53495.283957,15.768,0.08
53496.202714,15.684,0.037
53496.21293,15.712,0.039
53496.223241,15.695,0.039
53496.233506,15.682,0.039
53496.243724,15.698,0.039
53525.170691,15.959,0.05
53525.180858,15.947,0.048
53525.191042,15.968,0.05
53525.201248,16.03,0.055
53525.211395,15.987,0.054
53530.168572,16.066,0.054
53530.17866,16.071,0.054
53530.188489,16.057,0.054
53530.198416,16.082,0.057
53530.208279,16.065,0.055
53733.456834,15.826,0.041
53733.469482,15.711,0.035
53733.482215,15.622,0.057
53791.35933,15.896,0.031
53791.371117,15.822,0.03
53791.382897,15.751,0.028
53791.394525,15.702,0.026
53791.406404,15.706,0.026
53791.416248,15.711,0.031
53791.428081,15.636,0.031
53791.439893,15.674,0.031
53791.451715,15.685,0.033
53791.463535,15.659,0.033
53794.398552,15.662,0.026
53794.410168,15.588,0.024
53794.421794,15.614,0.026
53794.433427,15.652,0.026
53794.445052,15.665,0.026
53815.339155,15.797,0.043
53815.350299,15.824,0.048
53815.361436,15.864,0.046
53815.372603,15.943,0.052
53815.38376,15.949,0.054
53818.333628,15.797,0.035
53818.344231,15.845,0.035
53818.356791,15.834,0.035
53818.368565,15.923,0.039
53818.381997,15.955,0.043
53823.317501,15.883,0.035
53823.330766,15.938,0.037
53823.343409,15.934,0.039
53823.359209,15.958,0.039
53823.376047,16.02,0.043
53825.286494,15.806,0.037
53825.298967,15.874,0.05
53825.309986,15.897,0.043
53825.321042,15.945,0.041
53825.332671,16.024,0.078
53829.326346,15.951,0.065
53833.273017,16.004,0.057
53833.282849,15.998,0.055
53833.293268,15.968,0.057
53833.303332,16.05,0.059
53833.313318,16.062,0.059
53846.239676,15.988,0.048
53846.250309,16.032,0.048
53846.260852,16.017,0.046
53846.27155,16.016,0.046
53846.282132,15.982,0.045
53848.291781,15.833,0.048
53848.302544,15.756,0.044
53848.313202,15.676,0.043
53848.323991,15.706,0.046
53848.334879,15.706,0.044
53849.298939,15.708,0.035
53849.309726,15.63,0.033
53849.320386,15.657,0.035
53849.320762,15.696,0.037
53849.331602,15.667,0.037
53849.342367,15.626,0.037
53852.259895,15.871,0.044
53852.270715,15.762,0.041
53852.281083,15.701,0.039
53852.292124,15.753,0.041
53852.303875,15.65,0.037
53855.250921,15.762,0.037
53855.262031,15.71,0.037
53855.27367,15.683,0.035
53855.284573,15.645,0.035
53855.295251,15.648,0.035
53858.257827,15.8,0.111
53858.268509,15.758,0.087
53858.279598,15.706,0.139
53858.29016,15.68,0.041
53880.216567,15.778,0.038
53880.238992,15.862,0.041
53880.250193,15.915,0.043
53880.261206,15.908,0.043
53883.223366,15.84,0.046
53883.234778,15.917,0.05
53883.246279,16.027,0.055
53883.257728,15.992,0.054
53883.269156,16.028,0.059
53884.212,15.916,0.043
53884.224804,15.97,0.046
53884.237407,16.024,0.049
53884.250151,15.977,0.048
53884.262415,16.004,0.051
53905.164201,15.993,0.055
53905.174186,16.004,0.055
53905.184196,15.998,0.057
53905.194193,15.927,0.054
53905.204232,15.848,0.054
54081.447464,15.843,0.092
54081.46024,15.995,0.096
54081.472767,15.988,0.089
54081.48531,16.104,0.092
54081.497904,16.146,0.094
54084.487605,15.967,0.048
54084.515069,15.948,0.055
54084.528795,16.006,0.055
54087.483645,16.054,0.057
54113.398368,15.587,0.031
54113.412104,15.61,0.033
54113.437559,15.579,0.035
54113.450089,15.604,0.033
54121.400453,15.672,0.033
54121.413206,15.687,0.033
54121.425767,15.753,0.038
54121.438166,15.691,0.036
54121.450694,15.734,0.038
54124.404901,15.629,0.024
54124.420998,15.677,0.026
54124.433891,15.712,0.028
54124.447704,15.714,0.026
54124.460793,15.775,0.028
54147.343721,15.995,0.043
54147.356018,16.034,0.045
54147.368781,16.05,0.046
54147.381198,16.038,0.049
54147.393141,16.041,0.045
54149.393031,16.075,0.041
54149.404747,16.037,0.04
54149.416604,16.041,0.041
54149.429278,15.973,0.04
54149.441183,15.903,0.036
54156.3276,16.051,0.041
54156.339216,16.03,0.039
54156.350732,16.009,0.037
54156.362259,15.995,0.035
54156.373787,15.944,0.035
54175.32565,15.684,0.03
54175.326412,15.58,0.022
54175.336487,15.671,0.03
54175.337167,15.6,0.024
54175.347234,15.652,0.028
54175.347894,15.612,0.024
54175.358045,15.68,0.03
54175.35849,15.661,0.024
54175.36875,15.724,0.031
54175.36918,15.692,0.026
54179.333986,15.705,0.033
54179.337743,15.677,0.024
54179.344613,15.736,0.035
54179.34875,15.731,0.024
54179.355164,15.763,0.035
54179.359393,15.74,0.024
54179.365751,15.746,0.035
54179.370492,15.758,0.026
54179.376841,15.844,0.038
54179.381591,15.778,0.028
54198.270446,15.828,0.045
54198.289699,16.002,0.091
54198.299312,16.019,0.101
54207.269252,15.99,0.033
54207.278396,16.037,0.031
54207.28758,16.003,0.065
54210.265806,16.014,0.031
54210.274812,16.017,0.031
54210.283792,15.975,0.033
54210.292784,16.028,0.035
54210.301807,15.969,0.033
54448.457128,15.816,0.026
54448.470256,15.863,0.026
54448.483358,15.858,0.026
54448.496456,15.93,0.028
54448.509548,16.057,0.124
54454.461888,15.926,0.031
54454.475123,15.944,0.031
54454.488274,15.957,0.031
54454.50131,15.922,0.031
54474.404845,15.909,0.026
54474.417847,15.9,0.037
54474.43086,15.827,0.035
54474.443877,15.665,0.024
54474.456864,15.656,0.043
54508.41016,15.937,0.026
54508.422266,15.941,0.026
54508.43435,15.959,0.026
54508.446446,15.965,0.03
54508.458581,15.952,0.028
54523.463205,15.661,0.026
54523.474953,15.58,0.024
54523.486812,15.583,0.024
54523.498973,15.648,0.026
54530.385546,15.652,0.018
54530.396927,15.65,0.018
54530.408248,15.627,0.018
54530.419593,15.64,0.02
54530.430988,15.62,0.018
54537.32598,15.748,0.037
54537.337043,15.738,0.037
54537.34803,15.697,0.054
54537.358979,15.655,0.02
54537.369957,15.654,0.033
54543.244961,16.009,0.054
54554.358399,15.831,0.024
54554.370356,15.884,0.026
54554.382282,15.924,0.028
54554.394234,15.928,0.03
54554.406253,15.929,0.03
54563.300853,15.825,0.022
54563.312541,15.923,0.024
54563.323972,15.929,0.024
54563.335407,15.919,0.026
54563.34686,15.963,0.026
54568.295668,16.031,0.051
54568.306587,15.914,0.045
54568.317843,15.994,0.045
54568.328768,16.087,0.049
54568.339753,16.032,0.048
54585.248478,16.084,0.085
54585.258732,15.947,0.041
54585.269039,16.01,0.041
54585.279336,15.947,0.028
54585.289696,15.902,0.028
54592.245154,15.906,0.031
54592.255858,15.813,0.03
54592.266328,15.712,0.026
54592.276758,15.679,0.026
54592.287173,15.652,0.026
54615.214352,15.663,0.028
54615.22507,15.704,0.03
54615.235525,15.688,0.031
54615.245968,15.748,0.033
54615.256483,15.75,0.033
54622.189951,15.647,0.124
54622.200006,15.816,0.13
54622.210205,15.923,0.144
