mjd,m,merr
52641.463922,16.962,0.085
52641.479203,16.952,0.087
52641.494416,16.965,0.094
52641.509607,17.033,0.087
52641.524721,17.042,0.087
52644.488079,16.977,0.093
52644.502978,17.261,0.144
52644.517822,17.138,0.115
52644.532559,17.237,0.126
52648.398493,16.878,0.098
52648.413541,16.906,0.104
52648.428232,17.045,0.109
52648.443378,16.929,0.091
52648.458976,16.873,0.087
52667.466692,17.234,0.117
52667.481923,16.884,0.105
52667.497172,16.77,0.091
52667.512308,16.497,0.065
52667.527769,16.378,0.057
52671.400323,17.155,0.104
52671.415685,16.943,0.093
52671.430868,16.97,0.094
52671.446211,16.829,0.085
52671.461467,16.969,0.093
52674.400396,16.934,0.085
52674.414389,17.096,0.094
52674.428381,17.189,0.105
52674.442259,17.162,0.117
52674.456198,17.116,0.102
52704.371776,17.165,0.102
52704.384941,17.08,0.094
52704.398303,16.869,0.081
52704.411474,16.673,0.067
52704.424553,16.556,0.063
52707.313768,17.122,0.109
52707.326811,16.891,0.083
52707.340105,16.749,0.074
52707.353359,16.591,0.063
52707.366869,16.509,0.061
52728.292273,17.02,0.083
52728.305161,17.022,0.085
52728.317529,17.057,0.085
52728.331015,17.056,0.087
52728.343897,17.181,0.096
52731.323988,17.081,0.117
52731.335981,17.042,0.278
52731.347994,16.842,0.094
52732.300669,17.026,0.101
52732.325078,17.183,0.116
52732.337007,17.087,0.106
52732.349227,17.142,0.117
52733.242054,16.804,0.072
52733.25477,16.789,0.07
52733.266827,16.891,0.078
52733.279237,16.932,0.08
52733.291858,16.841,0.105
52737.304126,16.767,0.068
52737.328598,16.704,0.063
52737.340475,16.771,0.065
52737.352374,16.808,0.068
52737.364427,16.787,0.068
52756.201066,16.888,0.078
52756.212899,16.873,0.08
52756.224768,16.936,0.083
52756.236609,16.964,0.089
52756.248464,17.05,0.096
52760.20714,16.669,0.057
52760.219068,16.733,0.063
52760.230995,16.814,0.068
52760.242938,16.747,0.072
52760.254862,16.858,0.078
52764.145992,16.902,0.055
52764.171684,16.626,0.041
52764.171973,16.501,0.041
52764.18464,16.372,0.035
52789.215129,17.033,0.1
52789.225424,16.973,0.096
52789.235842,17.058,0.104
52789.246152,17.061,0.104
52789.256624,17.139,0.105
52794.172638,16.771,0.081
52794.182649,16.83,0.089
52794.192575,16.797,0.091
52794.202532,16.758,0.087
52794.212501,16.79,0.094
52816.169996,17.124,0.144
52816.179786,17.105,0.148
52816.190429,17.07,0.154
52816.200301,17.02,0.165
52816.210127,16.982,0.187
52823.170291,17.178,0.289
52823.180195,16.95,0.381
52823.190135,16.899,0.13
52823.200075,17.168,0.165
52995.498535,16.932,0.072
52995.512051,16.921,0.07
52995.525776,17.098,0.068
53000.480226,16.635,0.052
53000.519092,16.9,0.054
53000.532008,16.86,0.05
53026.434702,16.782,0.105
53026.462296,16.793,0.096
53033.394845,16.917,0.094
53033.40709,16.8,0.085
53033.419602,16.891,0.089
53033.431697,16.95,0.085
53033.443844,16.79,0.08
53054.375265,16.838,0.061
53054.387808,16.807,0.059
53054.399818,16.842,0.063
53054.412473,16.876,0.068
53054.426107,16.801,0.067
53055.374961,16.441,0.05
53055.393584,16.451,0.181
53055.404691,16.557,0.242
53055.428145,16.386,0.185
53058.358206,16.232,0.033
53058.370549,16.364,0.037
53058.381951,16.519,0.046
53058.400211,16.528,0.046
53080.336305,17.033,0.078
53080.347794,16.911,0.072
53080.358767,16.891,0.072
53080.370905,17.038,0.081
53080.382315,17.065,0.081
53081.345442,16.978,0.068
53081.357015,16.909,0.066
53081.368115,16.918,0.065
53081.368669,16.9,0.066
53081.379127,16.946,0.068
53081.39018,16.979,0.068
53081.391458,16.983,0.073
53081.401178,17.116,0.081
53081.412099,17.043,0.076
53083.339231,16.994,0.067
53083.361286,16.968,0.068
53086.389339,16.435,0.061
53092.332146,16.407,0.05
53092.363002,16.564,0.057
53092.373184,16.526,0.057
53114.299635,16.963,0.063
53116.248498,16.603,0.105
53116.249395,16.765,0.127
53116.260111,16.655,0.087
53116.260467,16.531,0.078
53116.271097,16.54,0.064
53116.271601,16.595,0.059
53116.282028,16.442,0.112
53116.282735,16.394,0.085
53116.292756,16.407,0.078
53116.293973,16.331,0.078
53117.302443,17.01,0.074
53117.31306,16.974,0.076
53117.323627,16.96,0.076
53117.334303,16.968,0.078
53139.203917,16.697,0.072
53139.213225,16.739,0.072
53139.222523,16.745,0.076
53139.231826,16.732,0.074
53139.241288,16.708,0.074
53142.252841,16.759,0.068
53142.262327,16.777,0.061
53142.271816,16.912,0.068
53142.281301,16.99,0.122
53142.290911,17.047,0.403
53146.212041,16.487,0.046
53146.221087,16.357,0.043
53146.248388,16.392,0.048
53169.173875,16.789,0.083
53169.183996,16.862,0.091
53169.194091,16.874,0.089
53169.20419,16.829,0.091
53169.2143,16.814,0.083
53171.173096,16.84,0.083
53171.183393,16.978,0.087
53171.193609,16.938,0.091
53171.203839,17.03,0.096
53171.214138,16.885,0.096
53174.173528,17.054,0.081
53174.183597,17.013,0.08
53174.194117,17.015,0.08
53174.204352,16.821,0.072
53174.214654,16.935,0.08
53346.459673,17.543,0.472
53346.47312,17.101,0.302
53346.486394,17.14,0.302
53346.499051,16.94,0.235
53346.511195,16.862,0.211
53353.466729,17.381,0.191
53353.480137,17.431,0.187
53353.49298,17.28,0.154
53353.505823,17.026,0.126
53353.519246,16.738,0.087
53382.507746,16.861,0.08
53382.52252,16.758,0.072
53382.538103,16.79,0.081
53404.431102,17.104,0.105
53404.443418,17.304,0.122
53404.456865,17.019,0.098
53404.469739,16.98,0.096
53404.483459,16.625,0.074
53433.366055,16.731,0.065
53433.377504,16.809,0.074
53433.388958,16.766,0.076
53433.401877,16.723,0.08
53433.414151,16.735,0.081
53440.427779,16.881,0.091
53440.438269,16.782,0.081
53440.448764,16.905,0.098
53440.460446,16.851,0.098
53440.472072,16.919,0.115
53464.341393,16.656,0.07
53464.351483,16.686,0.076
53464.362071,16.72,0.083
53464.37221,16.72,0.076
53464.382309,16.775,0.076
53467.277696,16.717,0.078
53467.287849,16.791,0.096
53467.298366,16.708,0.068
53467.30792,16.833,0.105
53467.318767,16.632,0.133
53469.278004,16.985,0.085
53469.288227,16.94,0.081
53469.298166,16.95,0.087
53469.309995,17.019,0.091
53469.32022,17.043,0.093
53478.274874,17.284,0.252
53478.284133,17.172,0.229
53478.293112,17.061,0.196
53478.302464,16.993,0.185
53478.311457,17.023,0.196
53495.253695,17.178,0.266
53495.2638,17.17,0.266
53495.273873,16.855,0.189
53495.283957,16.864,0.209
53496.202714,16.956,0.122
53496.21293,16.867,0.117
53496.223241,16.882,0.118
53496.233506,16.916,0.124
53496.243724,16.948,0.128
53525.170691,16.773,0.098
53525.180858,16.777,0.1
53525.191042,16.661,0.089
53525.201248,16.616,0.091
53525.211395,16.673,0.096
53530.168572,17.011,0.126
53530.17866,17.042,0.128
53530.188489,16.973,0.117
53530.198416,16.925,0.118
53530.208279,16.97,0.12
53733.456834,16.939,0.107
53733.469482,16.97,0.113
53733.482215,17.125,0.229
53791.35933,16.865,0.071
53791.371117,16.847,0.071
53791.382897,16.882,0.073
53791.394525,16.926,0.076
53791.406404,16.915,0.076
53791.416248,16.92,0.083
53791.428081,16.976,0.089
53791.439893,16.997,0.091
53791.451715,16.924,0.087
53791.463535,16.976,0.094
53794.410168,16.93,0.078
53794.421794,17.066,0.089
53794.433427,16.986,0.081
53794.445052,17.007,0.081
53815.339155,16.854,0.109
53815.350299,16.95,0.124
53815.361436,16.931,0.117
53815.372603,16.919,0.12
53815.38376,16.939,0.128
53818.333628,16.851,0.085
53818.344231,16.956,0.091
53818.356791,16.914,0.087
53818.368565,17.034,0.096
53818.381997,16.976,0.096
53823.317501,16.996,0.093
53823.330766,16.96,0.091
53823.343409,16.859,0.083
53823.359209,16.802,0.08
53823.376047,16.688,0.074
53825.286494,16.809,0.085
53825.298967,16.767,0.102
53825.309986,16.862,0.102
53825.321042,16.867,0.087
53825.332671,16.861,0.178
53829.326346,16.853,0.144
53833.273017,16.953,0.133
53833.282849,17.053,0.144
53833.293268,16.971,0.137
53833.303332,16.91,0.131
53833.313318,16.823,0.12
53846.239676,16.46,0.068
53846.250309,16.423,0.063
53846.260852,16.402,0.061
53846.27155,16.459,0.064
53846.282132,16.438,0.063
53848.291781,17.051,0.131
53848.302544,17.094,0.139
53848.313202,17.166,0.155
53848.323991,16.968,0.139
53848.334879,17.077,0.15
53849.298939,16.716,0.083
53849.309726,16.799,0.093
53849.320386,16.817,0.094
53849.320762,16.684,0.085
53849.331602,16.82,0.096
53849.342367,16.714,0.1
53852.259895,16.852,0.105
53852.270715,16.76,0.096
53852.281083,16.835,0.104
53852.292124,16.819,0.102
53852.303875,16.806,0.1
53855.250921,16.898,0.1
53855.262031,17.051,0.115
53855.27367,16.943,0.104
53855.284573,16.864,0.098
53855.295251,17.043,0.115
53858.257827,16.804,0.294
53858.268509,17.072,0.324
53858.29016,17.22,0.155
53880.216567,16.713,0.086
53880.238992,16.702,0.084
53880.250193,16.762,0.089
53880.261206,16.731,0.089
53883.223366,16.763,0.1
53883.234778,16.831,0.109
53883.246279,16.661,0.093
53883.257728,16.882,0.113
53883.269156,16.71,0.105
53884.212,17.125,0.125
53884.224804,17.098,0.127
53884.237407,16.984,0.117
53884.250151,17.101,0.13
53884.262415,16.94,0.119
53905.164201,17.118,0.146
53905.174186,17.05,0.139
53905.184196,16.938,0.131
53905.194193,17.151,0.159
53905.204232,17.196,0.174
54084.487605,16.844,0.113
54087.483645,17.209,0.139
54113.398368,16.448,0.072
54113.412104,16.436,0.074
54113.437559,16.506,0.087
54113.450089,16.546,0.083
54121.400453,16.921,0.092
54121.413206,17.01,0.102
54121.425767,17.156,0.127
54121.438166,16.955,0.106
54121.450694,17.084,0.12
54124.404901,16.912,0.072
54124.420998,16.995,0.081
54124.433891,16.948,0.078
54124.447704,16.802,0.065
54124.460793,16.796,0.067
54147.343721,16.675,0.076
54147.356018,16.513,0.064
54147.368781,16.452,0.064
54147.381198,16.42,0.066
54147.393141,16.441,0.059
54149.393031,17.138,0.104
54149.404747,17.059,0.096
54149.416604,17.099,0.106
54149.429278,17.034,0.102
54149.441183,17.196,0.112
54156.3276,16.772,0.07
54156.339216,16.802,0.072
54156.350732,16.741,0.067
54156.362259,16.807,0.068
54156.373787,16.865,0.068
54175.32565,17.151,0.104
54175.326412,17.106,0.087
54175.336487,17.089,0.101
54175.337167,17.017,0.083
54175.347234,17.125,0.102
54175.347894,17.078,0.089
54175.358045,17.16,0.109
54175.35849,17.188,0.093
54175.36875,17.266,0.122
54175.36918,17.16,0.091
54198.270446,17.357,0.178
54198.289699,16.873,0.193
54198.299312,16.441,0.17
54207.269252,16.766,0.07
54207.278396,16.796,0.068
54207.28758,16.857,0.139
54210.265806,16.924,0.081
54210.274812,16.897,0.081
54210.283792,16.907,0.085
54210.292784,16.911,0.087
54210.301807,16.999,0.093
54440.480652,16.833,0.148
54448.457128,16.75,0.068
54448.509548,16.516,0.174
54454.461888,16.709,0.061
54454.488274,16.668,0.063
54474.417847,16.728,0.08
54474.43086,16.734,0.078
54474.456864,16.883,0.109
54508.41016,16.766,0.054
54508.422266,16.655,0.052
54508.43435,16.742,0.054
54523.463205,16.68,0.065
54530.385546,16.87,0.057
54530.396927,16.844,0.059
54530.408248,16.83,0.059
54530.419593,16.905,0.067
54537.32598,17.074,0.117
54537.337043,17.03,0.122
54537.34803,17.086,0.189
54537.358979,16.975,0.08
54537.369957,16.983,0.1
54554.358399,16.94,0.065
54554.370356,17.039,0.072
54554.382282,17.073,0.076
54554.394234,16.984,0.076
54554.406253,16.968,0.08
54563.300853,16.659,0.044
54563.312541,16.6,0.039
54563.323972,16.604,0.041
54563.335407,16.436,0.041
54563.34686,16.44,0.043
54568.295668,16.984,0.106
54568.306587,16.92,0.101
54568.317843,16.853,0.097
54568.328768,16.976,0.111
54568.339753,17.054,0.112
54585.248478,16.846,0.178
54585.258732,17.019,0.113
54585.269039,16.956,0.093
54585.279336,16.889,0.068
54585.289696,16.959,0.068
54592.245154,16.916,0.074
54592.255858,16.828,0.068
54592.266328,16.776,0.072
54592.276758,16.917,0.078
54592.287173,16.99,0.081
54615.214352,17.128,0.093
54615.22507,17.04,0.087
54615.235525,17.017,0.094
54615.245968,16.938,0.087
54615.256483,17.073,0.102
54622.179862,16.928,0.257
54622.189951,17.189,0.297
54622.200006,17.301,0.292
54622.210205,17.198,0.272
