mjd,m,merr
52641.464311,16.239,0.043
52641.479594,16.255,0.044
52641.494805,16.196,0.043
52641.509996,16.178,0.041
52641.52511,16.159,0.039
52644.488334,16.193,0.044
52644.503234,16.215,0.054
52644.51808,16.198,0.054
52644.532817,16.223,0.052
52648.398744,16.39,0.061
52648.413796,16.381,0.061
52648.428486,16.37,0.059
52648.443632,16.242,0.048
52648.459231,16.19,0.044
52667.467079,16.323,0.05
52667.482333,16.23,0.05
52667.497562,16.249,0.05
52667.512699,16.212,0.048
52667.528158,16.146,0.046
52671.400586,16.472,0.054
52671.415947,16.353,0.048
52671.43113,16.291,0.044
52671.446472,16.235,0.044
52671.461729,16.153,0.041
52674.400031,16.487,0.054
52674.414026,16.521,0.055
52674.428018,16.454,0.054
52674.441896,16.367,0.052
52674.455834,16.258,0.046
52704.372046,16.391,0.05
52704.385213,16.384,0.048
52704.398572,16.324,0.046
52704.411742,16.361,0.048
52704.424822,16.364,0.052
52707.372711,16.257,0.043
52707.385887,16.347,0.044
52707.399071,16.394,0.048
52707.413132,16.355,0.05
52707.426394,16.38,0.048
52728.291912,16.351,0.044
52728.3048,16.333,0.044
52728.317171,16.41,0.046
52728.330653,16.435,0.048
52728.343481,16.415,0.048
52731.323649,16.36,0.052
52731.335641,16.496,0.139
52731.347653,16.456,0.065
52738.244743,16.155,0.041
52738.256181,16.196,0.043
52738.268098,16.202,0.043
52738.279634,16.202,0.041
52738.291156,16.296,0.044
52755.20649,16.172,0.048
52755.218454,16.192,0.049
52755.230383,16.213,0.049
52755.242361,16.202,0.049
52755.254271,16.272,0.053
52760.207485,16.393,0.044
52760.219413,16.364,0.046
52760.23134,16.332,0.044
52760.243283,16.257,0.044
52760.255208,16.231,0.043
52767.208031,16.31,0.056
52767.220682,16.236,0.053
52767.232313,16.207,0.051
52767.243958,16.189,0.051
52767.25656,16.123,0.049
52789.214814,16.402,0.055
52789.22511,16.389,0.055
52789.235528,16.353,0.054
52789.245837,16.371,0.054
52789.25631,16.323,0.052
52794.172873,16.295,0.052
52794.182836,16.293,0.054
52794.19276,16.27,0.055
52794.202717,16.192,0.05
52794.212688,16.191,0.055
52816.169732,16.322,0.07
52816.179521,16.433,0.076
52816.190166,16.387,0.08
52816.200034,16.528,0.104
52816.209863,16.375,0.102
52823.170561,16.467,0.174
52823.180464,16.525,0.152
52823.190403,16.455,0.081
52823.200349,16.426,0.087
52987.498293,16.33,0.113
52987.511162,16.133,0.055
52996.465376,16.397,0.039
52996.478334,16.252,0.033
52996.491288,16.247,0.033
52996.504421,16.162,0.031
52996.517376,16.195,0.03
53001.467724,15.999,0.03
53001.481027,16.141,0.03
53001.494164,16.182,0.03
53001.508312,16.171,0.031
53001.521597,16.187,0.031
53027.396558,16.11,0.03
53027.409404,16.06,0.03
53027.421976,16.008,0.028
53027.435724,15.969,0.028
53027.448677,15.905,0.028
53033.394569,16.491,0.067
53033.406815,16.457,0.054
53033.419327,16.338,0.048
53033.431421,16.336,0.046
53033.443568,16.242,0.044
53054.375596,16.247,0.035
53054.388139,16.244,0.033
53054.400149,16.245,0.035
53054.412805,16.19,0.033
53054.426438,16.173,0.033
53060.309411,16.154,0.028
53060.321537,16.216,0.03
53060.334254,16.235,0.03
53060.345715,16.27,0.03
53060.358872,16.278,0.031
53061.340517,16.23,0.026
53061.352486,16.147,0.026
53061.364865,16.121,0.025
53061.377247,16.124,0.026
53061.389157,16.197,0.028
53080.335994,16.378,0.041
53080.347484,16.402,0.043
53080.358456,16.341,0.041
53080.370594,16.308,0.041
53080.382004,16.286,0.039
53083.342039,16.357,0.033
53083.353492,16.373,0.035
53083.364948,16.359,0.035
53083.37632,16.328,0.033
53083.388238,16.288,0.033
53084.338565,16.248,0.03
53084.349188,16.231,0.028
53084.359983,16.144,0.026
53084.370618,16.08,0.026
53084.381498,16.081,0.026
53086.353551,16.402,0.041
53086.36514,16.401,0.043
53086.376101,16.366,0.048
53086.387159,16.416,0.045
53086.398113,16.317,0.038
53115.303092,15.926,0.03
53115.314223,15.917,0.03
53115.325384,15.942,0.03
53115.336451,15.991,0.031
53115.34752,16.04,0.035
53117.263514,16.331,0.036
53117.273986,16.36,0.038
53117.284784,16.418,0.041
53117.295889,16.423,0.041
53117.306288,16.399,0.04
53139.20419,16.313,0.048
53139.213498,16.241,0.046
53139.222795,16.243,0.046
53139.2321,16.246,0.046
53139.24156,16.177,0.044
53143.233721,16.09,0.039
53143.243224,16.155,0.037
53143.25257,16.22,0.041
53143.261912,16.142,0.035
53143.271259,16.191,0.035
53147.206755,16.192,0.041
53147.215543,16.207,0.043
53147.224355,16.221,0.041
53147.233517,16.358,0.046
53147.242595,16.302,0.046
53169.173616,16.358,0.054
53169.183738,16.228,0.05
53169.193833,16.195,0.048
53169.203932,16.199,0.05
53169.214042,16.175,0.046
53172.173913,16.426,0.048
53172.184866,16.338,0.046
53172.195296,16.229,0.044
53172.205592,16.251,0.055
53172.215841,16.152,0.041
53174.172832,16.204,0.046
53174.18265,16.206,0.045
53174.194638,16.272,0.049
53174.204462,16.248,0.048
53174.214634,16.218,0.048
53346.461109,16.092,0.101
53346.473338,16.129,0.094
53346.485539,16.251,0.109
53346.497834,16.074,0.084
53348.460272,16.21,0.072
53348.472732,16.419,0.072
53348.485186,16.269,0.059
53348.499013,16.21,0.055
53348.512202,16.229,0.052
53351.498897,16.373,0.083
53351.513394,16.198,0.066
53351.527648,16.241,0.068
53354.456184,16.283,0.052
53354.469129,16.36,0.054
53354.483274,16.384,0.054
53354.496098,16.348,0.052
53354.509055,16.338,0.05
53377.413604,16.174,0.046
53377.426769,16.243,0.046
53377.441218,16.277,0.046
53377.455326,16.362,0.048
53377.468448,16.301,0.044
53382.50818,16.222,0.043
53382.52297,16.274,0.044
53382.538538,16.298,0.048
53404.430733,16.429,0.052
53404.443046,16.472,0.054
53404.456489,16.422,0.052
53404.469362,16.435,0.055
53404.483089,16.33,0.052
53433.365698,16.231,0.039
53433.377147,16.179,0.039
53433.388602,16.157,0.039
53433.401518,16.251,0.046
53433.413227,16.262,0.046
53438.344426,16.391,0.044
53438.355963,16.436,0.048
53438.368163,16.49,0.05
53438.379746,16.509,0.054
53438.391348,16.477,0.054
53447.306877,16.196,0.043
53447.318221,16.17,0.039
53447.329026,16.148,0.039
53447.339789,16.193,0.044
53447.3512,16.095,0.041
53465.335272,16.34,0.05
53465.346032,16.38,0.054
53465.357725,16.409,0.054
53465.369168,16.287,0.046
53465.37944,16.282,0.048
53466.261406,16.347,0.052
53466.271284,16.388,0.057
53466.28063,16.437,0.054
53466.290832,16.459,0.057
53466.301842,16.416,0.054
53468.277704,16.182,0.104
53468.287216,16.188,0.061
53468.297189,16.246,0.08
53473.276619,16.377,0.054
53473.288023,16.415,0.057
53473.299229,16.3,0.052
53473.310113,16.242,0.05
53473.322486,16.24,0.05
53478.226638,16.042,0.076
53478.237603,16.057,0.076
53478.247659,16.059,0.068
53478.257999,16.086,0.072
53478.267851,16.144,0.076
53479.278481,16.072,0.102
53479.313749,16.051,0.1
53479.323583,16.073,0.102
53493.296507,16.367,0.068
53493.306854,16.297,0.065
53493.317582,16.261,0.063
53493.32752,16.204,0.059
53493.337602,16.192,0.057
53496.203127,16.147,0.05
53496.213335,16.301,0.059
53496.223648,16.324,0.063
53496.233912,16.307,0.063
53496.244136,16.327,0.061
53503.233189,16.443,0.054
53503.241821,16.416,0.055
53503.25071,16.44,0.055
53503.259737,16.393,0.054
53503.268975,16.312,0.052
53526.193749,16.263,0.089
53526.214735,16.331,0.078
53527.170331,16.358,0.061
53527.180628,16.335,0.059
53527.190524,16.417,0.065
53527.200289,16.38,0.065
53527.21009,16.326,0.063
53733.457105,16.39,0.063
53733.469751,16.442,0.061
53746.462138,16.41,0.078
53746.47456,16.488,0.076
53746.487255,16.377,0.065
53746.499711,16.325,0.057
53746.512229,16.264,0.05
53791.358917,16.362,0.045
53791.368826,16.246,0.043
53791.370701,16.413,0.048
53791.380566,16.225,0.041
53791.382484,16.328,0.045
53791.39232,16.222,0.041
53791.394109,16.279,0.041
53791.404077,16.169,0.039
53791.405996,16.23,0.041
53791.41584,16.17,0.041
53794.398808,16.213,0.039
53794.410424,16.177,0.037
53794.422048,16.236,0.041
53794.433679,16.152,0.037
53794.445307,16.162,0.037
53817.270423,16.263,0.045
53817.281689,16.265,0.045
53817.292952,16.261,0.045
53817.304294,16.258,0.046
53817.315645,16.327,0.049
53818.333249,16.283,0.048
53818.343851,16.236,0.044
53818.356411,16.217,0.044
53818.368186,16.206,0.044
53818.381617,16.16,0.044
53823.252165,16.247,0.046
53823.263483,16.202,0.044
53823.274087,16.222,0.044
53823.285071,16.204,0.044
53823.296485,16.192,0.044
53823.317128,16.222,0.044
53823.330392,16.303,0.048
53823.343035,16.31,0.048
53823.358835,16.414,0.055
53823.37567,16.477,0.061
53824.284921,16.217,0.046
53824.299241,16.247,0.054
53824.313456,16.278,0.057
53824.329162,16.349,0.054
53824.345087,16.349,0.052
53824.348971,16.326,0.056
53824.361513,16.345,0.073
53825.286721,16.358,0.055
53825.299195,16.269,0.065
53825.310214,16.321,0.055
53825.321943,16.192,0.046
53825.332898,16.216,0.07
53829.32659,16.146,0.07
53829.339749,15.906,0.203
53845.255507,16.354,0.14
53845.266817,16.584,0.104
53845.277981,16.308,0.084
53845.289269,16.298,0.061
53848.29209,16.393,0.072
53848.30285,16.336,0.07
53848.313508,16.228,0.067
53848.324296,16.31,0.074
53848.335184,16.242,0.068
53849.25552,16.29,0.05
53849.266208,16.311,0.052
53849.276904,16.267,0.05
53849.287598,16.187,0.048
53849.298593,16.137,0.048
53850.243871,16.243,0.063
53850.254264,16.207,0.054
53850.264542,16.249,0.056
53850.274885,16.199,0.054
53850.285282,16.228,0.056
53852.260108,16.369,0.065
53852.270926,16.264,0.059
53852.281294,16.277,0.061
53852.292337,16.267,0.059
53852.304085,16.171,0.054
53855.251615,16.417,0.063
53855.262234,16.378,0.061
53855.284778,16.28,0.055
53855.295458,16.302,0.057
53858.279181,16.135,0.113
53858.289814,16.247,0.063
53881.210639,16.239,0.058
53881.220651,16.206,0.058
53881.230758,16.299,0.068
53881.250898,16.314,0.071
53883.223028,16.168,0.057
53883.234439,16.128,0.055
53883.245941,16.16,0.055
53883.257391,16.163,0.057
53883.268817,16.244,0.068
53884.167683,16.121,0.054
53884.179437,16.116,0.052
53884.191203,16.182,0.057
53884.203001,16.167,0.057
53884.214784,16.1,0.052
53901.179829,16.539,0.178
53901.189774,16.437,0.107
53901.19979,16.581,0.128
53901.209845,16.657,0.152
53910.166665,16.228,0.072
53910.176897,16.245,0.072
53910.187193,16.087,0.063
53910.197404,16.103,0.063
53910.207619,16.278,0.078
53911.217753,16.485,0.153
54084.487893,16.154,0.05
54084.501621,16.221,0.059
54084.515355,16.456,0.076
54084.529081,16.352,0.072
54087.483912,16.236,0.067
54121.400716,16.263,0.049
54121.413468,16.28,0.053
54121.426027,16.336,0.061
54121.438426,16.322,0.058
54121.450957,16.39,0.063
54124.40519,16.174,0.033
54124.421285,16.169,0.033
54124.434178,16.184,0.033
54124.447992,16.234,0.033
54124.46108,16.303,0.037
54149.393287,16.484,0.058
54149.405004,16.371,0.051
54149.416862,16.397,0.053
54149.429536,16.281,0.049
54149.441441,16.231,0.046
54155.356469,16.187,0.035
54155.368292,16.24,0.035
54155.38013,16.336,0.039
54155.392089,16.281,0.037
54155.403929,16.351,0.041
54174.320966,16.178,0.048
54174.331609,16.273,0.124
54174.342277,16.231,0.048
54174.353035,16.262,0.049
54174.363887,16.231,0.048
54175.326668,16.202,0.037
54175.337422,16.23,0.037
54175.34815,16.279,0.039
54175.358746,16.293,0.041
54175.369437,16.367,0.043
54180.284885,16.401,0.049
54180.295348,16.429,0.049
54180.305922,16.509,0.056
54180.316434,16.471,0.051
54180.326986,16.335,0.046
54200.283229,16.426,0.094
54200.292663,16.489,0.12
54207.268913,16.423,0.046
54207.27806,16.329,0.043
54207.287245,16.31,0.046
54210.266027,16.399,0.048
54210.275035,16.482,0.052
54210.284017,16.439,0.054
54210.293009,16.453,0.054
54210.302034,16.336,0.05
54447.458062,16.405,0.044
54447.471128,16.398,0.044
54447.484904,16.402,0.048
54447.497955,16.331,0.037
54447.511007,16.202,0.033
54454.462264,16.448,0.044
54454.475617,16.341,0.041
54454.48865,16.264,0.037
54454.50168,16.235,0.037
54454.514701,16.195,0.037
54475.401049,16.403,0.081
54475.414058,16.299,0.081
54475.426907,16.243,0.037
54475.439755,16.198,0.031
54475.452596,16.157,0.028
54483.396251,16.067,0.055
54483.409388,16.197,0.057
54483.422619,16.119,0.05
54483.435527,16.235,0.046
54483.44843,16.235,0.044
54495.468648,16.06,0.039
54495.481255,16.116,0.041
54495.493867,16.106,0.039
54495.506465,16.216,0.044
54495.519069,16.259,0.046
54509.337644,16.255,0.03
54509.349839,16.239,0.03
54509.36189,16.209,0.028
54509.37393,16.102,0.026
54509.386014,16.118,0.026
54524.394182,16.396,0.039
54524.406191,16.305,0.037
54524.417942,16.126,0.037
54524.429649,16.286,0.037
54524.441493,16.189,0.037
54535.44823,16.262,0.046
54535.45925,16.207,0.046
54535.470133,16.255,0.051
54535.481012,16.337,0.056
54535.492103,16.349,0.063
54538.311265,16.338,0.031
54538.32238,16.379,0.033
54538.333476,16.414,0.033
54538.344609,16.349,0.033
54538.35563,16.353,0.031
54543.245304,16.298,0.067
54543.256255,16.213,0.065
54543.267069,16.206,0.059
54555.303659,16.442,0.033
54555.315471,16.457,0.033
54555.327413,16.386,0.031
54555.339461,16.342,0.031
54555.351281,16.268,0.03
54558.188481,16.283,0.048
54558.200048,16.309,0.048
54558.211604,16.24,0.068
54558.223174,16.079,0.155
54558.234798,16.284,0.063
54564.297082,16.203,0.03
54564.308485,16.256,0.031
54564.319842,16.273,0.031
54564.331192,16.336,0.033
54564.342515,16.408,0.035
54580.244611,16.304,0.052
54580.255243,16.328,0.054
54580.265837,16.269,0.054
54580.276441,16.263,0.054
54580.287048,16.167,0.05
54586.243105,16.37,0.046
54586.253527,16.4,0.054
54586.26386,16.322,0.057
54586.274265,16.246,0.041
54586.284601,16.185,0.041
54590.201136,16.583,0.112
54590.210903,16.322,0.086
54590.220689,16.424,0.099
54590.230527,16.266,0.079
54590.240204,16.379,0.086
54594.252821,16.155,0.041
54594.263105,16.15,0.043
54594.273421,16.175,0.044
54594.283699,16.214,0.046
54594.293973,16.233,0.048
54611.208471,16.171,0.033
54611.218372,16.251,0.037
54611.22823,16.188,0.035
54611.238248,16.22,0.037
54611.248028,16.234,0.037
54618.208602,16.186,0.039
54618.218817,16.193,0.039
54618.229041,16.264,0.043
54618.239259,16.307,0.044
54618.249485,16.309,0.046
