mjd,m,merr
52613.447261,15.35,0.045
52613.463843,15.44,0.026
52613.47921,15.581,0.03
52614.360606,15.35,0.045
52614.3754,15.44,0.026
52614.389944,15.581,0.03
52623.360666,15.615,0.033
52623.375361,15.634,0.033
52623.389946,15.569,0.031
52623.404643,15.417,0.026
52623.41954,15.313,0.023
52646.325828,15.28,0.023
52646.34093,15.208,0.02
52646.356096,15.19,0.018
52646.37132,15.199,0.02
52646.386402,15.22,0.02
52649.302532,15.532,0.022
52649.318681,15.613,0.022
52649.33484,15.586,0.022
52649.350649,15.416,0.02
52649.366728,15.3,0.018
52652.306538,15.248,0.021
52652.325939,15.37,0.023
52652.348051,15.705,0.031
52652.367826,15.664,0.03
52652.38582,15.538,0.026
52672.250934,15.502,0.025
52672.266135,15.329,0.023
52672.281452,15.235,0.028
52672.296504,15.203,0.023
52672.311333,15.173,0.025
52675.24837,15.574,0.093
52675.263493,15.653,0.109
52696.26773,15.643,0.026
52696.267846,15.677,0.026
52696.281205,15.467,0.023
52696.281321,15.486,0.023
52696.294686,15.342,0.021
52696.294804,15.365,0.02
52696.308166,15.254,0.02
52696.308283,15.271,0.02
52696.321641,15.223,0.02
52696.321758,15.222,0.02
52723.173025,15.654,0.028
52723.173628,15.651,0.026
52723.185849,15.558,0.025
52723.186453,15.552,0.025
52723.197959,15.401,0.023
52723.198563,15.391,0.023
52723.21021,15.265,0.053
52733.181912,15.204,0.021
52733.18227,15.158,0.018
52733.194297,15.226,0.021
52733.194653,15.189,0.02
52733.206372,15.256,0.021
52733.206728,15.263,0.021
52733.218228,15.293,0.023
52733.218585,15.327,0.021
52733.230105,15.413,0.026
52733.230461,15.41,0.023
52752.130826,15.364,0.026
52752.130939,15.396,0.025
52752.141436,15.517,0.03
52752.141548,15.438,0.026
52752.15204,15.57,0.031
52752.162645,15.595,0.033
52752.162758,15.609,0.031
52752.173332,15.597,0.035
52752.173444,15.631,0.033
52761.139585,15.621,0.033
52761.139927,15.608,0.031
52761.151442,15.53,0.031
52761.151788,15.531,0.031
52761.163723,15.421,0.031
52761.164069,15.382,0.026
52761.175691,15.397,0.053
52761.176033,15.318,0.048
52761.187558,15.268,0.046
52761.187901,15.274,0.045
52913.437233,15.529,0.035
52913.463649,15.679,0.035
52913.4769,15.654,0.033
52935.436354,15.391,0.033
52935.447856,15.318,0.031
52935.459303,15.27,0.03
52935.470987,15.215,0.028
52935.482648,15.24,0.028
52946.393524,15.314,0.025
52946.405892,15.367,0.025
52946.418256,15.432,0.026
52946.430779,15.612,0.03
52946.443018,15.762,0.04
52976.332342,15.178,0.017
52976.345896,15.209,0.017
52976.36083,15.243,0.017
52976.373709,15.324,0.017
52976.386638,15.461,0.017
52990.337408,15.696,0.023
52990.351015,15.68,0.023
52990.363637,15.579,0.021
52990.376951,15.403,0.018
52990.389602,15.329,0.018
52991.412161,15.252,0.015
52991.434283,15.389,0.017
52991.451362,15.586,0.02
52991.467641,15.624,0.02
52991.485735,15.519,0.018
53001.349297,15.288,0.012
53001.362651,15.392,0.012
53001.375951,15.554,0.015
53001.389269,15.616,0.015
53001.402789,15.639,0.016
53002.340765,15.567,0.013
53002.354402,15.609,0.015
53002.368011,15.587,0.013
53002.371409,15.557,0.015
53002.381517,15.424,0.012
53002.3847,15.392,0.013
53002.384877,15.413,0.013
53002.385053,15.39,0.013
53002.395348,15.299,0.012
53002.399479,15.268,0.011
53002.399655,15.283,0.011
53002.399832,15.298,0.011
53002.416256,15.232,0.011
53002.434512,15.218,0.011
53002.434688,15.218,0.011
53002.434865,15.221,0.011
53003.313198,15.552,0.017
53003.316476,15.603,0.015
53003.340882,15.46,0.013
53003.349778,15.36,0.013
53003.352938,15.35,0.012
53003.361906,15.283,0.013
53003.365026,15.278,0.012
53035.285433,15.224,0.02
53035.298268,15.252,0.021
53035.311212,15.32,0.021
53035.323581,15.401,0.023
53035.335873,15.563,0.026
53037.282209,15.578,0.028
53037.29495,15.486,0.026
53037.307412,15.379,0.025
53037.319847,15.33,0.025
53037.332228,15.235,0.03
53046.235234,15.616,0.022
53046.247261,15.599,0.022
53046.25914,15.624,0.024
53046.271787,15.447,0.02
53046.28366,15.347,0.02
53062.22165,15.314,0.054
53062.233688,15.412,0.054
53062.246375,15.496,0.089
53062.257925,15.65,0.107
53087.179365,15.198,0.012
53087.191031,15.218,0.012
53087.202524,15.278,0.013
53087.213522,15.398,0.092
53087.224765,15.426,0.03
53089.177922,15.619,0.021
53089.189867,15.597,0.02
53089.200904,15.448,0.016
53089.211714,15.365,0.015
53089.222688,15.284,0.015
53107.183875,15.225,0.017
53107.195108,15.229,0.017
53107.206352,15.224,0.017
53107.217595,15.275,0.018
53107.228896,15.298,0.02
53127.14662,15.651,0.048
53127.156686,15.682,0.052
53127.166714,15.56,0.046
53127.176705,15.435,0.043
53127.186747,15.361,0.041
53136.150185,15.368,0.024
53136.159409,15.327,0.024
53136.168629,15.267,0.024
53136.177854,15.233,0.024
53136.187122,15.218,0.024
53273.416204,15.521,0.043
53273.452708,15.281,0.035
53273.464872,15.252,0.024
53286.426956,15.203,0.028
53286.437944,15.198,0.026
53286.448896,15.203,0.026
53286.459854,15.227,0.026
53286.470817,15.261,0.026
53293.419289,15.667,0.031
53293.430267,15.518,0.028
53293.441249,15.38,0.024
53293.452229,15.327,0.022
53293.46321,15.259,0.02
53302.432723,15.297,0.024
53302.444615,15.275,0.024
53302.456513,15.251,0.024
53302.468428,15.271,0.024
53302.480332,15.27,0.024
53313.375339,15.26,0.043
53313.387267,15.327,0.043
53313.399209,15.453,0.048
53313.411159,15.539,0.052
53313.423246,15.635,0.055
53328.415554,15.244,0.023
53328.441475,15.32,0.023
53331.386662,15.531,0.033
53331.399021,15.413,0.028
53331.411924,15.308,0.024
53331.424587,15.241,0.024
53331.436945,15.218,0.022
53341.340105,15.22,0.037
53341.352268,15.227,0.035
53341.374895,15.168,0.033
53341.388269,15.213,0.035
53341.401314,15.272,0.037
53343.370544,15.586,0.102
53348.346951,15.673,0.043
53348.36112,15.563,0.033
53348.375343,15.428,0.028
53348.389313,15.303,0.021
53348.403171,15.249,0.02
53354.356268,15.219,0.018
53354.370991,15.276,0.018
53354.385387,15.335,0.02
53354.399697,15.422,0.021
53354.41414,15.579,0.023
53387.483933,15.244,0.022
53387.498731,15.22,0.022
53387.512644,15.237,0.022
53387.526717,15.27,0.026
53401.309558,15.256,0.02
53401.322125,15.328,0.021
53401.334647,15.453,0.025
53401.347211,15.636,0.03
53401.359743,15.627,0.031
53479.176259,15.329,0.065
53677.449986,15.293,0.024
53677.461974,15.342,0.024
53677.473912,15.31,0.111
53684.37811,15.449,0.026
53684.390452,15.595,0.03
53684.40308,15.583,0.028
53684.415598,15.587,0.028
53684.428012,15.42,0.026
53701.437326,15.243,0.022
53728.333064,15.298,0.02
53728.34621,15.24,0.022
53728.35921,15.175,0.024
53728.372313,15.21,0.028
53728.386063,15.226,0.022
53742.346543,15.345,0.017
53742.359492,15.462,0.018
53742.372376,15.589,0.022
53742.385516,15.62,0.022
53742.398331,15.581,0.022
53772.164448,15.557,0.031
53772.177389,15.593,0.031
53772.190784,15.535,0.028
53772.204137,15.41,0.024
53772.216906,15.3,0.022
53812.248821,15.614,0.035
53825.177119,15.498,0.021
53825.188222,15.62,0.026
53825.199498,15.674,0.025
53825.210619,15.67,0.026
53825.221897,15.581,0.026
53843.139414,15.716,0.033
53843.150985,15.652,0.031
53843.162759,15.597,0.03
53843.17485,15.437,0.028
53843.187419,15.325,0.024
53855.140555,15.573,0.033
53855.150691,15.568,0.033
53855.160819,15.599,0.035
53855.170972,15.586,0.035
53855.181144,15.467,0.033
54010.427074,15.322,0.026
54010.443355,15.234,0.023
54010.456413,15.239,0.023
54010.469466,15.25,0.023
54010.482646,15.29,0.023
54025.428404,15.621,0.038
54025.440273,15.594,0.036
54025.453148,15.492,0.031
54025.465478,15.334,0.028
54025.477506,15.303,0.026
54053.380287,15.215,0.023
54053.393631,15.253,0.023
54053.40777,15.241,0.026
54053.420541,15.361,0.035
54070.386195,15.317,0.025
54070.399108,15.399,0.026
54070.412021,15.57,0.028
54070.424915,15.69,0.028
54070.437951,15.733,0.03
54081.328186,15.576,0.024
54081.341059,15.546,0.024
54081.353843,15.376,0.02
54081.366929,15.289,0.02
54081.379723,15.243,0.02
54086.310926,15.582,0.097
54086.324622,15.444,0.051
54086.33808,15.298,0.033
54086.351787,15.272,0.026
54109.262827,15.249,0.03
54109.275698,15.255,0.031
54109.287603,15.246,0.035
54109.299773,15.32,0.041
54109.311733,15.361,0.035
54169.215623,15.304,0.015
54169.226557,15.374,0.017
54169.237556,15.458,0.018
54169.248492,15.585,0.02
54169.259521,15.663,0.024
54200.173744,15.594,0.022
54200.195163,15.612,0.022
54200.205074,15.51,0.033
54200.214935,15.413,0.018
54209.177475,15.518,0.056
54209.186252,15.456,0.03
54209.195385,15.309,0.053
54218.143357,15.579,0.066
54218.152111,15.538,0.064
54218.160849,15.42,0.058
54218.169632,15.39,0.056
54218.178454,15.327,0.054
54396.42813,15.625,0.038
54396.441231,15.476,0.033
54396.45492,15.362,0.031
54413.381951,15.61,0.018
54420.384801,15.285,0.015
54420.397521,15.356,0.015
54420.410211,15.499,0.017
54420.422934,15.622,0.017
54420.435815,15.639,0.017
54437.447961,15.354,0.013
54437.460694,15.273,0.013
54437.473424,15.206,0.011
54437.486155,15.187,0.011
54437.498916,15.194,0.013
54452.324167,15.542,0.017
54452.33706,15.392,0.015
54452.34993,15.317,0.013
54452.362788,15.227,0.013
54452.375642,15.243,0.013
54477.27269,15.454,0.015
54477.285778,15.558,0.018
54477.298714,15.538,0.018
54477.311542,15.517,0.018
54477.324385,15.35,0.017
54509.211112,15.325,0.025
54509.22377,15.252,0.023
54509.236169,15.221,0.023
54509.248381,15.175,0.021
54509.260721,15.178,0.021
54527.228751,15.267,0.045
54533.239246,15.318,0.013
54533.250227,15.26,0.011
54536.209849,15.397,0.045
54536.221414,15.471,0.04
54536.232714,15.563,0.041
54536.243502,15.611,0.045
54536.254704,15.596,0.045
54567.129061,15.427,0.02
54567.140361,15.562,0.026
54567.151343,15.64,0.028
54567.162381,15.626,0.03
54567.173338,15.641,0.03
54584.144038,15.707,0.041
54584.154301,15.783,0.043
54584.164317,15.593,0.038
54584.174332,15.486,0.035
54584.184458,15.376,0.033
54587.145202,15.291,0.02
54587.155927,15.397,0.022
54587.166624,15.497,0.024
54587.177302,15.57,0.028
54587.188001,15.58,0.028
54595.144899,15.288,0.028
54595.15482,15.3,0.03
54595.164704,15.374,0.031
54595.174595,15.478,0.037
54595.184533,15.56,0.041
