mjd,m,merr
52613.447388,15.649,0.059
52613.46397,15.66,0.031
52613.479338,15.722,0.033
52614.360735,15.649,0.059
52614.375529,15.66,0.031
52614.390074,15.722,0.033
52623.369953,15.801,0.035
52623.385251,15.753,0.035
52623.400519,15.678,0.031
52623.415812,15.618,0.028
52623.431079,15.56,0.03
52637.317746,15.621,0.035
52646.325575,15.735,0.033
52646.340676,15.807,0.033
52646.355842,15.816,0.031
52646.371065,15.769,0.031
52646.386146,15.69,0.03
52649.292104,15.627,0.026
52649.307164,15.702,0.028
52649.322403,15.819,0.03
52649.337533,15.836,0.03
52649.352589,15.794,0.03
52652.307485,15.808,0.03
52652.322696,15.807,0.03
52652.337655,15.726,0.028
52652.352709,15.656,0.028
52652.367597,15.623,0.026
52672.251064,15.582,0.025
52672.266265,15.642,0.03
52672.281583,15.724,0.046
52672.296634,15.788,0.036
52672.311463,15.815,0.045
52675.253321,15.829,0.087
52695.252207,16.391,0.058
52695.265981,16.55,0.064
52695.280117,16.727,0.074
52695.280235,15.808,0.031
52695.294006,16.883,0.083
52722.175387,16.521,0.056
52722.175768,15.773,0.03
52722.187548,16.452,0.053
52722.187909,15.721,0.028
52722.199844,16.325,0.048
52722.200203,15.615,0.026
52722.21206,16.313,0.048
52722.212421,15.617,0.026
52722.224277,16.275,0.046
52722.224637,15.612,0.026
52734.133417,16.397,0.053
52734.133531,15.698,0.03
52734.148565,16.347,0.049
52734.148679,15.65,0.028
52734.161765,16.208,0.043
52734.16188,15.596,0.026
52734.176294,16.239,0.045
52734.17641,15.573,0.025
52734.189887,16.278,0.046
52734.190001,15.635,0.026
52751.137966,16.408,0.064
52751.138328,15.711,0.035
52751.148998,18.026,0.507
52751.149356,15.669,0.089
52751.15978,16.565,0.091
52751.160138,15.686,0.079
52751.170705,16.656,0.106
52751.182436,16.265,0.058
52751.182792,15.544,0.031
52913.450685,15.748,0.037
52913.463891,15.777,0.035
52913.477135,15.835,0.035
52935.436536,15.723,0.045
52935.448037,15.654,0.041
52935.459486,15.609,0.04
52935.47117,15.59,0.038
52935.482831,15.626,0.04
52947.417287,15.571,0.028
52947.429364,15.59,0.028
52947.441542,15.613,0.03
52947.453478,15.644,0.03
52947.465515,15.699,0.031
52976.34324,15.635,0.023
52976.354383,15.585,0.021
52976.365528,15.578,0.021
52976.376626,15.575,0.02
52976.387778,15.598,0.018
52977.386864,15.642,0.028
52977.387357,15.63,0.028
52977.387458,15.618,0.028
52977.398031,15.6,0.026
52977.399426,15.563,0.026
52977.399527,15.592,0.026
52977.409125,15.642,0.026
52977.411588,15.57,0.024
52977.411689,15.582,0.024
52977.420395,15.623,0.023
52977.423528,15.606,0.022
52977.423629,15.583,0.022
52977.431663,15.63,0.023
52977.435464,15.613,0.022
52977.435565,15.612,0.022
52978.378482,15.753,0.035
52978.391204,15.771,0.035
52978.403925,15.697,0.031
52978.416662,15.658,0.03
52978.429526,15.602,0.028
52990.33149,15.727,0.024
52990.34526,15.651,0.022
52990.359011,15.602,0.022
52990.372247,15.593,0.022
52990.385366,15.592,0.024
53002.344189,15.623,0.013
53002.357819,15.667,0.015
53002.371444,15.696,0.015
53002.384956,15.763,0.016
53002.398786,15.765,0.016
53006.264153,15.747,0.035
53006.27626,15.84,0.041
53006.288344,15.8,0.035
53006.300621,15.785,0.044
53006.32249,15.682,0.031
53023.277411,15.757,0.017
53023.290044,15.786,0.018
53023.302759,15.812,0.018
53023.315709,15.747,0.018
53023.328446,15.706,0.018
53035.285222,15.615,0.03
53035.29805,15.568,0.028
53035.310997,15.557,0.026
53035.323366,15.581,0.026
53035.33566,15.63,0.028
53037.297491,15.637,0.03
53037.313033,15.783,0.033
53037.329911,15.834,0.035
53037.342592,15.696,0.031
53046.284782,15.812,0.03
53046.296687,15.74,0.028
53046.308688,15.68,0.026
53046.320807,15.628,0.026
53046.333035,15.604,0.024
53089.176323,15.56,0.022
53089.186761,15.581,0.022
53089.19713,15.568,0.018
53089.207538,15.59,0.018
53089.218146,15.593,0.02
53107.184088,15.77,0.028
53107.19532,15.73,0.026
53107.206564,15.647,0.024
53107.217807,15.612,0.024
53107.229108,15.578,0.024
53127.146817,15.766,0.054
53127.156883,15.809,0.057
53127.166912,15.801,0.057
53127.176903,15.77,0.057
53127.186945,15.732,0.057
53136.150373,15.686,0.031
53136.159599,15.641,0.031
53136.168819,15.632,0.033
53136.178042,15.59,0.033
53136.187312,15.565,0.035
53273.452922,15.638,0.041
53273.465086,15.587,0.03
53286.427169,15.642,0.037
53286.438156,15.625,0.035
53286.449108,15.629,0.035
53286.460066,15.571,0.031
53286.47103,15.584,0.031
53294.451098,15.72,0.026
53294.462529,15.787,0.026
53294.47395,15.675,0.025
53294.485475,15.656,0.025
53302.432527,15.53,0.03
53302.444419,15.584,0.03
53302.456318,15.59,0.03
53302.468233,15.643,0.031
53302.480136,15.672,0.031
53328.415354,15.656,0.033
53328.441276,15.723,0.035
53349.397342,15.639,0.033
53349.410783,15.576,0.031
53349.424613,15.583,0.033
53349.438382,15.521,0.033
53355.412484,15.589,0.023
53355.425773,15.618,0.025
53355.438968,15.666,0.025
53355.452195,15.728,0.026
53355.46605,15.767,0.028
53387.484188,15.551,0.028
53387.498987,15.557,0.03
53387.5129,15.617,0.031
53387.526973,15.649,0.033
53401.309802,15.796,0.033
53401.322368,15.724,0.03
53491.154903,15.789,0.061
53491.164764,15.698,0.037
53684.37836,15.805,0.035
53684.390699,15.797,0.033
53684.40333,15.738,0.031
53684.415848,15.64,0.03
53684.428261,15.595,0.028
53700.384286,15.639,0.028
53700.396824,15.621,0.028
53700.409462,15.561,0.026
53700.422174,15.563,0.024
53700.434729,15.578,0.026
53727.337913,15.795,0.033
53727.350679,15.823,0.031
53727.363547,15.803,0.03
53727.376506,15.725,0.03
53727.389199,15.698,0.028
53757.260062,15.601,0.022
53757.272758,15.567,0.022
53757.28542,15.589,0.022
53757.297955,15.638,0.022
53757.310562,15.663,0.024
53772.219424,15.601,0.028
53772.232111,15.611,0.028
53772.244936,15.714,0.03
53772.257845,15.766,0.031
53772.270826,15.828,0.033
53825.177413,15.559,0.021
53825.188516,15.562,0.026
53825.199792,15.589,0.023
53825.210913,15.643,0.025
53825.222193,15.695,0.028
53842.136297,15.685,0.03
53842.147808,15.634,0.028
53842.159357,15.606,0.028
53842.170872,15.554,0.028
53842.182434,15.567,0.028
54011.418283,15.514,0.031
54011.433184,15.535,0.03
54011.447149,15.603,0.031
54011.460294,15.634,0.031
54011.473378,15.717,0.031
54025.428179,15.596,0.031
54025.440049,15.568,0.03
54025.452923,15.586,0.03
54025.465253,15.607,0.03
54025.47728,15.683,0.031
54053.380591,15.691,0.036
54053.393935,15.718,0.036
54053.408075,15.926,0.049
54053.420846,15.758,0.048
54070.386501,15.635,0.033
54070.399416,15.675,0.033
54070.412328,15.768,0.033
54070.42522,15.751,0.031
54070.438256,15.75,0.03
54081.32793,15.809,0.028
54081.340802,15.775,0.028
54081.353586,15.716,0.026
54081.366672,15.662,0.026
54081.379466,15.607,0.026
54098.312424,15.714,0.038
54098.324553,15.804,0.038
54098.336634,15.766,0.036
54098.34889,15.772,0.035
54098.361153,15.69,0.033
54124.27006,15.674,0.023
54124.282397,15.769,0.026
54124.29498,15.843,0.028
54124.307283,15.81,0.028
54124.320097,15.765,0.026
54140.272501,15.81,0.026
54140.284536,15.78,0.025
54140.296501,15.741,0.026
54140.308511,15.672,0.026
54140.320581,15.625,0.026
54187.205967,15.532,0.071
54198.176245,15.782,0.03
54198.185705,15.759,0.033
54198.195356,15.713,0.03
54198.20485,15.651,0.03
54198.214345,15.608,0.028
54210.172659,15.606,0.031
54210.181556,15.574,0.031
54210.190237,15.532,0.03
54210.199101,15.61,0.033
54210.207869,15.641,0.033
54218.144394,15.682,0.055
54218.152967,15.742,0.057
54218.161545,15.848,0.065
54218.170161,15.852,0.067
54218.178789,15.733,0.061
54397.426872,15.581,0.043
54397.439734,15.578,0.041
54397.453037,15.535,0.038
54397.465728,15.555,0.038
54397.478288,15.559,0.036
54437.448282,15.58,0.015
54437.461015,15.563,0.017
54437.473748,15.594,0.015
54437.486475,15.628,0.017
54437.499236,15.695,0.018
54453.269955,15.577,0.018
54453.283212,15.583,0.018
54453.296048,15.617,0.018
54453.308919,15.683,0.02
54453.321898,15.696,0.02
54477.27309,15.578,0.017
54477.286177,15.549,0.017
54477.299115,15.529,0.017
54477.311939,15.53,0.017
54477.324782,15.578,0.017
54527.229059,15.899,0.097
54537.208361,15.8,0.031
54537.219254,15.811,0.035
54537.230062,15.737,0.035
54537.241311,15.694,0.03
54537.252116,15.683,0.03
54584.144283,15.564,0.04
54584.164563,15.592,0.038
54584.184704,15.63,0.041
