mjd,m,merr
52610.388177,14.086,0.009
52610.418474,14.19,0.007
52610.433619,14.198,0.017
52610.448756,14.229,0.022
52614.377671,14.234,0.009
52614.392769,14.256,0.009
52614.423108,14.303,0.009
52614.438281,14.252,0.013
52619.382512,14.249,0.009
52619.397753,14.244,0.009
52619.412993,14.143,0.007
52619.428389,14.097,0.007
52619.443746,14.084,0.007
52639.303087,14.177,0.007
52639.318029,14.169,0.007
52639.332785,14.19,0.011
52639.347489,14.241,0.007
52639.362202,14.247,0.007
52644.310046,14.29,0.007
52644.325687,14.312,0.007
52644.341189,14.223,0.007
52644.356732,14.267,0.007
52644.372382,14.228,0.007
52648.253551,14.26,0.007
52648.268305,14.263,0.007
52648.282919,14.274,0.009
52648.298112,14.259,0.009
52648.312901,14.251,0.009
52650.281818,14.195,0.007
52650.297531,14.138,0.007
52650.313677,14.056,0.007
52650.328027,14.014,0.007
52650.342305,13.977,0.006
52671.235023,14.258,0.007
52671.250294,14.267,0.007
52671.265539,14.296,0.007
52671.280773,14.306,0.007
52671.296078,14.302,0.007
52671.311576,14.263,0.007
52671.326766,14.246,0.007
52671.341923,14.12,0.007
52671.357135,14.059,0.007
52671.372441,14.035,0.007
52674.251164,14.273,0.007
52674.266498,14.254,0.007
52674.281741,14.24,0.009
52674.297135,14.177,0.009
52674.312654,14.106,0.007
52677.244407,14.168,0.007
52677.259018,14.136,0.007
52677.273505,14.058,0.007
52677.28789,14.039,0.007
52677.302393,14.006,0.007
52697.27254,14.226,0.013
52704.236511,14.048,0.007
52704.249831,14.013,0.006
52704.263164,13.984,0.006
52704.276418,13.967,0.006
52704.289797,13.96,0.006
52706.178348,14.158,0.01
52706.192093,14.09,0.008
52706.205384,14.006,0.008
52706.218586,13.978,0.008
52706.232136,13.951,0.008
52724.18024,14.269,0.007
52724.191893,14.277,0.007
52724.203547,14.286,0.009
52724.215198,14.271,0.007
52724.227066,14.27,0.007
52728.170134,14.25,0.007
52728.182458,14.236,0.007
52728.194317,14.185,0.007
52728.20629,14.152,0.007
52728.218157,14.112,0.007
52731.176755,14.057,0.013
52731.225046,13.955,0.017
52753.132104,14.225,0.009
52753.143984,14.252,0.009
52753.155878,14.262,0.009
52753.167767,14.224,0.009
52753.179659,14.203,0.009
52760.140245,13.999,0.007
52760.152054,13.973,0.007
52760.163842,13.965,0.007
52760.175723,13.947,0.007
52760.187565,13.941,0.007
52934.448691,13.981,0.01
52934.460553,13.99,0.01
52934.472527,14.044,0.01
52934.484508,14.08,0.01
52934.496494,14.119,0.01
52937.446618,14.414,0.007
52937.459573,14.434,0.007
52937.471562,14.474,0.007
52937.484278,14.524,0.007
52937.496448,14.526,0.007
52945.440717,14.255,0.01
52945.45287,14.221,0.01
52945.464983,14.204,0.01
52945.477181,14.157,0.008
52945.489382,14.053,0.008
52963.402856,14.193,0.006
52963.415857,14.225,0.006
52963.428506,14.246,0.006
52963.441026,14.303,0.007
52963.454296,14.299,0.007
52967.377504,14.218,0.007
52967.390123,14.255,0.007
52967.402574,14.262,0.007
52967.415064,14.267,0.007
52967.427589,14.28,0.007
52991.350623,14.307,0.006
52991.363678,14.388,0.007
52991.376639,14.396,0.007
52991.389604,14.361,0.007
52991.402639,14.388,0.007
52995.340305,14.492,0.007
52995.353302,14.522,0.007
52995.366533,14.548,0.007
52995.379581,14.38,0.006
52995.392501,14.479,0.006
53000.342952,14.334,0.006
53000.347494,14.373,0.006
53000.357225,14.388,0.006
53000.362022,14.379,0.006
53000.370623,14.411,0.006
53000.375769,14.299,0.006
53000.384221,14.39,0.006
53000.388909,14.333,0.006
53000.397332,14.271,0.006
53000.401967,14.286,0.006
53024.29093,14.253,0.02
53024.3036,14.512,0.006
53024.329429,14.263,0.022
53026.292105,14.415,0.006
53026.304995,14.436,0.006
53026.317895,14.436,0.006
53026.330763,14.383,0.006
53026.343746,14.363,0.006
53029.339347,13.993,0.018
53034.277704,14.006,0.007
53034.290399,14.024,0.007
53034.303117,14.06,0.007
53034.315645,14.042,0.007
53034.328037,14.027,0.007
53050.218628,14.22,0.007
53050.230391,14.247,0.007
53050.242158,14.247,0.007
53050.253866,14.303,0.007
53050.265547,14.292,0.007
53058.219148,14.329,0.006
53058.230685,14.338,0.006
53058.242076,14.301,0.006
53058.253471,14.281,0.006
53058.264864,14.296,0.006
53078.22367,14.287,0.009
53078.234321,14.274,0.007
53078.245099,14.259,0.017
53078.255772,14.179,0.013
53078.26645,14.204,0.007
53083.22541,14.086,0.006
53083.236298,14.235,0.006
53083.247013,14.052,0.006
53083.257858,14.131,0.006
53083.268615,14.108,0.006
53086.230078,13.928,0.013
53086.241152,13.947,0.015
53086.252426,13.862,0.013
53086.263852,13.928,0.009
53090.11623,14.318,0.007
53090.126687,14.255,0.006
53090.137052,14.236,0.007
53090.147407,14.311,0.007
53090.157753,14.236,0.006
53092.224155,14.232,0.009
53092.234432,14.283,0.009
53092.244915,14.254,0.009
53092.255489,14.362,0.011
53092.265909,14.366,0.011
53109.138455,14.298,0.009
53109.14939,14.288,0.009
53109.160453,14.253,0.007
53109.171403,14.199,0.007
53109.182598,14.147,0.007
53114.1425,14.311,0.007
53114.153746,14.352,0.007
53114.166159,14.263,0.006
53114.177383,14.329,0.007
53114.188498,14.302,0.007
53117.190307,14.201,0.006
53117.201074,14.23,0.007
53117.211915,14.206,0.007
53117.222787,14.162,0.006
53117.233632,14.084,0.006
53137.15049,14.012,0.009
53137.160055,13.985,0.009
53137.169585,13.995,0.009
53137.179085,13.977,0.009
53137.188627,13.913,0.009
53288.431605,13.861,0.008
53288.464397,13.971,0.008
53288.475153,13.971,0.008
53293.429473,14.103,0.01
53293.440389,14.117,0.01
53293.451279,14.149,0.01
53293.46224,14.176,0.01
53293.473195,14.188,0.01
53299.440874,14.254,0.011
53299.452544,14.237,0.011
53299.464218,14.195,0.017
53299.47596,14.165,0.022
53299.487642,14.154,0.013
53328.371834,14.252,0.017
53328.396186,14.244,0.011
53331.444538,13.932,0.008
53331.45697,13.941,0.008
53331.469437,13.986,0.012
53331.481902,13.916,0.008
53331.498067,13.931,0.008
53348.344401,14.201,0.009
53348.356697,14.221,0.011
53348.368993,14.264,0.017
53348.381291,14.283,0.009
53354.319696,14.301,0.009
53354.333041,14.294,0.009
53354.346388,14.288,0.009
53354.364958,14.256,0.007
53354.37837,14.204,0.007
53377.294931,14.25,0.007
53377.308414,14.23,0.013
53377.321916,14.281,0.007
53377.334895,14.254,0.007
53382.392775,13.985,0.007
53382.407188,14.078,0.007
53382.421593,14.023,0.007
53386.343741,14.122,0.007
53386.356831,14.105,0.007
53386.369853,14.119,0.007
53386.383363,14.165,0.007
53386.39639,14.114,0.007
53389.344407,14.124,0.007
53389.358367,14.153,0.007
53389.371859,14.207,0.009
53389.385602,14.259,0.009
53389.400269,14.176,0.007
53404.296818,14.3,0.007
53404.314333,14.306,0.007
53404.326857,14.251,0.007
53404.33931,14.238,0.007
53404.352353,14.142,0.006
53415.287187,14.097,0.007
53415.299427,14.111,0.007
53415.311653,14.11,0.007
53415.324397,14.154,0.007
53415.336836,14.088,0.007
53433.229029,14.269,0.007
53433.240952,14.259,0.007
53433.254688,14.239,0.007
53433.266145,14.189,0.007
53433.278592,14.153,0.007
53443.277821,14.029,0.006
53443.289296,14.035,0.006
53443.300151,14.083,0.006
53443.311566,14.11,0.007
53443.322409,14.132,0.007
53473.176288,13.973,0.007
53473.185983,13.986,0.007
53473.195725,14.019,0.007
53473.205536,14.098,0.009
53473.21516,14.107,0.009
53500.137122,13.957,0.007
53500.148291,13.999,0.007
53500.158356,14.015,0.009
53500.168506,14.064,0.009
53500.178545,14.103,0.009
53656.422569,14.333,0.011
53656.433724,14.269,0.011
53656.444775,14.271,0.011
53656.45583,14.221,0.011
53656.466871,14.24,0.009
53672.454435,14.224,0.009
53672.467684,14.292,0.009
53672.481,14.286,0.009
53672.495659,14.289,0.009
53675.440534,14.271,0.009
53675.452662,14.339,0.009
53675.464729,14.351,0.009
53675.47704,14.37,0.009
53675.490006,14.376,0.009
53682.457949,14.285,0.009
53682.470341,14.08,0.007
53682.482908,14.192,0.009
53682.495504,14.181,0.009
53682.508094,13.995,0.007
53703.391547,14.262,0.007
53703.404261,14.291,0.007
53703.418861,14.302,0.009
53703.432013,14.302,0.007
53703.445276,14.254,0.007
53706.402493,14.22,0.007
53706.416345,14.183,0.007
53706.429078,14.098,0.009
53706.455266,14.02,0.007
53709.373522,14.205,0.007
53709.386419,14.134,0.007
53709.39914,14.088,0.007
53709.411825,14.014,0.007
53709.424712,13.992,0.007
53714.386516,13.927,0.006
53714.399473,13.988,0.006
53714.412522,14.007,0.006
53714.42527,14.05,0.007
53714.438049,14.08,0.007
53733.329242,14.327,0.009
53733.342407,14.297,0.009
53733.35514,14.259,0.009
53733.367887,14.237,0.009
53733.380541,14.177,0.007
53740.3373,14.017,0.007
53740.350275,13.98,0.006
53740.363096,14.006,0.006
53740.375851,13.932,0.006
53740.388633,13.965,0.006
53771.221637,13.997,0.015
53771.246938,13.95,0.007
53771.259579,13.932,0.007
53771.272301,13.937,0.007
53786.225615,14.259,0.007
53786.237547,14.263,0.007
53786.249484,14.272,0.007
53786.261586,14.255,0.007
53786.273539,14.252,0.007
53788.345481,13.943,0.006
53788.357669,13.934,0.006
53788.381748,13.939,0.011
53788.393914,13.988,0.007
53794.264589,13.943,0.009
53813.246714,14.203,0.011
53813.257797,14.135,0.011
53813.269019,14.05,0.009
53813.280081,14.002,0.009
53813.29158,13.979,0.009
53817.277895,13.943,0.007
53817.288726,13.878,0.007
53817.299575,13.902,0.007
53817.310448,13.917,0.009
53817.321516,13.916,0.009
53818.222316,13.974,0.007
53818.232861,13.943,0.007
53818.243405,13.933,0.007
53818.253959,13.916,0.007
53818.264563,13.91,0.007
53823.195175,13.909,0.007
53823.207189,13.924,0.007
53823.220397,13.917,0.007
53823.23228,13.923,0.007
53823.244447,13.94,0.007
53825.179734,13.923,0.007
53825.190104,13.923,0.009
53825.201471,13.942,0.007
53825.212616,13.959,0.007
53825.223039,13.962,0.007
53829.173276,14.027,0.013
53829.183966,14.039,0.011
53829.194192,14.051,0.011
53829.204331,14.076,0.013
53844.178738,14.001,0.009
53844.188986,13.995,0.009
53844.199255,13.973,0.009
53844.209525,13.921,0.009
53844.219794,13.921,0.009
53849.143597,13.952,0.007
53849.154371,13.937,0.007
53849.165175,13.926,0.007
53849.176003,13.937,0.007
53849.187694,13.917,0.007
53852.144261,13.924,0.007
53852.154724,13.913,0.009
53852.165246,13.944,0.009
53852.175776,13.955,0.009
53852.186483,13.969,0.009
53853.134951,13.878,0.01
53853.148567,13.893,0.012
53853.159877,13.924,0.012
53853.170786,13.952,0.012
53853.181681,14.007,0.012
53855.145148,14.002,0.009
53855.155403,13.999,0.009
53855.165719,14.056,0.009
53855.17666,14.074,0.009
53855.186994,14.113,0.011
54027.447562,14.115,0.01
54027.459279,14.146,0.01
54027.485557,14.193,0.01
54027.497081,14.223,0.01
54029.43074,14.127,0.01
54029.443538,14.177,0.01
54029.455751,14.191,0.01
54029.467959,14.209,0.01
54029.479731,14.238,0.01
54037.432261,14.106,0.007
54037.445125,14.041,0.007
54037.457186,13.988,0.007
54037.469252,13.955,0.007
54037.481687,13.929,0.007
54054.35982,14.051,0.007
54054.371226,14.076,0.007
54054.382597,14.123,0.007
54054.393976,14.172,0.007
54054.405357,14.185,0.007
54055.377526,14.106,0.008
54055.390536,14.123,0.008
54055.403126,14.169,0.008
54055.409956,14.206,0.007
54055.416203,14.167,0.008
54055.421628,14.242,0.007
54055.428759,14.185,0.008
54055.433291,14.257,0.007
54055.444959,14.254,0.007
54055.45663,14.309,0.007
54058.373773,14.228,0.007
54058.385999,14.206,0.007
54058.398257,14.278,0.007
54058.410492,14.281,0.007
54058.42274,14.294,0.007
54061.374508,14.269,0.007
54061.386929,14.284,0.007
54061.399869,14.263,0.007
54061.412306,14.257,0.007
54061.424761,14.191,0.007
54066.39022,14.085,0.007
54067.389009,13.947,0.007
54067.40183,13.913,0.005
54067.414699,13.885,0.005
54067.427712,13.884,0.005
54067.440866,13.892,0.005
54070.380783,14.096,0.007
54070.393727,14.197,0.007
54070.406954,14.107,0.007
54070.419911,14.13,0.007
54070.43297,14.151,0.006
54084.329984,14.181,0.01
54084.336021,14.3,0.009
54084.343012,14.206,0.01
54084.349512,14.35,0.009
54084.356171,14.229,0.01
54084.363004,14.363,0.009
54084.369329,14.21,0.01
54084.3765,14.372,0.009
54084.382546,14.239,0.01
54084.390003,14.278,0.007
54087.341477,14.315,0.009
54087.354461,14.292,0.009
54087.367387,14.294,0.009
54087.380312,14.233,0.009
54087.393245,14.175,0.009
54098.320756,13.946,0.007
54098.332367,13.925,0.007
54098.344017,13.944,0.007
54098.35578,13.964,0.007
54110.273365,14.103,0.01
54110.286382,14.145,0.01
54110.299232,14.194,0.012
54110.312009,14.202,0.012
54110.324739,14.198,0.012
54121.269742,14.079,0.007
54121.274363,13.987,0.007
54121.281965,14.023,0.006
54121.286884,13.955,0.007
54121.294194,13.969,0.006
54121.300108,13.929,0.007
54121.306439,13.941,0.006
54121.312845,13.884,0.005
54121.325559,13.862,0.005
54124.26604,14.045,0.006
54124.278397,14.077,0.006
54124.290665,14.086,0.006
54124.302924,14.085,0.006
54124.315196,14.055,0.006
54149.223057,13.945,0.007
54149.234763,13.916,0.007
54149.247055,13.897,0.007
54149.25879,13.899,0.007
54149.270495,13.893,0.007
54175.215592,13.986,0.006
54175.226126,13.976,0.006
54175.23676,13.955,0.006
54175.247325,13.974,0.006
54175.257972,13.993,0.006
54206.174356,13.906,0.008
54206.183531,13.906,0.008
54206.192752,13.93,0.008
54206.201945,13.955,0.008
54206.211654,13.981,0.008
54207.173694,13.965,0.007
54207.18286,13.981,0.007
54207.191997,14.025,0.007
54207.201484,14.063,0.007
54207.210649,14.041,0.007
54210.174207,14.108,0.007
54210.183125,14.084,0.007
54210.192026,14.156,0.009
54210.200906,14.124,0.007
54210.209785,14.157,0.009
54385.426554,14.223,0.007
54385.437796,14.259,0.007
54385.449029,14.282,0.007
54385.460378,14.295,0.007
54385.471592,14.321,0.007
54388.427269,14.275,0.007
54388.43863,14.281,0.007
54388.449938,14.302,0.007
54388.461226,14.285,0.007
54388.472608,14.253,0.007
54396.434555,14.072,0.006
54396.446312,14.118,0.006
54396.457971,13.975,0.006
54396.469621,13.954,0.006
54396.48128,13.982,0.006
54410.431453,14.205,0.009
54410.443779,14.207,0.011
54410.455993,14.238,0.011
54410.468194,14.234,0.013
54410.48047,14.226,0.009
54411.445748,14.442,0.007
54411.458284,14.399,0.007
54411.470647,14.495,0.007
54411.48301,14.484,0.007
54411.495367,14.419,0.007
54422.40796,14.14,0.006
54422.420624,14.111,0.006
54422.433156,14.321,0.006
54422.445703,14.303,0.006
54422.458262,14.293,0.006
54424.327802,14.212,0.007
54424.340301,14.132,0.007
54424.352971,14.146,0.006
54424.365567,14.131,0.006
54424.37813,14.052,0.006
54447.330044,14.41,0.006
54447.342949,14.326,0.006
54447.355849,14.322,0.006
54447.368749,14.274,0.006
54447.381643,14.233,0.006
54449.33127,14.287,0.006
54449.344093,14.294,0.006
54449.357014,14.304,0.006
54449.369847,14.195,0.006
54449.382682,14.236,0.006
54454.261433,14.321,0.009
54454.274526,14.336,0.007
54454.287618,14.303,0.007
54454.300698,14.231,0.007
54454.313785,14.232,0.007
54465.459096,14.026,0.006
54465.472002,14.055,0.006
54465.484913,14.012,0.006
54465.497817,14.002,0.006
54465.510727,14.0,0.006
54474.327229,13.975,0.011
54474.353177,13.947,0.009
54474.366339,13.971,0.007
54474.379317,13.924,0.007
54495.335714,14.339,0.007
54495.348176,14.26,0.007
54495.360626,14.201,0.007
54495.373249,14.221,0.007
54495.386832,14.244,0.007
54508.230345,14.132,0.006
54508.242503,14.136,0.006
54508.254662,14.054,0.004
54508.267256,13.97,0.006
54508.279541,14.003,0.007
54524.27352,14.157,0.006
54524.284971,14.003,0.006
54524.296409,13.982,0.006
54524.30782,13.999,0.007
54524.319259,14.17,0.007
54537.159847,14.218,0.006
54537.170782,14.099,0.007
54537.181852,14.072,0.006
54537.192777,14.144,0.006
54537.203736,14.186,0.006
54555.185085,14.229,0.006
54555.196761,14.163,0.006
54555.208412,14.205,0.006
54555.220101,14.138,0.006
54555.23186,14.101,0.006
54564.184055,14.255,0.006
54564.195357,14.278,0.006
54564.206721,14.324,0.006
54564.218175,14.233,0.006
54564.229453,14.279,0.006
54574.137581,14.272,0.013
54574.148218,14.248,0.013
54574.158846,14.29,0.013
54574.169433,14.279,0.015
54574.180036,14.254,0.013
54582.142316,14.028,0.007
54582.152831,14.012,0.007
54582.163708,13.984,0.007
54582.174192,13.989,0.007
54582.184687,13.967,0.007
54585.142545,13.948,0.013
54585.153209,13.876,0.018
54592.139298,14.132,0.007
54592.149716,14.148,0.007
54592.16014,14.161,0.007
54592.170563,14.176,0.007
54592.180997,14.224,0.009
