mjd,m,merr
52620.398351,15.943,0.076
52620.414202,15.858,0.033
52620.430012,15.743,0.028
52620.445147,15.582,0.024
52636.355284,15.959,0.039
52636.369413,15.911,0.037
52636.383586,15.832,0.033
52636.397799,15.656,0.028
52636.411962,15.598,0.026
52653.309437,15.923,0.039
52653.324759,15.928,0.037
52653.340159,15.957,0.037
52653.355523,15.988,0.041
52653.370883,16.044,0.043
52660.300941,15.819,0.048
52660.330527,15.945,0.055
52660.360009,16.034,0.089
52693.278758,15.629,0.02
52693.295171,15.668,0.022
52693.310832,15.732,0.022
52693.326336,15.796,0.026
52712.178136,15.553,0.059
52721.182899,15.731,0.022
52721.208539,15.794,0.024
52721.221346,15.858,0.024
52739.142157,16.062,0.057
52739.153512,16.046,0.057
52739.165004,16.012,0.055
52739.176406,15.951,0.048
52750.135036,15.758,0.048
52750.145632,15.745,0.028
52750.156235,15.771,0.026
52750.166855,15.809,0.028
52750.177463,15.856,0.031
52770.147182,15.745,0.054
52770.158798,15.815,0.055
52770.170371,15.749,0.055
52770.182113,15.851,0.061
52770.193842,15.864,0.063
52927.432554,15.906,0.072
52927.444269,15.937,0.07
52927.456006,16.008,0.076
52927.467646,15.997,0.072
52927.479124,15.958,0.067
52928.429854,16.131,0.1
52928.441384,16.13,0.098
52928.452829,16.221,0.105
52928.46449,16.305,0.117
52928.475969,16.297,0.111
52967.241945,16.008,0.038
52967.249973,15.976,0.038
52967.258758,15.987,0.038
52967.266773,15.901,0.035
52967.274672,15.843,0.033
52977.387663,15.754,0.03
52977.398836,15.738,0.03
52977.409939,15.803,0.028
52977.421243,15.815,0.026
52977.43255,15.837,0.026
52978.3816,15.681,0.031
52978.419901,15.576,0.026
52978.43265,15.559,0.026
52988.329082,15.965,0.033
52988.342149,15.987,0.035
52988.355127,15.967,0.033
52988.3681,15.889,0.031
52988.380976,15.805,0.028
53006.281775,15.817,0.051
53006.294297,15.77,0.035
53008.374032,15.91,0.041
53008.386598,15.867,0.039
53038.288321,15.697,0.052
53038.301129,15.776,0.041
53038.314471,15.892,0.044
53038.330646,15.922,0.046
53038.345941,15.955,0.061
53045.263582,15.604,0.026
53045.275129,15.588,0.026
53045.286667,15.666,0.03
53045.298227,15.69,0.03
53045.310606,15.709,0.031
53093.186616,15.551,0.037
53093.217903,15.714,0.03
53108.192632,16.035,0.037
53108.20383,15.986,0.037
53108.215114,15.961,0.035
53108.22639,15.955,0.035
53108.237705,15.854,0.033
53121.144195,16.037,0.043
53121.154958,16.056,0.044
53121.165657,16.088,0.044
53121.176516,16.082,0.046
53121.187235,16.06,0.044
53125.148238,15.764,0.08
53125.158243,15.804,0.081
53134.151028,15.988,0.043
53134.160498,15.966,0.046
53134.169976,15.984,0.044
53134.17946,16.006,0.044
53134.188944,15.94,0.05
53263.40683,15.8,0.039
53263.418553,15.857,0.037
53263.430201,15.853,0.035
53263.441849,15.906,0.035
53263.453626,15.97,0.037
53294.415278,15.607,0.024
53294.426306,15.659,0.024
53294.437313,15.587,0.022
53294.448334,15.639,0.022
53294.459342,15.641,0.022
53301.429933,15.626,0.03
53301.441605,15.612,0.03
53301.453334,15.566,0.028
53301.465002,15.533,0.028
53301.476676,15.547,0.028
53303.432954,15.697,0.037
53303.444817,15.752,0.035
53303.456683,15.754,0.033
53303.480503,15.781,0.057
53312.378436,15.853,0.067
53312.39062,15.807,0.065
53312.402661,15.914,0.072
53312.414716,15.98,0.074
53312.426759,15.942,0.072
53319.401573,15.763,0.03
53319.413668,15.846,0.031
53319.425754,15.833,0.031
53319.437864,15.954,0.035
53319.449954,15.969,0.033
53329.438637,15.836,0.035
53329.451042,15.906,0.033
53329.46387,15.906,0.033
53329.476221,15.948,0.033
53329.48858,15.941,0.033
53349.397976,15.655,0.03
53349.410076,15.665,0.03
53349.423947,15.763,0.033
53349.436534,15.756,0.033
53349.44861,15.823,0.035
53355.432105,15.915,0.03
53355.444965,16.018,0.031
53355.457824,15.994,0.03
53359.327789,15.686,0.03
53362.362059,15.537,0.069
53362.376432,15.597,0.053
53362.390494,15.641,0.056
53362.404025,15.695,0.046
53389.418253,15.571,0.02
53389.431245,15.608,0.022
53389.444226,15.663,0.024
53389.457265,15.701,0.026
53461.223422,15.953,0.035
53461.233855,15.999,0.037
53461.244746,16.001,0.039
53461.255103,16.01,0.039
53461.265549,15.998,0.039
53490.146732,15.893,0.031
53490.157177,15.907,0.033
53490.16743,15.904,0.033
53490.188073,15.966,0.052
53686.390797,15.972,0.039
53686.403385,15.883,0.033
53686.415958,15.808,0.026
53686.428593,15.682,0.022
53686.441089,15.61,0.02
53697.403817,15.957,0.046
53697.416568,15.982,0.043
53697.429361,16.011,0.048
53697.443793,15.993,0.043
53697.45693,15.995,0.043
53726.348081,15.838,0.041
53726.362223,15.883,0.031
53726.37609,15.972,0.033
53726.394281,15.979,0.035
53726.408072,15.957,0.035
53756.27854,15.519,0.067
53756.291412,15.603,0.031
53756.305033,15.745,0.068
53756.318263,15.674,0.031
53756.331786,15.698,0.08
53774.285038,16.016,0.055
53774.297507,16.013,0.048
53774.310161,15.992,0.046
53774.322729,15.94,0.044
53774.335303,15.905,0.044
53802.245369,15.621,0.035
53802.25768,15.659,0.035
53802.294772,15.728,0.045
53828.181727,15.94,0.033
53828.192395,15.874,0.033
53828.202989,15.74,0.033
53828.213603,15.671,0.038
53828.224307,15.63,0.028
53842.183632,16.006,0.041
53842.195791,15.971,0.041
53842.207016,16.018,0.046
53842.21848,16.024,0.054
53842.22987,16.054,0.065
53857.167434,15.622,0.045
53876.150599,15.665,0.046
53876.161407,15.626,0.046
53876.172457,15.579,0.041
53876.183515,15.707,0.051
54051.428971,15.632,0.048
54051.441161,15.604,0.039
54051.453374,15.567,0.03
54072.323974,15.721,0.061
54072.339802,15.701,0.058
54072.354544,15.83,0.061
54072.36795,15.854,0.064
54072.381029,15.855,0.064
54080.309472,15.977,0.043
54080.32137,15.967,0.039
54080.333263,15.917,0.039
54080.345156,15.837,0.035
54080.357326,15.75,0.033
54108.278489,15.61,0.036
54108.290573,15.611,0.036
54108.303143,15.625,0.036
54108.315539,15.704,0.04
54108.329128,15.7,0.04
54125.263229,15.819,0.033
54125.274927,15.654,0.028
54125.287336,15.65,0.026
54125.298934,15.659,0.026
54125.3105,15.594,0.026
54139.268454,16.023,0.035
54139.280241,16.034,0.038
54139.29169,15.987,0.056
54139.303136,15.973,0.045
54139.316369,15.925,0.045
54167.241391,15.566,0.031
54167.252608,15.524,0.031
54167.263696,15.571,0.036
54407.465787,15.752,0.033
54416.393365,15.687,0.026
54416.42937,15.578,0.025
54470.328375,15.677,0.051
54483.270334,15.531,0.035
54483.282408,15.621,0.036
54483.319109,15.646,0.038
54497.266316,15.91,0.033
54497.290423,15.631,0.031
54497.302311,15.614,0.03
54497.31554,15.573,0.04
54525.225595,15.636,0.028
54525.2487,15.694,0.03
54525.260076,15.801,0.035
54525.271799,15.78,0.031
54539.20754,15.911,0.046
54539.218382,15.772,0.041
54539.228929,15.702,0.04
54539.23948,15.646,0.041
54539.250326,15.654,0.038
54558.183719,15.814,0.071
54558.218732,15.757,0.053
54571.184604,15.682,0.064
54571.195813,15.609,0.061
54571.228594,15.74,0.064
54586.142778,15.743,0.046
54586.152799,15.844,0.056
54586.162813,15.882,0.068
54586.172808,15.827,0.056
54586.18279,15.945,0.073
