mjd,m,merr
52623.370274,16.52,0.067
52623.385514,16.62,0.076
52623.400783,16.798,0.081
52623.416077,17.157,0.105
52623.431345,16.948,0.102
52637.317515,17.07,0.111
52649.292497,16.464,0.087
52649.307557,16.527,0.058
52649.322795,16.592,0.059
52649.337929,16.736,0.066
52649.352982,16.947,0.083
52652.307244,17.101,0.096
52652.322455,17.093,0.096
52652.337414,16.733,0.067
52652.352467,16.532,0.057
52652.367356,16.585,0.061
52695.244558,16.967,0.089
52695.261417,16.683,0.057
52695.277325,16.512,0.05
52695.293722,16.484,0.05
52695.310078,16.472,0.05
52722.193919,16.683,0.054
52722.20761,16.593,0.05
52722.221184,16.523,0.046
52722.234509,16.513,0.046
52722.251801,16.63,0.054
52734.133771,16.622,0.068
52734.148918,16.444,0.056
52734.16212,16.538,0.061
52734.17665,16.512,0.059
52734.190242,16.574,0.063
52751.139084,16.483,0.074
52751.149678,16.596,0.142
52751.160368,16.636,0.179
52751.17099,16.76,0.113
52751.181786,16.93,0.105
52913.436861,16.569,0.081
52913.450068,16.44,0.078
52913.463279,16.463,0.065
52913.476537,16.487,0.063
52928.429514,16.818,0.191
52928.44104,16.628,0.159
52928.464143,16.529,0.141
52928.475628,16.601,0.148
52947.416985,16.578,0.067
52947.429063,16.643,0.068
52947.441213,16.91,0.093
52947.453178,17.361,0.142
52947.465215,17.344,0.139
52966.320591,16.462,0.049
52966.330844,16.422,0.046
52966.339853,16.473,0.048
52966.348756,16.465,0.048
52966.357754,16.553,0.051
52966.399203,17.137,0.089
52966.407625,16.974,0.076
52966.416375,16.839,0.066
52966.424676,16.614,0.054
52966.433137,16.533,0.051
52976.342962,16.904,0.074
52976.354106,17.113,0.087
52976.365248,16.955,0.071
52976.376349,16.784,0.056
52976.387501,16.635,0.046
52990.331188,16.477,0.046
52990.371946,17.066,0.081
53002.344581,16.556,0.03
53002.358214,16.553,0.031
53002.371839,16.512,0.03
53002.385353,16.56,0.031
53002.399214,16.664,0.035
53006.264274,16.701,0.08
53006.276383,16.669,0.091
53006.288465,16.48,0.063
53006.300742,16.497,0.083
53006.322613,16.549,0.065
53023.277102,16.495,0.033
53023.289734,16.542,0.035
53023.30245,16.607,0.039
53023.3154,16.769,0.044
53023.328137,17.036,0.057
53037.312736,16.582,0.065
53037.329614,16.703,0.072
53037.342295,16.95,0.094
53046.284545,16.508,0.054
53046.296452,16.608,0.059
53046.308454,16.803,0.07
53046.320573,17.093,0.093
53046.332801,17.135,0.098
53089.176633,16.527,0.05
53089.187071,16.476,0.044
53089.197441,16.475,0.041
53089.207849,16.501,0.041
53089.218457,16.588,0.044
53107.1843,16.673,0.059
53107.195532,16.951,0.074
53107.206775,17.061,0.087
53107.218018,16.911,0.07
53107.22932,16.763,0.067
53127.14632,16.897,0.144
53127.156385,16.646,0.118
53127.166414,16.742,0.131
53127.176403,16.559,0.113
53127.186446,16.49,0.111
53136.150561,16.502,0.063
53136.159787,16.499,0.067
53136.169007,16.449,0.065
53136.178231,16.56,0.072
53136.1875,16.52,0.076
53273.415878,16.554,0.098
53273.452382,16.811,0.137
53273.464546,16.966,0.102
53281.423365,16.565,0.152
53281.434168,16.908,0.205
53281.445154,16.862,0.185
53281.456235,17.141,0.234
53294.451435,16.578,0.056
53294.462867,16.633,0.058
53294.474287,16.744,0.063
53294.485812,17.058,0.084
53319.441133,16.855,0.091
53319.45555,17.02,0.101
53319.469901,16.981,0.102
53329.453986,16.64,0.076
53329.466459,16.608,0.074
53329.479266,16.442,0.064
53329.491738,16.586,0.071
53329.504465,16.632,0.074
53349.397446,16.52,0.069
53349.410887,16.513,0.073
53349.424717,16.527,0.078
53349.438486,16.759,0.096
53349.452084,16.952,0.112
53355.412287,16.591,0.056
53355.425576,16.523,0.054
53355.43877,16.503,0.051
53355.451998,16.543,0.059
53355.465852,16.668,0.061
53360.34852,16.539,0.066
53360.362328,16.574,0.068
53360.37639,16.678,0.076
53360.390641,16.877,0.081
53360.404802,17.168,0.116
53386.295181,16.503,0.046
53386.309158,16.533,0.048
53386.32284,16.67,0.057
53387.484443,16.748,0.08
53387.499241,16.535,0.068
53387.513155,16.529,0.067
53387.527228,16.588,0.074
53401.283927,16.51,0.055
53401.296451,16.484,0.055
53401.309071,16.513,0.057
53401.32171,16.592,0.061
53401.33485,16.708,0.07
53430.233721,16.838,0.098
53430.245492,17.009,0.078
53430.259028,17.153,0.096
53430.272779,17.097,0.093
53430.292345,16.656,0.067
53491.15511,16.934,0.135
53491.164969,16.723,0.091
53685.385023,16.591,0.068
53685.397293,16.651,0.074
53685.409577,16.846,0.094
53685.42197,16.986,0.137
53700.384035,16.476,0.061
53700.396557,16.572,0.063
53700.409212,16.667,0.07
53700.421923,16.923,0.085
53700.434476,16.989,0.093
53727.338172,16.69,0.08
53727.35094,16.953,0.085
53727.363808,17.188,0.105
53727.376767,16.953,0.091
53727.38946,16.817,0.074
53757.260321,16.845,0.074
53757.273031,16.694,0.065
53757.285678,16.564,0.059
53757.298228,16.502,0.054
53757.310821,16.519,0.055
53773.285862,16.465,0.065
53773.299443,16.52,0.068
53773.312304,16.537,0.07
53773.325215,16.607,0.083
53773.337995,17.038,0.152
53827.198855,16.744,0.069
53827.221143,17.143,0.096
53827.243055,16.762,0.066
53842.135928,16.722,0.081
53842.147581,16.52,0.069
53842.159128,16.455,0.066
53842.170643,16.568,0.074
53866.155457,16.43,0.157
54011.418051,16.71,0.096
54011.432628,16.994,0.122
54011.446577,16.961,0.114
54011.460064,16.771,0.091
54011.473146,16.46,0.064
54024.422756,16.568,0.097
54024.43488,16.629,0.096
54024.450259,16.686,0.092
54024.464451,16.96,0.119
54052.391663,17.15,0.111
54052.403878,16.878,0.083
54052.416077,16.694,0.072
54052.428285,16.624,0.072
54052.440498,16.451,0.076
54071.331208,17.124,0.191
54071.343868,16.894,0.153
54071.356525,16.613,0.116
54071.369697,16.549,0.106
54071.382426,16.512,0.101
54081.327674,16.518,0.05
54081.340546,16.528,0.052
54081.353332,16.559,0.054
54081.366416,16.558,0.055
54081.379211,16.65,0.061
54098.312666,16.557,0.079
54098.324795,16.607,0.083
54098.336878,16.689,0.089
54098.34913,16.759,0.089
54098.361394,16.909,0.099
54109.282773,16.459,0.072
54124.270309,16.492,0.056
54124.282639,16.498,0.056
54124.295222,16.631,0.063
54124.30753,16.897,0.081
54124.320341,17.071,0.097
54140.27219,16.543,0.054
54140.284225,16.645,0.061
54140.296189,16.946,0.084
54140.3082,17.125,0.106
54140.320269,17.14,0.112
54198.176473,16.563,0.059
54198.195583,16.637,0.067
54198.205077,16.739,0.074
54198.214574,16.838,0.081
54210.172412,17.164,0.139
54210.181308,16.97,0.112
54210.189988,16.635,0.083
54210.198852,16.569,0.081
54210.20762,16.604,0.078
54218.144202,17.089,0.198
54218.152774,17.08,0.198
54218.161351,17.123,0.207
54218.169967,16.952,0.178
54218.178596,16.665,0.137
54397.426622,16.539,0.101
54397.439467,16.916,0.137
54397.452728,17.059,0.152
54397.465478,17.074,0.145
54397.478035,16.812,0.107
54437.378207,16.568,0.035
54437.390901,16.646,0.039
54437.403615,16.917,0.05
54437.416364,17.025,0.055
54437.429257,16.969,0.052
54453.323289,16.528,0.041
54453.33655,16.511,0.041
54453.349663,16.516,0.039
54453.362728,16.578,0.041
54453.375776,16.722,0.041
54481.271285,16.567,0.074
54481.283356,16.591,0.074
54481.295444,16.783,0.089
54481.307529,17.054,0.116
54481.319619,17.106,0.119
54498.26536,16.724,0.074
54498.277341,16.965,0.096
54498.289116,17.041,0.102
54498.301156,16.947,0.094
54498.312902,16.876,0.087
54526.219432,16.93,0.076
54526.231036,16.617,0.059
54526.242267,16.545,0.056
54526.253756,16.54,0.056
54526.265266,16.494,0.054
54537.20805,16.503,0.056
54537.218943,16.428,0.056
54537.229751,16.553,0.069
54537.241,16.589,0.059
54537.251804,16.781,0.074
54559.181984,16.994,0.111
54559.193445,16.674,0.086
54559.204832,16.519,0.074
54559.216465,16.597,0.081
54559.228802,16.581,0.083
54569.192299,16.479,0.127
54569.214138,16.759,0.167
