mjd,m,merr
52610.394447,16.194,0.061
52610.40893,16.376,0.051
52610.438002,16.097,0.112
52614.37909,16.497,0.067
52614.394191,16.565,0.072
52614.424524,16.725,0.085
52614.4397,16.68,0.12
52619.383938,16.663,0.07
52619.399179,16.537,0.065
52619.414418,16.466,0.059
52619.429811,16.351,0.054
52619.445166,16.341,0.054
52639.304479,16.699,0.065
52639.3193,16.473,0.054
52639.334052,16.397,0.113
52639.348756,16.383,0.048
52639.363472,16.354,0.048
52644.311457,16.378,0.044
52644.327241,16.384,0.044
52644.342593,16.476,0.048
52644.358143,16.572,0.052
52644.373853,16.782,0.065
52648.254663,16.411,0.054
52648.269419,16.374,0.05
52648.284031,16.351,0.05
52648.299225,16.39,0.052
52648.314012,16.384,0.054
52671.312996,16.863,0.074
52671.32818,16.794,0.068
52671.343339,16.619,0.059
52671.358557,16.526,0.057
52671.37386,16.428,0.054
52674.252327,16.432,0.054
52674.267664,16.406,0.065
52674.282901,16.398,0.067
52674.298376,16.502,0.055
52674.313838,16.576,0.059
52677.245725,16.557,0.061
52677.260262,16.418,0.052
52677.274744,16.354,0.048
52677.289138,16.397,0.052
52677.303639,16.366,0.052
52697.266826,16.547,0.065
52704.238228,16.316,0.043
52704.251555,16.386,0.046
52704.264888,16.405,0.048
52704.278217,16.542,0.055
52704.291533,16.674,0.065
52706.236316,16.723,0.065
52706.249535,16.628,0.059
52706.26277,16.497,0.054
52706.275733,16.43,0.05
52706.288975,16.456,0.054
52724.18144,16.49,0.055
52724.193097,16.586,0.061
52724.204748,16.617,0.063
52724.216403,16.672,0.067
52724.22827,16.854,0.078
52728.171692,16.434,0.054
52728.184087,16.497,0.057
52728.195873,16.566,0.061
52728.207845,16.767,0.074
52728.219776,16.981,0.093
52731.178312,16.486,0.157
52753.132769,16.481,0.057
52753.144651,16.406,0.055
52753.156542,16.483,0.061
52753.168432,16.458,0.061
52753.180323,16.426,0.061
52760.14146,16.451,0.057
52760.153272,16.439,0.057
52760.165058,16.432,0.057
52760.176939,16.44,0.059
52760.188784,16.443,0.061
52934.449236,16.749,0.109
52934.461108,17.025,0.137
52934.473076,16.896,0.12
52934.485057,16.75,0.097
52934.497036,16.713,0.094
52945.432039,16.521,0.07
52945.444165,16.707,0.081
52945.456161,16.844,0.091
52945.467994,16.982,0.1
52945.480025,16.718,0.078
52963.455992,16.761,0.057
52963.468945,16.87,0.065
52967.379042,16.357,0.05
52967.39166,16.398,0.054
52967.404113,16.438,0.054
52967.416623,16.486,0.055
52967.429127,16.59,0.059
52974.394185,16.364,0.043
52974.40565,16.404,0.043
52974.419303,16.446,0.046
52974.433657,16.581,0.053
52974.444906,16.695,0.059
52992.337047,16.673,0.059
52992.350295,16.541,0.05
52992.363629,16.481,0.054
52992.376887,16.41,0.054
52995.380314,16.506,0.037
53000.348369,16.433,0.035
53000.376494,16.436,0.037
53029.340079,16.482,0.087
53034.278341,16.44,0.054
53034.291098,16.424,0.054
53034.303754,16.39,0.05
53034.316282,16.309,0.048
53034.328674,16.358,0.052
53051.270097,16.664,0.054
53051.281773,16.799,0.059
53051.293504,16.842,0.061
53051.305181,16.782,0.059
53051.316876,16.591,0.05
53058.219848,16.328,0.028
53078.260508,16.569,0.076
53078.282783,16.434,0.054
53078.293701,16.404,0.051
53078.304806,16.379,0.053
53083.226088,16.466,0.037
53083.236977,16.395,0.033
53083.247692,16.401,0.033
53083.258584,16.424,0.033
53083.269295,16.443,0.035
53086.230755,16.578,0.115
53086.241831,16.514,0.15
53086.253236,16.489,0.118
53086.26453,16.438,0.089
53086.275884,16.394,0.068
53092.224818,16.661,0.08
53092.235163,16.756,0.085
53092.245579,16.848,0.096
53092.256241,16.9,0.102
53092.266573,16.79,0.094
53109.181267,16.565,0.066
53109.191594,16.466,0.061
53109.201887,16.478,0.063
53109.222728,16.391,0.058
53114.18987,16.387,0.039
53117.190813,16.347,0.039
53117.20158,16.407,0.041
53117.212421,16.377,0.043
53117.223293,16.445,0.044
53117.234139,16.49,0.048
53137.150845,16.52,0.074
53137.160682,16.516,0.078
53137.170691,16.63,0.087
53137.180679,16.693,0.104
53142.154775,16.93,0.085
53142.165165,16.741,0.074
53142.175202,16.665,0.07
53142.185851,16.527,0.063
53142.19576,16.549,0.098
53288.432851,17.054,0.14
53288.443704,17.163,0.153
53288.454434,17.459,0.196
53288.46538,17.426,0.188
53288.476137,17.284,0.157
53293.430399,16.881,0.111
53293.441313,16.706,0.091
53293.452207,16.583,0.079
53293.463166,16.666,0.084
53293.47412,16.59,0.074
53297.417569,16.657,0.089
53297.429435,16.563,0.079
53297.442194,16.483,0.069
53297.456076,16.433,0.063
53297.468511,16.444,0.063
53299.441939,16.753,0.107
53299.45361,16.889,0.111
53299.465283,16.977,0.196
53299.477026,16.749,0.163
53299.488706,16.536,0.107
53316.438827,16.568,0.107
53316.463034,16.534,0.102
53316.475134,16.737,0.141
53327.370632,16.586,0.094
53327.383044,16.657,0.081
53327.395432,16.521,0.085
53327.407809,16.519,0.078
53327.420262,16.52,0.08
53347.461343,16.537,0.061
53347.477567,16.453,0.057
53347.492744,16.452,0.055
53347.509173,16.377,0.052
53353.333899,16.802,0.08
53353.346903,16.696,0.072
53353.359884,16.513,0.061
53353.373411,16.465,0.059
53353.386405,16.484,0.059
53357.384439,16.435,0.048
53357.399328,16.42,0.046
53357.414226,16.452,0.049
53357.429155,16.541,0.053
53357.444031,16.7,0.061
53376.35153,16.409,0.055
53376.364807,16.451,0.054
53376.379669,16.503,0.057
53376.393086,16.565,0.061
53376.406324,16.689,0.067
53382.365154,16.485,0.055
53382.394629,16.409,0.054
53382.409042,16.389,0.059
53382.423442,16.4,0.059
53385.351199,16.911,0.085
53385.364434,16.756,0.076
53385.37853,16.681,0.07
53385.391727,16.579,0.065
53385.404978,16.482,0.061
53387.355549,16.395,0.052
53387.369451,16.412,0.054
53387.383412,16.492,0.059
53387.396311,16.493,0.061
53387.409747,16.694,0.074
53390.269261,16.541,0.074
53390.282018,16.777,0.089
53390.294779,16.907,0.098
53390.308532,16.773,0.085
53390.321313,16.717,0.083
53404.298501,16.621,0.05
53404.315945,16.797,0.061
53404.328471,16.814,0.061
53404.340924,16.721,0.057
53404.35397,16.544,0.052
53415.288801,16.674,0.061
53415.301041,16.758,0.07
53415.313785,16.796,0.074
53415.338453,16.752,0.07
53433.230598,16.481,0.048
53433.24254,16.422,0.046
53433.256261,16.403,0.044
53433.267723,16.406,0.046
53433.280165,16.46,0.048
53464.23416,16.751,0.072
53464.244581,16.864,0.089
53464.254995,16.798,0.074
53464.26583,16.825,0.083
53464.276423,16.682,0.072
53500.137719,16.692,0.08
53500.148889,16.548,0.07
53500.159021,16.523,0.072
53500.169104,16.476,0.068
53500.179142,16.454,0.068
53656.423312,16.498,0.089
53656.434469,16.569,0.094
53656.445518,16.711,0.107
53656.456572,16.688,0.102
53656.467614,17.006,0.131
53672.455589,16.487,0.072
53672.468837,16.442,0.068
53672.482154,16.485,0.072
53672.496815,16.412,0.065
53675.441685,16.893,0.089
53675.45386,16.749,0.08
53675.465883,16.526,0.065
53675.478246,16.539,0.065
53675.491159,16.448,0.059
53681.47413,16.698,0.085
53681.487551,16.756,0.074
53681.501146,16.797,0.076
53703.392268,16.481,0.055
53703.404984,16.387,0.052
53703.419587,16.399,0.054
53703.432749,16.418,0.052
53703.446001,16.488,0.055
53706.404213,16.519,0.052
53706.418085,16.43,0.048
53706.430885,16.425,0.072
53706.44381,16.306,0.168
53706.457074,16.45,0.065
53709.375407,16.825,0.078
53709.388155,16.93,0.087
53709.400874,16.715,0.072
53709.41357,16.658,0.072
53709.426533,16.476,0.059
53714.387414,16.44,0.054
53714.400334,16.415,0.052
53714.413384,16.461,0.054
53714.426132,16.426,0.052
53714.43891,16.458,0.052
53733.330981,16.502,0.057
53733.344131,16.515,0.059
53733.356862,16.415,0.054
53733.36961,16.412,0.054
53733.382278,16.405,0.052
53740.338176,16.526,0.059
53740.351134,16.471,0.052
53740.363954,16.415,0.05
53740.37671,16.353,0.048
53740.389549,16.353,0.048
53770.220463,16.399,0.052
53770.23353,16.474,0.055
53770.246531,16.619,0.061
53770.259651,16.802,0.072
53770.272713,16.823,0.072
53771.28062,16.42,0.115
53771.293328,16.355,0.059
53771.307252,16.365,0.063
53771.319874,16.445,0.068
53771.332901,16.573,0.113
53787.241412,16.443,0.048
53788.347365,16.375,0.05
53788.359544,16.408,0.055
53788.383653,16.362,0.063
53788.395838,16.417,0.063
53794.292179,16.482,0.063
53794.315818,16.691,0.065
53813.247572,16.442,0.074
53813.258655,16.492,0.08
53813.269875,16.589,0.089
53813.280939,16.646,0.1
53813.292441,16.852,0.122
53816.175327,16.949,0.089
53816.186252,16.841,0.08
53816.197236,16.666,0.068
53816.208354,16.522,0.111
53816.219432,16.469,0.081
53817.279777,16.882,0.094
53817.290609,16.852,0.104
53817.301461,16.719,0.091
53817.312345,16.71,0.096
53817.32343,16.573,0.087
53818.223898,16.711,0.083
53818.234453,16.868,0.096
53818.244992,16.905,0.1
53818.255547,16.794,0.091
53818.266152,16.749,0.089
53823.196752,16.851,0.083
53823.208768,16.596,0.065
53823.221969,16.562,0.065
53823.233857,16.51,0.063
53823.246025,16.406,0.057
53825.181261,16.431,0.057
53825.191633,16.395,0.059
53825.203001,16.447,0.057
53825.214148,16.646,0.13
53825.224567,16.605,0.07
53829.174519,16.392,0.094
53829.185312,16.417,0.098
53829.195442,16.45,0.091
53829.20558,16.476,0.111
53829.215754,16.47,0.131
53844.179285,16.449,0.07
53844.189533,16.553,0.076
53844.199804,16.528,0.076
53844.210074,16.691,0.093
53844.220347,16.923,0.12
53849.14506,16.734,0.083
53849.155827,16.792,0.087
53849.166638,16.95,0.102
53849.177675,16.839,0.094
53849.189159,16.729,0.085
53852.145685,16.436,0.067
53852.156148,16.482,0.072
53852.166667,16.542,0.078
53852.177198,16.697,0.093
53852.187928,16.886,0.113
53853.135871,16.778,0.125
53853.149367,16.851,0.135
53853.160563,17.116,0.18
53853.171495,16.649,0.112
53853.182366,16.736,0.119
53855.146524,16.53,0.074
53855.156834,16.478,0.074
53855.167095,16.516,0.078
53855.17803,16.62,0.089
53855.188366,16.641,0.089
53858.141166,16.515,0.102
54027.449194,16.373,0.069
54027.460913,16.503,0.081
54027.475038,16.503,0.116
54027.487191,16.608,0.083
54027.498712,16.672,0.087
54029.431566,16.837,0.122
54029.444362,16.818,0.117
54029.468782,16.474,0.081
54029.480699,16.436,0.078
54037.433677,16.567,0.069
54037.470536,16.524,0.066
54037.483166,16.443,0.061
54054.361459,16.47,0.059
54054.372862,16.469,0.063
54054.384235,16.381,0.057
54054.395617,16.409,0.059
54054.406999,16.394,0.059
54055.411628,16.829,0.076
54055.423301,16.761,0.072
54055.434968,16.653,0.067
54055.446635,16.518,0.059
54055.458308,16.451,0.055
54056.37909,16.853,0.097
54056.39179,16.849,0.097
54056.407263,16.458,0.066
54056.420516,16.474,0.066
54058.375466,16.491,0.057
54058.38769,16.488,0.054
54058.399949,16.533,0.055
54058.412185,16.637,0.063
54058.424432,16.738,0.068
54061.376216,16.373,0.052
54061.389136,16.423,0.05
54061.401578,16.448,0.05
54061.414016,16.5,0.054
54061.426471,16.586,0.055
54066.391977,16.868,0.104
54066.404171,17.436,0.281
54066.41681,17.073,0.104
54070.381518,16.873,0.093
54070.394462,16.914,0.093
54070.40769,16.798,0.078
54070.420648,16.653,0.063
54070.433706,16.534,0.054
54084.3308,16.433,0.073
54084.343827,16.418,0.074
54084.351352,16.395,0.054
54084.356981,16.512,0.079
54084.364842,16.482,0.057
54084.37015,16.583,0.083
54084.378338,16.495,0.055
54084.383359,16.65,0.084
54084.391843,16.6,0.067
54087.395148,16.371,0.057
54087.408158,16.539,0.107
54087.421169,16.697,0.111
54087.434182,16.729,0.137
54087.447196,16.874,0.076
54098.321507,16.59,0.072
54098.333117,16.431,0.057
54098.344768,16.429,0.057
54098.356532,16.416,0.055
54110.325557,16.48,0.086
54110.338167,16.41,0.086
54110.350729,16.523,0.083
54110.36331,16.549,0.086
54110.375953,16.647,0.094
54121.27054,16.546,0.068
54121.276083,16.566,0.064
54121.282762,16.535,0.057
54121.288597,16.531,0.063
54121.294991,16.551,0.057
54121.301821,16.495,0.058
54121.307236,16.488,0.054
54121.314697,16.414,0.053
54121.319581,16.494,0.054
54121.327279,16.523,0.058
54124.267916,16.812,0.059
54124.280271,16.652,0.055
54124.292537,16.565,0.05
54124.304798,16.43,0.044
54124.31707,16.37,0.043
54125.265794,16.448,0.043
54125.278299,16.409,0.041
54125.290689,16.384,0.039
54125.303117,16.404,0.039
54125.315518,16.395,0.039
54149.272582,16.779,0.074
54149.284448,16.985,0.086
54149.296279,16.839,0.074
54149.308051,16.704,0.068
54149.319842,16.566,0.061
54175.21721,16.508,0.05
54175.227738,16.561,0.052
54175.238379,16.594,0.054
54175.248947,16.732,0.061
54175.259589,16.851,0.068
54206.175072,16.809,0.094
54206.184248,16.842,0.096
54207.175155,16.579,0.065
54207.184314,16.487,0.061
54207.193461,16.439,0.055
54207.202941,16.391,0.055
54207.21212,16.393,0.055
54210.17563,16.862,0.076
54210.184543,16.918,0.074
54210.193449,16.772,0.068
54210.202339,16.698,0.063
54210.211218,16.517,0.054
54385.428176,16.38,0.048
54385.439425,16.385,0.048
54385.450656,16.417,0.046
54385.462006,16.496,0.05
54385.473219,16.561,0.052
54388.428925,16.506,0.061
54388.440284,16.382,0.052
54388.451596,16.417,0.052
54388.462973,16.445,0.052
54388.474265,16.514,0.054
54396.435423,16.49,0.054
54396.447177,16.509,0.052
54396.458834,16.567,0.052
54396.470484,16.635,0.055
54396.482148,16.807,0.063
54410.432552,16.498,0.065
54410.444872,16.511,0.081
54410.457087,16.494,0.085
54410.469286,16.392,0.081
54410.481567,16.595,0.067
54419.445121,16.834,0.05
54419.457969,16.844,0.05
54419.483442,16.567,0.039
54419.496191,16.457,0.037
54424.330474,16.345,0.05
54424.343057,16.421,0.052
54424.355644,16.507,0.054
54424.368246,16.624,0.054
54424.380808,16.834,0.055
54440.35304,16.534,0.037
54440.365823,16.487,0.033
54440.378716,16.424,0.031
54440.391509,16.408,0.037
54440.40431,16.381,0.031
54444.342532,16.599,0.05
54448.34207,16.435,0.033
54448.355059,16.357,0.054
54448.368038,16.416,0.052
54448.381026,16.419,0.044
54454.289892,16.333,0.048
54454.316065,16.414,0.05
54465.460189,16.464,0.043
54465.47309,16.549,0.048
54465.486001,16.662,0.055
54465.498907,16.814,0.065
54465.511818,16.846,0.065
54474.328031,16.413,0.113
54474.354165,16.384,0.063
54474.367136,16.36,0.054
54474.380114,16.388,0.078
54508.231501,16.809,0.043
54508.243657,16.608,0.037
54508.255892,16.509,0.035
54508.268411,16.478,0.046
54508.280701,16.376,0.052
54523.279608,16.392,0.03
54523.291358,16.402,0.033
54523.30294,16.423,0.035
54523.314534,16.425,0.037
54530.224191,16.866,0.076
54530.235551,16.73,0.057
54530.246936,16.5,0.13
54530.258316,16.541,0.102
54530.269854,16.54,0.093
54537.17204,16.423,0.059
54537.182978,16.444,0.052
54537.193904,16.497,0.033
54537.204861,16.551,0.035
54554.23687,16.512,0.043
54554.24878,16.547,0.041
54554.260697,16.63,0.043
54554.27283,16.773,0.05
54554.284745,16.821,0.054
54563.198294,16.74,0.052
54563.232939,16.668,0.05
54574.138668,16.389,0.094
54574.149304,16.391,0.094
54574.159937,16.465,0.102
54574.170527,16.443,0.102
54574.18113,16.517,0.109
54582.142818,16.526,0.061
54582.153335,16.535,0.061
54582.164209,16.685,0.07
54582.174695,16.827,0.085
54582.185193,16.913,0.096
54585.143537,16.476,0.1
54585.154285,16.481,0.122
54585.186506,16.866,0.327
54592.14029,16.387,0.048
54592.15071,16.376,0.05
54592.161132,16.419,0.054
54592.171558,16.421,0.055
54592.181988,16.512,0.059
