mjd,m,merr
52622.363706,16.608,0.074
52622.378136,16.65,0.078
52622.392886,16.81,0.084
52622.407362,16.658,0.073
52622.422255,16.699,0.074
52638.368542,16.575,0.061
52638.383561,16.388,0.048
52638.398582,16.515,0.056
52638.413822,16.548,0.099
52643.362448,16.538,0.056
52643.394958,16.489,0.056
52649.374213,16.56,0.052
52649.390371,16.578,0.055
52649.406611,16.535,0.055
52649.424577,16.593,0.059
52649.441235,16.571,0.059
52670.277311,16.392,0.048
52670.292111,16.412,0.049
52670.306888,16.489,0.054
52670.321871,16.486,0.054
52670.336871,16.466,0.054
52677.266419,16.001,0.036
52677.281216,16.096,0.038
52677.296033,16.182,0.043
52677.31069,16.277,0.046
52696.268654,16.515,0.048
52696.282271,16.602,0.052
52696.294825,16.595,0.052
52696.307831,16.638,0.055
52696.321124,16.581,0.054
52703.235689,15.929,0.035
52703.248765,16.035,0.04
52703.288724,16.175,0.049
52723.17311,16.1,0.035
52723.184645,16.135,0.035
52723.196095,16.165,0.039
52723.220176,16.121,0.055
52730.178552,16.579,0.066
52730.190735,16.532,0.059
52730.202799,16.516,0.059
52730.216009,16.306,0.049
52730.228262,15.919,0.036
52752.136451,16.423,0.059
52752.146735,16.439,0.059
52752.156992,16.419,0.057
52752.167245,16.424,0.063
52752.177501,16.419,0.061
52761.141211,16.492,0.072
52761.152986,16.472,0.057
52761.164758,16.411,0.061
52761.176527,16.216,0.094
52761.188339,15.999,0.091
52764.141882,16.263,0.058
52764.154214,16.256,0.058
52764.166248,16.355,0.064
52764.178279,16.317,0.063
52764.190926,16.321,0.064
52912.441319,16.508,0.078
52912.454343,16.499,0.07
52912.467376,16.497,0.068
52912.480062,16.533,0.067
52934.427407,16.445,0.076
52934.439027,16.379,0.068
52934.45051,16.407,0.067
52934.461977,16.493,0.072
52934.473359,16.468,0.067
52942.448881,16.116,0.117
52946.432774,16.165,0.048
52946.444644,16.054,0.072
52946.456599,16.136,0.1
52962.387401,15.632,0.022
52962.400217,15.72,0.024
52962.413106,15.81,0.026
52962.425757,15.86,0.026
52962.438862,15.919,0.028
52977.390524,16.146,0.044
52977.402458,16.177,0.046
52977.414623,16.213,0.043
52977.426562,16.222,0.041
52977.438612,16.236,0.039
52991.413223,16.522,0.045
52991.427449,16.541,0.045
52991.441886,16.486,0.043
52991.45587,16.513,0.048
52991.469792,16.524,0.043
53000.368035,16.613,0.036
53000.380905,16.628,0.036
53000.393828,16.596,0.036
53000.407097,16.564,0.035
53000.420189,16.59,0.035
53002.375921,16.435,0.031
53002.390599,16.414,0.031
53002.404917,16.456,0.031
53002.42032,16.508,0.033
53002.438606,16.511,0.033
53035.282035,16.223,0.046
53035.295261,15.945,0.037
53035.307671,15.738,0.03
53035.322346,15.709,0.028
53035.335282,15.728,0.03
53049.223186,16.092,0.03
53049.235003,16.122,0.03
53049.246822,16.179,0.03
53049.258639,16.197,0.03
53049.270505,16.221,0.031
53062.280592,16.301,0.122
53087.227768,16.218,0.1
53087.238324,16.154,0.026
53087.249033,16.099,0.024
53087.259695,16.024,0.024
53087.270432,16.005,0.024
53107.18222,15.884,0.033
53107.192683,15.902,0.033
53107.20311,15.906,0.035
53107.213616,15.913,0.033
53107.224122,15.971,0.036
53127.147074,16.057,0.086
53127.156333,16.101,0.091
53127.165616,16.174,0.099
53127.174821,16.026,0.087
53127.18414,16.262,0.111
53136.151404,16.328,0.063
53136.160147,16.334,0.064
53136.168974,16.262,0.066
53136.177765,16.389,0.079
53136.186662,16.33,0.074
53273.481473,16.623,0.092
53282.449289,16.037,0.086
53282.461396,16.016,0.079
53282.472776,16.146,0.087
53282.483667,16.071,0.079
53288.420772,16.456,0.081
53288.431596,16.352,0.068
53288.442412,16.31,0.065
53288.453226,16.271,0.061
53288.464046,16.251,0.059
53293.421928,16.273,0.055
53293.432907,16.205,0.052
53293.44389,16.14,0.048
53293.454868,16.128,0.044
53293.465846,16.064,0.043
53328.373659,16.042,0.055
53328.398011,16.115,0.076
53328.422372,16.127,0.052
53331.446123,16.463,0.074
53331.458555,16.482,0.073
53331.483508,16.456,0.071
53331.49965,16.402,0.071
53348.34953,16.189,0.137
53348.363416,16.43,0.087
53348.377688,16.347,0.069
53348.391643,16.453,0.064
53348.405506,16.412,0.058
53354.358676,16.219,0.043
53354.373437,16.155,0.043
53354.387809,16.169,0.043
53354.402121,16.219,0.043
53354.416575,16.274,0.046
53404.302091,16.442,0.041
53404.314949,16.428,0.04
53404.327747,16.444,0.041
53404.360758,16.452,0.043
53474.19281,16.14,0.057
53474.202406,16.035,0.052
53474.21256,15.961,0.05
53474.22235,15.871,0.046
53474.231989,15.935,0.05
53498.148133,16.276,0.055
53498.15822,16.209,0.072
53498.168581,16.323,0.078
53499.15523,15.995,0.044
53499.166438,16.055,0.046
53499.176781,16.077,0.048
53499.186941,16.117,0.052
53499.197219,16.081,0.052
53646.452564,16.613,0.089
53646.474419,16.499,0.074
53651.424316,16.686,0.096
53651.435221,16.536,0.081
53651.446113,16.664,0.087
53651.456996,16.511,0.074
53651.467883,16.544,0.074
53657.426892,16.419,0.072
53657.438131,16.474,0.068
53657.44937,16.534,0.074
53657.460579,16.539,0.072
53657.471807,16.531,0.07
53673.441535,16.375,0.059
53673.454334,16.433,0.061
53673.466463,16.529,0.065
53673.478631,16.527,0.065
53673.491377,16.553,0.065
53676.444653,16.695,0.1
53676.4569,16.702,0.087
53676.468902,16.632,0.085
53676.48089,16.659,0.078
53676.492846,16.483,0.074
53683.392171,16.439,0.178
53683.404912,16.431,0.087
53683.417541,16.42,0.135
53683.430105,16.539,0.063
53683.442932,16.542,0.07
53702.372496,16.646,0.061
53702.387251,16.67,0.059
53702.402129,16.601,0.055
53702.415071,16.551,0.055
53702.427835,16.603,0.057
53741.344227,16.244,0.035
53741.356937,16.238,0.033
53741.369804,16.289,0.037
53741.383068,16.311,0.037
53741.396435,16.373,0.039
53771.223861,16.348,0.12
53771.23657,16.405,0.12
53771.249217,16.276,0.091
53771.261875,16.434,0.08
53771.274522,16.413,0.055
53786.236994,16.433,0.041
53786.250214,16.504,0.038
53786.263599,16.557,0.038
53786.276877,16.521,0.038
53786.290623,16.568,0.043
53812.23807,16.387,0.061
53812.249766,16.46,0.066
53812.26128,16.531,0.073
53812.272887,16.533,0.076
53812.284471,16.456,0.073
53843.195763,16.541,0.058
53843.207204,16.467,0.056
53843.218665,16.465,0.058
53843.230486,16.491,0.061
53843.242136,16.516,0.068
53854.141104,16.162,0.048
53854.151459,16.203,0.051
53854.161835,16.158,0.051
53854.172285,16.262,0.054
53854.182803,16.338,0.061
54009.418354,16.158,0.069
54009.435823,16.257,0.069
54009.449668,16.266,0.063
54009.46237,16.297,0.061
54009.475075,16.259,0.058
54028.435793,16.593,0.102
54028.447759,16.609,0.097
54028.459366,16.578,0.097
54028.471215,16.522,0.089
54028.483409,16.475,0.084
54054.39709,16.659,0.073
54054.40968,16.612,0.071
54054.422279,16.476,0.061
54054.434885,16.538,0.063
54054.447333,16.523,0.061
54068.3917,16.395,0.058
54068.404574,16.045,0.041
54068.417643,15.874,0.035
54068.430811,15.751,0.033
54068.443697,15.814,0.033
54085.340607,16.546,0.081
54085.35364,16.6,0.099
54085.366877,16.506,0.061
54085.379779,16.568,0.066
54085.392743,16.432,0.058
54110.338773,16.617,0.076
54110.356125,16.572,0.067
54110.371249,16.492,0.063
54110.385863,16.434,0.061
54110.402285,16.259,0.057
54123.26711,16.133,0.037
54123.279342,16.159,0.039
54123.29154,16.214,0.039
54123.303752,16.242,0.041
54123.315969,16.232,0.041
54156.208384,16.35,0.059
54156.219448,16.319,0.058
54156.241825,16.301,0.059
54156.252814,16.251,0.056
54201.184177,16.084,0.041
54201.194356,16.085,0.041
54201.204107,16.096,0.041
54201.213836,16.104,0.039
54201.223835,16.16,0.043
54207.175396,15.802,0.04
54207.184611,15.826,0.041
54207.193888,15.867,0.041
54207.203586,15.852,0.043
54207.213301,15.941,0.046
54395.4367,16.392,0.069
54395.450244,16.666,0.086
54395.466278,16.486,0.081
54397.440957,16.251,0.052
54397.452729,16.222,0.048
54397.46439,16.252,0.046
54397.476019,16.31,0.041
54412.436614,16.418,0.033
54412.448887,16.421,0.033
54412.461142,16.461,0.033
54412.473627,16.453,0.033
54412.485887,16.504,0.035
54421.439303,16.495,0.037
54421.451774,16.511,0.037
54421.464298,16.485,0.035
54421.476753,16.482,0.035
54421.489222,16.45,0.033
54436.460266,16.525,0.037
54436.473072,16.489,0.033
54436.485855,16.38,0.031
54436.49875,16.155,0.028
54436.511535,15.915,0.022
54450.333676,15.829,0.018
54450.347034,15.723,0.017
54450.360111,15.685,0.017
54450.373628,15.751,0.017
54450.386613,15.803,0.018
54470.319677,16.058,0.055
54470.345287,16.049,0.048
54470.370894,16.087,0.083
54476.331585,15.803,0.017
54476.344446,15.835,0.017
54476.357294,15.882,0.018
54476.37015,15.923,0.018
54476.382994,15.983,0.02
54508.290563,16.427,0.064
54508.30263,16.475,0.054
54508.314525,16.441,0.059
54508.326621,16.421,0.051
54508.338511,16.425,0.051
54509.211944,16.408,0.035
54509.223845,16.407,0.033
54509.235859,16.439,0.033
54509.247889,16.452,0.033
54509.259807,16.493,0.033
54532.219385,16.044,0.02
54532.230528,16.053,0.02
54532.241704,16.111,0.022
54532.252983,16.139,0.022
54532.264125,16.162,0.022
54573.182356,16.123,0.067
54573.193167,16.152,0.07
54573.203818,16.199,0.072
54573.214609,16.28,0.081
54573.225554,16.186,0.081
54582.185987,16.538,0.013
54587.147339,16.425,0.048
54587.158062,16.473,0.052
54587.168747,16.47,0.052
54587.179426,16.517,0.057
54587.190132,16.521,0.061
54595.146908,15.881,0.044
54595.156813,15.694,0.039
54595.166711,15.639,0.037
54595.176578,15.696,0.039
54595.18652,15.713,0.041
