mjd,m,merr
52619.383684,14.965,0.016
52619.398801,14.976,0.016
52619.413766,15.01,0.018
52619.428835,15.076,0.018
52619.443823,15.214,0.021
52640.418425,15.131,0.015
52640.433943,15.042,0.013
52640.449758,14.975,0.013
52640.464777,14.969,0.013
52640.479614,14.981,0.013
52646.381139,14.997,0.017
52646.396072,15.063,0.017
52646.410502,15.218,0.02
52646.425053,15.369,0.022
52646.439605,15.306,0.022
52647.378078,14.969,0.016
52647.392574,14.991,0.016
52647.407143,15.015,0.018
52647.42213,15.106,0.02
52647.436976,15.229,0.021
52666.314908,15.481,0.021
52666.345017,15.161,0.016
52666.360188,15.079,0.015
52666.37491,14.988,0.015
52672.317395,15.048,0.017
52672.331321,15.149,0.017
52672.345469,15.269,0.02
52672.359437,15.378,0.02
52672.373363,15.273,0.018
52673.253446,15.273,0.021
52673.268234,15.163,0.018
52698.262277,15.167,0.063
52698.279758,15.304,0.03
52698.297639,15.356,0.021
52698.298005,15.363,0.02
52698.311987,15.207,0.02
52698.312354,15.195,0.018
52704.227874,15.013,0.015
52704.240815,14.976,0.015
52704.254325,14.958,0.015
52704.267332,14.971,0.015
52704.280899,15.001,0.016
52705.177335,15.116,0.02
52705.190535,15.228,0.02
52705.20356,15.398,0.023
52705.216536,15.453,0.023
52705.234066,15.221,0.017
52705.247254,15.087,0.015
52705.262223,14.99,0.013
52705.275252,14.937,0.013
52705.28837,14.967,0.013
52725.272846,15.24,0.065
52725.284571,15.106,0.037
52725.29623,15.039,0.017
52729.174643,14.946,0.015
52729.18659,15.014,0.015
52729.198076,15.087,0.017
52729.209776,15.166,0.017
52729.221235,15.304,0.018
52734.19125,14.994,0.015
52734.203787,15.045,0.015
52734.216961,15.158,0.017
52734.229211,15.292,0.02
52734.242376,15.354,0.022
52738.195325,15.264,0.036
52738.195683,15.274,0.036
52738.207288,15.413,0.041
52754.143342,15.343,0.02
52754.155406,15.18,0.018
52754.167462,15.077,0.017
52754.179565,15.016,0.017
52754.191746,14.976,0.017
52760.14102,15.129,0.021
52760.14161,15.118,0.02
52760.15398,15.279,0.023
52760.154563,15.233,0.021
52760.166004,15.396,0.026
52760.166584,15.35,0.025
52760.178033,15.407,0.028
52760.178615,15.385,0.026
52760.190082,15.236,0.025
52760.190667,15.257,0.025
52937.441669,15.088,0.016
52937.45358,15.051,0.018
52937.465337,14.94,0.013
52937.477122,14.914,0.013
52937.488871,14.909,0.012
52941.424806,14.977,0.015
52941.436401,14.907,0.013
52941.448231,14.906,0.013
52941.459814,14.898,0.012
52941.471636,14.893,0.012
52944.434655,14.961,0.02
52944.446729,15.004,0.02
52944.458671,15.123,0.022
52944.470536,15.319,0.024
52944.482585,15.392,0.026
52973.392143,15.088,0.015
52973.405083,14.942,0.015
52973.418271,14.895,0.013
52973.431056,15.019,0.015
52973.444018,14.944,0.013
52993.329711,14.981,0.017
52993.342826,15.011,0.013
52993.356085,15.055,0.013
52993.369194,15.214,0.018
52993.382553,15.378,0.018
52995.328135,15.192,0.012
52995.340699,15.095,0.01
52995.3532,14.952,0.01
52995.378147,14.904,0.01
53027.394774,15.036,0.01
53027.407724,15.181,0.012
53027.420731,15.312,0.013
53027.433532,15.265,0.013
53027.446312,15.109,0.012
53029.336345,15.491,0.021
53033.273688,15.019,0.016
53033.286192,15.123,0.018
53033.298893,15.232,0.018
53033.311385,15.385,0.021
53033.323836,15.331,0.02
53052.22197,14.994,0.013
53052.233664,14.962,0.013
53052.25716,14.985,0.013
53052.269045,14.998,0.013
53054.222997,15.285,0.015
53054.237073,15.365,0.017
53054.251562,15.272,0.017
53054.267057,15.125,0.013
53054.280637,15.027,0.011
53057.271615,14.992,0.008
53057.282346,15.081,0.009
53057.283958,15.045,0.01
53057.29385,15.12,0.013
53057.305468,15.234,0.046
53057.320516,15.416,0.049
53058.297028,14.925,0.008
53058.309946,14.954,0.008
53058.334534,15.101,0.01
53061.293881,15.235,0.012
53061.318015,15.305,0.013
53061.330004,15.175,0.012
53079.220997,14.991,0.015
53079.23204,15.002,0.016
53079.243126,15.023,0.015
53079.254063,15.099,0.016
53079.265018,15.21,0.018
53083.236588,15.143,0.012
53083.248164,15.346,0.013
53083.259542,15.445,0.015
53083.27105,15.386,0.015
53085.287526,15.08,0.012
53085.298765,15.189,0.02
53085.310105,15.34,0.021
53085.321463,15.472,0.02
53110.138737,14.993,0.018
53110.149439,14.962,0.018
53110.160254,14.972,0.018
53110.171236,15.02,0.018
53110.182207,15.04,0.02
53114.193933,15.362,0.016
53114.20496,15.369,0.016
53114.215887,15.32,0.016
53114.22685,15.149,0.013
53114.237476,15.04,0.013
53116.196519,14.957,0.018
53138.150489,14.957,0.018
53138.160328,14.958,0.02
53138.170081,14.999,0.02
53138.180387,15.038,0.021
53138.190061,15.085,0.021
53142.15465,15.009,0.016
53142.166934,15.067,0.016
53142.186857,15.317,0.021
53287.438305,15.11,0.031
53287.449196,15.271,0.035
53287.471298,15.397,0.035
53292.42642,15.011,0.025
53292.436027,15.003,0.023
53292.445666,15.117,0.025
53292.456314,15.233,0.026
53292.465919,15.378,0.03
53327.380349,15.332,0.03
53327.393423,15.407,0.031
53327.40592,15.267,0.025
53327.418158,15.126,0.023
53327.430625,15.059,0.023
53347.433734,15.352,0.063
53347.461286,15.068,0.016
53352.441484,15.378,0.026
53352.456444,15.207,0.023
53352.500782,14.985,0.02
53353.423726,15.1,0.02
53353.437817,15.225,0.02
53353.451908,15.405,0.023
53353.466104,15.516,0.028
53357.377934,15.002,0.02
53357.392233,14.996,0.015
53357.420131,15.25,0.028
53357.433314,15.361,0.018
53383.34159,15.129,0.015
53383.355732,15.285,0.018
53383.368633,15.381,0.02
53383.381715,15.282,0.018
53383.395382,15.148,0.017
53403.294712,15.108,0.013
53403.308274,15.054,0.013
53403.321527,14.997,0.013
53403.334959,14.985,0.013
53403.348655,15.024,0.023
53405.221544,15.023,0.013
53405.233479,14.994,0.013
53405.245448,14.963,0.012
53405.269805,14.998,0.012
53410.413094,14.971,0.013
53410.425595,15.011,0.013
53410.450344,15.144,0.017
53410.463311,15.273,0.02
53438.34812,15.193,0.018
53438.360291,15.068,0.018
53438.371858,15.012,0.018
53438.383486,14.995,0.018
53438.395065,14.981,0.02
53466.218845,14.973,0.018
53466.228264,14.939,0.017
53466.237613,14.974,0.017
53466.246977,14.939,0.018
53466.256311,14.973,0.018
53502.140601,15.208,0.024
53502.151401,15.124,0.022
53502.161656,15.067,0.022
53502.172177,15.008,0.02
53502.183004,14.987,0.022
53679.445897,14.989,0.017
53679.458237,14.991,0.017
53679.470375,15.078,0.018
53679.48253,15.126,0.018
53679.495314,15.306,0.022
53704.445077,15.083,0.015
53704.470044,15.0,0.015
53704.482554,14.963,0.015
53704.495287,15.006,0.015
53707.416579,14.991,0.017
53707.430254,15.015,0.063
53707.445688,15.028,0.015
53711.466175,15.418,0.02
53711.47913,15.443,0.02
53711.491999,15.309,0.018
53711.504981,15.14,0.017
53711.517995,15.097,0.017
53734.403458,15.037,0.015
53734.416438,15.113,0.017
53734.429313,15.201,0.017
53734.442266,15.363,0.02
53734.455482,15.5,0.024
53737.347308,15.01,0.015
53737.360557,15.057,0.015
53737.373846,15.167,0.017
53737.387144,15.318,0.018
53737.400456,15.467,0.02
53747.35241,15.032,0.041
53758.336416,15.386,0.018
53758.348949,15.194,0.017
53758.361484,15.1,0.015
53758.37409,15.033,0.017
53758.386718,15.002,0.017
53787.420684,14.996,0.026
53787.432611,15.015,0.022
53787.444636,15.013,0.024
53789.234077,15.203,0.016
53789.246557,15.354,0.021
53789.259014,15.506,0.031
53789.271562,15.413,0.028
53789.283927,15.239,0.025
53789.285896,15.224,0.028
53789.297835,15.103,0.024
53789.309755,15.065,0.024
53789.321696,14.974,0.048
53789.33386,14.982,0.037
53792.284169,14.979,0.015
53792.296104,15.001,0.015
53792.308012,15.011,0.017
53792.319906,15.081,0.017
53792.331859,15.173,0.018
53799.226446,15.021,0.015
53799.238506,15.089,0.016
53799.250681,15.172,0.016
53799.262474,15.293,0.016
53799.274318,15.479,0.018
53802.277336,15.057,0.031
53802.288709,15.027,0.028
53816.351044,15.264,0.026
53816.362106,15.461,0.035
53816.373202,15.642,0.048
53816.384466,15.5,0.05
53821.231347,15.415,0.033
53821.241967,15.376,0.028
53821.258273,15.206,0.02
53821.268998,15.102,0.018
53821.282716,15.069,0.018
53824.234154,15.026,0.018
53824.246477,14.986,0.017
53824.258708,14.993,0.017
53824.269532,15.025,0.017
53824.281003,15.049,0.024
53828.230844,14.982,0.022
53828.2523,15.026,0.043
53845.140023,15.085,0.02
53845.150711,15.011,0.02
53845.16141,14.998,0.02
53845.172139,14.984,0.02
53845.182852,14.976,0.02
53846.189952,15.014,0.026
53846.200595,14.98,0.026
53846.211275,14.999,0.026
53846.22201,14.999,0.026
53851.139935,15.457,0.031
53851.150538,15.49,0.031
53851.161108,15.282,0.041
53851.171572,15.201,0.025
53851.182006,15.099,0.025
53851.189418,15.075,0.024
53851.199449,15.012,0.022
53851.209701,15.003,0.022
53851.219959,15.014,0.024
53851.229834,15.009,0.024
53854.193023,15.053,0.03
53854.203917,15.077,0.063
53854.218202,15.226,0.028
53854.229063,15.312,0.033
53854.242972,15.354,0.037
54030.42595,15.267,0.03
54030.440476,15.386,0.031
54030.454567,15.365,0.028
54030.470585,15.158,0.023
54030.482505,15.098,0.021
54035.458187,15.376,0.025
54035.47033,15.287,0.023
54035.482009,15.16,0.02
54040.451994,15.38,0.028
54040.464378,15.441,0.03
54040.476456,15.375,0.026
54053.422037,15.426,0.041
54053.433823,15.4,0.046
54053.445609,15.282,0.026
54053.469348,15.075,0.022
54056.374496,15.4,0.022
54056.38667,15.313,0.02
54056.411028,15.11,0.017
54058.382296,15.054,0.02
54058.394652,15.084,0.02
54058.407106,15.173,0.021
54058.421137,15.335,0.023
54058.433652,15.406,0.025
54059.442163,15.224,0.017
54059.454665,15.401,0.02
54059.466986,15.475,0.02
54059.480424,15.371,0.018
54064.379641,15.039,0.018
54064.385565,15.045,0.015
54064.392192,15.008,0.016
54064.39848,15.016,0.015
54064.404856,14.981,0.016
54064.411386,15.02,0.013
54064.424295,15.057,0.015
54064.430538,15.101,0.018
54064.437203,15.12,0.015
54067.391957,15.146,0.013
54067.404925,15.31,0.015
54067.430995,15.41,0.015
54082.318348,15.229,0.03
54082.330887,15.08,0.028
54082.343231,15.03,0.028
54082.355647,14.978,0.026
54082.368162,14.93,0.025
54082.388916,14.965,0.015
54082.401805,15.016,0.017
54082.414709,15.088,0.017
54082.427931,15.237,0.018
54082.440824,15.412,0.02
54085.399353,15.465,0.02
54085.412488,15.293,0.022
54085.426249,15.146,0.017
54085.439887,15.057,0.018
54085.453373,15.023,0.015
54112.396504,15.142,0.021
54112.409066,15.025,0.018
54112.421613,15.05,0.02
54114.364782,15.016,0.02
54144.269096,15.033,0.015
54144.293307,15.157,0.016
54144.317226,15.488,0.023
54153.260316,15.033,0.015
54153.27017,15.054,0.013
54153.272243,15.097,0.016
54153.281666,15.143,0.013
54153.304666,15.399,0.018
54174.218862,15.311,0.018
54174.229477,15.402,0.018
54174.250494,15.269,0.017
54177.229646,15.046,0.015
54177.241243,15.017,0.015
54177.25295,14.978,0.074
54177.276138,14.996,0.052
54180.245177,15.131,0.017
54180.256101,15.278,0.018
54180.266593,15.382,0.02
54180.277064,15.434,0.02
54201.189665,15.49,0.033
54201.198937,15.498,0.035
54201.208412,15.401,0.03
54201.217641,15.27,0.026
54201.226948,15.191,0.026
54205.179578,15.407,0.02
54205.18874,15.297,0.018
54205.197915,15.202,0.018
54205.207569,15.121,0.018
54205.216799,15.098,0.017
54208.176134,15.015,0.015
54208.185037,14.99,0.015
54208.193966,14.96,0.015
54208.202981,14.979,0.015
54208.212168,15.03,0.017
54212.184214,15.05,0.02
54212.193075,15.057,0.022
54212.202202,15.1,0.022
54212.211094,15.133,0.024
54212.220001,15.2,0.026
54416.433227,15.307,0.015
54416.445993,15.403,0.017
54416.458317,15.29,0.015
54416.470625,15.152,0.013
54416.482969,15.046,0.013
54438.428143,15.124,0.009
54480.453736,15.042,0.028
54480.466047,15.067,0.03
54480.478336,15.091,0.03
54480.490952,15.154,0.035
54480.503272,15.284,0.041
54481.208852,14.914,0.015
54481.222226,14.987,0.015
54481.248659,15.211,0.018
54481.261599,15.317,0.02
54498.27812,14.949,0.009
54498.290485,14.983,0.009
54498.30288,14.995,0.011
54498.315294,15.042,0.011
54498.327813,15.117,0.011
54506.271635,15.052,0.011
54506.283943,15.121,0.011
54506.296126,15.235,0.013
54506.308583,15.352,0.013
54521.339561,15.375,0.022
54521.351856,15.311,0.03
54521.363535,15.142,0.022
54521.375247,15.036,0.017
54521.386963,15.004,0.02
54527.282044,15.037,0.035
54527.304851,15.004,0.033
54535.221006,15.09,0.011
54535.232187,15.084,0.009
54535.243354,14.989,0.009
54535.254898,14.991,0.009
54535.26606,14.97,0.009
54540.110632,14.935,0.017
54540.132399,14.941,0.015
54540.143305,14.937,0.015
54540.154219,14.985,0.015
54552.268464,15.311,0.015
54552.280473,15.394,0.017
54552.292486,15.333,0.018
54561.188967,15.003,0.017
54561.2119,15.039,0.011
54561.223361,15.072,0.011
54561.234879,15.13,0.018
54581.142946,15.238,0.02
54581.153725,15.37,0.022
54581.164389,15.344,0.022
54581.175084,15.27,0.02
54581.185919,15.157,0.018
54583.192741,15.111,0.018
54583.20332,15.225,0.022
54583.213995,15.372,0.03
54590.151245,15.463,0.022
54590.161655,15.345,0.02
54590.172062,15.221,0.018
54590.18257,15.115,0.02
54590.193024,15.064,0.015
