mjd,m,merr
52619.444703,16.231,0.051
52619.459786,16.07,0.046
52619.474753,16.275,0.056
52619.49016,16.375,0.061
52619.505152,16.372,0.063
52640.419368,16.371,0.043
52640.434827,16.293,0.037
52640.450516,16.189,0.035
52640.465534,16.191,0.037
52640.480369,16.232,0.037
52641.375789,16.283,0.041
52641.390805,16.229,0.039
52641.405708,16.206,0.037
52641.420597,16.288,0.043
52641.435488,16.36,0.046
52646.381671,16.368,0.048
52646.396566,16.362,0.048
52646.410995,16.268,0.046
52646.425548,16.194,0.041
52646.440099,16.153,0.043
52647.378575,16.172,0.048
52647.39307,16.291,0.054
52647.40764,16.401,0.061
52647.422627,16.388,0.061
52647.437472,16.332,0.059
52666.315418,16.154,0.04
52666.330459,16.151,0.04
52666.345521,16.295,0.045
52666.360691,16.357,0.048
52666.375415,16.365,0.049
52672.318335,16.297,0.048
52672.332263,16.381,0.046
52672.346409,16.398,0.05
52672.360381,16.31,0.043
52672.374341,16.235,0.043
52673.224356,16.109,0.045
52673.239123,16.17,0.045
52673.253953,16.234,0.046
52673.268739,16.351,0.051
52673.28419,16.31,0.049
52698.280935,16.316,0.064
52698.298829,16.324,0.048
52698.313193,16.265,0.046
52704.282233,16.357,0.051
52704.295322,16.237,0.046
52704.308671,16.182,0.049
52704.321702,16.23,0.049
52704.334714,16.322,0.058
52705.234827,16.159,0.033
52705.248017,16.177,0.033
52705.262989,16.244,0.035
52705.276019,16.403,0.043
52705.289144,16.401,0.043
52725.285648,16.309,0.072
52725.297307,16.229,0.044
52729.175477,16.379,0.046
52729.187401,16.357,0.046
52729.19891,16.381,0.046
52729.210589,16.232,0.041
52729.22205,16.173,0.037
52734.192088,16.222,0.039
52734.204622,16.262,0.041
52734.217801,16.412,0.048
52734.230051,16.353,0.048
52734.243217,16.383,0.05
52754.144012,16.243,0.043
52754.156076,16.18,0.041
52754.168135,16.2,0.044
52754.180238,16.306,0.048
52754.192418,16.384,0.055
52758.143949,16.31,0.054
52758.156228,16.163,0.048
52758.168454,16.107,0.046
52758.180599,16.08,0.046
52758.192665,16.209,0.049
52937.44244,16.342,0.048
52937.454346,16.427,0.056
52937.466103,16.257,0.043
52937.477897,16.228,0.04
52937.489629,16.211,0.038
52941.425581,16.287,0.045
52941.437165,16.386,0.046
52941.448995,16.442,0.049
52941.460573,16.445,0.046
52941.472406,16.295,0.04
52944.435611,16.395,0.065
52944.447685,16.451,0.065
52944.459627,16.326,0.055
52944.471492,16.188,0.048
52944.483541,16.163,0.046
52973.393107,16.337,0.041
52973.406045,16.215,0.039
52973.419234,16.131,0.035
52973.432018,16.187,0.035
52973.444979,16.308,0.039
52993.330597,16.35,0.063
52993.343713,16.445,0.046
52993.356971,16.417,0.039
52993.370081,16.284,0.041
52993.383543,16.17,0.035
52994.397552,16.268,0.053
52994.410389,16.162,0.03
52994.423017,16.137,0.036
52994.437001,16.203,0.031
52994.449604,16.318,0.045
52996.330291,16.392,0.035
52996.342982,16.368,0.036
52996.355528,16.283,0.033
52996.368097,16.149,0.03
52996.380911,16.092,0.026
53025.287463,16.321,0.03
53025.29891,16.252,0.028
53025.3111,16.184,0.026
53025.322692,16.132,0.038
53025.334189,16.198,0.033
53026.350558,16.226,0.024
53026.376849,16.413,0.028
53026.389779,16.449,0.044
53026.402721,16.427,0.033
53028.316203,16.186,0.025
53028.328648,16.254,0.026
53028.341509,16.347,0.026
53028.354432,16.325,0.028
53029.369096,16.474,0.081
53031.274092,16.217,0.033
53031.286723,16.166,0.033
53031.299221,16.155,0.033
53031.312375,16.246,0.037
53031.325009,16.319,0.039
53032.266868,16.335,0.04
53032.279471,16.322,0.038
53032.292274,16.313,0.038
53032.30544,16.207,0.033
53032.318049,16.203,0.033
53033.324225,16.232,0.045
53052.269929,16.316,0.035
53052.281681,16.181,0.031
53052.293523,16.223,0.033
53052.305362,16.182,0.031
53052.317275,16.315,0.037
53057.346877,16.486,0.236
53079.221213,16.46,0.056
53079.232257,16.401,0.051
53079.243343,16.336,0.049
53082.23316,16.363,0.031
53082.269889,16.248,0.028
53082.281242,16.333,0.031
53084.235468,16.259,0.028
53084.247928,16.359,0.031
53084.259306,16.411,0.033
53084.270632,16.439,0.035
53084.282437,16.372,0.031
53091.227434,16.311,0.04
53091.269534,16.44,0.041
53110.206019,16.349,0.066
53115.196662,16.284,0.036
53115.207393,16.218,0.035
53115.218663,16.22,0.036
53115.229472,16.291,0.04
53115.240362,16.355,0.043
53138.190754,16.311,0.063
53141.167627,16.332,0.053
53141.178047,16.37,0.056
53141.187072,16.368,0.054
53141.196049,16.463,0.063
53141.205065,16.476,0.068
53287.438703,16.534,0.125
53287.449592,16.603,0.129
53287.460779,16.726,0.134
53292.426779,16.452,0.091
53292.436385,16.353,0.078
53292.446025,16.355,0.074
53292.456672,16.296,0.069
53292.466277,16.185,0.061
53327.381193,16.178,0.056
53327.394267,16.167,0.066
53327.406763,16.244,0.058
53327.419001,16.334,0.069
53327.431467,16.329,0.071
53347.434832,16.213,0.049
53347.448639,16.177,0.045
53347.462652,16.185,0.048
53347.476391,16.388,0.051
53352.442852,16.384,0.068
53352.457943,16.335,0.068
53352.472675,16.228,0.061
53352.487345,16.244,0.064
53352.502161,16.288,0.071
53353.424827,16.044,0.045
53353.438951,16.138,0.048
53353.453036,16.28,0.054
53353.46725,16.319,0.059
53357.43523,16.139,0.033
53357.448416,16.128,0.035
53357.461821,16.27,0.041
53357.476976,16.277,0.044
53357.492037,16.353,0.046
53383.342383,16.4,0.043
53383.356529,16.302,0.043
53383.369426,16.206,0.037
53383.382511,16.155,0.035
53383.396192,16.188,0.039
53403.295472,16.318,0.036
53403.309034,16.412,0.043
53403.322286,16.417,0.043
53403.336016,16.354,0.064
53403.349413,16.127,0.074
53410.413667,16.416,0.041
53410.426167,16.268,0.037
53410.43856,16.214,0.037
53410.450926,16.173,0.037
53410.463877,16.163,0.041
53438.348647,16.278,0.046
53438.360813,16.143,0.043
53438.372387,16.173,0.046
53438.384,16.31,0.055
53438.395576,16.349,0.063
53445.294367,16.274,0.041
53445.30666,16.384,0.044
53445.318002,16.442,0.048
53445.329235,16.374,0.046
53445.340374,16.309,0.043
53502.141128,16.176,0.054
53502.151911,16.268,0.057
53502.162167,16.245,0.059
53502.172698,16.258,0.061
53502.183531,16.276,0.067
53671.442467,16.336,0.093
53671.454519,16.21,0.067
53671.466553,16.197,0.067
53671.478618,16.405,0.098
53671.490749,16.344,0.087
53674.463156,16.267,0.052
53674.4753,16.368,0.057
53674.487567,16.369,0.055
53674.499703,16.306,0.052
53679.446353,16.345,0.052
53679.458691,16.184,0.043
53679.470828,16.195,0.043
53679.483006,16.198,0.044
53679.495846,16.273,0.048
53704.445482,16.431,0.048
53704.457951,16.338,0.044
53704.470449,16.209,0.041
53704.482959,16.098,0.037
53704.495693,16.127,0.037
53707.417021,16.408,0.048
53707.430681,16.474,0.091
53707.446099,16.356,0.044
53712.392754,16.308,0.052
53712.405592,16.182,0.044
53712.423553,16.166,0.043
53712.437131,16.226,0.044
53712.450844,16.39,0.05
53734.404295,16.402,0.05
53734.417288,16.343,0.046
53734.430147,16.25,0.043
53734.443101,16.159,0.043
53734.456316,16.147,0.041
53738.343431,16.284,0.048
53738.357709,16.184,0.043
53738.371366,16.103,0.043
53738.384419,16.166,0.044
53738.397509,16.265,0.044
53747.353446,16.387,0.137
53747.366281,16.468,0.146
53747.392107,16.38,0.176
53758.337221,16.207,0.035
53758.349757,16.154,0.035
53758.36228,16.262,0.041
53758.374971,16.333,0.044
53758.387514,16.489,0.055
53769.318857,16.37,0.044
53769.332136,16.271,0.037
53769.345666,16.206,0.035
53769.359557,16.147,0.033
53769.373488,16.208,0.035
53771.281064,16.318,0.078
53771.293772,16.334,0.059
53771.307699,16.151,0.05
53771.320452,16.107,0.057
53771.333347,16.178,0.074
53787.433269,16.432,0.07
53787.445298,16.266,0.067
53789.234804,16.15,0.036
53789.247285,16.129,0.041
53789.259747,16.227,0.064
53789.272298,16.264,0.059
53789.284658,16.408,0.068
53789.286281,16.344,0.081
53789.298226,16.348,0.067
53789.310145,16.24,0.068
53789.33425,16.154,0.104
53792.284547,16.373,0.044
53792.296478,16.319,0.043
53792.308387,16.171,0.043
53792.320283,16.153,0.039
53792.332234,16.195,0.046
53802.278086,16.48,0.107
53802.289462,16.343,0.094
53816.351708,16.373,0.067
53816.362767,16.368,0.07
53816.373867,16.267,0.074
53816.38513,16.397,0.096
53821.232101,16.337,0.07
53821.242722,16.242,0.055
53821.259021,16.17,0.046
53821.269747,16.239,0.048
53821.283467,16.334,0.052
53824.234909,16.194,0.046
53824.247381,16.223,0.044
53824.259483,16.197,0.043
53824.270303,16.265,0.046
53824.281772,16.456,0.081
53828.231589,16.313,0.072
53828.241984,16.312,0.128
53828.253042,16.188,0.109
53828.277018,16.103,0.122
53845.14042,16.232,0.055
53845.151104,16.136,0.052
53845.161808,16.163,0.055
53845.172535,16.245,0.059
53845.18325,16.304,0.065
53846.190353,16.208,0.067
53846.200999,16.262,0.07
53846.211678,16.37,0.08
53846.222413,16.418,0.083
53846.233134,16.337,0.081
53851.140774,16.189,0.056
53851.151386,16.206,0.064
53851.161951,16.441,0.092
53851.172413,16.395,0.073
53851.18285,16.453,0.084
53851.189733,16.413,0.07
53851.199762,16.327,0.067
53851.210015,16.213,0.063
53851.220272,16.147,0.057
53851.230146,16.208,0.063
53854.193745,16.21,0.098
53854.218929,16.184,0.063
53854.229822,16.219,0.068
53854.243709,16.275,0.078
54030.426318,16.272,0.074
54030.440844,16.237,0.064
54030.454935,16.219,0.063
54030.470955,16.312,0.063
54030.482889,16.358,0.064
54034.452005,16.176,0.071
54035.433763,16.363,0.069
54035.446027,16.367,0.066
54035.458561,16.297,0.059
54035.470703,16.208,0.053
54035.482384,16.27,0.054
54040.440729,15.99,0.056
54040.453013,16.013,0.056
54040.465387,16.153,0.061
54040.477452,16.241,0.068
54053.42282,16.257,0.081
54053.434606,16.358,0.122
54053.446392,16.386,0.061
54053.458327,16.394,0.061
54053.470132,16.404,0.067
54056.424188,16.333,0.044
54056.436448,16.375,0.046
54056.448703,16.365,0.044
54056.461046,16.329,0.043
54056.473388,16.249,0.039
54058.382857,16.298,0.059
54058.395216,16.492,0.066
54058.407668,16.324,0.059
54058.4217,16.367,0.058
54058.434778,16.179,0.048
54059.430245,16.36,0.046
54059.442675,16.317,0.043
54059.455055,16.24,0.041
54059.467374,16.211,0.039
54059.480814,16.232,0.039
54064.380352,16.458,0.066
54064.385974,16.38,0.046
54064.392903,16.309,0.058
54064.398887,16.242,0.039
54064.405566,16.274,0.053
54064.411795,16.147,0.033
54064.418299,16.247,0.048
54064.424703,16.136,0.033
54064.431248,16.239,0.049
54064.437612,16.267,0.037
54067.392245,16.199,0.03
54067.405209,16.156,0.028
54067.41818,16.211,0.03
54067.431281,16.29,0.03
54082.369185,16.371,0.096
54082.38169,16.518,0.116
54082.389331,16.393,0.054
54082.394057,16.538,0.112
54082.40222,16.289,0.048
54082.406508,16.601,0.114
54082.415123,16.212,0.043
54082.418974,16.323,0.081
54082.428344,16.203,0.039
54082.441237,16.183,0.039
54085.399785,16.301,0.037
54085.412918,16.214,0.048
54085.426681,16.193,0.037
54085.440319,16.289,0.05
54085.453804,16.347,0.043
54112.397531,16.19,0.054
54112.41009,16.18,0.056
54112.422638,16.21,0.059
54114.365183,16.238,0.059
54144.269924,16.371,0.058
54144.28211,16.377,0.056
54144.294142,16.28,0.051
54144.306138,16.17,0.048
54144.318058,16.108,0.048
54153.224975,16.497,0.056
54153.236661,16.44,0.053
54153.248513,16.428,0.051
54153.260586,16.222,0.041
54153.270914,16.163,0.028
54153.272512,16.174,0.04
54153.282413,16.145,0.028
54174.219572,16.321,0.048
54174.251207,16.368,0.041
54174.261794,16.276,0.039
54175.158203,16.317,0.041
54175.158498,16.319,0.048
54175.168728,16.389,0.041
54175.169295,16.332,0.048
54175.179278,16.332,0.039
54175.180115,16.35,0.048
54175.189851,16.328,0.039
54175.190926,16.271,0.046
54175.200405,16.237,0.037
54175.201936,16.191,0.041
54177.230012,16.416,0.046
54177.241608,16.313,0.041
54177.276592,16.179,0.124
54180.245947,16.245,0.041
54180.256847,16.221,0.039
54180.267333,16.142,0.035
54180.277763,16.275,0.041
54201.190545,16.306,0.076
54201.200067,16.335,0.081
54201.209289,16.38,0.083
54201.218518,16.473,0.089
54201.227826,16.406,0.087
54205.179927,16.197,0.041
54205.189085,16.194,0.041
54205.19826,16.246,0.043
54205.207915,16.314,0.046
54205.217144,16.309,0.048
54208.176478,16.204,0.041
54208.185381,16.207,0.041
54208.194311,16.268,0.043
54208.203325,16.353,0.046
54208.212514,16.334,0.048
54212.184919,16.175,0.05
54212.193781,16.153,0.052
54212.202909,16.171,0.054
54212.2118,16.277,0.059
54212.220705,16.383,0.068
54394.431556,16.458,0.055
54394.443109,16.476,0.054
54394.454671,16.41,0.05
54394.466224,16.251,0.041
54394.478003,16.184,0.039
54416.434464,16.159,0.031
54416.447228,16.264,0.033
54416.459553,16.369,0.037
54416.471862,16.386,0.037
54416.484206,16.343,0.037
54438.442673,16.15,0.024
54438.455953,16.15,0.024
54438.469287,16.226,0.026
54438.48272,16.348,0.03
54438.495982,16.374,0.031
54480.454524,16.222,0.066
54480.46683,16.212,0.069
54480.479119,16.457,0.094
54480.491736,16.539,0.106
54480.504056,16.5,0.107
54481.209502,16.181,0.043
54481.222924,16.268,0.044
54481.236311,16.425,0.05
54481.249308,16.447,0.05
54481.26225,16.36,0.044
54498.2793,16.19,0.026
54498.304112,16.321,0.031
54498.316484,16.392,0.033
54498.329006,16.387,0.031
54506.27213,16.367,0.031
54506.28444,16.247,0.028
54506.296623,16.195,0.026
54506.309079,16.173,0.026
54506.321312,16.256,0.03
54522.329614,16.415,0.044
54522.341437,16.273,0.039
54522.353425,16.178,0.037
54522.365477,16.149,0.037
54522.377247,16.278,0.043
54527.283219,16.318,0.055
54527.306016,16.158,0.028
54527.317426,16.155,0.026
54535.221503,16.272,0.028
54535.232681,16.199,0.026
54535.24385,16.209,0.026
54535.255394,16.26,0.026
54535.266557,16.294,0.028
54553.24176,16.222,0.028
54553.253685,16.137,0.026
54553.265619,16.168,0.028
54553.277494,16.195,0.039
54553.289349,16.29,0.041
54561.190154,16.235,0.052
54561.201592,16.192,0.031
54561.213047,16.224,0.033
54561.224543,16.357,0.028
54561.236166,16.361,0.035
54581.143199,16.356,0.048
54581.153979,16.261,0.043
54581.164642,16.191,0.041
54581.175337,16.159,0.039
54581.186172,16.256,0.043
54584.192639,16.334,0.046
54584.20352,16.423,0.05
54584.214408,16.407,0.05
54584.225307,16.344,0.05
54584.236201,16.229,0.046
54591.146967,16.22,0.041
54591.157582,16.207,0.041
54591.167972,16.177,0.041
54591.178332,16.202,0.043
54591.188549,16.269,0.046
54592.139336,16.578,0.092
54592.149229,16.524,0.089
54592.159028,16.469,0.086
54592.168814,16.366,0.079
54592.178342,16.298,0.078
