mjd,m,merr
52610.396323,16.268,0.069
52610.410827,16.249,0.049
52610.425356,16.333,0.069
52610.439882,16.221,0.12
52614.440549,16.769,0.122
52614.455944,16.79,0.118
52614.471376,16.823,0.115
52614.486739,16.863,0.085
52614.501948,16.768,0.074
52619.385237,16.768,0.072
52619.400485,16.827,0.078
52619.415713,16.742,0.074
52619.431157,16.768,0.07
52619.446466,16.766,0.076
52621.433979,16.451,0.054
52621.448627,16.333,0.048
52621.463212,16.203,0.044
52621.478006,16.128,0.041
52621.492594,16.089,0.041
52639.305687,16.95,0.076
52639.320426,16.962,0.076
52639.335179,16.95,0.076
52639.349881,16.892,0.072
52639.364595,16.898,0.072
52644.376005,16.104,0.033
52644.399354,16.108,0.031
52644.4349,16.217,0.037
52644.449925,16.217,0.037
52644.46484,16.262,0.039
52648.25569,16.414,0.052
52648.270423,16.553,0.057
52648.28507,16.565,0.057
52648.300314,16.531,0.055
52648.315016,16.555,0.059
52671.314347,16.68,0.059
52671.329467,16.684,0.061
52671.344626,16.741,0.063
52671.359847,16.808,0.068
52671.375153,16.796,0.068
52674.25337,16.421,0.05
52674.268708,16.468,0.052
52674.283946,16.465,0.057
52674.299422,16.592,0.059
52674.314893,16.55,0.054
52677.246903,16.183,0.044
52677.261364,16.246,0.043
52677.275848,16.249,0.043
52677.290245,16.323,0.044
52677.304744,16.359,0.046
52704.238761,16.747,0.057
52704.252076,16.776,0.059
52704.265408,16.767,0.061
52704.278734,16.809,0.065
52704.29205,16.837,0.068
52706.165511,16.898,0.081
52706.178849,16.943,0.08
52706.192207,16.832,0.07
52706.205396,16.949,0.076
52706.218676,16.862,0.068
52706.237355,16.809,0.065
52706.25061,16.58,0.052
52706.263844,16.382,0.044
52706.276774,16.304,0.041
52706.289987,16.163,0.037
52724.182527,16.883,0.072
52724.19417,16.882,0.072
52724.205822,16.717,0.063
52724.217482,16.39,0.046
52724.229341,16.299,0.043
52728.172158,16.527,0.052
52728.184555,16.543,0.054
52728.19645,16.579,0.055
52728.208313,16.629,0.057
52728.220249,16.583,0.057
52731.178782,16.37,0.096
52731.190882,16.332,0.165
52731.227077,16.589,0.303
52753.133873,16.792,0.072
52753.145756,16.705,0.067
52753.157649,16.746,0.07
52753.169537,16.734,0.072
52753.181436,16.847,0.081
52760.141902,16.301,0.046
52760.153713,16.137,0.041
52760.165499,16.041,0.037
52760.177379,16.127,0.041
52760.189224,16.081,0.039
52937.448978,16.508,0.054
52937.46181,16.39,0.048
52937.473882,16.471,0.046
52937.498934,16.55,0.061
52945.433282,16.485,0.067
52945.445252,16.468,0.063
52945.457248,16.463,0.061
52945.469197,16.491,0.061
52945.481113,16.495,0.063
52963.457014,16.501,0.043
52963.469963,16.517,0.044
52963.482403,16.556,0.048
52963.494894,16.592,0.05
52963.507515,16.566,0.05
52967.379602,16.729,0.068
52967.392131,16.782,0.07
52967.404584,16.793,0.07
52967.417094,16.68,0.063
52967.429598,16.762,0.067
52974.39516,16.059,0.033
52974.406813,16.117,0.033
52974.420842,16.128,0.033
52974.434653,16.141,0.035
52974.446356,16.214,0.038
52976.453367,16.497,0.046
52976.4667,16.528,0.05
52976.480089,16.571,0.052
52976.493507,16.569,0.05
52976.506532,16.635,0.054
52977.447391,16.416,0.046
52977.459801,16.316,0.044
52977.471935,16.19,0.041
52977.484369,16.089,0.037
52977.496771,16.127,0.039
52992.338159,16.081,0.031
52992.351391,16.073,0.033
52992.364741,16.066,0.035
52992.377983,16.113,0.041
52992.391269,16.21,0.043
52995.342506,16.855,0.048
52995.368733,16.831,0.048
52995.38178,16.792,0.046
52995.3823,16.815,0.046
52995.39479,16.51,0.035
52995.394802,16.569,0.036
52995.4075,16.328,0.03
52995.419873,16.27,0.028
52995.432329,16.073,0.023
53000.349977,16.483,0.035
53000.364236,16.328,0.031
53000.377945,16.159,0.028
53000.391085,16.042,0.024
53000.404249,16.022,0.024
53026.29429,16.835,0.043
53026.30718,16.833,0.043
53026.320189,16.875,0.046
53026.332947,16.755,0.041
53026.345974,16.537,0.033
53029.341543,16.856,0.117
53034.279552,16.726,0.067
53034.292176,16.841,0.074
53034.304847,16.838,0.072
53034.317363,16.795,0.068
53034.329737,16.964,0.083
53051.271205,16.39,0.039
53051.282973,16.436,0.041
53051.294612,16.415,0.039
53051.306288,16.45,0.039
53051.317984,16.506,0.043
53058.221231,16.575,0.033
53058.23274,16.561,0.033
53058.244128,16.601,0.035
53058.255521,16.579,0.033
53058.266916,16.577,0.033
53078.261566,16.821,0.087
53078.27282,16.884,0.076
53078.283806,16.879,0.079
53078.294942,16.916,0.079
53078.305829,16.938,0.084
53083.227446,16.839,0.05
53083.238335,16.794,0.046
53083.249171,16.859,0.044
53083.259941,16.858,0.046
53083.270653,16.866,0.048
53086.232111,16.695,0.122
53086.243187,16.735,0.157
53086.254592,16.822,0.141
53086.265887,16.707,0.098
53086.277242,16.737,0.072
53092.226315,16.451,0.057
53092.23666,16.423,0.055
53092.247375,16.535,0.063
53092.257777,16.452,0.059
53092.26807,16.538,0.065
53109.181948,16.792,0.079
53109.192272,16.785,0.079
53109.202713,16.778,0.079
53109.21316,16.72,0.078
53109.223411,16.729,0.079
53114.191083,16.753,0.052
53114.202196,16.777,0.054
53114.213464,16.822,0.057
53114.224527,16.856,0.061
53114.235591,16.857,0.061
53117.192197,16.734,0.052
53117.202929,16.766,0.054
53117.21394,16.755,0.054
53117.224642,16.636,0.05
53117.235489,16.669,0.052
53137.151699,16.874,0.097
53137.161535,16.792,0.091
53137.17156,16.732,0.091
53137.181532,16.642,0.091
53137.19327,16.366,0.073
53142.155681,16.357,0.046
53142.166069,16.237,0.043
53142.176335,16.12,0.041
53142.186756,16.131,0.039
53142.196665,16.162,0.072
53288.433925,16.358,0.086
53288.444777,16.49,0.091
53288.455506,16.417,0.083
53288.466456,16.543,0.089
53288.477211,16.456,0.079
53293.431412,16.585,0.086
53293.442323,16.533,0.079
53293.453218,16.497,0.074
53293.464176,16.62,0.081
53293.475131,16.57,0.076
53297.41869,16.731,0.097
53297.430531,16.704,0.091
53297.443269,16.762,0.089
53297.45715,16.836,0.096
53297.469588,16.858,0.092
53299.443111,16.136,0.059
53299.454782,16.206,0.078
53299.466456,16.185,0.091
53299.478198,16.199,0.107
53299.489876,16.219,0.087
53328.37511,16.708,0.104
53328.399463,16.735,0.091
53328.423826,16.819,0.093
53348.347469,16.165,0.07
53348.359763,16.108,0.065
53348.372067,16.084,0.048
53348.384362,16.114,0.048
53354.322852,16.773,0.072
53354.336197,16.698,0.07
53354.349539,16.758,0.07
53354.368115,16.701,0.065
53354.381524,16.739,0.065
53357.446647,16.752,0.063
53357.461132,16.811,0.068
53357.475669,16.724,0.066
53357.490251,16.879,0.076
53357.504775,16.825,0.074
53377.338113,16.888,0.068
53377.351443,16.859,0.067
53377.364753,16.846,0.068
53377.378092,16.843,0.068
53377.391437,16.722,0.061
53382.365714,16.389,0.048
53382.395191,16.192,0.041
53382.409602,16.079,0.041
53382.424002,16.117,0.044
53386.347416,16.543,0.052
53386.360423,16.569,0.052
53386.37345,16.569,0.052
53386.386961,16.605,0.054
53386.399984,16.545,0.054
53389.348577,16.438,0.063
53389.361773,16.419,0.059
53389.375262,16.451,0.061
53389.389008,16.507,0.063
53389.4048,16.549,0.059
53404.299304,16.593,0.044
53404.316438,16.593,0.046
53404.328963,16.6,0.048
53404.341415,16.591,0.046
53404.354462,16.643,0.052
53415.289293,16.268,0.041
53415.301534,16.252,0.043
53415.314278,16.359,0.05
53415.326513,16.34,0.048
53415.338945,16.35,0.046
53433.231077,16.232,0.037
53433.243018,16.265,0.037
53433.256739,16.275,0.039
53433.268204,16.346,0.041
53433.280644,16.346,0.039
53500.138714,16.312,0.054
53500.149924,16.397,0.057
53500.160021,16.434,0.061
53500.170131,16.395,0.059
53500.180171,16.442,0.065
53656.424266,16.904,0.13
53656.43543,16.906,0.128
53656.446473,16.883,0.124
53656.457526,16.971,0.128
53656.468582,16.811,0.105
53672.457258,16.773,0.091
53672.470507,16.694,0.085
53672.484381,16.786,0.091
53672.498485,16.813,0.089
53675.44335,16.531,0.063
53675.45553,16.497,0.059
53675.467555,16.526,0.061
53675.48,16.515,0.061
53675.492832,16.606,0.065
53681.475115,16.101,0.078
53681.488537,16.143,0.041
53681.502129,16.244,0.044
53703.393426,16.701,0.067
53703.406313,16.613,0.061
53703.420746,16.686,0.067
53703.433906,16.656,0.063
53703.447158,16.672,0.061
53706.404737,16.547,0.052
53706.418609,16.601,0.055
53706.431409,16.634,0.083
53706.457598,16.635,0.067
53709.375934,16.22,0.044
53709.388691,16.239,0.043
53709.401427,16.262,0.044
53709.414097,16.325,0.048
53709.427059,16.356,0.048
53714.388616,16.402,0.05
53714.401576,16.461,0.052
53714.414538,16.399,0.048
53714.427336,16.517,0.052
53714.440089,16.526,0.052
53733.331507,16.778,0.07
53733.344656,16.796,0.072
53733.357483,16.857,0.076
53733.370136,16.856,0.074
53733.382803,16.934,0.081
53740.339322,16.269,0.043
53740.352279,16.332,0.043
53740.365099,16.36,0.044
53740.377868,16.385,0.046
53740.390714,16.395,0.046
53770.222165,16.525,0.055
53770.235235,16.556,0.057
53770.248234,16.636,0.059
53770.261395,16.627,0.057
53770.274427,16.634,0.055
53787.24262,16.904,0.068
53788.349505,16.736,0.065
53788.361685,16.85,0.078
53788.385817,16.754,0.08
53788.39801,16.84,0.087
53794.293227,16.411,0.05
53794.316867,16.471,0.05
53813.249035,17.031,0.122
53813.260124,16.933,0.113
53813.271346,16.988,0.118
53813.282411,16.724,0.1
53813.293899,16.593,0.093
53816.176005,16.768,0.076
53816.186925,16.777,0.078
53816.197911,16.741,0.076
53816.20903,16.635,0.081
53816.220104,16.827,0.126
53817.281421,16.62,0.068
53817.292263,16.716,0.081
53817.303109,16.611,0.076
53817.314164,16.613,0.081
53817.325093,16.668,0.089
53818.224379,16.896,0.093
53818.234928,16.734,0.081
53818.24547,16.562,0.068
53818.256032,16.425,0.061
53818.266636,16.225,0.052
53823.197223,16.503,0.057
53823.209241,16.378,0.052
53823.222445,16.276,0.046
53823.234332,16.146,0.043
53823.246504,16.108,0.041
53825.225032,16.372,0.055
53825.235404,16.474,0.057
53825.245782,16.408,0.054
53825.256166,16.478,0.061
53825.26655,16.499,0.063
53829.175012,16.593,0.098
53829.185801,16.653,0.111
53829.195938,16.693,0.1
53829.206076,16.525,0.1
53829.216251,16.639,0.137
53844.180165,16.884,0.098
53844.190406,16.875,0.096
53844.20068,16.984,0.107
53844.21095,16.925,0.109
53844.221232,16.943,0.111
53848.184562,16.496,0.08
53848.19517,16.536,0.081
53848.205842,16.535,0.081
53848.216511,16.585,0.087
53848.227156,16.601,0.094
53849.191038,16.783,0.083
53849.201829,16.529,0.067
53849.212715,16.391,0.063
53849.223641,16.256,0.057
53849.234754,16.174,0.055
53852.146114,16.749,0.083
53852.156576,16.786,0.089
53852.167097,16.868,0.098
53852.177625,16.69,0.085
53852.188357,16.781,0.096
53853.137078,16.422,0.087
53853.150628,16.546,0.101
53853.161791,16.517,0.099
53853.172643,16.519,0.094
53855.146947,16.695,0.083
53855.157254,16.697,0.085
53855.167512,16.722,0.089
53855.178447,16.72,0.091
53855.188788,16.758,0.094
53858.141609,16.485,0.104
54027.449695,16.823,0.104
54027.461417,16.905,0.117
54027.475536,16.817,0.147
54027.48769,16.905,0.109
54027.499214,16.77,0.097
54029.432662,16.079,0.053
54029.445461,16.129,0.054
54029.458028,16.198,0.058
54029.469883,16.211,0.056
54029.481815,16.248,0.056
54037.434186,16.334,0.054
54037.446996,16.241,0.048
54037.458969,16.136,0.045
54037.471044,16.064,0.041
54042.451194,16.138,0.097
54042.463634,16.209,0.091
54042.476206,16.131,0.079
54042.488679,16.298,0.092
54054.361961,16.547,0.067
54054.373362,16.497,0.063
54054.384736,16.52,0.063
54054.396117,16.573,0.067
54054.407499,16.535,0.065
54055.41214,16.187,0.041
54055.423813,16.113,0.037
54055.43548,16.137,0.039
54055.447148,16.155,0.039
54055.45882,16.198,0.041
54056.380223,16.757,0.087
54056.394235,16.805,0.092
54056.408397,16.663,0.079
54056.421646,16.801,0.086
54056.434207,16.716,0.078
54058.375983,16.795,0.07
54058.388206,16.868,0.074
54058.400466,16.806,0.068
54058.412718,16.932,0.078
54058.424947,16.931,0.076
54061.37674,16.794,0.068
54061.389657,16.758,0.067
54061.4021,16.778,0.065
54061.414539,16.762,0.063
54061.426994,16.757,0.063
54066.385691,16.662,0.106
54066.392515,16.753,0.076
54066.404708,16.734,0.074
54066.411728,16.663,0.137
54066.417348,16.763,0.098
54070.38268,16.318,0.054
54070.395626,16.385,0.057
54070.408855,16.388,0.052
54070.421918,16.451,0.05
54070.43487,16.427,0.048
54084.332191,16.776,0.099
54084.345212,16.777,0.104
54084.358375,16.801,0.101
54084.371539,16.738,0.092
54084.384752,16.936,0.109
54084.393646,16.803,0.076
54084.411659,16.798,0.078
54084.428788,16.839,0.078
54084.445405,16.809,0.1
54084.462064,16.765,0.078
54087.395683,16.71,0.078
54087.408693,16.852,0.152
54087.421704,16.743,0.109
54087.434716,16.707,0.102
54087.447731,16.727,0.061
54098.322763,16.486,0.061
54098.334372,16.481,0.055
54098.346025,16.586,0.061
54098.357787,16.615,0.061
54110.326922,16.799,0.112
54110.339529,16.72,0.101
54110.352107,16.773,0.101
54110.364675,16.725,0.097
54110.377318,16.931,0.119
54121.27187,16.591,0.07
54121.276601,16.642,0.063
54121.284091,16.571,0.055
54121.28912,16.538,0.059
54121.296321,16.661,0.061
54121.30234,16.669,0.064
54121.308565,16.644,0.059
54121.315216,16.586,0.056
54121.320912,16.663,0.059
54121.327806,16.663,0.061
54124.26849,16.391,0.039
54124.280845,16.392,0.039
54124.293111,16.466,0.041
54124.305371,16.435,0.041
54124.317644,16.469,0.043
54149.27355,16.813,0.074
54149.285346,16.751,0.068
54149.297175,16.79,0.069
54149.30895,16.716,0.066
54149.32074,16.861,0.076
54175.217695,16.645,0.052
54175.228225,16.675,0.054
54175.238867,16.67,0.054
54175.249432,16.715,0.055
54175.260074,16.719,0.055
54206.176024,16.729,0.083
54206.185206,16.667,0.078
54206.194426,16.622,0.073
54206.203824,16.701,0.081
54206.213328,16.69,0.083
54207.175593,16.3,0.05
54207.184746,16.275,0.05
54207.193894,16.257,0.048
54207.203379,16.267,0.05
54207.212552,16.338,0.054
54210.176059,16.351,0.054
54210.184965,16.302,0.05
54210.193874,16.168,0.044
54210.202758,16.101,0.043
54210.211638,16.073,0.039
54388.429431,16.835,0.08
54388.440789,16.871,0.08
54388.452101,16.839,0.07
54388.463476,16.806,0.07
54388.474768,16.668,0.059
54410.434121,16.636,0.091
54410.446458,16.639,0.1
54410.45865,16.708,0.113
54410.470854,16.56,0.096
54410.48314,16.633,0.065
54422.41054,16.674,0.046
54422.423195,16.693,0.046
54422.43573,16.709,0.048
54422.448275,16.68,0.044
54422.460832,16.729,0.046
54424.331193,16.868,0.083
54424.343774,16.894,0.08
54424.356359,16.856,0.072
54424.368958,16.93,0.068
54424.381519,16.756,0.05
54440.405939,16.856,0.044
54440.418852,16.841,0.043
54440.431931,16.879,0.046
54440.445006,16.829,0.046
54440.457929,16.81,0.044
54444.383146,16.348,0.041
54444.396179,16.398,0.039
54444.409175,16.422,0.039
54444.435173,16.519,0.085
54454.26446,16.287,0.055
54454.277558,16.337,0.054
54454.290647,16.378,0.052
54454.30373,16.379,0.05
54454.316818,16.403,0.048
54465.461999,16.474,0.043
54465.4749,16.489,0.044
54465.487812,16.535,0.046
54465.500719,16.6,0.05
54465.513635,16.58,0.052
54474.329629,16.734,0.148
54474.355757,16.848,0.109
54474.368728,16.78,0.078
54474.381709,16.727,0.065
54508.23323,16.527,0.031
54508.245387,16.54,0.033
54508.257623,16.541,0.037
54508.270141,16.6,0.052
54508.282426,16.662,0.059
54523.281526,16.626,0.037
54523.293277,16.694,0.043
54523.304857,16.789,0.048
54523.316455,16.748,0.05
54523.328213,16.67,0.048
54537.162662,16.054,0.026
54537.173723,16.112,0.031
54537.18466,16.155,0.048
54537.195586,16.199,0.026
54537.206542,16.216,0.028
54554.238586,16.768,0.05
54554.250491,16.783,0.046
54554.262427,16.827,0.048
54554.274546,16.716,0.046
54554.286458,16.787,0.05
54564.18634,16.682,0.05
54564.197716,16.718,0.05
54564.208994,16.777,0.052
54564.22045,16.833,0.055
54564.23173,16.819,0.057
54574.182098,16.753,0.144
54574.192738,16.851,0.15
54574.203257,16.666,0.13
54574.213877,16.552,0.12
54574.224424,16.386,0.107
54582.1438,16.745,0.07
54582.154322,16.764,0.072
54582.165189,16.752,0.072
54582.175679,16.771,0.076
54582.18618,16.849,0.085
54585.144938,16.606,0.139
54585.155693,16.652,0.13
54592.141684,16.864,0.068
54592.152106,16.863,0.072
54592.162523,16.828,0.074
54592.172959,16.672,0.063
54592.183385,16.461,0.055
