mjd,m,merr
52608.451159,15.861,0.074
52608.466052,15.918,0.057
52608.481006,15.865,0.063
52608.495859,15.871,0.07
52622.459114,15.611,0.03
52622.4749,15.588,0.03
52622.490433,15.532,0.028
52622.506008,15.545,0.03
52622.52159,15.554,0.03
52640.380135,15.594,0.025
52640.395202,15.622,0.026
52640.410216,15.589,0.025
52640.425646,15.551,0.025
52640.441324,15.596,0.026
52644.387645,15.59,0.026
52644.402625,15.617,0.026
52644.417581,15.589,0.025
52644.432544,15.583,0.025
52644.447861,15.57,0.028
52648.324581,15.821,0.038
52648.339828,15.783,0.036
52648.355121,15.619,0.086
52648.370604,15.599,0.031
52648.38573,15.614,0.031
52667.314913,15.806,0.031
52667.329601,15.797,0.031
52667.344275,15.736,0.03
52667.358952,15.677,0.028
52667.373676,15.611,0.026
52671.358166,15.714,0.031
52671.373361,15.673,0.031
52671.388885,15.634,0.031
52671.403798,15.603,0.031
52671.418787,15.588,0.031
52674.277317,15.691,0.033
52674.292109,15.671,0.033
52674.307289,15.646,0.031
52674.322374,15.621,0.033
52674.339431,15.599,0.03
52700.287542,15.583,0.028
52700.30314,15.571,0.028
52700.318284,15.565,0.028
52700.334083,15.614,0.031
52700.349275,15.633,0.033
52707.240631,15.594,0.024
52707.253925,15.56,0.022
52707.267181,15.596,0.024
52707.280433,15.618,0.024
52707.293731,15.671,0.026
52708.17032,15.901,0.037
52708.183353,15.928,0.039
52708.196753,15.895,0.037
52708.209631,15.842,0.035
52708.222658,15.836,0.033
52728.176346,15.797,0.035
52728.188474,15.838,0.036
52728.188718,15.612,0.041
52728.200905,15.821,0.035
52728.212978,15.856,0.038
52728.225036,15.869,0.038
52731.183851,15.947,0.054
52738.178125,15.804,0.044
52738.189539,15.709,0.043
52738.20107,15.682,0.041
52738.212491,15.69,0.043
52738.223957,15.624,0.041
52755.141782,15.59,0.026
52755.153809,15.599,0.028
52755.165952,15.655,0.03
52755.17804,15.714,0.031
52755.190101,15.692,0.031
52973.375993,15.824,0.033
52973.387111,15.817,0.035
52973.398168,15.847,0.033
52973.409259,15.892,0.036
52973.420466,15.862,0.035
53033.275395,15.816,0.031
53033.287645,15.821,0.031
53033.29972,15.802,0.031
53033.311918,15.87,0.031
53053.282821,15.58,0.035
53053.296504,15.596,0.026
53053.309146,15.664,0.035
53053.335049,15.689,0.024
53110.138492,15.637,0.03
53110.149353,15.608,0.03
53110.171062,15.539,0.028
53110.181926,15.55,0.03
53296.437528,15.628,0.04
53296.449295,15.668,0.04
53296.46064,15.664,0.04
53296.471925,15.747,0.038
53296.484031,15.744,0.038
53315.444779,15.667,0.073
53315.45692,15.66,0.049
53315.468984,15.733,0.048
53316.456813,15.541,0.054
53327.381718,15.554,0.033
53327.394791,15.565,0.04
53327.407287,15.578,0.031
53327.419526,15.652,0.049
53327.431991,15.598,0.036
53346.379335,15.585,0.028
53346.391611,15.535,0.028
53346.403995,15.581,0.03
53346.416729,15.578,0.028
53346.428948,15.601,0.028
53347.435345,15.584,0.028
53347.44917,15.55,0.026
53347.463164,15.554,0.026
53347.476921,15.518,0.025
53351.417868,15.649,0.031
53351.432171,15.635,0.033
53351.44661,15.581,0.031
53351.461531,15.584,0.031
53351.476105,15.527,0.033
53352.442371,15.88,0.043
53352.457345,15.95,0.049
53352.472177,15.793,0.04
53352.486846,15.835,0.045
53352.501682,15.727,0.043
53353.411313,15.756,0.033
53353.425373,15.759,0.033
53353.439497,15.821,0.038
53353.453601,15.811,0.036
53353.467798,15.825,0.038
53466.219583,15.802,0.035
53466.229001,15.828,0.037
53466.238352,15.803,0.037
53466.247714,15.885,0.043
53466.257127,15.948,0.043
53468.22077,15.707,0.055
53710.442906,15.931,0.041
53710.455459,15.908,0.043
53710.468817,15.923,0.044
53710.481497,15.881,0.043
53710.494072,15.796,0.039
53746.337516,15.464,0.039
53746.351341,15.474,0.039
53746.363859,15.485,0.039
53746.376504,15.537,0.039
53746.389125,15.55,0.041
53790.234675,15.767,0.03
53790.246515,15.77,0.03
53790.258414,15.79,0.031
53790.270203,15.89,0.033
53790.281899,15.863,0.033
53818.180745,15.609,0.026
53818.191823,15.612,0.026
53818.203126,15.581,0.026
53818.214276,15.571,0.026
53818.225344,15.574,0.026
53845.135654,15.826,0.036
53845.146962,15.801,0.038
53845.158278,15.677,0.035
53845.169629,15.655,0.033
53845.180994,15.639,0.036
53850.142067,15.857,0.079
53850.152371,15.851,0.068
53850.16272,15.881,0.048
53850.173027,15.977,0.058
53850.183466,15.84,0.049
54039.446498,15.604,0.04
54039.458436,15.661,0.041
54039.47034,15.613,0.038
54039.482285,15.659,0.04
54039.494445,15.697,0.04
54059.386664,15.717,0.038
54059.400404,15.637,0.035
54059.413168,15.614,0.031
54059.426264,15.562,0.03
54059.438829,15.563,0.028
54091.296743,15.681,0.036
54091.308627,15.715,0.036
54091.320798,15.698,0.036
54091.332698,15.762,0.036
54091.344582,15.796,0.038
54152.227914,15.607,0.022
54152.240322,15.628,0.022
54152.252643,15.651,0.022
54152.265154,15.722,0.024
54152.27766,15.753,0.024
54173.211927,15.857,0.031
54173.222617,15.807,0.03
54173.233498,15.759,0.028
54173.244248,15.716,0.028
54173.255178,15.673,0.026
54185.187522,15.915,0.087
54185.197878,16.096,0.102
54185.208026,15.985,0.089
54185.218598,15.968,0.087
54200.169984,15.948,0.049
54200.179429,15.956,0.053
54200.189177,15.935,0.046
54200.198898,15.952,0.048
54200.20839,15.883,0.046
54415.451397,15.826,0.022
54415.46381,15.819,0.022
54415.476212,15.798,0.022
54448.382773,15.896,0.04
54448.396203,15.826,0.043
54448.408858,15.713,0.036
54448.42138,15.656,0.033
54448.433853,15.603,0.03
54478.442346,15.568,0.132
54480.269796,15.508,0.017
54480.282794,15.521,0.017
54480.295794,15.554,0.017
54480.308781,15.573,0.017
54480.321775,15.608,0.018
54497.281066,15.742,0.017
54497.29376,15.677,0.018
54497.306559,15.637,0.017
54497.319073,15.632,0.024
54497.331573,15.602,0.037
54505.282692,15.837,0.02
54505.295068,15.791,0.018
54505.307377,15.747,0.018
54505.319699,15.67,0.018
54505.332434,15.621,0.017
54507.336946,15.746,0.033
54507.349049,15.761,0.035
54507.361061,15.775,0.033
54507.372907,15.831,0.035
54507.384785,15.847,0.036
54521.340284,15.841,0.057
54521.352582,15.848,0.065
54521.375971,15.661,0.031
54521.387687,15.634,0.041
54526.278191,15.581,0.017
54526.289695,15.575,0.018
54526.301217,15.619,0.018
54526.312727,15.673,0.02
54526.324398,15.671,0.02
54534.293143,15.518,0.015
54534.304095,15.55,0.015
54534.315028,15.569,0.017
54535.283694,15.646,0.028
54535.294751,15.607,0.028
54535.30573,15.594,0.028
54535.316853,15.57,0.028
54535.328074,15.57,0.028
54540.112719,15.541,0.031
54540.123618,15.576,0.031
54540.134498,15.656,0.031
54540.145401,15.559,0.03
54540.156323,15.596,0.03
54552.245064,15.728,0.022
54552.257167,15.816,0.024
54552.269254,15.814,0.024
54552.281264,15.764,0.028
54552.293275,15.816,0.03
54580.141883,15.72,0.048
54580.152125,15.753,0.045
54580.162584,15.738,0.046
54580.180113,15.673,0.045
54580.191579,15.59,0.041
54583.194346,15.606,0.03
54583.204996,15.606,0.033
54590.194634,15.758,0.031
54590.20496,15.742,0.041
54590.215288,15.791,0.037
54590.225651,15.764,0.037
54590.236002,15.883,0.043
54591.142363,15.582,0.048
54591.152126,15.537,0.048
54591.161699,15.555,0.049
54591.17163,15.64,0.054
54591.181208,15.516,0.049
