mjd,m,merr
52610.440505,16.675,0.198
52613.377641,16.717,0.068
52613.392969,16.434,0.05
52613.423875,16.227,0.039
52618.398281,16.289,0.109
52618.414057,16.134,0.041
52618.429623,16.035,0.043
52618.444998,16.088,0.048
52643.386516,16.876,0.08
52643.400668,16.713,0.07
52643.414959,16.513,0.059
52643.429088,16.156,0.043
52647.386764,16.248,0.043
52647.401851,16.216,0.044
52647.416172,16.363,0.05
52647.430683,16.478,0.057
52647.44501,16.439,0.055
52666.310977,16.138,0.057
52666.326344,16.255,0.063
52666.341687,16.254,0.065
52666.357161,16.346,0.068
52666.372683,16.426,0.078
52670.357046,16.569,0.065
52670.371066,16.549,0.067
52670.385074,16.605,0.07
52673.243782,16.887,0.081
52673.274862,16.775,0.072
52673.290423,16.801,0.07
52678.306458,16.743,0.093
52678.320476,16.79,0.122
52678.334475,16.766,0.072
52678.348537,16.753,0.074
52678.362661,16.852,0.081
52697.269234,16.841,0.081
52703.244121,16.723,0.059
52703.271493,16.819,0.142
52703.284999,16.815,0.072
52706.238679,16.456,0.044
52706.251939,16.294,0.039
52724.180549,16.365,0.054
52724.19316,16.403,0.054
52730.179181,16.253,0.037
52733.189878,16.652,0.061
52733.202002,16.597,0.059
52733.238569,16.601,0.061
52753.140275,16.492,0.063
52753.165209,16.565,0.069
52753.190182,16.54,0.074
52758.144954,16.513,0.052
52758.156954,16.576,0.055
52758.168982,16.548,0.054
52758.181068,16.608,0.059
52933.473781,16.989,0.14
52933.486361,17.022,0.135
52933.499201,16.814,0.111
52936.463369,15.95,0.03
52936.475459,15.918,0.03
52936.487307,16.041,0.03
52941.39827,16.754,0.067
52941.411091,16.632,0.055
52941.43598,16.147,0.033
52941.448502,16.038,0.03
52945.434094,16.348,0.059
52945.446064,16.415,0.059
52945.45806,16.458,0.061
52945.47001,16.454,0.059
52945.481927,16.569,0.067
52964.455093,16.607,0.046
52964.467913,16.622,0.046
52964.481221,16.635,0.046
52964.494293,16.666,0.046
52966.402426,16.869,0.072
52966.415161,16.671,0.059
52966.453366,16.366,0.043
52974.395895,16.606,0.053
52974.407545,16.596,0.051
52974.422964,16.626,0.053
52974.435389,16.635,0.054
52974.447589,16.666,0.058
52992.412724,16.893,0.068
52992.425833,16.879,0.063
52992.438523,16.879,0.058
52992.451235,16.868,0.058
52992.463915,16.89,0.059
53029.342763,16.216,0.061
53029.367981,16.182,0.093
53034.275504,16.18,0.046
53034.288069,16.022,0.038
53034.300806,15.991,0.036
53034.31341,16.012,0.038
53034.326092,16.001,0.038
53078.262199,16.142,0.048
53078.273455,16.24,0.043
53078.28444,16.252,0.045
53078.295575,16.319,0.048
53078.30649,16.375,0.051
53086.233128,16.629,0.105
53086.244204,16.665,0.178
53086.255609,16.568,0.104
53086.266905,16.632,0.091
53086.278259,16.628,0.08
53092.227314,16.293,0.048
53092.237659,16.323,0.048
53092.248373,16.334,0.052
53092.258775,16.454,0.057
53092.269067,16.397,0.054
53109.182982,16.975,0.094
53109.193301,16.909,0.091
53109.203739,16.77,0.081
53109.214196,16.907,0.092
53109.224446,16.88,0.089
53114.225394,16.751,0.054
53117.19304,16.154,0.03
53117.203773,16.15,0.031
53117.225486,16.31,0.037
53117.236462,16.34,0.039
53137.152207,15.992,0.045
53137.162043,15.939,0.045
53137.172068,15.942,0.046
53137.182179,16.033,0.056
53137.193779,16.092,0.059
53142.166825,16.155,0.039
53142.177091,16.21,0.043
53142.197421,16.196,0.044
53146.160693,16.334,0.05
53146.169889,16.367,0.05
53146.179067,16.482,0.05
53146.197534,16.396,0.05
53292.405392,16.554,0.105
53292.414953,16.553,0.102
53292.424515,16.517,0.091
53292.434084,16.611,0.096
53292.443654,16.534,0.087
53297.411677,16.514,0.094
53297.419336,16.45,0.081
53297.421424,16.517,0.093
53297.431173,16.487,0.087
53297.431177,16.522,0.081
53297.440918,16.533,0.087
53297.444259,16.661,0.086
53297.450656,16.548,0.083
53297.457794,16.639,0.081
53297.470234,16.622,0.078
53316.441646,16.857,0.163
53316.465848,16.742,0.131
53327.373354,16.206,0.067
53327.385751,16.333,0.061
53327.410545,16.317,0.057
53327.422975,16.408,0.063
53347.464311,16.491,0.052
53347.514343,16.644,0.055
53353.389987,16.398,0.048
53353.415868,15.994,0.035
53353.441798,15.986,0.037
53357.447279,16.485,0.049
53357.461768,16.535,0.056
53357.476324,16.498,0.054
53357.490868,16.601,0.061
53376.465454,16.643,0.055
53381.380017,16.407,0.107
53381.408008,16.542,0.068
53385.382108,16.675,0.063
53385.408575,16.715,0.068
53387.413345,16.241,0.044
53387.426697,16.289,0.046
53387.439975,16.301,0.048
53387.453873,16.358,0.05
53387.467196,16.436,0.055
53410.284106,16.456,0.098
53410.296731,16.572,0.07
53432.280109,16.845,0.124
53432.307098,16.719,0.218
53432.33438,16.405,0.126
53464.236655,16.513,0.055
53464.24707,16.573,0.057
53464.257499,16.59,0.057
53464.278928,16.641,0.065
53495.150149,16.593,0.07
53495.160281,16.462,0.065
53495.180628,16.194,0.054
53495.190749,16.236,0.074
53501.140412,16.714,0.087
53501.151762,16.821,0.096
53501.161985,16.715,0.091
53501.173515,16.753,0.098
53501.18421,16.79,0.102
53672.458154,16.76,0.094
53672.471403,16.691,0.087
53672.485382,16.737,0.089
53672.499393,16.597,0.076
53675.444248,16.377,0.054
53675.456431,16.367,0.054
53675.468453,16.432,0.055
53680.449411,16.359,0.05
53680.461904,16.332,0.048
53680.486577,16.452,0.052
53705.461702,16.383,0.048
53705.499711,16.482,0.048
53708.42046,16.69,0.057
53713.401802,16.714,0.117
53713.414591,16.73,0.102
53713.427614,16.553,0.094
53713.440893,16.762,0.098
53713.453832,16.825,0.1
53732.351776,16.622,0.081
53732.364578,16.674,0.067
53732.396989,16.706,0.089
53732.409969,16.653,0.083
53735.400826,16.217,0.07
53735.414069,16.226,0.046
53735.452961,16.348,0.107
53739.363012,16.304,0.065
53739.376242,16.454,0.207
53759.36783,16.355,0.048
53762.397749,16.713,0.059
53770.263384,16.778,0.065
53770.276415,16.766,0.061
53771.281361,16.726,0.144
53771.294068,16.648,0.068
53771.307995,16.664,0.085
53771.32084,16.648,0.12
53771.333642,16.637,0.102
53772.283047,16.584,0.067
53772.29579,16.569,0.067
53772.308588,16.546,0.065
53788.235824,16.261,0.058
53788.248672,16.267,0.051
53788.26146,16.353,0.101
53788.274549,16.394,0.061
53788.287397,16.358,0.059
53788.399637,16.512,0.055
53788.411529,16.552,0.059
53788.447745,16.452,0.141
53793.29707,16.234,0.098
53793.309008,16.33,0.231
53799.276538,16.34,0.041
53813.256389,16.257,0.054
53813.280409,16.292,0.059
53813.29178,16.371,0.066
53813.303229,16.524,0.079
53844.183614,16.754,0.084
53844.195055,16.811,0.091
53844.206172,16.845,0.094
53844.217374,16.9,0.101
53844.228663,16.724,0.094
53848.185814,16.535,0.081
53848.196428,16.371,0.074
53848.207096,16.097,0.054
53848.217768,16.054,0.054
53848.228418,15.971,0.054
53850.215992,16.628,0.074
53850.226618,16.651,0.08
53850.237294,16.667,0.183
53850.248188,16.715,0.087
53852.145447,16.238,0.058
53852.155594,16.373,0.068
53852.165794,16.357,0.068
53852.176228,16.32,0.068
53852.186369,16.299,0.069
53853.186317,16.446,0.072
53853.229171,16.17,0.061
54031.433784,16.693,0.089
54031.445966,16.751,0.087
54031.458291,16.735,0.083
54031.470157,16.769,0.084
54036.431279,16.737,0.097
54036.444657,16.679,0.086
54036.457783,16.712,0.084
54036.470053,16.701,0.079
54036.481917,16.631,0.074
54041.42879,16.853,0.117
54041.442204,16.863,0.111
54041.454844,16.69,0.092
54041.467364,16.792,0.099
54041.479613,16.922,0.107
54057.385953,16.343,0.066
54057.398656,16.421,0.066
54057.411367,16.472,0.068
54057.437046,16.517,0.066
54057.475888,16.611,0.052
54060.38797,16.761,0.068
54060.412853,16.886,0.072
54083.390252,16.047,0.051
54083.403369,16.027,0.066
54083.416186,15.984,0.053
54083.442007,16.129,0.066
54083.454326,16.087,0.113
54086.372919,16.528,0.059
54086.385851,16.581,0.063
54086.398788,16.589,0.059
54086.411729,16.681,0.065
54113.325538,16.916,0.129
54115.372358,16.647,0.074
54123.293135,16.725,0.076
54123.305675,16.863,0.081
54123.318293,16.85,0.086
54144.33772,16.748,0.048
54148.278609,16.733,0.069
54148.302509,16.772,0.071
54148.314219,16.861,0.079
54154.224046,16.63,0.068
54154.235897,16.669,0.071
54154.24834,16.637,0.068
54154.260233,16.741,0.073
54154.271889,16.737,0.073
54169.219606,16.576,0.059
54169.241621,16.613,0.061
54169.252599,16.595,0.068
54169.263607,16.623,0.066
54177.159502,16.83,0.069
54205.176441,16.151,0.051
54205.195165,16.182,0.053
54205.204615,16.178,0.054
54205.21396,16.298,0.061
54209.191735,16.495,0.12
54209.200741,16.466,0.085
54209.209742,16.477,0.072
54393.429641,16.696,0.094
54393.441325,16.705,0.091
54393.453518,16.804,0.099
54393.467564,16.771,0.096
54393.47924,16.854,0.102
54410.43523,16.396,0.072
54410.447568,16.45,0.091
54410.471966,16.644,0.174
54419.460367,16.72,0.041
54419.49859,16.82,0.046
54444.384169,16.602,0.093
54444.397201,16.584,0.048
54444.410195,16.638,0.052
54444.436194,16.798,0.124
54448.383477,16.77,0.05
54448.396523,16.821,0.055
54448.435705,16.769,0.039
54464.47079,16.707,0.059
54464.483857,16.704,0.059
54474.330849,16.437,0.131
54474.356975,16.332,0.089
54474.369947,16.538,0.067
54474.382926,16.505,0.098
54508.271698,16.434,0.044
54530.273463,16.781,0.107
54530.284775,16.9,0.063
54537.186175,16.47,0.048
54563.200593,16.213,0.028
54563.223748,16.252,0.03
54581.143709,16.553,0.104
54581.153485,16.644,0.111
54581.163405,16.611,0.111
54581.173078,16.537,0.102
54581.182767,16.696,0.117
54585.189056,16.733,0.228
54585.23034,16.747,0.152
54592.142681,16.118,0.035
54592.153103,16.214,0.041
54592.16352,16.234,0.043
54592.173956,16.254,0.043
54592.184382,16.307,0.046
54594.156969,17.103,0.211
