mjd,m,merr
52622.36494,15.563,0.03
52622.379377,15.557,0.03
52622.394115,15.559,0.028
52622.40859,15.573,0.028
52622.423485,15.544,0.026
52638.370212,17.457,0.132
52638.385225,16.66,0.063
52638.400252,16.249,0.045
52643.331514,15.584,0.026
52643.347771,15.582,0.025
52643.364154,15.558,0.023
52643.380366,15.556,0.025
52643.396545,15.543,0.026
52644.375102,15.514,0.02
52644.39764,15.561,0.022
52644.434026,15.583,0.02
52644.449055,15.567,0.02
52644.463969,15.545,0.02
52649.375061,15.531,0.022
52649.391013,15.565,0.024
52649.407262,15.543,0.022
52649.425463,15.533,0.024
52649.441889,15.514,0.024
52675.252243,15.538,0.059
52696.270007,15.521,0.02
52696.283619,15.552,0.02
52696.296154,15.582,0.02
52696.309235,15.553,0.022
52696.322538,15.554,0.022
52701.240345,15.522,0.025
52701.24046,15.43,0.026
52701.253498,15.537,0.025
52701.253615,15.441,0.026
52701.266558,15.543,0.025
52701.266673,15.399,0.026
52701.279678,15.6,0.058
52701.279793,15.51,0.049
52701.292749,15.705,0.071
52701.292865,15.447,0.04
52723.174305,15.509,0.022
52723.185842,15.497,0.02
52723.197861,15.484,0.02
52723.20987,15.51,0.033
52723.221431,15.455,0.024
52729.173801,15.571,0.026
52729.185815,15.543,0.026
52729.197984,15.586,0.026
52729.210022,15.535,0.026
52729.222098,15.535,0.026
52732.18493,15.519,0.04
52732.185414,15.507,0.064
52732.196814,15.543,0.031
52732.208787,15.551,0.026
52732.221165,15.576,0.035
52732.233264,15.582,0.033
52752.137567,15.546,0.026
52752.147849,15.541,0.026
52752.158107,15.522,0.026
52752.168359,15.52,0.026
52752.178615,15.525,0.026
52761.142438,15.511,0.024
52761.15421,15.504,0.024
52761.165987,15.558,0.026
52761.177751,15.66,0.044
52761.189582,15.567,0.055
52934.428432,15.493,0.037
52934.440053,15.474,0.033
52934.451537,15.468,0.031
52934.463003,15.428,0.03
52934.474383,15.438,0.028
52946.433893,15.501,0.028
52946.445761,15.495,0.031
52946.457717,15.614,0.059
52946.469503,15.476,0.08
52962.388937,15.422,0.02
52962.401839,15.422,0.02
52962.41464,15.44,0.02
52962.427294,15.453,0.02
52962.440438,15.49,0.02
52977.391534,15.493,0.028
52977.403486,15.499,0.026
52977.415636,15.528,0.024
52977.427572,15.511,0.022
52977.439621,15.515,0.022
52991.414388,15.505,0.018
52991.428609,15.524,0.02
52991.443479,15.562,0.02
52991.45703,15.55,0.021
52991.470947,15.561,0.018
53000.369053,15.508,0.013
53000.381929,15.523,0.013
53000.394848,15.491,0.013
53000.408117,15.494,0.013
53000.421205,15.486,0.013
53002.376804,15.321,0.013
53002.406872,15.357,0.013
53002.421263,15.331,0.013
53002.439491,15.416,0.015
53024.314097,15.567,0.015
53024.327119,15.569,0.018
53024.339375,15.584,0.033
53024.351824,15.579,0.023
53035.283144,15.419,0.022
53035.296369,15.453,0.024
53035.30878,15.458,0.024
53035.323544,15.477,0.024
53035.336407,15.497,0.024
53049.224284,15.525,0.018
53049.236101,15.5,0.017
53049.247922,15.462,0.017
53049.25978,15.446,0.017
53049.271604,15.446,0.017
53062.230712,15.518,0.056
53062.257187,15.518,0.051
53062.281597,15.506,0.058
53087.229063,15.527,0.054
53087.239622,15.472,0.015
53087.250331,15.471,0.015
53087.260992,15.472,0.017
53087.271729,15.482,0.017
53107.183208,15.538,0.023
53107.193619,15.538,0.023
53107.20405,15.526,0.023
53107.214551,15.489,0.023
53107.225064,15.521,0.023
53118.144205,15.488,0.016
53118.157285,15.58,0.018
53127.147953,15.476,0.049
53127.157225,15.533,0.054
53127.166495,15.529,0.056
53127.175711,15.509,0.056
53127.185029,15.524,0.058
53136.152269,15.539,0.03
53136.161008,15.52,0.03
53136.169854,15.515,0.031
53136.178649,15.531,0.033
53136.187534,15.511,0.033
53148.155883,15.464,0.023
53148.164805,15.49,0.028
53148.173623,15.518,0.035
53148.182596,15.473,0.031
53148.192085,15.535,0.031
53282.450365,15.499,0.056
53282.462552,15.497,0.053
53282.473848,15.531,0.053
53282.484738,15.592,0.053
53288.421731,15.467,0.037
53288.432557,15.451,0.035
53288.443369,15.426,0.033
53288.454186,15.443,0.031
53288.465002,15.438,0.031
53293.422349,15.449,0.03
53293.433329,15.405,0.028
53293.444311,15.468,0.028
53293.45529,15.418,0.026
53293.466266,15.435,0.026
53328.393477,15.582,0.048
53328.432619,15.544,0.04
53331.448272,15.537,0.03
53331.460692,15.496,0.03
53331.473161,15.462,0.028
53331.485648,15.455,0.028
53331.502223,15.435,0.028
53348.350805,15.515,0.107
53348.36474,15.501,0.041
53348.37901,15.545,0.03
53348.392948,15.526,0.026
53348.406823,15.547,0.026
53354.360041,15.549,0.023
53354.374793,15.536,0.023
53354.389174,15.525,0.023
53354.403426,15.482,0.023
53354.41793,15.496,0.021
53384.321097,15.53,0.072
53384.335303,15.623,0.078
53404.303602,15.504,0.016
53404.316455,15.507,0.016
53404.32925,15.496,0.016
53404.349075,15.507,0.018
53404.362265,15.474,0.018
53474.193807,15.448,0.03
53474.203409,15.435,0.028
53474.21367,15.427,0.03
53474.22335,15.438,0.03
53474.232991,15.445,0.031
53498.148955,15.475,0.028
53498.159064,15.493,0.039
53498.169384,15.541,0.035
53499.155938,15.543,0.028
53499.167136,15.549,0.03
53499.177481,15.589,0.031
53499.187638,15.571,0.031
53499.197916,15.586,0.031
53657.427998,15.504,0.033
53657.43924,15.502,0.03
53657.450477,15.576,0.031
53657.461697,15.567,0.031
53657.472911,15.531,0.03
53683.444111,15.499,0.061
53683.456499,15.385,0.024
53683.46875,15.421,0.028
53683.48106,15.397,0.026
53683.493391,15.409,0.024
53702.373653,15.429,0.022
53702.388828,15.47,0.022
53702.403294,15.497,0.022
53702.416323,15.516,0.022
53702.428994,15.532,0.022
53741.3454,15.535,0.018
53741.358108,15.517,0.018
53741.370974,15.522,0.018
53741.384244,15.488,0.018
53741.397629,15.477,0.018
53771.225531,15.476,0.033
53771.238226,15.467,0.039
53771.25089,15.47,0.037
53771.263556,15.461,0.048
53771.276183,15.478,0.03
53786.23827,15.533,0.02
53786.251493,15.545,0.018
53786.264884,15.56,0.018
53786.278775,15.599,0.02
53786.291913,15.58,0.021
53812.239192,15.543,0.028
53812.25089,15.545,0.03
53812.262403,15.537,0.03
53812.274007,15.603,0.033
53812.285611,15.552,0.031
53843.196813,15.597,0.026
53843.208258,15.551,0.026
53843.219747,15.577,0.026
53843.231547,15.52,0.028
53843.243198,15.538,0.028
53846.131071,15.478,0.031
53846.141822,15.471,0.031
53846.152699,15.495,0.033
53846.163851,15.567,0.037
53846.174816,15.53,0.037
53854.142032,15.518,0.031
53854.152388,15.535,0.033
53854.162769,15.519,0.033
53854.173235,15.534,0.033
53854.18374,15.598,0.036
54028.436935,15.552,0.038
54028.448888,15.558,0.038
54028.460525,15.559,0.038
54028.472353,15.587,0.036
54028.484648,15.587,0.036
54054.398279,15.579,0.03
54054.410865,15.572,0.031
54054.423485,15.587,0.03
54054.436064,15.635,0.03
54054.448513,15.567,0.028
54068.39291,15.469,0.023
54068.405778,15.486,0.025
54068.418847,15.497,0.025
54068.432025,15.477,0.025
54068.445014,15.512,0.023
54085.341808,15.628,0.038
54085.354981,15.626,0.049
54085.368076,15.608,0.03
54085.38098,15.576,0.03
54085.394077,15.52,0.028
54110.34081,15.499,0.03
54110.35765,15.478,0.026
54110.372618,15.453,0.026
54110.387631,15.511,0.03
54110.403721,15.538,0.03
54123.268256,15.465,0.024
54123.280489,15.445,0.022
54123.292684,15.457,0.024
54123.3049,15.402,0.022
54123.317119,15.423,0.024
54156.209536,15.529,0.031
54156.220597,15.572,0.031
54156.231897,15.543,0.031
54156.243045,15.608,0.033
54156.253985,15.609,0.033
54201.185298,15.48,0.026
54201.195389,15.501,0.026
54201.205186,15.502,0.026
54201.214918,15.484,0.024
54201.224886,15.522,0.026
54207.176369,15.498,0.028
54207.185584,15.521,0.031
54207.194879,15.521,0.03
54207.204667,15.494,0.028
54207.214276,15.504,0.03
54216.173262,15.486,0.05
54216.190544,15.452,0.052
54216.19919,15.489,0.054
54216.207803,15.54,0.057
54395.437814,15.582,0.038
54395.451356,15.573,0.036
54395.467388,15.547,0.036
54397.442181,15.398,0.033
54397.453826,15.371,0.03
54397.465477,15.383,0.026
54397.477129,15.399,0.022
54420.440618,15.339,0.015
54420.478341,15.558,0.054
54452.328622,15.474,0.017
54452.341517,15.443,0.017
54452.354378,15.371,0.015
54452.36724,15.348,0.015
54452.38009,15.382,0.015
54470.320997,15.479,0.039
54470.333741,15.515,0.078
54470.346605,15.456,0.026
54470.372216,15.474,0.043
54476.332789,15.382,0.013
54505.27448,15.599,0.017
54505.28685,15.578,0.013
54505.299179,15.573,0.013
54505.311494,15.54,0.013
54505.324229,15.535,0.013
54508.291813,15.628,0.033
54508.303868,15.549,0.028
54508.315767,15.572,0.031
54508.327862,15.565,0.028
54508.339752,15.555,0.026
54509.213938,15.409,0.017
54509.225839,15.404,0.017
54509.237854,15.394,0.015
54509.249885,15.393,0.015
54509.261805,15.393,0.015
54525.214631,15.516,0.022
54525.214803,15.51,0.02
54525.225708,15.498,0.015
54525.225881,15.449,0.013
54525.236948,15.419,0.015
54525.23712,15.41,0.015
54525.247939,15.497,0.018
54525.248111,15.44,0.017
54525.258928,15.484,0.015
54525.259101,15.448,0.015
54533.221032,15.418,0.015
54533.232037,15.387,0.015
54533.243019,15.359,0.015
54533.254011,15.381,0.013
54533.265039,15.335,0.013
54561.125744,15.561,0.046
54561.137075,15.482,0.035
54561.159705,15.497,0.038
54561.171001,15.507,0.038
54573.183359,15.46,0.043
54573.194169,15.455,0.043
54573.204891,15.39,0.041
54573.21563,15.416,0.044
54573.22656,15.38,0.044
54582.144291,15.496,0.041
54582.155368,15.469,0.038
54582.165854,15.471,0.038
54582.176062,15.519,0.041
54582.186946,15.568,0.045
54587.14833,15.455,0.022
54587.159057,15.466,0.024
54587.169742,15.481,0.024
54587.180429,15.482,0.024
54587.191126,15.499,0.026
54595.147839,15.453,0.03
54595.157748,15.49,0.031
54595.167637,15.529,0.033
54595.177511,15.519,0.035
54595.187454,15.518,0.033
