mjd,m,merr
52608.451544,15.594,0.048
52608.466435,15.516,0.033
52608.481391,15.363,0.046
52608.496241,15.275,0.031
52622.45965,15.243,0.018
52622.475414,15.227,0.018
52622.490956,15.294,0.02
52622.506529,15.336,0.022
52622.522111,15.357,0.022
52640.381288,15.502,0.021
52640.396356,15.515,0.025
52640.411369,15.528,0.023
52640.426802,15.576,0.025
52644.388036,15.569,0.023
52644.403014,15.507,0.023
52644.41797,15.351,0.02
52644.432933,15.269,0.018
52644.448328,15.268,0.02
52648.325746,15.257,0.023
52648.340992,15.258,0.021
52648.356281,15.25,0.023
52648.371765,15.183,0.021
52648.386961,15.275,0.023
52667.316042,15.611,0.025
52667.330734,15.607,0.025
52667.345409,15.607,0.025
52667.360086,15.606,0.025
52667.374814,15.604,0.026
52669.311803,15.703,0.022
52669.327239,15.671,0.022
52669.342683,15.479,0.02
52669.358135,15.387,0.018
52669.373564,15.347,0.018
52671.404184,15.292,0.023
52671.419174,15.383,0.025
52700.288629,15.498,0.026
52700.30429,15.515,0.026
52700.31937,15.575,0.028
52700.335167,15.608,0.03
52700.350367,15.626,0.031
52707.24179,15.319,0.017
52707.25511,15.27,0.017
52707.268371,15.314,0.017
52707.281628,15.278,0.017
52707.294917,15.258,0.017
52728.177176,15.615,0.028
52728.189311,15.601,0.028
52728.201744,15.611,0.028
52728.213815,15.615,0.028
52728.225882,15.609,0.03
52731.18469,15.428,0.033
52731.196802,15.263,0.059
52738.178934,15.579,0.031
52738.190349,15.639,0.033
52738.201883,15.601,0.033
52738.213305,15.638,0.035
52738.224772,15.691,0.037
52755.14214,15.484,0.028
52755.15448,15.387,0.026
52755.166507,15.277,0.025
52755.179119,15.244,0.025
52755.19147,15.24,0.025
53033.27567,15.492,0.022
53033.28792,15.415,0.02
53033.299995,15.331,0.018
53033.312193,15.265,0.018
53033.324349,15.299,0.018
53053.28383,15.711,0.039
53053.297512,15.686,0.026
53053.310154,15.683,0.035
53053.324324,15.74,0.078
53053.336059,15.617,0.02
53079.246164,15.584,0.02
53079.256853,15.516,0.02
53079.267496,15.413,0.018
53079.27835,15.297,0.017
53079.289006,15.288,0.017
53110.139345,15.346,0.022
53110.150209,15.336,0.02
53110.161024,15.403,0.022
53110.171917,15.408,0.022
53110.182783,15.469,0.024
53138.15127,15.657,0.03
53138.161138,15.639,0.03
53138.171021,15.665,0.03
53138.180808,15.555,0.028
53138.190653,15.509,0.028
53346.405008,15.343,0.031
53347.436626,15.202,0.025
53347.464473,15.313,0.031
53347.478199,15.315,0.026
53351.419254,15.409,0.026
53351.433567,15.504,0.028
53351.448032,15.506,0.028
53351.462942,15.554,0.033
53351.477501,15.557,0.031
53352.443869,15.596,0.033
53352.458948,15.556,0.033
53352.473674,15.573,0.033
53352.48836,15.531,0.033
53352.503159,15.581,0.036
53466.220644,15.289,0.02
53466.23006,15.324,0.022
53466.239419,15.282,0.022
53466.248777,15.239,0.022
53466.258189,15.272,0.022
53468.212162,15.301,0.041
53468.221673,15.3,0.035
53496.145684,15.456,0.03
53496.155632,15.499,0.031
53496.165669,15.574,0.033
53496.175638,15.545,0.033
53496.185604,15.635,0.037
53710.44319,15.369,0.022
53710.455741,15.383,0.022
53710.469101,15.44,0.024
53710.48178,15.429,0.024
53710.494355,15.532,0.028
53746.338558,15.231,0.03
53746.352383,15.299,0.031
53746.364904,15.276,0.03
53746.377651,15.34,0.031
53746.390169,15.37,0.031
53790.236036,15.628,0.025
53790.247771,15.609,0.025
53790.259667,15.616,0.026
53790.271454,15.534,0.023
53790.283153,15.522,0.023
53817.159628,15.529,0.023
53817.171126,15.465,0.023
53817.182518,15.335,0.02
53817.193862,15.294,0.02
53817.205133,15.301,0.02
53845.136611,15.281,0.023
53845.147918,15.268,0.023
53845.159236,15.359,0.025
53845.170604,15.339,0.026
53845.181955,15.374,0.026
53850.163649,15.573,0.041
53850.173926,15.561,0.094
53850.184364,15.479,0.035
54039.446845,15.407,0.033
54039.458779,15.465,0.035
54039.470681,15.45,0.033
54039.482629,15.474,0.033
54039.494789,15.52,0.035
54059.389241,15.299,0.026
54059.401702,15.266,0.023
54059.414466,15.264,0.023
54059.427562,15.25,0.023
54059.440128,15.234,0.021
54091.297745,15.523,0.031
54091.309631,15.548,0.03
54091.321804,15.583,0.031
54091.333702,15.608,0.031
54091.345587,15.621,0.035
54174.214846,15.662,0.026
54174.225847,15.657,0.028
54174.236603,15.67,0.028
54174.24752,15.661,0.026
54174.258438,15.688,0.028
54180.225343,15.251,0.051
54180.246574,15.295,0.021
54180.257079,15.304,0.021
54180.267496,15.343,0.021
54200.170289,15.613,0.04
54200.179735,15.731,0.046
54200.189482,15.592,0.041
54200.199204,15.595,0.041
54415.440032,15.662,0.017
54415.452763,15.676,0.017
54415.46518,15.682,0.017
54415.477584,15.681,0.017
54415.489958,15.695,0.017
54448.38505,15.436,0.046
54448.398477,15.386,0.043
54448.411134,15.463,0.053
54448.423656,15.56,0.046
54480.271573,15.642,0.017
54480.284564,15.561,0.015
54480.297571,15.46,0.013
54480.310558,15.331,0.011
54480.323566,15.289,0.013
54497.332829,15.663,0.031
54497.345416,15.681,0.018
54497.357973,15.647,0.017
54497.370525,15.642,0.022
54497.383067,15.647,0.028
54505.283644,15.285,0.011
54505.296015,15.295,0.011
54505.308333,15.287,0.011
54505.32065,15.305,0.011
54505.333388,15.324,0.011
54507.337456,15.454,0.025
54507.36157,15.546,0.026
54507.373415,15.547,0.026
54507.385293,15.574,0.028
54521.34206,15.656,0.024
54521.354357,15.669,0.031
54521.366039,15.68,0.028
54521.377751,15.656,0.03
54521.389464,15.604,0.028
54526.279182,15.405,0.013
54526.290654,15.324,0.013
54526.302182,15.295,0.013
54526.313697,15.319,0.013
54526.325359,15.286,0.013
54534.272251,15.665,0.046
54534.294094,15.677,0.015
54534.305061,15.67,0.015
54534.315979,15.684,0.015
54535.329666,15.532,0.026
54535.340658,15.444,0.025
54535.351743,15.403,0.025
54540.114441,15.662,0.028
54540.125337,15.651,0.026
54540.136219,15.669,0.026
54540.147127,15.645,0.024
54540.158044,15.643,0.024
54552.246302,15.251,0.013
54552.258402,15.28,0.013
54552.270489,15.302,0.013
54552.282498,15.317,0.017
54552.294512,15.363,0.018
54580.142063,15.326,0.018
54580.152822,15.338,0.018
54580.163514,15.36,0.018
54580.174419,15.413,0.02
54580.185255,15.439,0.02
