mjd,m,merr
52612.450742,16.574,0.069
52612.465992,16.615,0.073
52612.481205,16.771,0.079
52612.496463,16.873,0.086
52612.511488,16.893,0.089
52623.374667,16.345,0.068
52623.38991,16.351,0.068
52623.40516,16.307,0.063
52623.420448,16.376,0.063
52623.435931,16.386,0.07
52649.362621,16.46,0.053
52649.37841,16.588,0.063
52649.393678,16.692,0.069
52649.409077,16.832,0.079
52649.424825,16.995,0.094
52652.311543,16.494,0.065
52652.326772,16.417,0.061
52652.34165,16.417,0.059
52652.356719,16.36,0.057
52652.371735,16.397,0.059
52664.275225,16.33,0.046
52664.290437,16.416,0.05
52664.305712,16.404,0.05
52664.320984,16.492,0.054
52664.336326,16.495,0.055
52695.257536,16.709,0.081
52695.271607,16.652,0.069
52695.285475,16.472,0.059
52695.285841,16.558,0.061
52695.299354,16.482,0.061
52711.203328,16.446,0.096
52711.203444,16.692,0.117
52711.216577,16.418,0.091
52711.229662,16.371,0.089
52711.229777,17.359,0.211
52722.180817,16.496,0.058
52722.181177,16.541,0.058
52722.193202,16.406,0.054
52722.193562,16.39,0.051
52722.20532,16.328,0.051
52722.20568,17.338,0.12
52722.217486,16.314,0.051
52722.217896,16.403,0.051
52722.22972,16.346,0.053
52722.230081,16.401,0.051
52739.183428,16.878,0.175
52739.194919,16.597,0.135
52739.195276,17.273,0.239
52739.20656,16.545,0.13
52739.218228,16.536,0.134
52739.218584,16.788,0.162
52739.230164,16.409,0.12
52751.154358,16.478,0.112
52751.154713,17.53,0.285
52751.165637,16.95,0.229
52751.176049,16.337,0.064
52751.17641,16.502,0.079
52751.187793,16.304,0.063
52751.188149,16.582,0.081
52782.156028,16.899,0.111
52782.166592,16.641,0.122
52782.187881,16.6,0.091
52782.198677,16.753,0.207
52935.440106,16.586,0.111
52935.451602,16.627,0.109
52935.463054,16.836,0.13
52935.474866,16.759,0.119
52935.486368,17.034,0.15
52947.469639,16.432,0.07
52947.481838,16.402,0.067
52947.494034,16.323,0.065
52964.417327,16.649,0.053
52964.4311,16.697,0.054
52964.44566,16.876,0.064
52964.460487,16.898,0.066
52964.486057,16.659,0.051
52966.36168,16.798,0.074
52966.369673,16.746,0.069
52966.377659,16.72,0.068
52966.385699,16.635,0.064
52966.393787,16.547,0.058
52976.346992,16.516,0.061
52976.358119,16.602,0.063
52976.369255,16.728,0.064
52976.38037,16.803,0.063
52976.39162,16.73,0.058
52990.38944,16.876,0.081
53003.319627,16.346,0.033
53003.356064,16.214,0.03
53003.368144,16.341,0.035
53006.327757,16.647,0.083
53006.339861,16.497,0.068
53006.352703,16.378,0.061
53006.364798,16.355,0.054
53006.376896,16.52,0.07
53023.281616,16.404,0.039
53023.294232,16.446,0.041
53023.307073,16.561,0.044
53023.33263,16.755,0.055
53027.328561,16.615,0.038
53027.341456,16.538,0.035
53027.354392,16.536,0.035
53027.36724,16.404,0.03
53027.380104,16.35,0.03
53035.28964,16.719,0.076
53035.302501,16.553,0.064
53035.315482,16.539,0.063
53035.327788,16.447,0.058
53035.340077,16.367,0.053
53037.346611,17.106,0.128
53046.288548,16.371,0.057
53046.300529,16.327,0.055
53046.312452,16.317,0.054
53046.324571,16.298,0.054
53046.336955,16.348,0.055
53092.184408,16.419,0.058
53092.194219,16.493,0.061
53092.203949,16.433,0.059
53092.213529,16.663,0.071
53092.223212,16.766,0.078
53107.187765,16.781,0.074
53107.198983,16.764,0.07
53107.210163,16.752,0.076
53107.221472,16.751,0.074
53107.232714,16.59,0.067
53127.149984,16.541,0.115
53127.160106,16.475,0.109
53127.170081,16.508,0.117
53127.180073,16.489,0.115
53127.190113,16.395,0.109
53136.153583,16.797,0.083
53136.162809,16.819,0.087
53136.172035,16.964,0.107
53136.181254,16.932,0.105
53136.190523,16.941,0.115
53149.159671,16.813,0.109
53149.168241,16.698,0.099
53149.177045,16.754,0.111
53149.18563,17.082,0.157
53149.19435,17.293,0.208
53154.161346,17.055,0.181
53154.17026,16.975,0.172
53154.179042,17.026,0.185
53154.187774,16.865,0.161
53154.196562,16.812,0.161
53286.430576,16.536,0.105
53286.44156,16.653,0.115
53286.452517,16.608,0.104
53286.463466,16.701,0.109
53286.474434,16.936,0.135
53294.455584,16.861,0.081
53294.467025,16.615,0.064
53294.478488,16.597,0.063
53294.489953,16.494,0.056
53302.436661,16.582,0.093
53302.448555,16.565,0.087
53302.460458,16.355,0.074
53302.472374,16.428,0.078
53302.484292,16.345,0.074
53319.417402,16.841,0.094
53319.431355,16.792,0.091
53319.446673,16.966,0.104
53319.459636,16.776,0.086
53319.478084,16.64,0.078
53329.457844,16.953,0.107
53329.470327,16.892,0.101
53329.48313,16.851,0.097
53329.49591,16.681,0.081
53329.508351,16.58,0.074
53349.40121,16.415,0.069
53349.414601,16.549,0.081
53349.428454,16.353,0.064
53349.442208,16.447,0.073
53349.455825,16.409,0.073
53355.416162,16.796,0.071
53355.429467,16.61,0.061
53355.442642,16.534,0.056
53355.456438,16.594,0.096
53355.469813,16.4,0.053
53360.352911,16.781,0.087
53360.366608,16.553,0.071
53360.380681,16.486,0.064
53360.395016,16.38,0.056
53360.409165,16.327,0.049
53385.423435,16.305,0.061
53385.436353,16.327,0.063
53385.449281,16.419,0.067
53401.31343,16.343,0.058
53401.32594,16.338,0.059
53401.338466,16.367,0.061
53401.35101,16.502,0.071
53401.363573,16.502,0.076
53415.361467,16.515,0.078
53415.373926,16.679,0.109
53415.386364,16.604,0.072
53415.399409,16.747,0.089
53415.411862,16.808,0.1
53437.295686,16.325,0.048
53437.307694,16.399,0.052
53437.319324,16.439,0.055
53437.331019,16.452,0.057
53437.342676,16.548,0.061
53491.158811,16.972,0.141
53491.168812,16.873,0.113
53491.178851,16.759,0.135
53684.38229,16.368,0.074
53684.394618,16.527,0.096
53684.407336,16.537,0.081
53684.419775,16.722,0.094
53684.432179,17.007,0.126
53700.438934,16.307,0.063
53727.394517,16.934,0.098
53727.407324,16.936,0.104
53727.433001,16.969,0.104
53727.445842,17.273,0.192
53757.264958,16.367,0.061
53757.277644,16.366,0.063
53757.290295,16.516,0.07
53757.302825,16.649,0.078
53757.315422,16.861,0.098
53772.224502,16.505,0.074
53772.237289,16.515,0.076
53772.250089,16.691,0.087
53772.262898,16.783,0.094
53772.276879,16.849,0.102
53825.181112,16.335,0.049
53825.192292,16.275,0.048
53825.203495,16.349,0.049
53825.214612,16.564,0.078
53825.225917,16.381,0.053
53842.18612,16.669,0.102
53842.19766,16.49,0.084
53842.209608,16.487,0.087
53842.22132,16.474,0.101
53842.232951,16.36,0.096
53866.158977,16.651,0.185
53866.168305,16.724,0.206
53866.177675,16.717,0.216
53866.187055,16.675,0.216
53878.156512,16.606,0.125
53878.168962,16.664,0.139
53878.187526,16.712,0.155
53878.204168,16.568,0.137
53878.220959,16.463,0.137
54011.42229,17.011,0.168
54011.437451,16.728,0.144
54011.451098,16.631,0.101
54011.464328,16.542,0.087
54011.480162,16.392,0.079
54025.432815,16.837,0.132
54025.445379,16.674,0.111
54025.4577,16.696,0.107
54025.469906,16.585,0.092
54025.481951,16.549,0.086
54053.384658,16.743,0.106
54053.397739,16.572,0.087
54053.412195,16.893,0.155
54053.424665,17.237,0.228
54053.438032,16.824,0.165
54070.39039,16.424,0.074
54070.403306,16.462,0.073
54070.416187,16.584,0.074
54070.4293,16.71,0.078
54070.442208,16.772,0.081
54081.383922,16.321,0.063
54081.396713,16.41,0.068
54098.317105,16.894,0.116
54098.329204,16.686,0.094
54098.341369,16.761,0.097
54098.353529,16.499,0.074
54098.365852,16.428,0.068
54109.344335,16.538,0.13
54124.274887,16.497,0.063
54124.287307,16.417,0.058
54124.299773,16.354,0.056
54124.312076,16.293,0.053
54124.324892,16.364,0.056
54140.276675,16.61,0.063
54140.288713,16.686,0.068
54140.30068,16.682,0.073
54140.312707,16.973,0.099
54140.324848,16.86,0.101
54187.233405,16.583,0.185
54187.254924,16.782,0.228
54198.180379,16.37,0.055
54198.18984,16.421,0.059
54198.199493,16.4,0.057
54198.209009,16.462,0.065
54198.218491,16.501,0.072
54210.176236,16.753,0.092
54210.184924,16.938,0.109
54210.193597,16.792,0.094
54210.202467,16.882,0.099
54210.211863,16.712,0.084
54218.182038,16.728,0.179
54218.190674,16.576,0.163
54218.199268,16.681,0.176
54218.207887,16.428,0.148
54218.216535,16.703,0.187
54397.430922,17.006,0.168
54397.443849,16.845,0.14
54397.457588,16.682,0.114
54397.470911,16.666,0.106
54397.482303,16.785,0.112
54481.32441,16.706,0.086
54481.336557,16.723,0.086
54481.348795,16.594,0.078
54481.360916,16.506,0.069
54481.373493,16.466,0.068
54527.232941,16.614,0.137
54527.266664,16.48,0.145
54537.212657,16.543,0.091
54537.2235,16.399,0.084
54537.234747,16.48,0.096
54537.245556,16.414,0.084
54537.256361,16.508,0.111
54569.185357,16.646,0.13
54569.196258,16.812,0.152
54569.207205,16.635,0.13
54569.218104,16.686,0.152
54569.229456,16.738,0.165
54584.147519,16.686,0.089
54584.157874,16.57,0.079
54584.167799,16.464,0.074
54584.178001,16.478,0.074
54584.187943,16.42,0.073
54589.148565,16.404,0.057
54589.159068,16.437,0.061
54589.169533,16.475,0.063
54589.179984,16.587,0.068
54589.19059,16.681,0.076
