mjd,m,merr
52602.334039,16.638,0.158
52602.36348,16.558,0.137
52602.39231,16.572,0.135
52620.400235,16.404,0.124
52620.430223,16.4,0.054
52636.368517,16.144,0.051
52636.383104,16.163,0.048
52636.397508,16.147,0.046
52636.412108,16.209,0.049
52636.426666,16.187,0.049
52637.384281,15.668,0.167
52638.365425,16.448,0.05
52638.380203,16.431,0.05
52638.394998,16.419,0.052
52638.409783,16.462,0.067
52639.366022,16.313,0.044
52639.380687,16.306,0.043
52639.395475,16.286,0.043
52639.410195,16.268,0.044
52639.42512,16.291,0.043
52650.283089,15.859,0.033
52650.299014,15.914,0.033
52650.314861,15.969,0.033
52650.329206,15.981,0.033
52650.343504,15.987,0.033
52653.329713,16.382,0.066
52653.344579,16.538,0.071
52653.359496,16.612,0.091
52653.374368,16.555,0.071
52684.315375,16.604,0.12
52684.330229,16.36,0.102
52684.346025,16.131,0.081
52693.265739,16.361,0.041
52693.281594,16.069,0.031
52693.297638,15.998,0.03
52693.31331,15.852,0.028
52693.328851,15.785,0.028
52721.185399,16.377,0.044
52721.198186,16.421,0.046
52721.211017,16.405,0.044
52721.22383,16.484,0.046
52721.236554,16.395,0.044
52750.179552,16.397,0.05
52750.190282,16.35,0.05
52750.201082,16.347,0.052
52750.211844,16.385,0.052
52750.222606,16.351,0.052
52771.151413,15.884,0.063
52771.162898,15.868,0.063
52771.174326,15.885,0.064
52771.185885,15.996,0.073
52771.197581,16.026,0.076
52781.157088,15.792,0.041
52927.434745,16.2,0.1
52927.44664,16.159,0.093
52927.458183,16.173,0.087
52927.469825,16.23,0.089
52927.481411,16.155,0.08
52948.394769,16.372,0.08
52948.407004,16.295,0.068
52948.418972,16.344,0.07
52948.431075,16.344,0.065
52948.443312,16.511,0.065
52978.356183,16.165,0.058
52978.374271,16.178,0.056
52978.389085,16.161,0.054
52978.402495,16.262,0.058
52978.417844,16.215,0.054
52988.308786,15.891,0.04
52988.320286,15.946,0.04
52988.332245,15.982,0.04
52988.343714,16.018,0.041
52988.355939,16.035,0.041
52989.387911,15.846,0.033
52989.401061,15.887,0.035
52989.414104,15.884,0.035
52989.427206,15.935,0.039
52989.440314,15.978,0.037
52990.39308,16.442,0.045
52990.405564,16.459,0.045
52990.418175,16.457,0.046
52990.431193,16.369,0.041
52990.443663,16.222,0.051
53008.360153,16.129,0.063
53008.374303,15.965,0.043
53008.402974,15.776,0.036
53038.291229,16.143,0.063
53038.304975,16.255,0.074
53038.319058,16.147,0.063
53038.334548,16.324,0.074
53038.348799,16.354,0.093
53045.265518,16.331,0.059
53045.277141,16.318,0.057
53045.288948,16.147,0.052
53045.301003,16.017,0.046
53045.312592,15.949,0.044
53065.236585,16.341,0.049
53065.248543,16.372,0.051
53065.260437,16.354,0.051
53065.272342,16.346,0.053
53075.221681,16.174,0.233
53094.178218,16.074,0.063
53094.197686,16.109,0.054
53094.207385,16.071,0.051
53094.217252,16.115,0.049
53108.194431,16.141,0.043
53108.205694,16.202,0.044
53108.216915,16.22,0.044
53108.228292,16.208,0.044
53108.239505,16.232,0.046
53122.157412,15.939,0.068
53122.168045,16.153,0.091
53122.178467,16.357,0.115
53125.191704,15.93,0.146
53125.201576,16.198,0.176
53125.211434,16.345,0.179
53125.221264,16.236,0.154
53125.231126,16.316,0.154
53134.15324,16.378,0.065
53134.16271,16.297,0.061
53134.17219,16.382,0.065
53134.181676,16.382,0.063
53134.191159,16.373,0.065
53153.162633,16.213,0.067
53153.171643,16.213,0.067
53153.180794,16.226,0.067
53153.189789,16.26,0.068
53153.198893,16.287,0.072
53155.16461,16.187,0.12
53155.173401,16.07,0.109
53155.182202,16.185,0.124
53155.190995,16.168,0.124
53155.199853,16.277,0.137
53263.415744,16.317,0.068
53263.428001,16.278,0.059
53263.440549,16.301,0.058
53263.452573,16.369,0.063
53263.464884,16.305,0.056
53290.436222,16.006,0.054
53290.447337,15.928,0.049
53290.469721,15.787,0.043
53303.435775,15.972,0.057
53303.447635,16.018,0.052
53303.459502,16.059,0.057
53303.471367,16.147,0.078
53312.381487,15.808,0.072
53312.405616,15.737,0.067
53312.417689,15.97,0.08
53312.42974,15.924,0.076
53330.421796,16.196,0.051
53340.369132,16.32,0.128
53340.40612,16.368,0.137
53340.418464,16.426,0.146
53356.404453,16.556,0.058
53356.418088,16.491,0.054
53356.431703,16.401,0.049
53356.446218,16.259,0.046
53356.460437,16.033,0.038
53358.338907,16.064,0.037
53358.354119,16.123,0.039
53358.366985,16.192,0.041
53358.380385,16.164,0.039
53358.393632,16.207,0.041
53360.35272,16.402,0.059
53360.366547,16.234,0.052
53360.379992,16.0,0.039
53360.394497,15.934,0.035
53360.411652,15.822,0.033
53362.380574,16.162,0.104
53362.397492,16.273,0.074
53390.277942,16.125,0.055
53390.290695,16.197,0.055
53390.304364,16.165,0.054
53390.317232,16.168,0.054
53390.33064,16.231,0.057
53429.223202,15.971,0.035
53429.234503,15.816,0.031
53429.245843,15.782,0.033
53429.25714,15.748,0.035
53429.268432,15.834,0.035
53441.223756,16.176,0.035
53441.235325,16.183,0.037
53441.246784,16.219,0.037
53441.258904,16.224,0.039
53441.270378,16.234,0.039
53461.225476,15.989,0.037
53461.235903,15.993,0.039
53461.246813,15.992,0.041
53461.257198,16.006,0.041
53461.267612,16.09,0.043
53489.190027,15.953,0.059
53489.200891,15.994,0.065
53489.212389,15.926,0.048
53489.222571,16.053,0.074
53489.232768,16.194,0.12
53686.393701,16.061,0.055
53686.406392,16.106,0.05
53686.418867,16.219,0.048
53686.4315,16.281,0.043
53686.444066,16.275,0.043
53696.395357,16.03,0.07
53725.339633,15.87,0.046
53725.352784,15.903,0.041
53725.365833,15.947,0.043
53725.378923,16.004,0.044
53725.391979,16.04,0.046
53755.281319,16.279,0.055
53755.294021,16.282,0.057
53755.306758,16.319,0.059
53755.319701,16.355,0.061
53755.332328,16.323,0.059
53775.290852,16.071,0.065
53775.303381,16.137,0.068
53775.316238,16.148,0.067
53775.325479,16.226,0.063
53775.329537,16.183,0.067
53775.339459,16.234,0.064
53775.343081,16.277,0.074
53775.35353,16.236,0.078
53775.367541,16.447,0.129
53775.381551,16.052,0.116
53876.152979,16.42,0.053
53876.163822,16.364,0.053
53876.174908,16.32,0.053
53876.185961,16.289,0.083
54050.376271,16.62,0.1
54050.388458,16.606,0.109
54050.400653,16.39,0.089
54079.355828,16.446,0.089
54079.367836,16.382,0.081
54079.379919,16.373,0.081
54079.391934,16.472,0.087
54079.403943,16.372,0.081
54108.322626,16.21,0.057
54108.335337,16.216,0.055
54108.348038,16.33,0.061
54108.360749,16.393,0.063
54108.373453,16.289,0.057
54126.269232,16.366,0.063
54139.270635,16.36,0.049
54139.282417,16.423,0.059
54139.29389,16.425,0.083
54139.305318,16.456,0.061
54139.318573,16.601,0.084
54167.243724,16.345,0.063
54418.440216,16.38,0.043
54418.464655,16.346,0.043
54418.476677,16.368,0.043
54418.488783,16.388,0.043
54465.327069,16.226,0.053
54465.339536,16.194,0.053
54465.351924,16.266,0.058
54465.36439,16.35,0.063
54465.376913,16.284,0.058
54496.343655,16.381,0.053
54496.356052,16.419,0.056
54496.370789,16.447,0.058
54496.382943,16.516,0.061
54496.394862,16.561,0.064
54524.224704,16.417,0.073
54524.236066,16.389,0.054
54524.24766,16.392,0.061
54524.259187,16.429,0.074
54524.270838,16.375,0.061
54539.210622,16.227,0.059
54539.221466,16.244,0.061
54539.232013,16.232,0.059
54539.242561,16.25,0.058
54539.25341,16.313,0.063
54571.187303,16.097,0.094
54571.198503,16.018,0.091
54571.20943,16.007,0.089
54571.231289,16.337,0.102
54587.193008,16.144,0.043
54587.202987,16.27,0.048
54587.213163,16.236,0.048
54620.159547,15.879,0.054
54620.169866,15.842,0.049
54620.180853,15.866,0.054
54620.191173,15.847,0.058
54620.201545,15.888,0.056
