mjd,m,merr
52621.368056,16.111,0.037
52621.371346,16.084,0.043
52621.382751,16.033,0.035
52621.386284,16.006,0.04
52621.397532,16.021,0.035
52621.41226,16.051,0.035
52621.427001,16.104,0.037
52636.351973,16.1,0.05
52636.364408,16.44,0.073
52636.366107,16.424,0.067
52636.379004,16.623,0.081
52636.380257,16.61,0.078
52636.393381,16.477,0.066
52636.394467,16.367,0.057
52636.407797,16.226,0.053
52636.408627,16.102,0.046
52636.422542,16.028,0.045
52654.328386,16.112,0.063
52654.343427,15.975,0.069
52654.358968,16.031,0.087
52654.373829,16.021,0.089
52662.31438,16.009,0.041
52662.379173,16.418,0.063
52692.252137,15.988,0.038
52692.266119,16.004,0.038
52692.281054,16.063,0.041
52692.296168,16.148,0.048
52692.310232,16.417,0.061
52720.198726,16.132,0.045
52720.21103,16.038,0.043
52743.182657,16.448,0.109
52743.194559,16.275,0.094
52743.207322,16.151,0.086
52743.21932,15.96,0.073
52743.231739,15.978,0.076
52749.193476,16.07,0.046
52749.216087,15.948,0.071
52772.151421,16.434,0.1
52772.163375,16.223,0.083
52772.17538,16.032,0.085
52772.187247,16.003,0.07
52772.199278,16.001,0.08
52926.452635,16.13,0.081
52926.464242,16.09,0.078
52926.476292,15.983,0.067
52926.488581,15.943,0.063
52926.500483,16.028,0.068
52949.434783,16.343,0.063
52949.447017,16.147,0.052
52949.459102,16.062,0.043
52949.471308,15.922,0.033
52949.483509,15.905,0.03
52979.38294,16.552,0.135
52979.394147,16.33,0.114
52979.425864,16.133,0.13
53009.355963,16.224,0.061
53009.372981,16.054,0.051
53009.387481,15.972,0.048
53009.402005,15.957,0.048
53009.41793,16.035,0.053
53017.326,16.056,0.048
53017.338207,16.072,0.05
53017.350443,15.997,0.046
53017.362685,15.979,0.046
53017.374892,16.099,0.052
53017.375281,16.046,0.038
53044.281721,16.289,0.064
53044.294356,16.163,0.058
53044.307367,16.113,0.081
53074.228533,16.659,0.078
53074.239971,16.538,0.071
53074.251576,16.193,0.053
53074.263105,16.127,0.049
53074.27459,16.017,0.046
53104.198504,16.557,0.059
53104.209386,16.373,0.053
53104.231051,16.069,0.038
53104.241851,16.034,0.04
53133.154408,16.608,0.117
53133.163692,16.653,0.091
53133.172916,16.503,0.073
53156.164962,16.525,0.109
53156.173314,16.467,0.104
53156.181706,16.177,0.083
53156.190134,16.059,0.076
53156.198556,16.189,0.086
53162.18438,15.974,0.064
53162.193981,15.985,0.061
53280.441852,16.281,0.099
53330.439087,16.328,0.057
53330.451593,16.558,0.072
53330.464118,16.381,0.065
53330.476623,16.195,0.074
53330.489133,16.076,0.048
53356.443301,16.595,0.065
53356.456314,16.232,0.048
53356.469334,16.164,0.043
53356.482326,16.109,0.041
53356.495613,16.054,0.039
53358.331512,16.13,0.04
53358.344477,16.044,0.036
53358.358143,15.992,0.036
53358.372875,15.987,0.036
53452.219145,16.054,0.074
53452.229877,16.076,0.076
53452.2406,16.008,0.081
53452.252004,16.079,0.093
53460.220545,16.216,0.041
53460.230973,16.344,0.046
53460.241457,16.571,0.057
53460.252397,16.486,0.055
53460.263052,16.281,0.046
53488.190763,16.199,0.044
53488.200801,16.365,0.052
53488.210834,16.605,0.063
53488.221081,16.638,0.068
53488.23201,16.483,0.059
53637.43986,16.065,0.089
53637.450593,15.975,0.078
53637.461429,15.915,0.072
53637.472197,15.9,0.065
53665.473302,16.358,0.1
53665.486701,16.639,0.122
53665.498627,16.697,0.128
53688.384361,16.386,0.093
53688.396886,16.087,0.068
53688.40927,16.038,0.08
53688.421647,15.985,0.059
53688.433995,15.975,0.057
53724.335314,16.118,0.057
53724.348266,16.107,0.057
53724.36125,16.05,0.057
53724.374238,16.033,0.072
53754.34282,16.065,0.067
53754.355411,16.159,0.061
53831.210822,16.483,0.086
53831.241696,16.128,0.063
53860.192174,16.436,0.081
53860.204869,16.135,0.064
53860.214734,16.065,0.059
53860.2266,15.974,0.056
53860.238932,15.966,0.058
54013.438082,16.292,0.125
54049.401494,16.478,0.144
54049.413952,16.259,0.116
54049.427337,16.018,0.097
54049.440295,16.05,0.094
54049.453263,15.876,0.079
54078.38838,16.134,0.065
54078.401391,15.994,0.057
54078.4144,15.932,0.054
54107.357742,16.222,0.092
54107.370727,16.011,0.078
54107.384058,16.055,0.081
54107.396936,16.033,0.079
54107.409735,16.148,0.086
54128.28688,15.905,0.059
54128.299516,15.979,0.053
54128.324867,16.338,0.081
54128.338028,16.391,0.076
54138.235946,15.96,0.04
54138.248288,16.02,0.045
54138.261135,16.184,0.054
54138.273345,16.39,0.064
54166.227023,16.308,0.106
54166.238364,16.483,0.112
54216.175375,16.051,0.071
54216.183837,16.041,0.071
54216.192215,16.086,0.074
54216.200598,16.165,0.078
54216.208989,16.184,0.076
54453.382141,16.006,0.036
54453.394764,16.126,0.04
54453.407312,16.309,0.046
54453.419876,16.584,0.056
54453.432862,16.752,0.064
54485.363371,16.445,0.084
54522.224183,16.063,0.036
54522.2372,15.999,0.035
54522.248714,15.976,0.035
54522.260363,16.084,0.038
54522.271868,16.13,0.041
54553.18851,16.055,0.051
54553.201457,15.998,0.048
54553.213804,16.065,0.051
54553.22602,16.158,0.054
54553.238266,16.333,0.063
54555.128528,16.594,0.097
54555.140923,16.346,0.074
54555.152891,16.122,0.064
54555.165142,16.026,0.058
54555.177282,15.992,0.054
54573.187137,16.059,0.068
54573.198264,16.004,0.064
54573.211879,15.874,0.059
54573.225625,16.026,0.069
54573.237384,16.015,0.074
54589.149852,15.963,0.053
54589.159807,16.139,0.059
54589.170149,16.308,0.071
54589.190103,16.618,0.087
