mjd,m,merr
52619.461965,15.298,0.025
52619.47694,15.404,0.026
52619.492351,15.402,0.026
52619.507342,15.495,0.028
52640.381801,15.227,0.018
52640.427315,15.333,0.02
52640.442989,15.351,0.02
52646.383745,15.647,0.028
52646.398551,15.648,0.028
52646.412995,15.644,0.028
52646.42753,15.644,0.028
52646.44208,15.629,0.03
52647.38019,15.514,0.026
52647.394682,15.463,0.026
52647.409566,15.312,0.023
52647.424401,15.248,0.023
52647.439085,15.264,0.023
52667.360591,15.527,0.025
52667.37532,15.571,0.026
52672.319947,15.626,0.03
52672.333793,15.633,0.024
52672.348048,15.625,0.031
52672.361911,15.588,0.024
52672.375875,15.522,0.024
52673.241331,15.542,0.028
52673.270984,15.524,0.026
52673.286348,15.493,0.025
52705.233071,15.355,0.021
52705.236404,15.434,0.018
52705.246025,15.426,0.021
52705.249561,15.448,0.018
52705.258981,15.458,0.021
52705.264537,15.531,0.02
52705.27757,15.531,0.02
52705.284979,15.544,0.025
52705.290697,15.606,0.022
52707.242335,15.476,0.02
52707.255657,15.375,0.018
52707.268895,15.304,0.018
52707.282177,15.306,0.018
52707.295462,15.29,0.018
52725.298267,15.42,0.03
52729.17702,15.29,0.018
52729.188915,15.33,0.018
52729.200448,15.282,0.018
52729.212102,15.257,0.018
52729.22356,15.27,0.018
52734.193673,15.319,0.018
52734.206171,15.322,0.018
52734.219355,15.385,0.02
52734.231606,15.416,0.022
52734.244773,15.473,0.024
52738.179402,15.273,0.024
52738.19082,15.3,0.026
52738.202351,15.309,0.026
52738.213776,15.345,0.026
52738.225245,15.363,0.028
52755.142461,15.256,0.018
52755.154494,15.281,0.02
52755.166634,15.301,0.02
52755.178724,15.318,0.02
52755.190785,15.348,0.022
52760.143853,15.353,0.025
52760.168553,15.411,0.026
52760.180586,15.472,0.028
52760.192635,15.528,0.03
52765.178436,15.592,0.036
52765.190413,15.644,0.036
52938.435709,15.24,0.023
52938.447695,15.314,0.021
52938.459661,15.274,0.021
52938.471567,15.397,0.023
52941.427114,15.289,0.02
52941.438694,15.294,0.018
52941.450527,15.262,0.016
52941.462106,15.252,0.016
52941.473941,15.196,0.016
52944.436496,15.61,0.037
52944.448499,15.588,0.033
52944.46044,15.585,0.033
52944.472365,15.516,0.03
52944.484472,15.415,0.026
52973.39392,15.575,0.024
52973.406959,15.613,0.024
52973.420048,15.622,0.024
52973.432832,15.606,0.024
52973.445837,15.564,0.022
52995.329799,15.609,0.016
52995.367296,15.499,0.015
53027.396424,15.572,0.016
53027.409372,15.595,0.016
53027.42238,15.581,0.016
53027.447975,15.501,0.016
53029.337956,15.304,0.023
53033.275781,15.531,0.025
53033.288286,15.554,0.025
53033.313484,15.428,0.021
53033.325938,15.356,0.02
53053.297964,15.618,0.026
53053.310695,15.623,0.035
53053.324775,15.691,0.061
53053.33651,15.616,0.022
53058.299402,15.463,0.013
53079.246568,15.616,0.022
53079.257257,15.603,0.022
53079.267947,15.547,0.02
53079.278756,15.503,0.02
53079.289411,15.394,0.018
53083.238156,15.579,0.016
53083.249734,15.572,0.016
53083.261106,15.546,0.016
53085.278054,15.388,0.013
53110.183166,15.325,0.022
53110.193856,15.289,0.022
53110.204547,15.264,0.022
53110.215233,15.281,0.022
53110.225983,15.299,0.024
53114.195386,15.283,0.015
53114.217341,15.201,0.013
53116.209434,15.481,0.051
53116.220284,15.547,0.043
53138.150939,15.643,0.03
53138.160877,15.621,0.03
53138.170743,15.629,0.03
53138.180546,15.578,0.03
53138.190392,15.577,0.03
53142.168373,15.487,0.023
53142.198237,15.443,0.043
53144.165913,15.219,0.024
53144.175306,15.277,0.024
53144.184695,15.304,0.03
53144.203798,15.322,0.05
53292.428257,15.51,0.043
53292.437863,15.492,0.04
53292.447503,15.494,0.04
53292.45815,15.351,0.033
53327.382586,15.239,0.026
53327.395641,15.255,0.033
53327.408138,15.223,0.023
53327.420377,15.221,0.026
53327.432841,15.269,0.028
53346.405381,15.549,0.026
53347.464165,15.273,0.023
53347.477889,15.275,0.021
53351.462627,15.219,0.025
53351.47719,15.226,0.025
53352.488696,15.473,0.031
53352.503496,15.537,0.035
53353.440491,15.466,0.026
53353.468811,15.517,0.03
53357.436943,15.533,0.022
53357.450344,15.591,0.024
53357.463685,15.615,0.026
53357.478668,15.617,0.026
53357.493729,15.629,0.028
53383.343961,15.551,0.022
53383.358107,15.617,0.024
53383.371193,15.575,0.024
53383.384427,15.593,0.024
53383.397767,15.646,0.026
53403.350911,15.399,0.021
53466.221081,15.29,0.022
53466.230493,15.28,0.022
53466.239854,15.306,0.022
53466.249213,15.358,0.024
53466.258737,15.371,0.024
53468.212571,15.681,0.054
53468.222078,15.655,0.048
53679.448008,15.406,0.024
53679.460257,15.45,0.024
53679.472398,15.491,0.026
53679.484574,15.536,0.026
53679.497412,15.566,0.028
53704.447248,15.451,0.022
53704.4597,15.519,0.024
53704.472195,15.573,0.024
53704.484707,15.589,0.026
53704.497511,15.594,0.026
53707.447867,15.263,0.02
53707.460599,15.3,0.018
53707.473276,15.309,0.022
53707.485915,15.305,0.026
53707.498472,15.348,0.02
53711.467717,15.271,0.018
53711.480704,15.308,0.018
53711.493529,15.33,0.018
53711.50653,15.362,0.02
53711.519525,15.379,0.02
53734.406003,15.561,0.024
53734.418955,15.585,0.024
53734.431809,15.592,0.026
53734.444877,15.637,0.028
53734.458093,15.631,0.028
53737.403017,15.329,0.018
53737.416531,15.323,0.018
53737.429886,15.37,0.018
53737.443275,15.47,0.043
53737.456621,15.49,0.022
53747.35436,15.648,0.07
53747.36718,15.702,0.07
53747.380268,15.69,0.072
53747.393124,15.749,0.076
53758.338824,15.269,0.017
53758.351353,15.289,0.017
53758.363865,15.303,0.018
53758.376548,15.328,0.02
53758.389111,15.358,0.022
53787.400528,15.347,0.068
53787.412381,15.403,0.035
53787.436257,15.482,0.031
53787.448294,15.535,0.035
53789.287996,15.463,0.035
53789.29994,15.533,0.033
53789.311859,15.522,0.057
53789.335962,15.611,0.083
53790.248265,15.551,0.025
53790.283587,15.602,0.025
53792.286225,15.242,0.018
53792.298155,15.278,0.018
53792.310065,15.317,0.022
53792.321963,15.351,0.02
53792.33391,15.379,0.024
53799.228294,15.55,0.026
53799.240343,15.56,0.026
53799.264469,15.593,0.025
53799.276149,15.547,0.023
53802.279596,15.625,0.041
53802.29097,15.582,0.043
53818.23846,15.303,0.021
53818.249556,15.338,0.021
53818.271949,15.395,0.023
53821.233597,15.289,0.024
53821.244225,15.321,0.026
53821.260524,15.246,0.022
53821.271247,15.266,0.022
53821.284974,15.289,0.022
53824.236423,15.588,0.028
53824.249044,15.595,0.028
53824.261026,15.564,0.026
53824.271849,15.539,0.026
53824.283307,15.449,0.035
53828.233076,15.563,0.031
53828.254529,15.61,0.074
53828.2785,15.53,0.052
53845.137025,15.437,0.026
53845.159651,15.481,0.03
53846.192165,15.443,0.035
53846.202811,15.335,0.033
53846.213495,15.285,0.031
53846.224226,15.31,0.033
53846.234952,15.282,0.033
53851.141527,15.233,0.03
53851.15214,15.178,0.028
53851.17317,15.223,0.026
53851.183607,15.242,0.028
53851.191133,15.268,0.028
53851.201173,15.28,0.026
53851.211784,15.257,0.028
53851.221672,15.281,0.028
53851.231557,15.302,0.03
53854.220384,15.398,0.031
53854.231276,15.306,0.03
53854.245169,15.312,0.033
54030.428256,15.204,0.031
54030.44245,15.192,0.03
54030.456594,15.243,0.028
54030.472594,15.245,0.026
54030.485067,15.307,0.026
54035.435401,15.33,0.031
54035.447662,15.349,0.03
54035.460194,15.404,0.031
54035.484041,15.458,0.03
54040.4416,15.493,0.041
54040.453924,15.481,0.04
54040.466306,15.547,0.04
54040.478334,15.556,0.04
54053.424381,15.568,0.057
54053.447946,15.628,0.043
54053.459886,15.603,0.043
54053.47174,15.614,0.037
54056.425748,15.438,0.022
54056.438003,15.474,0.022
54056.450253,15.502,0.022
54056.462694,15.535,0.022
54056.474941,15.568,0.024
54059.38967,15.222,0.026
54059.402132,15.245,0.025
54059.427985,15.22,0.023
54059.431968,15.239,0.018
54059.440561,15.218,0.023
54059.444466,15.293,0.018
54059.456777,15.291,0.018
54059.469097,15.322,0.018
54059.482535,15.344,0.018
54064.387771,15.303,0.02
54064.413588,15.322,0.018
54064.439589,15.428,0.02
54082.370657,15.465,0.048
54082.407978,15.553,0.051
54082.416932,15.569,0.028
54082.42044,15.599,0.053
54082.443053,15.615,0.026
54085.40168,15.363,0.018
54085.414818,15.429,0.033
54085.428574,15.451,0.022
54085.442216,15.515,0.024
54085.455698,15.569,0.024
54112.385724,15.468,0.041
54112.398443,15.45,0.031
54112.411001,15.435,0.045
54114.353921,15.247,0.023
54114.366927,15.258,0.028
54152.228766,15.279,0.015
54152.241171,15.26,0.015
54152.266113,15.28,0.015
54152.278514,15.257,0.015
54153.272409,15.379,0.018
54153.283907,15.423,0.018
54153.295401,15.479,0.02
54153.306909,15.524,0.02
54153.318464,15.56,0.02
54173.213381,15.23,0.018
54173.224067,15.257,0.018
54173.245768,15.209,0.018
54174.263855,15.424,0.018
54174.274559,15.451,0.02
54174.285266,15.525,0.024
54174.295964,15.538,0.033
54174.306664,15.531,0.026
54177.231661,15.297,0.018
54177.243191,15.282,0.02
54180.279378,15.427,0.018
54180.290042,15.32,0.017
54180.301014,15.29,0.017
54180.311752,15.284,0.017
54180.322326,15.325,0.017
54185.198648,15.561,0.056
54185.208796,15.554,0.054
54185.219368,15.394,0.048
54201.191321,15.539,0.043
54201.200841,15.57,0.045
54201.210065,15.494,0.041
54201.219295,15.537,0.041
54201.2286,15.483,0.04
54205.218681,15.643,0.028
54205.227889,15.645,0.028
54205.237064,15.621,0.028
54205.246349,15.585,0.028
54205.255553,15.52,0.026
54208.214301,15.419,0.024
54208.223332,15.465,0.024
54208.232378,15.516,0.026
54208.241452,15.528,0.026
54208.250535,15.507,0.024
54212.186322,15.356,0.026
54212.195187,15.404,0.026
54212.204315,15.42,0.03
54212.21321,15.434,0.03
54212.22211,15.503,0.031
54416.435554,15.457,0.018
54416.448315,15.498,0.018
54416.46064,15.519,0.018
54416.472953,15.544,0.02
54416.485298,15.561,0.02
54438.444734,15.606,0.017
54438.457977,15.61,0.015
54438.471314,15.552,0.015
54438.484748,15.44,0.015
54438.498004,15.318,0.013
54448.436826,15.262,0.023
54448.449367,15.288,0.023
54448.461637,15.301,0.023
54448.487066,15.356,0.025
54498.280485,15.605,0.017
54498.292886,15.587,0.017
54498.305297,15.584,0.017
54498.317665,15.468,0.015
54498.330194,15.398,0.015
54506.273826,15.623,0.017
54506.286137,15.612,0.017
54506.298324,15.588,0.017
54506.310779,15.582,0.017
54506.323012,15.55,0.017
54521.341517,15.581,0.035
54521.353813,15.633,0.026
54521.365495,15.538,0.028
54521.377205,15.572,0.028
54521.388918,15.582,0.028
54527.284374,15.603,0.043
54527.307171,15.533,0.017
54527.318582,15.509,0.015
54535.223194,15.544,0.015
54535.234377,15.566,0.015
54535.245544,15.577,0.017
54535.257087,15.592,0.015
54535.268252,15.62,0.017
54540.113907,15.362,0.024
54540.124811,15.376,0.024
54540.135691,15.417,0.024
54540.146598,15.447,0.024
54540.157516,15.515,0.024
54552.246912,15.651,0.018
54552.25901,15.641,0.018
54552.271105,15.627,0.018
54552.283112,15.598,0.02
54552.295131,15.607,0.022
54561.237315,15.558,0.026
54561.248795,15.509,0.015
54561.260246,15.414,0.015
54561.271723,15.335,0.02
54561.283192,15.278,0.02
54580.152859,15.264,0.031
54580.163317,15.272,0.031
54580.192309,15.298,0.033
54583.195147,15.288,0.022
54583.205801,15.321,0.024
54583.216403,15.289,0.024
54590.195457,15.633,0.026
54590.205778,15.664,0.031
54590.216106,15.636,0.028
54590.22647,15.581,0.028
54590.236822,15.576,0.03
54591.14364,15.682,0.064
54591.153401,15.588,0.061
54591.163152,15.644,0.063
54591.172904,15.541,0.061
