mjd,m,merr
52610.387674,16.944,0.094
52610.402798,16.793,0.235
52610.417964,16.544,0.055
52610.433112,16.674,0.167
52610.448247,16.54,0.165
52614.377276,16.538,0.067
52614.392381,16.594,0.072
52614.422712,16.874,0.102
52614.437887,17.0,0.15
52619.382117,16.533,0.059
52619.39736,16.507,0.059
52619.412598,16.533,0.061
52619.427907,16.513,0.061
52619.443352,16.535,0.065
52622.361446,16.519,0.068
52622.376052,16.597,0.071
52622.390746,16.702,0.074
52622.405275,16.973,0.096
52622.420165,16.959,0.092
52638.381636,16.797,0.073
52638.396661,16.653,0.064
52644.309659,16.47,0.044
52644.340804,16.555,0.048
52644.356344,16.739,0.057
52648.252819,16.519,0.057
52648.267666,16.694,0.065
52648.282277,16.831,0.076
52648.297473,17.04,0.093
52648.312262,16.923,0.085
52671.265282,16.732,0.061
52671.280516,16.611,0.055
52671.295825,16.523,0.052
52671.311184,16.471,0.05
52674.250507,16.431,0.05
52674.265839,16.579,0.059
52674.296473,16.674,0.063
52674.311973,17.001,0.083
52677.24939,16.921,0.091
52677.264277,16.898,0.078
52677.293893,16.628,0.063
52677.308552,16.546,0.059
52696.266874,16.729,0.057
52696.280472,16.871,0.067
52696.293089,16.91,0.068
52696.306107,16.811,0.065
52696.319152,16.643,0.057
52703.181261,16.355,0.066
52703.220649,16.263,0.063
52703.234017,16.323,0.066
52704.236919,16.69,0.055
52704.250244,16.82,0.063
52704.263577,17.013,0.078
52704.276832,16.847,0.068
52704.290209,16.692,0.061
52723.171566,16.756,0.065
52723.183106,16.644,0.055
52723.194551,16.579,0.054
52723.207138,16.59,0.137
52723.218623,16.55,0.072
52728.170497,16.742,0.067
52728.182822,16.893,0.078
52728.194682,16.895,0.078
52728.206654,16.76,0.068
52728.218521,16.632,0.063
52731.177117,16.709,0.157
52731.201279,16.614,0.274
52731.225409,16.542,0.163
52752.135004,16.766,0.08
52752.145259,16.627,0.068
52752.155546,16.635,0.07
52752.165797,16.465,0.065
52752.176055,16.506,0.067
52761.139984,16.443,0.061
52761.151762,16.452,0.063
52761.16353,16.531,0.07
52761.1753,16.761,0.178
52761.187061,16.694,0.159
52764.140518,16.914,0.104
52764.152848,17.084,0.124
52764.164881,16.872,0.102
52764.176915,16.731,0.094
52764.189561,16.542,0.079
52917.458502,16.658,0.089
52917.472648,16.66,0.087
52917.486466,16.926,0.109
52934.425973,16.894,0.115
52934.437592,16.694,0.096
52934.449076,16.626,0.085
52934.460544,16.536,0.078
52934.471925,16.456,0.068
52942.397589,17.006,0.111
52942.421887,16.567,0.12
52942.433979,16.369,0.152
52942.446268,16.587,0.119
52946.431439,16.689,0.078
52946.443387,16.832,0.109
52946.455342,16.883,0.196
52963.416249,16.45,0.044
52963.428888,16.493,0.044
52967.377857,16.405,0.054
52967.415439,16.74,0.067
52967.427942,16.903,0.08
52991.425915,16.433,0.045
52991.44053,16.429,0.043
53024.349518,16.751,0.102
53035.280459,16.802,0.081
53035.29382,17.038,0.104
53035.30623,16.834,0.085
53035.320904,16.662,0.072
53035.333841,16.613,0.067
53050.218207,16.544,0.044
53078.180424,16.524,0.15
53078.191112,16.526,0.122
53078.212578,16.701,0.111
53084.177623,16.502,0.091
53084.209833,16.403,0.035
53084.220619,16.547,0.039
53086.236498,16.917,0.203
53086.247877,17.096,0.274
53086.259296,16.655,0.114
53086.271269,16.531,0.081
53086.28236,16.559,0.056
53109.138086,16.707,0.067
53109.160083,17.053,0.089
53109.171033,17.029,0.091
53109.182228,16.803,0.072
53117.142752,16.977,0.069
53137.15015,17.007,0.107
53137.159715,17.0,0.109
53137.169245,16.909,0.105
53137.178745,16.585,0.085
53137.188286,16.679,0.094
53282.448117,16.642,0.165
53282.459933,16.411,0.129
53282.471605,16.605,0.145
53282.482495,16.709,0.155
53288.431215,16.613,0.091
53293.440022,16.938,0.106
53299.440448,17.023,0.137
53299.452118,16.826,0.181
53299.463793,16.737,0.122
53299.475534,16.733,0.216
53299.487215,16.589,0.133
53328.372122,16.617,0.083
53328.384299,16.599,0.192
53328.396474,16.82,0.094
53331.45725,16.737,0.091
53331.498346,16.76,0.097
53348.33188,16.35,0.183
53348.344719,16.55,0.074
53348.36931,16.623,0.163
53354.333368,16.485,0.059
53354.378695,16.568,0.061
53377.281269,16.391,0.266
53377.335225,16.668,0.057
53382.363731,16.524,0.068
53382.407611,16.829,0.085
53382.422018,16.803,0.087
53386.344125,16.673,0.059
53386.357215,16.576,0.057
53386.370238,16.499,0.054
53389.35873,16.49,0.07
53389.372224,16.633,0.083
53415.287561,16.86,0.074
53415.324771,16.461,0.059
53433.229392,16.635,0.055
53433.241316,16.541,0.05
53433.255055,16.462,0.046
53433.266513,16.471,0.046
53433.278955,16.515,0.05
53443.288803,16.673,0.055
53443.311071,16.458,0.05
53443.321914,16.521,0.055
53473.186287,16.679,0.08
53473.196027,16.715,0.083
53473.205836,16.875,0.098
53498.146928,16.669,0.081
53498.157005,16.549,0.109
53498.167338,16.512,0.078
53498.188235,16.422,0.165
53646.44009,16.908,0.124
53646.451004,16.682,0.093
53646.461939,16.621,0.091
53646.472866,16.577,0.078
53651.433657,16.547,0.087
53651.455437,17.044,0.126
53651.466323,17.049,0.126
53657.425435,16.481,0.074
53657.436673,16.499,0.068
53657.447929,16.585,0.074
53657.459136,16.614,0.076
53657.470371,16.853,0.091
53673.452914,16.738,0.081
53673.465043,16.576,0.07
53673.477203,16.466,0.065
53673.489944,16.487,0.065
53676.442732,16.48,0.076
53676.455492,16.586,0.076
53676.467501,16.639,0.081
53676.491442,16.828,0.1
53682.470493,16.494,0.067
53682.48306,16.564,0.072
53682.495654,16.695,0.085
53702.370993,16.837,0.078
53702.413623,16.581,0.057
53702.426387,16.552,0.057
53706.402893,16.541,0.052
53706.429478,16.92,0.126
53706.442489,17.05,0.198
53709.386825,16.747,0.072
53709.425204,16.529,0.059
53771.221079,16.839,0.135
53771.246377,16.675,0.081
53771.259019,16.632,0.081
53788.345885,16.487,0.057
53788.382164,16.613,0.102
53788.394336,16.582,0.074
53794.228869,16.556,0.068
53794.264985,16.759,0.235
53817.277658,16.655,0.076
53817.288489,16.538,0.074
53817.299338,16.518,0.072
53817.310211,16.442,0.072
53817.321279,16.463,0.076
53818.222684,16.986,0.105
53818.233226,16.883,0.096
53818.243771,16.826,0.091
53818.254324,16.681,0.081
53818.264929,16.661,0.081
53823.195545,16.46,0.057
53823.207556,16.474,0.059
53823.220761,16.497,0.061
53823.232648,16.57,0.065
53823.244812,16.733,0.074
53825.18009,16.656,0.07
53825.190459,16.622,0.08
53825.212971,16.854,0.093
53825.223393,16.995,0.1
53829.172901,16.836,0.183
53829.183588,16.733,0.135
53829.193813,16.773,0.137
53829.203955,16.591,0.124
53829.214119,16.524,0.167
53843.192558,16.53,0.063
53849.143938,16.941,0.1
53849.154708,16.98,0.104
53849.165514,16.828,0.091
53849.17634,16.614,0.078
53849.188035,16.583,0.076
53852.144593,16.567,0.078
53852.155053,16.524,0.076
53852.165574,16.56,0.08
53852.176102,16.504,0.076
53852.186827,16.564,0.085
53854.13979,16.506,0.081
53854.150156,16.606,0.092
53854.160537,16.668,0.099
53854.170937,17.031,0.152
53854.181502,16.965,0.127
53855.145464,16.792,0.094
53855.155718,16.849,0.104
53855.166037,17.007,0.122
53855.176976,16.921,0.115
53855.187311,16.661,0.093
54009.416708,16.519,0.086
54009.433018,16.556,0.086
54009.44802,16.68,0.087
54009.460739,16.703,0.087
54027.447929,16.618,0.081
54027.45965,16.573,0.078
54027.473773,16.517,0.132
54027.485927,16.577,0.078
54027.497451,16.61,0.079
54028.434,16.539,0.091
54028.445969,16.427,0.079
54028.457574,16.571,0.089
54028.469356,16.585,0.089
54028.481177,16.734,0.101
54037.431743,16.624,0.068
54037.444606,16.777,0.076
54037.456667,16.926,0.086
54037.468734,17.005,0.092
54037.481111,16.998,0.117
54054.360188,16.654,0.07
54054.371594,16.644,0.072
54054.382964,16.902,0.089
54054.394344,16.99,0.096
54055.37709,17.019,0.104
54055.3901,16.811,0.081
54055.40269,16.688,0.071
54055.415766,16.613,0.064
54055.422003,16.491,0.052
54055.433668,16.403,0.055
54058.374155,16.429,0.052
54058.38638,16.482,0.052
54058.410873,16.494,0.054
54061.374892,16.789,0.074
54061.400253,16.801,0.07
54066.402809,16.726,0.133
54067.388563,16.787,0.073
54067.401384,16.998,0.087
54067.414254,16.99,0.084
54084.336435,16.848,0.089
54084.349927,16.689,0.076
54084.376914,16.483,0.057
54084.390417,16.5,0.057
54085.33878,16.736,0.114
54085.351966,16.779,0.163
54085.365201,16.641,0.078
54085.378106,16.581,0.076
54085.391065,16.563,0.073
54087.354854,16.514,0.063
54087.39364,16.88,0.105
54110.384329,16.539,0.067
54110.400337,16.472,0.067
54121.274754,16.985,0.087
54121.287275,16.793,0.074
54121.300499,16.67,0.069
54121.31324,16.593,0.058
54121.325953,16.58,0.058
54123.26551,16.606,0.065
54123.27774,16.497,0.057
54123.302148,16.492,0.059
54124.303346,16.503,0.044
54149.223438,16.685,0.063
54149.247434,17.024,0.086
54149.25917,16.902,0.078
54149.270874,16.792,0.073
54156.206369,16.542,0.081
54156.217361,16.718,0.096
54156.228722,16.744,0.099
54156.23977,16.931,0.119
54156.25079,16.855,0.127
54175.226518,16.51,0.048
54175.237154,16.585,0.052
54175.247719,16.674,0.055
54201.193232,16.598,0.07
54201.202981,16.539,0.065
54201.212708,16.545,0.065
54201.222702,16.475,0.061
54207.173901,17.078,0.129
54207.183156,16.974,0.12
54207.192354,16.73,0.081
54207.192435,16.85,0.107
54207.20184,16.732,0.081
54207.202126,16.877,0.111
54207.211009,16.578,0.07
54207.211634,16.682,0.092
54210.201257,16.494,0.061
54210.210138,16.494,0.063
54216.135589,16.998,0.185
54216.162175,16.666,0.144
54385.438167,16.712,0.061
54385.46075,16.497,0.048
54385.471961,16.458,0.046
54388.439004,16.472,0.052
54388.461601,16.573,0.054
54395.434942,16.534,0.083
54395.448573,16.566,0.083
54395.46445,16.599,0.084
54397.439324,16.745,0.1
54397.451095,16.882,0.105
54397.46276,16.782,0.089
54397.474368,16.578,0.067
54413.469473,16.382,0.037
54424.326895,16.852,0.078
54424.36467,16.405,0.044
54470.330439,16.8,0.146
54470.343303,16.823,0.07
54475.273283,16.63,0.061
54475.311311,16.446,0.035
54475.324456,16.504,0.037
54495.347345,16.377,0.05
54495.359796,16.499,0.057
54495.386,16.839,0.083
54509.173165,16.331,0.041
54524.272776,16.393,0.052
54524.284226,16.528,0.054
54524.295665,16.505,0.055
54524.307077,16.583,0.067
54532.239836,16.435,0.033
54555.184434,16.388,0.039
54555.196106,16.401,0.041
54573.137984,16.405,0.096
54573.148669,16.496,0.104
54573.159374,16.709,0.122
54573.170148,16.762,0.131
54573.180864,16.869,0.146
54582.141656,16.939,0.132
54582.152732,16.927,0.132
54582.163202,16.682,0.102
54582.17343,16.698,0.112
54582.184313,16.584,0.101
54586.141294,16.521,0.061
54586.151425,16.616,0.063
54586.161609,16.678,0.074
54586.171755,16.698,0.087
54594.14935,16.744,0.085
54594.190887,16.664,0.105
