mjd,m,merr
52622.361571,16.765,0.086
52622.376177,16.775,0.084
52622.390871,16.76,0.079
52622.4054,16.823,0.084
52622.42029,16.852,0.084
52638.366487,16.922,0.083
52638.381507,16.898,0.078
52638.396531,16.812,0.073
52638.411666,16.817,0.079
52643.327961,16.76,0.068
52643.376684,16.791,0.073
52643.393009,16.813,0.079
52648.25304,16.829,0.08
52648.267795,16.793,0.076
52648.282406,16.73,0.072
52648.297601,16.803,0.078
52648.31239,16.913,0.089
52674.281209,16.866,0.093
52674.296606,16.922,0.083
52674.312117,17.06,0.094
52677.264405,17.014,0.086
52677.294022,17.14,0.099
52677.30868,17.167,0.104
52696.292796,16.842,0.068
52696.305827,16.854,0.07
52703.180654,17.009,0.094
52703.18114,17.022,0.091
52703.193963,16.992,0.091
52703.207043,16.996,0.089
52703.220042,17.148,0.104
52703.220529,17.038,0.087
52703.233409,17.079,0.094
52703.233897,17.051,0.087
52723.182863,16.526,0.054
52723.194308,16.528,0.055
52723.206897,16.569,0.104
52723.218382,16.588,0.072
52730.176877,16.979,0.094
52730.188979,17.072,0.099
52730.189182,16.889,0.079
52730.201127,17.012,0.091
52730.201243,17.005,0.087
52730.214338,17.1,0.099
52730.226378,16.977,0.089
52730.226493,17.018,0.089
52752.134778,16.817,0.087
52752.15532,16.762,0.08
52752.175829,16.849,0.094
52761.151653,16.782,0.091
52761.163419,16.646,0.083
52761.175191,16.768,0.181
52761.186951,16.793,0.17
52764.14017,16.795,0.092
52764.140403,16.714,0.086
52764.152499,16.717,0.087
52764.152733,16.648,0.081
52764.164532,16.811,0.094
52764.164765,16.647,0.081
52764.176569,16.814,0.099
52764.176799,16.78,0.094
52764.189212,16.675,0.089
52764.189445,16.703,0.091
52912.439873,16.506,0.08
52912.452833,16.615,0.081
52912.465913,16.574,0.076
52912.478618,16.699,0.081
52917.458394,16.866,0.115
52917.47254,16.953,0.122
52917.486357,17.046,0.128
52934.426076,17.047,0.13
52934.437695,17.036,0.135
52934.449179,17.06,0.126
52934.460645,17.122,0.131
52934.472027,16.988,0.115
52942.40938,16.82,0.106
52942.421559,16.766,0.158
52942.445947,16.554,0.116
52946.382524,16.918,0.109
52946.394715,16.941,0.107
52946.406684,17.018,0.113
52946.418728,17.004,0.111
52946.43074,16.948,0.104
52962.398587,16.617,0.057
52962.411457,16.707,0.061
52962.424215,16.71,0.061
52977.400944,16.649,0.078
52977.413107,16.731,0.078
52977.425048,16.676,0.068
52977.437067,16.725,0.07
52991.425528,16.995,0.071
52991.45414,17.006,0.079
52991.468049,16.928,0.074
53001.336592,16.506,0.043
53001.362665,16.564,0.044
53035.280234,16.813,0.085
53035.293596,16.908,0.096
53035.306005,16.879,0.094
53035.320679,16.849,0.089
53049.245502,17.008,0.072
53049.25732,17.004,0.07
53053.153691,16.746,0.059
53084.177788,16.825,0.137
53087.226473,16.494,0.076
53087.23703,16.349,0.041
53087.247738,16.37,0.039
53107.180543,16.673,0.069
53107.201426,16.696,0.073
53107.211936,16.78,0.076
53107.222437,16.793,0.076
53127.145854,16.704,0.155
53127.155269,17.107,0.226
53127.16457,16.967,0.205
53127.173779,17.073,0.229
53127.183058,16.941,0.214
53136.149851,16.872,0.106
53136.158585,16.86,0.109
53136.16742,16.937,0.119
53136.176219,16.986,0.137
53136.185117,17.0,0.14
53273.467032,16.756,0.099
53273.47977,16.754,0.094
53288.431118,16.867,0.109
53288.463909,16.585,0.083
53288.474665,16.74,0.089
53293.429015,16.724,0.091
53293.43993,16.714,0.087
53293.450821,16.789,0.087
53293.461781,16.745,0.084
53293.472737,16.768,0.086
53299.440343,16.695,0.105
53299.452012,16.644,0.154
53299.463686,16.687,0.124
53299.475428,16.709,0.194
53299.487109,16.641,0.163
53328.372219,16.609,0.104
53328.384395,16.731,0.142
53328.396571,16.765,0.102
53328.408747,16.848,0.137
53331.457342,17.107,0.125
53331.482273,16.961,0.107
53331.498439,17.309,0.153
53343.441088,16.971,0.388
53348.344824,16.94,0.113
53348.357118,16.899,0.109
53348.381715,16.846,0.094
53354.320131,16.872,0.085
53354.333476,16.797,0.083
53354.346822,16.813,0.081
53354.365393,16.824,0.078
53354.378803,16.871,0.083
53377.295371,16.989,0.08
53377.322356,16.942,0.08
53377.335335,16.868,0.074
53384.332272,16.66,0.189
53386.344252,16.84,0.076
53386.357343,16.759,0.074
53386.370365,16.583,0.061
53386.383875,16.481,0.059
53386.396902,16.47,0.055
53389.344893,16.918,0.109
53389.358851,16.841,0.1
53389.372345,16.582,0.085
53389.386088,16.457,0.076
53389.400753,16.442,0.063
53404.300581,17.031,0.066
53404.313438,17.094,0.071
53404.32624,17.12,0.073
53404.345992,17.083,0.073
53404.359254,17.123,0.078
53474.191606,16.738,0.109
53474.201211,16.683,0.105
53474.211318,16.67,0.107
53474.221074,16.654,0.109
53474.230774,16.796,0.124
53498.14703,16.709,0.089
53498.157122,16.767,0.13
53498.167437,16.873,0.111
53498.188337,16.534,0.203
53646.440211,16.983,0.142
53646.451125,17.112,0.144
53646.462061,17.121,0.172
53646.472988,17.178,0.139
53651.422874,16.628,0.098
53651.43378,16.63,0.093
53651.444676,16.554,0.085
53651.455558,16.651,0.093
53651.466445,16.637,0.091
53657.425209,16.619,0.089
53657.436449,16.516,0.076
53657.447704,16.653,0.083
53657.458911,16.542,0.078
53657.470146,16.608,0.08
53673.439586,16.825,0.093
53673.452397,16.742,0.089
53673.464528,16.896,0.1
53673.489404,16.882,0.098
53676.441956,16.944,0.122
53676.454983,17.0,0.118
53676.46699,16.938,0.111
53676.478978,16.926,0.1
53676.490929,16.889,0.113
53683.390688,16.688,0.168
53683.403326,16.769,0.122
53683.428634,16.735,0.087
53683.441328,16.708,0.089
53702.371141,16.811,0.081
53702.384194,16.777,0.076
53702.400718,16.744,0.072
53702.426534,16.607,0.065
53741.355333,16.825,0.067
53741.36815,16.885,0.074
53741.381404,16.835,0.07
53741.394832,16.82,0.067
53771.220945,16.798,0.13
53771.246229,16.882,0.1
53771.258882,16.948,0.111
53771.271604,16.905,0.093
53812.190387,16.941,0.084
53812.201638,16.964,0.091
53812.212869,16.943,0.096
53812.225455,16.915,0.096
53812.23681,16.962,0.106
53843.144406,16.782,0.087
53843.156515,16.675,0.081
53843.168599,16.661,0.083
53843.180612,16.66,0.081
53843.192689,16.724,0.086
53854.139881,16.785,0.157
53854.150248,16.838,0.17
53854.160628,16.827,0.17
53854.171077,16.934,0.195
53854.181594,16.857,0.173
54009.433156,16.663,0.096
54009.448153,16.834,0.104
54009.473495,16.628,0.078
54028.434108,16.892,0.135
54028.446077,16.944,0.14
54028.457682,16.899,0.134
54028.469464,16.9,0.129
54028.481283,16.907,0.129
54054.395464,16.823,0.091
54054.408208,16.872,0.097
54054.420802,16.873,0.094
54054.43341,16.881,0.096
54054.445857,16.817,0.087
54068.390197,16.625,0.068
54068.416143,16.712,0.074
54068.429303,16.678,0.074
54068.442197,16.686,0.069
54085.338901,16.761,0.117
54085.352085,16.828,0.168
54085.365321,16.801,0.092
54085.378227,16.75,0.092
54085.391186,16.801,0.096
54110.336824,16.612,0.094
54110.369513,16.428,0.063
54110.384209,16.382,0.061
54123.265623,16.876,0.093
54123.277851,16.831,0.087
54123.290053,16.776,0.083
54123.30226,16.817,0.087
54123.31448,16.819,0.087
54156.206224,16.542,0.086
54156.217217,16.586,0.087
54156.228578,16.659,0.096
54156.239624,16.66,0.097
54156.250646,16.639,0.114
54201.182716,16.616,0.074
54201.202838,16.603,0.07
54207.174022,16.672,0.14
54207.183276,16.711,0.145
54207.192554,16.62,0.135
54207.202247,16.752,0.152
54207.211754,16.77,0.16
54395.435169,16.781,0.101
54395.448713,16.806,0.107
54395.464588,16.943,0.114
54397.439463,16.99,0.118
54397.451234,17.019,0.113
54397.462898,17.087,0.111
54397.474504,17.056,0.093
54412.397868,16.817,0.065
54421.399234,16.875,0.067
54421.436677,16.894,0.067
54424.326715,17.035,0.094
54424.339219,17.001,0.085
54424.351889,16.96,0.08
54424.364492,16.936,0.074
54436.471034,16.965,0.063
54450.357721,17.068,0.065
54450.370707,16.858,0.057
54450.384238,16.749,0.054
54454.286661,16.701,0.08
54454.299743,16.765,0.08
54454.312826,16.837,0.08
54470.330604,16.667,0.133
54470.343468,16.659,0.067
54470.369078,16.695,0.118
54475.273438,16.709,0.068
54475.29869,16.712,0.05
54495.335082,16.838,0.074
54495.347546,16.84,0.076
54495.359997,17.022,0.089
54495.372621,17.044,0.087
54495.386203,16.918,0.089
54508.263995,16.714,0.073
54508.276469,16.698,0.087
54508.288691,17.006,0.102
54509.161507,16.929,0.072
54509.17333,17.02,0.076
54509.185168,16.948,0.068
54509.197006,16.917,0.065
54509.208865,17.03,0.07
54524.272588,16.941,0.089
54524.284039,16.949,0.08
54524.295479,16.917,0.087
54524.30689,16.745,0.078
54524.318327,16.786,0.074
54555.20792,16.684,0.055
54555.219604,16.751,0.059
54555.231365,16.767,0.063
54573.138105,16.758,0.124
54573.14879,16.791,0.131
54573.159494,16.957,0.146
54573.170268,16.874,0.137
54573.180986,16.895,0.141
54582.141536,16.707,0.119
54582.173311,16.794,0.13
54582.184192,17.034,0.165
54586.141414,17.036,0.098
54586.151546,16.987,0.089
54586.16173,16.935,0.231
54586.171877,16.781,0.091
54586.182051,16.696,0.072
54594.149463,16.742,0.087
54594.191015,16.696,0.111
