mjd,m,merr
52613.378942,15.844,0.039
52613.394267,15.842,0.039
52613.409594,15.811,0.035
52613.425175,15.899,0.039
52613.440456,15.922,0.041
52618.399587,15.972,0.107
52618.430933,15.899,0.05
52618.44641,16.003,0.083
52639.395781,15.774,0.033
52639.410742,15.74,0.035
52639.425949,15.743,0.033
52639.440918,15.741,0.033
52639.456951,15.761,0.033
52647.388234,15.935,0.039
52647.403201,15.939,0.039
52647.417536,15.932,0.041
52647.432032,15.986,0.043
52647.44639,15.992,0.041
52666.312148,15.891,0.031
52666.327514,15.899,0.031
52666.342859,15.961,0.031
52666.358336,15.966,0.031
52666.373856,15.92,0.031
52672.315029,15.969,0.046
52672.330136,15.96,0.038
52672.344844,15.998,0.048
52672.359557,16.054,0.038
52672.374576,16.084,0.041
52673.229569,16.024,0.039
52673.245081,16.099,0.041
52673.26068,16.028,0.037
52673.27616,16.064,0.037
52673.291722,16.028,0.035
52673.292553,16.006,0.033
52673.307975,15.997,0.031
52673.323164,15.94,0.031
52673.338423,15.926,0.031
52673.353748,15.908,0.031
52674.316127,16.068,0.037
52674.332835,16.106,0.039
52674.34781,16.099,0.039
52674.362086,16.047,0.039
52674.376146,16.044,0.039
52678.307641,16.002,0.05
52678.32174,15.983,0.054
52678.335653,15.923,0.037
52678.349717,15.842,0.037
52678.363842,15.834,0.037
52698.237619,15.927,0.031
52698.264603,15.976,0.072
52698.278418,15.866,0.03
52698.292545,15.852,0.028
52703.245288,15.941,0.031
52703.258747,15.893,0.055
52703.272681,15.836,0.048
52703.286193,15.79,0.031
52703.299488,15.765,0.031
52704.301072,16.178,0.039
52704.314456,16.189,0.041
52704.327858,16.06,0.039
52704.341385,16.077,0.041
52704.354869,16.063,0.039
52725.277003,16.088,0.058
52725.289519,16.274,0.099
52725.301995,16.11,0.045
52730.180972,15.822,0.031
52730.192594,15.768,0.03
52730.204862,15.842,0.031
52730.216395,15.869,0.033
52730.22805,15.898,0.035
52733.190949,15.903,0.033
52733.203069,15.853,0.033
52733.215224,15.79,0.031
52733.227497,15.834,0.033
52733.239635,15.775,0.031
52754.158265,16.118,0.046
52754.158608,16.16,0.045
52754.170878,16.151,0.048
52754.183231,16.034,0.046
52754.195739,15.991,0.045
52754.208365,15.924,0.045
52758.145994,15.831,0.03
52758.157988,15.832,0.03
52758.170019,15.821,0.031
52758.182224,15.882,0.031
52758.194245,15.877,0.031
52933.474804,15.955,0.063
52933.487386,15.979,0.061
52933.500225,16.064,0.064
52940.454884,16.033,0.072
52940.467547,16.06,0.093
52940.480431,16.107,0.141
52940.493318,16.142,0.105
52944.460629,16.023,0.051
52944.473314,15.968,0.048
52964.456282,15.79,0.028
52964.469269,15.841,0.028
52964.482623,15.844,0.028
52964.497989,15.857,0.028
52964.511799,15.898,0.028
52966.403518,15.867,0.033
52966.416308,15.843,0.033
52966.429102,15.873,0.033
52966.44175,15.921,0.033
52966.454458,15.891,0.031
52974.397343,15.913,0.031
52974.41043,15.895,0.031
52974.423363,15.97,0.033
52974.43638,15.992,0.033
52974.44922,16.013,0.035
52993.390559,16.04,0.026
52993.427823,16.003,0.023
52994.408799,15.839,0.026
52994.421994,15.828,0.024
52994.435056,15.791,0.026
52994.448304,15.85,0.031
52994.461447,15.881,0.03
52997.422253,16.027,0.187
52997.435148,15.918,0.067
52997.448263,16.104,0.128
53025.311834,15.75,0.022
53025.325199,15.81,0.026
53025.338201,15.934,0.105
53025.351087,15.824,0.024
53028.337648,15.754,0.02
53028.35039,15.718,0.02
53028.362953,15.723,0.02
53028.375476,15.735,0.02
53028.387964,15.736,0.02
53031.337127,16.07,0.031
53031.349583,15.974,0.03
53031.362066,15.893,0.028
53031.374724,15.876,0.028
53031.387152,15.826,0.028
53034.276428,16.081,0.041
53034.288997,16.047,0.04
53034.301734,16.092,0.04
53034.314335,16.14,0.041
53034.32702,16.127,0.041
53052.271585,16.006,0.031
53052.283354,16.073,0.033
53052.295202,16.077,0.033
53052.307204,16.011,0.033
53052.318939,16.038,0.033
53057.321422,16.111,0.083
53061.273448,15.993,0.024
53061.284736,15.951,0.022
53061.295958,15.892,0.022
53061.307117,15.837,0.022
53061.318279,15.791,0.02
53079.222765,16.048,0.036
53079.233845,16.02,0.035
53079.244902,15.961,0.031
53079.255833,15.951,0.031
53079.266791,15.901,0.03
53082.230761,16.049,0.026
53082.241764,16.065,0.026
53082.253024,16.05,0.026
53082.26411,16.017,0.026
53082.275489,16.015,0.026
53083.170352,15.772,0.023
53083.182064,15.76,0.023
53083.193626,15.722,0.02
53083.205341,15.809,0.02
53083.216536,15.754,0.018
53084.170664,16.157,0.063
53084.182264,16.201,0.104
53084.193853,16.137,0.026
53084.20529,16.076,0.026
53084.216718,16.041,0.025
53085.2739,16.011,0.1
53091.228848,15.902,0.028
53091.23935,15.975,0.081
53091.260409,15.818,0.024
53091.271114,15.767,0.022
53110.185401,16.06,0.045
53110.196222,16.118,0.048
53110.207275,16.155,0.051
53110.218233,16.193,0.053
53110.229055,16.184,0.054
53116.201287,15.844,0.037
53116.212422,15.779,0.054
53116.223554,15.775,0.091
53116.234938,15.85,0.104
53116.246173,15.887,0.068
53138.152445,16.085,0.046
53138.162266,16.073,0.046
53138.182332,16.094,0.048
53138.192015,16.088,0.045
53141.16174,15.881,0.037
53141.171172,15.886,0.039
53141.180837,15.947,0.037
53141.19046,15.954,0.039
53141.200113,15.995,0.041
53144.16368,15.981,0.099
53144.172489,15.926,0.045
53144.181417,15.909,0.046
53144.199135,15.932,0.059
53292.406289,16.008,0.085
53292.425421,16.167,0.081
53292.44455,16.027,0.068
53297.412566,16.044,0.078
53297.422314,15.937,0.067
53297.432061,15.937,0.063
53297.441806,15.922,0.059
53297.451544,15.928,0.057
53327.374562,15.903,0.055
53327.386977,15.885,0.05
53327.399371,15.955,0.052
53327.41176,15.95,0.05
53327.424189,15.964,0.05
53328.440525,15.919,0.044
53347.466048,15.936,0.037
53347.482525,15.911,0.037
53347.49698,15.902,0.037
53347.515658,15.956,0.037
53353.391248,15.841,0.037
53353.404187,15.858,0.037
53353.417122,15.825,0.037
53353.430072,15.832,0.037
53353.443053,15.823,0.037
53357.448345,16.212,0.04
53357.462824,16.141,0.04
53357.477373,16.18,0.041
53357.491919,16.131,0.04
53357.506476,16.068,0.045
53376.411403,15.911,0.035
53376.425858,15.924,0.035
53376.439805,15.945,0.035
53376.453497,15.966,0.035
53376.467031,15.952,0.037
53381.353933,15.84,0.033
53381.367245,15.846,0.031
53381.381204,15.864,0.065
53381.394859,15.851,0.031
53381.409196,15.919,0.05
53403.288993,15.826,0.028
53403.301784,15.914,0.031
53403.314603,15.946,0.033
53403.327336,15.889,0.033
53410.28531,15.965,0.072
53410.298756,16.026,0.048
53410.311749,16.014,0.037
53410.325102,16.082,0.046
53410.338724,16.08,0.031
53432.28121,15.932,0.057
53432.308198,15.83,0.087
53432.335483,15.81,0.063
53437.230996,16.106,0.037
53437.24258,16.072,0.035
53437.255057,16.015,0.033
53437.266658,15.989,0.033
53437.278135,15.954,0.031
53440.235982,16.013,0.035
53440.247688,16.083,0.035
53440.259297,16.077,0.037
53440.274496,16.068,0.037
53440.287197,16.057,0.037
53443.225129,15.919,0.061
53443.259167,16.072,0.137
53445.34762,15.949,0.039
53445.358931,15.918,0.043
53445.370631,15.904,0.041
53445.38315,15.923,0.041
53445.394897,15.918,0.043
53446.16516,15.956,0.039
53446.175762,16.028,0.039
53446.18635,15.954,0.039
53446.196958,15.937,0.037
53446.207551,15.967,0.037
53464.237898,15.843,0.033
53464.248326,15.876,0.031
53464.259184,15.941,0.035
53464.26974,15.964,0.039
53464.280173,16.036,0.043
53495.151317,16.031,0.044
53495.161465,16.016,0.046
53495.171636,15.984,0.044
53495.181809,15.975,0.046
53495.191941,16.01,0.065
53501.141324,16.033,0.048
53501.152673,16.011,0.048
53501.163413,15.99,0.05
53501.174427,15.949,0.05
53501.185154,16.01,0.054
53672.459435,15.926,0.052
53672.472685,15.909,0.05
53672.487106,15.792,0.044
53675.445529,15.932,0.043
53675.457725,15.89,0.044
53675.469737,15.982,0.043
53675.482658,15.907,0.043
53675.495007,16.002,0.044
53680.450409,15.892,0.039
53680.462902,15.855,0.037
53680.475265,15.9,0.037
53680.487578,15.936,0.039
53680.49991,15.986,0.043
53705.449971,16.075,0.044
53705.4629,16.061,0.041
53705.475624,16.039,0.039
53705.488337,16.013,0.039
53705.50091,16.066,0.039
53708.395439,15.852,0.031
53708.40857,15.835,0.031
53708.421765,15.852,0.031
53708.434754,15.909,0.033
53708.447636,15.961,0.035
53712.394333,16.027,0.052
53712.407185,16.033,0.048
53712.425154,16.088,0.05
53712.438736,16.027,0.048
53712.45256,16.029,0.046
53732.411408,15.874,0.048
53732.424177,15.828,0.048
53732.436954,15.775,0.043
53732.449729,15.757,0.043
53732.462394,15.798,0.044
53735.415284,16.067,0.046
53738.399484,15.965,0.039
53738.412601,16.048,0.041
53738.42564,16.151,0.048
53738.438627,16.092,0.044
53738.451775,16.145,0.046
53759.343476,15.756,0.031
53759.356264,15.814,0.035
53759.36907,15.855,0.035
53759.381744,15.921,0.037
53759.394435,15.906,0.037
53762.347471,15.818,0.031
53762.360154,15.786,0.03
53762.372944,15.738,0.028
53762.385965,15.747,0.028
53762.399085,15.803,0.03
53769.320896,15.977,0.031
53769.334104,15.885,0.03
53769.347594,15.851,0.03
53769.361597,15.851,0.028
53769.375545,15.859,0.028
53774.282603,16.148,0.057
53774.295059,16.015,0.046
53774.307707,16.061,0.05
53774.320152,16.04,0.048
53774.332854,16.004,0.048
53788.288425,16.115,0.059
53788.301324,16.181,0.041
53788.339378,16.073,0.033
53788.401827,15.82,0.041
53788.413726,15.723,0.037
53788.425641,15.802,0.055
53788.437831,15.812,0.052
53790.282179,16.029,0.041
53790.293947,16.014,0.043
53790.305725,15.948,0.039
53790.317478,15.955,0.041
53790.32922,15.852,0.035
53793.286396,16.183,0.179
53793.298257,16.298,0.165
53793.310198,16.178,0.17
53799.277701,15.997,0.039
53799.289179,15.998,0.037
53799.30068,15.967,0.037
53799.312193,15.97,0.041
53799.32389,15.973,0.044
53813.257355,16.048,0.046
53813.268943,16.019,0.046
53813.281375,16.0,0.046
53813.292753,15.927,0.045
53813.304202,15.897,0.045
53817.284479,15.942,0.048
53817.29532,15.935,0.044
53817.306169,16.006,0.048
53817.317229,16.01,0.05
53817.328177,16.068,0.055
53819.233248,15.915,0.043
53819.243996,15.937,0.041
53819.25474,15.987,0.041
53819.265711,16.005,0.044
53819.277243,16.012,0.059
53820.251777,15.994,0.114
53827.241089,16.011,0.043
53827.252074,16.001,0.043
53827.262958,16.027,0.043
53827.273767,16.027,0.044
53827.284348,16.052,0.046
53844.184461,16.045,0.056
53844.195898,15.991,0.053
53844.207088,16.035,0.056
53844.218215,16.041,0.058
53844.229504,16.082,0.063
53848.186839,16.009,0.052
53848.197454,16.039,0.054
53848.208122,16.031,0.054
53848.218794,16.024,0.055
53848.229445,16.112,0.063
53850.217158,16.01,0.046
53850.227785,15.926,0.044
53850.23847,15.976,0.094
53850.249369,15.933,0.046
53850.260472,15.935,0.048
53852.146273,16.065,0.051
53852.15642,16.034,0.051
53852.166616,16.06,0.053
53852.177053,16.061,0.054
53852.187193,16.051,0.054
53853.187456,15.959,0.05
53853.198071,15.945,0.046
53853.209481,15.957,0.048
53853.219888,16.002,0.052
53853.230321,16.033,0.054
54026.486586,16.042,0.099
54031.435086,15.867,0.048
54031.44711,15.892,0.046
54031.459433,15.868,0.043
54031.471329,15.85,0.041
54031.48326,15.892,0.041
54034.441589,16.091,0.068
54034.453808,16.095,0.066
54036.432719,15.916,0.051
54036.445802,15.874,0.046
54036.458943,15.851,0.045
54036.471205,15.842,0.041
54036.483061,15.827,0.04
54041.429792,16.062,0.061
54041.443441,16.002,0.056
54041.455859,15.96,0.051
54041.468412,15.89,0.046
54041.480627,15.844,0.043
54057.38697,16.158,0.059
54057.399647,16.167,0.058
54057.412469,16.137,0.053
54057.425166,16.043,0.048
54057.438054,15.986,0.043
54057.452049,15.898,0.037
54057.464589,15.842,0.035
54057.477071,15.75,0.033
54057.489559,15.756,0.033
54057.502045,15.811,0.033
54060.428259,16.096,0.041
54060.442196,16.054,0.041
54060.45512,16.09,0.043
54060.468019,15.998,0.041
54060.481078,15.984,0.039
54068.391416,15.876,0.028
54068.404458,15.89,0.028
54068.41751,15.962,0.03
54068.43057,15.892,0.028
54068.443626,15.954,0.03
54083.391319,16.123,0.061
54083.402853,16.155,0.057
54083.404433,15.993,0.068
54083.416042,16.112,0.044
54083.417246,16.206,0.066
54083.429235,16.047,0.043
54083.442429,15.995,0.044
54083.443067,16.061,0.061
54083.455628,15.976,0.048
54086.360938,15.889,0.035
54086.374144,15.9,0.035
54086.387076,15.953,0.035
54086.400014,15.984,0.033
54086.412954,16.0,0.035
54091.315426,15.838,0.033
54091.328089,15.755,0.031
54091.340904,15.77,0.031
54091.353676,15.838,0.033
54091.366692,15.83,0.033
54113.326741,16.11,0.041
54113.378549,16.115,0.041
54115.347463,16.083,0.046
54115.386451,15.905,0.04
54115.399373,15.842,0.038
54123.331952,16.056,0.045
54123.344387,15.998,0.041
54123.356774,15.96,0.041
54123.369336,16.009,0.043
54123.381965,16.001,0.043
54144.305389,15.885,0.031
54144.316505,15.955,0.033
54144.327606,15.933,0.033
54144.338804,15.994,0.035
54144.349907,16.032,0.041
54148.279744,16.008,0.04
54148.291888,16.032,0.04
54148.303644,16.048,0.04
54148.315357,16.013,0.04
54154.223505,15.99,0.033
54154.235062,15.962,0.031
54154.246513,16.0,0.033
54154.257946,15.978,0.033
54154.269417,15.969,0.033
54154.27319,16.04,0.041
54154.284732,16.046,0.041
54154.31965,15.975,0.036
54169.157238,15.903,0.024
54169.157966,15.895,0.038
54169.168325,15.916,0.024
54169.168964,15.905,0.036
54169.179827,15.944,0.022
54169.180569,15.964,0.038
54169.190894,15.997,0.024
54169.191557,15.932,0.038
54169.201911,15.976,0.024
54169.20261,15.975,0.038
54169.220526,16.026,0.041
54169.231563,16.02,0.041
54169.242546,16.026,0.041
54169.253523,16.013,0.046
54169.264531,16.053,0.045
54173.21709,15.957,0.026
54173.227741,15.944,0.026
54173.238427,15.907,0.026
54173.249118,16.014,0.028
54173.259882,15.916,0.026
54176.222045,15.87,0.03
54176.232728,15.898,0.03
54176.243588,15.871,0.031
54176.254137,15.913,0.031
54176.265197,15.911,0.031
54179.234534,15.935,0.03
54179.245704,15.907,0.03
54179.25705,15.885,0.03
54179.268181,15.89,0.028
54179.27978,15.92,0.03
54186.292419,15.944,0.026
54186.303863,15.907,0.028
54186.315195,16.013,0.028
54186.326619,15.916,0.026
54206.179597,15.829,0.03
54206.188694,15.836,0.03
54206.19772,15.922,0.031
54206.206851,15.86,0.031
54206.2159,15.851,0.031
54208.170494,16.035,0.048
54208.179299,15.974,0.046
54208.188085,16.021,0.048
54208.196687,16.031,0.048
54208.205196,16.101,0.051
54209.174844,15.894,0.033
54209.183828,15.869,0.031
54209.192821,15.865,0.044
54209.201824,15.828,0.035
54209.210826,15.836,0.041
54393.430757,15.863,0.051
54393.442824,15.952,0.053
54393.455282,15.965,0.053
54393.468497,16.0,0.054
54393.480176,15.91,0.049
54403.472732,15.594,0.043
54409.440056,15.765,0.033
54409.452297,15.771,0.03
54409.464539,15.773,0.03
54409.476763,15.815,0.03
54419.448819,15.763,0.022
54419.46157,15.786,0.022
54419.474306,15.825,0.024
54419.487045,15.908,0.024
54419.499793,15.918,0.026
54439.385382,15.852,0.02
54439.398253,15.838,0.022
54439.411113,15.908,0.022
54439.424006,15.987,0.024
54439.436882,16.001,0.024
54448.384708,15.892,0.028
54448.397853,15.884,0.026
54448.410892,15.91,0.028
54448.423916,15.886,0.022
54448.436934,15.907,0.02
54464.459374,15.849,0.03
54464.472432,15.758,0.03
54464.485494,15.696,0.03
54464.498559,15.58,0.028
54464.511623,15.661,0.028
54480.458291,16.036,0.063
54480.470581,16.038,0.066
54480.483192,15.977,0.063
54480.495484,15.967,0.066
54480.507806,15.918,0.066
54507.269698,16.033,0.026
54507.281927,16.034,0.028
54507.294182,16.001,0.026
54507.306589,15.976,0.026
54507.319007,15.961,0.026
54523.331071,15.866,0.024
54523.342868,15.878,0.026
54523.35457,15.891,0.026
54523.366289,15.908,0.028
54523.377992,15.96,0.03
54530.27464,16.159,0.093
54530.286058,16.054,0.035
54530.297582,15.924,0.026
54530.308934,15.94,0.026
54530.320271,15.904,0.039
54536.214423,15.724,0.02
54536.225509,15.734,0.02
54536.236442,15.765,0.02
54536.247391,15.775,0.02
54536.258458,15.824,0.022
54554.240845,15.94,0.024
54554.252746,15.974,0.024
54554.264695,15.979,0.024
54554.276811,15.995,0.026
54554.288731,15.974,0.026
54563.190274,15.965,0.028
54563.201752,15.962,0.028
54563.213323,15.997,0.028
54563.224903,16.025,0.03
54563.236387,16.045,0.03
54581.144492,16.086,0.083
54581.154269,16.058,0.083
54581.16419,16.022,0.084
54581.17386,16.078,0.086
54581.183551,16.22,0.096
54584.194438,15.956,0.035
54584.205319,16.003,0.037
54584.216213,16.029,0.037
54584.227109,16.025,0.041
54584.238007,16.061,0.041
54591.148815,15.898,0.035
54591.15943,15.962,0.035
54591.16979,16.014,0.039
54591.180118,16.045,0.039
54591.190341,15.973,0.041
54594.15775,15.909,0.071
54594.195901,15.944,0.081
