mjd,m,merr
52613.378162,15.299,0.02
52613.39349,15.353,0.022
52613.40882,15.383,0.02
52613.424398,15.481,0.022
52613.439676,15.51,0.024
52618.398807,15.426,0.065
52618.414586,15.411,0.024
52618.430149,15.503,0.03
52618.445629,15.555,0.033
52643.372717,15.136,0.017
52643.386988,15.2,0.018
52643.401143,15.254,0.02
52643.415435,15.312,0.022
52643.429564,15.377,0.022
52647.387376,15.086,0.017
52647.402463,14.763,0.013
52647.416799,14.806,0.015
52647.431298,14.883,0.015
52647.445671,15.016,0.017
52666.3115,15.759,0.024
52666.326863,15.77,0.024
52666.342209,15.752,0.024
52666.357684,15.741,0.024
52666.373205,15.748,0.024
52670.329577,15.529,0.022
52670.337673,15.555,0.026
52670.343547,15.594,0.022
52670.354897,15.622,0.03
52670.357535,15.664,0.024
52670.37075,15.665,0.03
52670.371541,15.7,0.028
52670.385547,15.7,0.028
52670.386493,15.676,0.031
52670.402154,15.695,0.035
52673.228788,15.782,0.03
52673.244301,15.749,0.028
52673.259901,15.807,0.028
52673.275384,15.859,0.03
52673.290944,15.824,0.028
52678.30693,15.754,0.039
52678.320948,15.356,0.031
52678.334946,14.843,0.013
52678.34901,14.754,0.013
52678.363134,14.803,0.013
52697.255626,15.831,0.185
52697.270211,15.758,0.033
52703.2449,15.748,0.026
52703.258359,15.739,0.048
52703.272285,15.732,0.054
52703.28579,15.758,0.031
52703.299092,15.804,0.028
52706.239072,15.429,0.018
52706.252303,15.476,0.02
52706.265489,15.496,0.02
52706.278547,15.545,0.02
52706.291629,15.592,0.022
52724.181983,15.762,0.031
52724.19424,15.757,0.031
52724.219196,15.772,0.031
52724.231301,15.871,0.035
52727.228379,15.694,0.107
52730.180013,15.757,0.03
52730.192245,15.497,0.022
52730.204521,15.026,0.015
52730.216056,14.738,0.013
52730.227665,14.74,0.013
52733.190597,15.736,0.028
52733.20272,15.721,0.028
52733.214876,15.705,0.028
52733.227149,15.742,0.028
52733.239287,15.728,0.028
52753.140852,15.483,0.026
52753.153411,15.498,0.026
52753.165789,15.578,0.03
52753.178366,15.611,0.031
52753.19076,15.707,0.035
52758.145647,15.525,0.022
52758.157646,15.558,0.022
52758.169677,15.603,0.024
52758.181862,15.638,0.024
52758.193903,15.647,0.024
52933.499885,15.782,0.048
52941.449,15.286,0.017
52941.461364,15.333,0.017
52941.473847,15.399,0.017
52941.486109,15.418,0.017
52941.497984,15.461,0.018
52945.434795,15.034,0.02
52945.446746,14.757,0.015
52945.458742,14.762,0.015
52945.470689,14.827,0.015
52945.482608,14.905,0.017
52964.45589,15.72,0.022
52964.468879,15.751,0.022
52964.482229,15.803,0.024
52964.497599,15.83,0.024
52964.511406,15.822,0.024
52966.40316,14.851,0.013
52966.415895,14.922,0.013
52966.428744,14.997,0.015
52966.44139,15.089,0.015
52966.454099,15.186,0.015
52974.408519,15.725,0.025
52974.423575,15.702,0.025
52974.436005,15.728,0.025
52992.413282,15.268,0.015
52992.426389,15.318,0.016
52992.439079,15.334,0.015
52992.451791,15.391,0.016
52992.464473,15.452,0.016
52995.344347,15.672,0.018
52995.357344,15.698,0.018
52995.370574,15.713,0.018
52995.38362,15.724,0.018
52995.39663,15.728,0.018
53000.352313,15.727,0.018
53000.366054,15.75,0.018
53000.379781,15.745,0.018
53000.392904,15.737,0.018
53000.406069,15.731,0.018
53026.296118,15.733,0.017
53026.309008,15.752,0.017
53026.322017,15.735,0.017
53026.334777,15.74,0.017
53026.347803,15.745,0.017
53029.343502,15.499,0.043
53029.355996,15.667,0.117
53029.36872,15.666,0.098
53029.37262,15.679,0.068
53029.372802,15.682,0.093
53031.272728,15.715,0.018
53031.298143,15.706,0.018
53031.31053,15.707,0.02
53031.322919,15.727,0.02
53034.276116,15.276,0.02
53034.301423,15.351,0.021
53034.314025,15.446,0.023
53051.272682,15.741,0.022
53051.284411,15.752,0.022
53051.296051,15.759,0.022
53051.307725,15.743,0.022
53051.319422,15.737,0.022
53058.271545,15.126,0.009
53058.285376,14.77,0.007
53058.296982,14.783,0.007
53058.310921,14.86,0.007
53058.32519,14.934,0.009
53078.262898,15.819,0.035
53078.274158,15.738,0.028
53078.285141,15.431,0.021
53078.296279,14.967,0.015
53083.229151,15.754,0.018
53083.240039,15.782,0.02
53083.250878,15.83,0.018
53083.261646,15.825,0.018
53083.272358,15.797,0.018
53086.233812,15.614,0.041
53086.244888,15.636,0.074
53086.256293,15.612,0.043
53086.267588,15.675,0.037
53086.278945,15.688,0.031
53092.227985,15.752,0.028
53092.238332,15.775,0.03
53092.249044,15.738,0.03
53092.259448,15.77,0.03
53092.26974,15.751,0.03
53109.183238,15.831,0.033
53109.19357,15.827,0.035
53109.203993,15.816,0.035
53109.214448,15.756,0.033
53109.2247,15.575,0.028
53114.192472,15.819,0.022
53114.203588,15.814,0.022
53114.214854,15.795,0.022
53114.225917,15.681,0.02
53114.236981,15.335,0.015
53117.193551,15.652,0.018
53117.204423,15.658,0.018
53117.215294,15.658,0.02
53117.225997,15.717,0.022
53117.236973,15.719,0.022
53137.152804,15.422,0.026
53142.156896,15.421,0.02
53142.167281,15.459,0.02
53142.177548,15.504,0.022
53142.187969,15.523,0.022
53142.197878,15.549,0.026
53146.161139,14.981,0.017
53146.170334,15.051,0.015
53146.179512,15.094,0.015
53146.188799,15.158,0.017
53146.19798,15.221,0.017
53292.405753,15.71,0.054
53292.415314,15.699,0.05
53292.424884,15.797,0.052
53292.434444,15.823,0.052
53292.444013,15.716,0.044
53297.412034,15.683,0.05
53297.420091,15.663,0.041
53297.421782,15.708,0.048
53297.431529,15.786,0.048
53297.431931,15.687,0.04
53297.441274,15.741,0.044
53297.445567,15.739,0.038
53297.451013,15.734,0.043
53297.458546,15.723,0.036
53297.470987,15.731,0.036
53316.442583,15.58,0.061
53316.466787,15.593,0.05
53316.478902,15.629,0.081
53327.374257,15.542,0.037
53327.386666,15.532,0.033
53327.399056,15.574,0.035
53327.411445,15.622,0.033
53327.423875,15.68,0.035
53347.465723,15.728,0.028
53347.482188,15.695,0.026
53347.496659,15.726,0.028
53347.515337,15.753,0.028
53353.390939,15.741,0.03
53353.403877,15.736,0.03
53353.416812,15.727,0.03
53353.429762,15.728,0.03
53353.442742,15.712,0.03
53356.373896,14.951,0.017
53356.387855,15.032,0.018
53356.401721,15.113,0.018
53356.415883,15.19,0.02
53356.429853,15.266,0.022
53357.434243,15.572,0.026
53357.446201,15.657,0.025
53357.447636,15.645,0.026
53357.448143,15.613,0.023
53357.460672,15.635,0.025
53357.461059,15.661,0.028
53357.462621,15.699,0.026
53357.475215,15.701,0.026
53357.476197,15.707,0.03
53357.477171,15.701,0.026
53357.489801,15.713,0.028
53357.491274,15.694,0.03
53357.491716,15.748,0.028
53357.504325,15.734,0.03
53357.506271,15.725,0.028
53376.411018,15.082,0.015
53376.425479,15.168,0.015
53376.439417,15.212,0.017
53376.453115,15.306,0.017
53376.466649,15.366,0.018
53381.353539,14.745,0.011
53381.366857,14.773,0.011
53381.38081,14.828,0.02
53381.394138,14.932,0.013
53381.408803,15.034,0.02
53403.288593,15.259,0.015
53403.301401,15.316,0.017
53403.314219,15.338,0.017
53403.326956,15.382,0.018
53410.284917,15.75,0.054
53410.298339,15.743,0.033
53410.311328,15.727,0.024
53410.324703,15.72,0.03
53410.338313,15.742,0.022
53432.280842,15.75,0.046
53432.295251,15.321,0.094
53432.307832,14.818,0.035
53432.322533,14.651,0.05
53432.335116,14.769,0.026
53464.23759,15.121,0.017
53464.248017,15.182,0.017
53464.258874,15.23,0.017
53464.269253,15.268,0.018
53464.279862,15.314,0.02
53495.150576,14.919,0.017
53495.160726,14.952,0.017
53495.170897,15.038,0.018
53495.181059,15.053,0.02
53495.191177,15.148,0.028
53501.141024,15.33,0.026
53501.152371,15.376,0.026
53501.162858,15.376,0.028
53501.174125,15.458,0.03
53501.184836,15.457,0.031
53672.458539,15.821,0.043
53672.47179,15.778,0.041
53672.485769,15.811,0.041
53672.499781,15.842,0.041
53675.444633,15.444,0.024
53675.456829,15.464,0.026
53675.46884,15.517,0.026
53675.481576,15.528,0.026
53675.494113,15.596,0.028
53680.449984,15.432,0.022
53680.462477,15.47,0.022
53680.474772,15.525,0.024
53680.487151,15.539,0.024
53680.499443,15.566,0.024
53705.449572,15.374,0.022
53705.462502,15.418,0.022
53705.475226,15.457,0.022
53705.48794,15.494,0.022
53705.50051,15.534,0.022
53708.39504,15.781,0.028
53708.408171,15.776,0.026
53708.421367,15.779,0.026
53708.434355,15.808,0.028
53708.447235,15.86,0.03
53713.402233,15.727,0.052
53713.415021,15.775,0.046
53713.428044,15.768,0.05
53713.441323,15.751,0.043
53713.454263,15.799,0.046
53732.410611,15.674,0.037
53732.42338,15.675,0.037
53732.43616,15.734,0.037
53732.448831,15.727,0.039
53732.4616,15.739,0.039
53735.414879,15.016,0.017
53735.453945,15.241,0.026
53739.350129,15.736,0.033
53739.363447,15.785,0.044
53739.376678,15.766,0.128
53739.40305,15.902,0.165
53759.343074,15.733,0.026
53759.355863,15.77,0.03
53759.368668,15.762,0.03
53759.381341,15.79,0.031
53759.394032,15.752,0.03
53762.34707,15.448,0.02
53762.359753,15.478,0.02
53762.372544,15.527,0.02
53762.385564,15.579,0.022
53762.398684,15.598,0.022
53770.22459,15.747,0.03
53770.237716,15.728,0.028
53770.250764,15.768,0.028
53770.26382,15.757,0.028
53770.276854,15.744,0.026
53772.283179,15.084,0.018
53772.29592,15.151,0.02
53772.308717,15.223,0.02
53772.32137,15.282,0.024
53772.334118,15.321,0.024
53788.236411,15.264,0.026
53788.24926,15.298,0.023
53788.262053,15.339,0.04
53788.27514,15.395,0.025
53788.28799,15.452,0.03
53788.400045,15.732,0.031
53788.411936,15.707,0.033
53788.423849,15.738,0.035
53788.435804,15.744,0.039
53790.28179,15.756,0.03
53790.293555,15.77,0.031
53790.305336,15.79,0.031
53790.317087,15.753,0.03
53790.328829,15.785,0.031
53793.297863,15.447,0.059
53799.277057,15.67,0.028
53799.288536,15.681,0.028
53799.300034,15.718,0.03
53799.311546,15.716,0.03
53799.323244,15.711,0.03
53813.256946,15.203,0.021
53813.268533,15.265,0.023
53813.280968,15.313,0.025
53813.292339,15.361,0.026
53813.303789,15.395,0.028
53817.282946,14.783,0.015
53817.293789,14.831,0.017
53817.304638,14.928,0.018
53817.315698,15.0,0.018
53817.326632,15.067,0.02
53819.232859,15.456,0.026
53819.243609,15.466,0.024
53819.254351,15.527,0.026
53819.265323,15.524,0.028
53820.251365,15.779,0.142
53827.24071,15.764,0.031
53827.251695,15.556,0.026
53827.262579,15.103,0.018
53827.273386,14.803,0.015
53827.283969,14.76,0.015
53844.183987,15.115,0.02
53844.195421,15.158,0.021
53844.206532,15.213,0.021
53844.217735,15.308,0.025
53844.229024,15.346,0.026
53848.18605,15.454,0.031
53848.196665,15.044,0.022
53848.207333,14.743,0.017
53848.218005,14.759,0.018
53848.228655,14.784,0.018
53850.216771,15.573,0.03
53850.227399,15.608,0.031
53850.23808,15.791,0.113
53850.248979,15.627,0.033
53850.260086,15.692,0.035
53852.145816,15.772,0.04
53852.15596,15.713,0.038
53852.166159,15.686,0.038
53852.176595,15.754,0.041
53852.186735,15.718,0.043
53853.18708,15.561,0.033
53853.197691,15.224,0.024
53853.209103,14.78,0.018
53853.21951,14.726,0.017
53853.229941,14.758,0.017
54031.43455,15.797,0.045
54031.446731,15.719,0.038
54031.459056,15.735,0.036
54031.470921,15.715,0.035
54031.482883,15.773,0.036
54036.432047,15.731,0.041
54036.44542,15.767,0.04
54036.458562,15.731,0.038
54036.470825,15.764,0.036
54036.482679,15.745,0.035
54041.429238,15.826,0.048
54041.442844,15.723,0.041
54041.455291,15.781,0.043
54041.467844,15.726,0.04
54041.480059,15.798,0.041
54057.386519,15.739,0.04
54057.399223,15.736,0.038
54057.411935,15.697,0.036
54057.424742,15.789,0.036
54057.437613,15.772,0.036
54057.451653,15.82,0.03
54057.464193,15.85,0.031
54057.476676,15.813,0.031
54057.489163,15.664,0.026
54057.501649,15.251,0.018
54060.37633,15.378,0.02
54060.388756,15.401,0.02
54060.401193,15.458,0.022
54060.413641,15.492,0.022
54060.426096,15.476,0.022
54068.390828,15.838,0.026
54068.403868,15.756,0.024
54068.416922,15.424,0.018
54068.429978,14.93,0.011
54068.443036,14.747,0.009
54083.390725,15.82,0.046
54083.402419,15.8,0.039
54083.403841,15.822,0.056
54083.415607,15.785,0.03
54083.416656,15.722,0.041
54083.428801,15.48,0.022
54083.429641,15.443,0.033
54083.441994,15.028,0.017
54083.442477,14.939,0.021
54083.455192,14.718,0.015
54086.360526,15.522,0.026
54086.373732,15.619,0.026
54086.386665,15.614,0.026
54086.399602,15.68,0.024
54086.412542,15.673,0.026
54091.315024,15.395,0.02
54091.327686,15.408,0.02
54091.340502,15.463,0.02
54091.353273,15.463,0.02
54091.366289,15.514,0.022
54113.326337,15.785,0.087
54113.365175,15.769,0.033
54115.347058,14.945,0.016
54115.360152,15.016,0.018
54115.373168,15.112,0.02
54115.386045,15.221,0.021
54115.398965,15.249,0.021
54123.33156,15.762,0.035
54123.343988,15.71,0.031
54123.356375,15.731,0.031
54123.368937,15.769,0.033
54123.381568,15.751,0.033
54144.305029,15.745,0.026
54144.316144,15.772,0.026
54144.327247,15.743,0.026
54144.338444,15.744,0.026
54144.349547,15.77,0.028
54148.279366,15.672,0.03
54148.291509,15.706,0.03
54148.303265,15.708,0.028
54148.314978,15.726,0.03
54148.32677,15.721,0.031
54154.223085,15.713,0.024
54154.234642,15.764,0.026
54154.246091,15.726,0.024
54154.257526,15.751,0.026
54154.268994,15.726,0.024
54154.272653,15.745,0.031
54154.284189,15.729,0.03
54154.296041,15.729,0.03
54154.307618,15.75,0.03
54154.319109,15.752,0.03
54169.220004,15.701,0.028
54169.23104,15.707,0.028
54169.242021,15.733,0.028
54169.252997,15.763,0.033
54169.264006,15.701,0.031
54173.21672,15.391,0.017
54173.227371,15.426,0.017
54173.238054,15.44,0.017
54173.248745,15.456,0.018
54173.25951,15.508,0.018
54176.22167,15.819,0.026
54176.232353,15.791,0.026
54176.243212,15.696,0.024
54176.253762,15.443,0.018
54176.264821,14.981,0.013
54179.234162,15.672,0.022
54179.245332,15.693,0.022
54179.256676,15.73,0.024
54179.267804,15.724,0.022
54179.27939,15.746,0.024
54205.176802,15.649,0.033
54205.186098,15.666,0.033
54205.195526,15.677,0.035
54205.204977,15.702,0.038
54205.214322,15.692,0.04
54206.179244,15.728,0.026
54206.188339,15.773,0.026
54206.197365,15.766,0.026
54206.206495,15.731,0.026
54206.215544,15.759,0.026
54209.174489,15.409,0.022
54209.183472,15.434,0.02
54209.192464,15.466,0.035
54209.201466,15.507,0.03
54209.21047,15.524,0.028
54393.430492,15.23,0.031
54393.442559,15.344,0.033
54393.454184,15.329,0.033
54393.468231,15.409,0.033
54393.479909,15.48,0.036
54410.436175,15.724,0.048
54410.448518,15.728,0.052
54410.460705,15.797,0.065
54410.472915,15.787,0.08
54410.485196,15.74,0.031
54419.448214,15.559,0.017
54419.460967,15.589,0.017
54419.473702,15.651,0.018
54419.486441,15.667,0.018
54419.499189,15.68,0.018
54440.407782,15.625,0.015
54440.420699,15.641,0.015
54440.433777,15.678,0.017
54440.446853,15.671,0.017
54440.459778,15.692,0.017
54444.384981,15.281,0.015
54444.398013,15.33,0.015
54444.411009,15.355,0.024
54448.38409,14.775,0.011
54448.397136,14.839,0.011
54448.410272,14.897,0.009
54448.423299,14.977,0.009
54448.436316,15.043,0.009
54464.458896,15.406,0.018
54464.471954,15.445,0.018
54464.485018,15.548,0.02
54464.498084,15.565,0.022
54474.331856,14.818,0.048
54474.344824,14.797,0.044
54474.35798,14.934,0.033
54474.370954,15.05,0.018
54474.383932,15.116,0.02
54508.236146,15.686,0.017
54508.2483,15.711,0.017
54508.260539,15.689,0.018
54508.273054,15.736,0.026
54508.285342,15.699,0.024
54523.283083,15.671,0.017
54523.29484,15.689,0.018
54523.306417,15.689,0.018
54523.318011,15.718,0.02
54523.329774,15.682,0.02
54530.274047,14.906,0.024
54530.285465,14.729,0.011
54530.296989,14.794,0.009
54530.308342,14.854,0.009
54530.319677,14.879,0.015
54537.165497,15.044,0.013
54537.17656,15.103,0.011
54537.187496,15.164,0.015
54537.198441,15.222,0.011
54537.209386,15.263,0.011
54554.23998,15.727,0.02
54554.251876,15.711,0.018
54554.263821,15.734,0.018
54554.275941,15.722,0.018
54554.287857,15.733,0.018
54563.189695,15.404,0.015
54563.201172,15.447,0.017
54563.212744,15.458,0.017
54563.224322,15.507,0.017
54563.23581,15.535,0.018
54581.144266,15.701,0.053
54581.154044,15.764,0.056
54581.163966,15.781,0.058
54581.173637,15.847,0.059
54581.183327,15.805,0.058
54585.189901,15.613,0.08
54585.21062,15.86,0.215
54585.231154,15.759,0.063
54592.143513,15.567,0.022
54592.153937,15.154,0.017
54592.164353,14.803,0.013
54592.174789,14.744,0.011
54592.185215,14.784,0.013
54594.157527,15.452,0.051
54594.17655,15.573,0.081
54594.195676,15.587,0.063
