mjd,m,merr
52608.45426,16.242,0.098
52608.469212,16.198,0.059
52608.484104,16.176,0.087
52608.498987,16.041,0.055
52640.382184,16.376,0.046
52640.397246,16.303,0.046
52640.412263,16.255,0.045
52640.427699,16.15,0.04
52640.443371,16.085,0.038
52646.384733,16.038,0.035
52646.399543,16.031,0.037
52646.413983,16.085,0.039
52646.428554,16.193,0.041
52646.443067,16.267,0.048
52648.342804,16.435,0.063
52648.358091,16.204,0.081
52648.373575,16.141,0.048
52648.388772,16.069,0.045
52667.316921,16.152,0.04
52667.331615,16.264,0.045
52667.346291,16.369,0.049
52667.360966,16.493,0.056
52667.375696,16.327,0.049
52672.321237,16.277,0.05
52672.335081,16.324,0.043
52672.349333,16.388,0.052
52672.3632,16.366,0.046
52672.377166,16.178,0.043
52705.234023,16.347,0.048
52705.237692,16.337,0.039
52705.246986,16.344,0.048
52705.250858,16.379,0.041
52705.25994,16.23,0.045
52705.265826,16.191,0.033
52705.272982,16.212,0.043
52705.278868,16.177,0.033
52705.285939,16.083,0.04
52705.292014,16.069,0.033
52707.243233,16.237,0.039
52707.256658,16.366,0.043
52707.269804,16.378,0.043
52707.283087,16.384,0.043
52707.29637,16.227,0.039
52709.181105,16.174,0.05
52709.194562,16.082,0.046
52729.226588,16.273,0.041
52729.238145,16.273,0.039
52729.249689,16.391,0.046
52729.261175,16.38,0.046
52729.273343,16.273,0.043
52734.194962,16.097,0.033
52734.207372,16.21,0.037
52734.220571,16.266,0.041
52734.232809,16.41,0.05
52734.245972,16.37,0.048
52738.180206,16.209,0.052
52738.191625,16.136,0.05
52738.20316,16.094,0.048
52738.214585,16.021,0.044
52738.226053,16.108,0.05
52755.143573,16.428,0.052
52755.155692,16.285,0.046
52755.167756,16.236,0.044
52755.179846,16.16,0.041
52755.191908,16.108,0.043
52760.144541,16.282,0.054
52760.157107,16.192,0.051
52760.169129,16.192,0.051
52760.181166,16.117,0.051
52760.193215,16.086,0.048
52765.179355,16.48,0.102
52765.19134,16.07,0.053
52938.424442,16.071,0.046
52938.436477,16.132,0.045
52938.448462,16.159,0.043
52938.460428,16.207,0.045
52938.472334,16.404,0.051
52973.378044,16.186,0.048
52973.389122,16.317,0.051
52973.4002,16.33,0.054
52973.411338,16.349,0.054
52973.422472,16.306,0.049
52995.330834,16.123,0.026
52995.343389,16.197,0.028
52995.35589,16.24,0.03
52995.368333,16.405,0.033
52995.380825,16.478,0.036
53027.397458,16.11,0.023
53027.410403,16.087,0.025
53027.423411,16.115,0.025
53027.436225,16.106,0.026
53027.449005,16.182,0.03
53029.338979,16.331,0.069
53033.277678,16.338,0.044
53033.289871,16.246,0.041
53033.301929,16.179,0.039
53033.314129,16.143,0.037
53033.326284,16.077,0.033
53053.298744,16.103,0.041
53053.311476,16.157,0.052
53053.325558,16.175,0.072
53053.337291,16.182,0.033
53058.28742,16.127,0.023
53058.300398,16.145,0.025
53058.312558,16.14,0.026
53058.324612,16.218,0.026
53058.33716,16.293,0.026
53061.284498,16.082,0.023
53061.296478,16.132,0.025
53061.308557,16.197,0.026
53061.320613,16.282,0.028
53061.332603,16.332,0.03
53065.222807,16.396,0.056
53065.234753,16.497,0.056
53065.24669,16.367,0.053
53065.258629,16.292,0.051
53065.270537,16.112,0.046
53079.247268,16.444,0.043
53079.257958,16.479,0.044
53079.268646,16.477,0.044
53079.279455,16.378,0.041
53079.290112,16.215,0.035
53083.239125,16.105,0.025
53083.250705,16.124,0.025
53083.262076,16.177,0.026
53083.273584,16.199,0.028
53083.28514,16.254,0.036
53085.278876,16.04,0.025
53085.290109,16.052,0.026
53085.301348,16.104,0.04
53085.312685,16.14,0.036
53090.168466,16.439,0.044
53090.179105,16.458,0.046
53090.189561,16.339,0.059
53090.199858,16.219,0.067
53090.210325,16.14,0.043
53110.183827,16.104,0.043
53110.194517,16.042,0.041
53110.205208,16.02,0.041
53110.215893,16.027,0.043
53110.226644,16.02,0.043
53114.196297,16.443,0.038
53114.207464,16.307,0.035
53114.218392,16.206,0.033
53114.229234,16.201,0.033
53114.239878,16.117,0.031
53116.199481,16.296,0.056
53116.210437,16.345,0.124
53116.221196,16.383,0.091
53116.24456,16.252,0.107
53138.152068,16.177,0.046
53138.161938,16.224,0.046
53138.17182,16.32,0.052
53138.181607,16.396,0.055
53138.191453,16.421,0.057
53142.156971,16.132,0.04
53142.179556,16.105,0.04
53142.189197,16.116,0.038
53144.166686,16.084,0.044
53144.176079,16.102,0.046
53144.185468,16.004,0.055
53144.204699,16.026,0.161
53287.430187,16.236,0.116
53287.44111,16.109,0.091
53287.452253,16.183,0.089
53287.463242,16.13,0.081
53287.474515,16.009,0.071
53292.429041,16.125,0.074
53292.438648,16.158,0.071
53292.44829,16.013,0.059
53292.458935,16.105,0.064
53292.468536,16.061,0.059
53315.459318,16.516,0.104
53315.47126,16.512,0.114
53327.38399,16.079,0.051
53327.397017,16.044,0.056
53327.409519,16.064,0.051
53327.421753,16.122,0.059
53327.434218,16.342,0.071
53346.381568,16.061,0.043
53346.393824,16.075,0.041
53346.406208,16.041,0.04
53346.418944,16.053,0.04
53346.431159,16.075,0.04
53347.437796,16.353,0.051
53347.451609,16.205,0.046
53347.46567,16.145,0.046
53347.4794,16.137,0.043
53351.420537,16.087,0.046
53351.434789,16.176,0.054
53351.449221,16.259,0.056
53351.464153,16.431,0.069
53351.478834,16.532,0.078
53352.445399,16.261,0.056
53352.460433,16.191,0.059
53352.47519,16.132,0.058
53352.489874,16.144,0.056
53352.504675,16.117,0.058
53353.413863,16.101,0.046
53353.427906,16.052,0.043
53353.442093,16.09,0.045
53353.456278,16.159,0.048
53353.47035,16.189,0.053
53383.345266,16.071,0.033
53383.359417,16.094,0.033
53383.372498,16.097,0.033
53383.385755,16.155,0.037
53383.399524,16.267,0.041
53403.298226,16.09,0.03
53403.311787,16.076,0.031
53403.325155,16.133,0.033
53403.352164,16.192,0.041
53466.221945,16.386,0.054
53466.231338,16.311,0.052
53466.2407,16.364,0.054
53466.250058,16.208,0.05
53466.259618,16.141,0.044
53468.213269,16.277,0.091
53468.222771,16.358,0.078
53704.448469,16.42,0.048
53704.460938,16.309,0.044
53704.473413,16.179,0.039
53704.485985,16.136,0.037
53704.49873,16.082,0.035
53707.449094,16.146,0.041
53707.461892,16.067,0.035
53707.4745,16.059,0.037
53707.487144,16.115,0.037
53707.499753,16.154,0.037
53710.444829,16.081,0.041
53710.45736,16.007,0.041
53710.470741,16.118,0.046
53710.483399,16.138,0.044
53710.495984,16.26,0.05
53734.407393,16.172,0.039
53734.420343,16.11,0.037
53734.433278,16.068,0.037
53734.446407,16.007,0.037
53734.4596,16.079,0.039
53746.340178,16.168,0.067
53746.353662,16.318,0.074
53746.366178,16.51,0.089
53746.378926,16.435,0.081
53746.391494,16.445,0.081
53758.340146,16.224,0.035
53758.352674,16.298,0.039
53758.365187,16.393,0.046
53758.377908,16.494,0.052
53758.390434,16.483,0.054
53787.414232,16.214,0.059
53787.426144,16.129,0.054
53787.438133,16.096,0.055
53787.450202,16.069,0.057
53789.289187,16.225,0.068
53789.301126,16.112,0.05
53789.313051,16.141,0.096
53790.286183,16.078,0.038
53790.2981,16.023,0.038
53790.310064,16.156,0.041
53790.322096,16.297,0.046
53790.334008,16.304,0.046
53792.218748,16.374,0.061
53792.230691,16.305,0.05
53792.242638,16.224,0.044
53792.254617,16.118,0.048
53792.266511,16.139,0.039
53792.287394,16.084,0.037
53792.29932,16.114,0.037
53792.311227,16.164,0.059
53792.323126,16.172,0.039
53792.335073,16.268,0.054
53802.280853,16.144,0.055
53802.292228,16.15,0.059
53818.22869,16.363,0.053
53818.239808,16.45,0.056
53818.250903,16.441,0.056
53818.262044,16.393,0.053
53818.2733,16.264,0.049
53821.234852,16.215,0.052
53821.248854,16.181,0.054
53821.26178,16.133,0.046
53821.27503,16.096,0.043
53821.286225,16.074,0.044
53824.237744,16.098,0.041
53824.251175,16.039,0.039
53824.262313,16.036,0.037
53824.273136,16.047,0.039
53824.284594,16.108,0.059
53828.234319,16.422,0.072
53828.244714,16.399,0.074
53828.255775,16.211,0.107
53828.279742,16.096,0.07
53831.181055,16.484,0.135
53845.137766,16.036,0.043
53845.14908,16.055,0.046
53845.160395,16.084,0.048
53845.171759,16.062,0.046
53845.183113,16.178,0.053
53846.193314,16.178,0.065
53846.203963,16.167,0.067
53846.214643,16.18,0.065
53846.225376,16.078,0.061
53846.236103,16.053,0.061
53850.144056,16.086,0.069
53850.154353,16.065,0.074
53850.164732,16.193,0.099
53850.185441,16.209,0.058
53851.192108,16.11,0.052
53851.202151,16.032,0.05
53851.212762,16.094,0.054
53851.222658,16.075,0.054
53851.232535,16.019,0.054
53854.196409,15.977,0.094
53854.207296,16.079,0.118
53854.221599,16.081,0.055
53854.232503,16.184,0.063
53854.246391,16.179,0.07
54030.429522,16.541,0.101
54030.443591,16.412,0.084
54030.457714,16.394,0.078
54030.473707,16.137,0.056
54030.486183,16.095,0.053
54035.436542,16.364,0.074
54035.448805,16.39,0.071
54035.461335,16.201,0.058
54035.473478,16.16,0.054
54035.485182,16.127,0.051
54039.448788,16.194,0.066
54039.460703,16.308,0.074
54039.472718,16.448,0.083
54039.48456,16.496,0.086
54039.496782,16.389,0.074
54053.449253,16.094,0.068
54053.461193,16.187,0.076
54053.473044,16.269,0.065
54056.427049,16.073,0.037
54056.439305,16.161,0.039
54056.451554,16.316,0.043
54056.463997,16.473,0.05
54056.476245,16.45,0.046
54059.433163,16.429,0.05
54059.441139,16.436,0.064
54059.445661,16.358,0.044
54059.457974,16.279,0.043
54059.464731,16.224,0.049
54059.47031,16.187,0.039
54059.478655,16.145,0.046
54059.483735,16.159,0.035
54059.491118,16.092,0.043
54059.503789,16.075,0.04
54064.38902,16.217,0.041
54064.401936,16.283,0.041
54064.414836,16.369,0.041
54064.427746,16.42,0.041
54064.440836,16.367,0.041
54080.38446,16.186,0.107
54082.392391,16.218,0.05
54082.40528,16.109,0.044
54082.418188,16.128,0.044
54082.431405,16.068,0.043
54082.444307,16.087,0.043
54085.402998,16.069,0.031
54085.416136,16.131,0.035
54085.42989,16.201,0.054
54085.443533,16.266,0.043
54085.457015,16.398,0.041
54091.298977,16.15,0.054
54091.31086,16.067,0.049
54091.323035,16.081,0.048
54091.33493,16.054,0.046
54091.346814,16.112,0.053
54114.355514,16.208,0.051
54114.368215,16.135,0.135
54152.279943,16.077,0.024
54152.291853,16.086,0.024
54152.30374,16.141,0.026
54152.315638,16.189,0.028
54152.327546,16.236,0.03
54153.273666,16.383,0.033
54153.285161,16.443,0.037
54153.296654,16.402,0.037
54153.30816,16.313,0.033
54153.319733,16.24,0.031
54173.214041,16.219,0.043
54173.224724,16.287,0.045
54173.235613,16.379,0.049
54173.246428,16.367,0.051
54173.257299,16.338,0.049
54174.264929,16.046,0.031
54174.275631,16.095,0.031
54174.286336,16.102,0.041
54174.297038,16.161,0.055
54174.307741,16.215,0.046
54180.280301,16.323,0.041
54180.29086,16.253,0.039
54180.301987,16.159,0.035
54180.312604,16.122,0.033
54180.323148,16.109,0.035
54185.221161,16.29,0.101
54185.231423,16.427,0.112
54185.241636,16.361,0.109
54185.251832,16.446,0.117
54185.262046,16.443,0.12
54200.172008,16.186,0.064
54200.191225,16.202,0.059
54200.201015,16.359,0.071
54200.210417,16.382,0.073
54205.219756,16.372,0.048
54205.228947,16.322,0.048
54205.238225,16.229,0.044
54205.247414,16.177,0.043
54205.25662,16.169,0.043
54208.215356,16.18,0.043
54208.224381,16.119,0.041
54208.233435,16.064,0.041
54208.242504,16.07,0.037
54208.251591,16.069,0.037
54212.223303,16.421,0.061
54212.232366,16.436,0.063
54212.241371,16.394,0.063
54212.250529,16.314,0.059
54212.259558,16.264,0.057
54416.436496,16.234,0.035
54416.449252,16.306,0.037
54416.461577,16.403,0.039
54416.473893,16.342,0.037
54416.486234,16.286,0.035
54448.43895,16.382,0.048
54448.451284,16.216,0.043
54448.463551,16.182,0.043
54448.476618,16.138,0.04
54448.488985,16.1,0.04
54478.459456,16.047,0.073
54478.471724,16.139,0.102
54478.484004,16.155,0.083
54478.496307,16.311,0.094
54481.214539,16.105,0.048
54481.228026,16.028,0.041
54481.241187,16.001,0.039
54481.254198,16.037,0.039
54481.267136,16.079,0.039
54497.334638,16.213,0.044
54497.347213,16.339,0.03
54497.359779,16.452,0.031
54497.372323,16.552,0.048
54497.38486,16.426,0.05
54505.336132,16.354,0.028
54505.34839,16.298,0.026
54505.360636,16.213,0.024
54505.372959,16.112,0.022
54505.385511,16.089,0.022
54507.3882,16.12,0.041
54507.402131,16.064,0.04
54507.414027,16.022,0.04
54507.425893,15.993,0.043
54507.437906,15.991,0.041
54521.343924,16.171,0.063
54521.355579,16.267,0.055
54521.367272,16.415,0.052
54521.378981,16.532,0.085
54521.390695,16.405,0.059
54526.280908,16.087,0.022
54526.292371,16.082,0.024
54526.303943,16.112,0.024
54526.315418,16.136,0.024
54526.327084,16.191,0.026
54534.284889,16.165,0.03
54534.295807,16.199,0.022
54534.30678,16.311,0.026
54534.317692,16.422,0.028
54535.331389,16.108,0.038
54535.342378,16.068,0.04
54535.35434,16.174,0.043
54535.365551,16.199,0.046
54535.376744,16.202,0.046
54540.116163,16.235,0.044
54540.127046,16.178,0.043
54540.137937,16.074,0.037
54540.148836,16.037,0.035
54540.159752,16.004,0.033
54552.248023,16.476,0.033
54552.260103,16.458,0.031
54552.272204,16.306,0.03
54552.284211,16.215,0.031
54552.296254,16.131,0.031
54580.143834,16.302,0.068
54580.154063,16.403,0.074
54580.164618,16.325,0.069
54580.18279,16.291,0.066
54580.193516,16.112,0.059
54583.196612,15.976,0.037
54583.207273,16.044,0.041
54590.196951,16.109,0.033
54590.207253,16.075,0.033
54590.217595,16.087,0.037
54590.227965,16.062,0.037
54590.238312,16.11,0.039
54591.14422,16.102,0.074
54591.153982,16.048,0.074
54591.163732,16.064,0.071
54591.173484,16.15,0.079
