mjd,m,merr
52623.360925,15.608,0.035
52623.375603,15.63,0.033
52623.390189,15.25,0.023
52623.405055,14.955,0.018
52623.419799,14.983,0.016
52643.327567,15.123,0.016
52643.343701,15.34,0.02
52643.359974,15.063,0.016
52643.376295,14.873,0.015
52643.392613,14.756,0.013
52649.303042,14.444,0.009
52649.319209,14.52,0.009
52649.335349,14.692,0.009
52649.351321,14.831,0.011
52649.367238,14.706,0.011
52652.306795,14.786,0.015
52652.326193,14.723,0.013
52652.348308,14.66,0.013
52652.386073,14.747,0.013
52670.274922,14.656,0.013
52670.289722,14.895,0.016
52670.304512,14.981,0.016
52670.319518,14.875,0.015
52670.334497,14.646,0.013
52675.249272,14.373,0.026
52696.268094,14.679,0.013
52696.281567,14.841,0.015
52696.295051,14.912,0.015
52696.30853,14.783,0.015
52696.322005,14.63,0.013
52701.210775,14.499,0.012
52701.223829,14.418,0.01
52701.2369,14.389,0.01
52723.173383,14.412,0.012
52723.186207,14.44,0.012
52723.198318,14.485,0.012
52723.222653,14.556,0.031
52729.171059,14.419,0.012
52729.183079,14.375,0.012
52729.195176,14.367,0.012
52729.207277,14.366,0.012
52729.219357,14.412,0.012
52732.182213,14.78,0.016
52732.1941,14.814,0.018
52732.205991,14.741,0.015
52732.218447,14.601,0.016
52732.230546,14.502,0.015
52752.131178,14.537,0.013
52752.141786,14.673,0.015
52752.152391,14.784,0.016
52752.162996,14.895,0.02
52752.173757,14.914,0.02
52912.440236,14.459,0.011
52912.453255,14.564,0.011
52912.466277,14.71,0.013
52912.478976,14.825,0.015
52935.437102,14.483,0.016
52935.448604,14.418,0.015
52935.46006,14.417,0.015
52935.471736,14.423,0.015
52935.483396,14.424,0.013
52962.411841,14.456,0.007
52962.4246,14.538,0.009
52962.437678,14.424,0.007
52976.333067,14.718,0.011
52976.346651,14.579,0.009
52976.361641,14.535,0.007
52976.374435,14.454,0.007
52976.387364,14.449,0.007
52990.39021,14.485,0.008
53002.374455,14.417,0.006
53002.388769,14.411,0.006
53002.402154,14.429,0.006
53002.418756,14.496,0.006
53002.437187,14.658,0.007
53035.286651,14.682,0.013
53035.299499,14.564,0.012
53035.312447,14.496,0.01
53035.324802,14.47,0.01
53035.337096,14.426,0.01
53037.282785,14.461,0.012
53037.320423,14.54,0.012
53049.221647,14.746,0.009
53049.233463,14.853,0.009
53049.245281,14.778,0.009
53049.257099,14.633,0.007
53062.222356,14.738,0.033
53062.272819,14.466,0.026
53087.180081,14.442,0.007
53087.225482,14.691,0.012
53089.17864,14.736,0.01
53089.190583,14.846,0.01
53089.201618,14.812,0.01
53089.212429,14.692,0.008
53107.180819,14.61,0.012
53107.191278,14.665,0.012
53107.201702,14.787,0.013
53107.21221,14.901,0.015
53107.222711,14.982,0.016
53118.153061,14.515,0.008
53127.14568,14.406,0.02
53127.155095,14.452,0.02
53127.164396,14.487,0.021
53127.173604,14.534,0.023
53127.182883,14.648,0.026
53136.150108,14.865,0.018
53136.158842,14.756,0.018
53136.167687,14.668,0.016
53136.176476,14.556,0.016
53136.185372,14.499,0.016
53282.471288,14.789,0.028
53282.482179,14.835,0.03
53293.420134,14.499,0.011
53293.431113,14.441,0.011
53293.442095,14.424,0.009
53293.453074,14.425,0.009
53293.464053,14.429,0.009
53302.434001,14.764,0.015
53302.445895,14.936,0.017
53302.457796,14.998,0.018
53302.46971,14.905,0.017
53302.481611,14.747,0.015
53331.387344,14.746,0.017
53331.400211,14.631,0.013
53331.412605,14.562,0.011
53331.42527,14.498,0.011
53331.437627,14.453,0.011
53341.401986,14.658,0.026
53341.413988,14.758,0.028
53341.450485,14.825,0.028
53348.348114,14.441,0.016
53348.36205,14.469,0.013
53348.376289,14.516,0.013
53348.390259,14.626,0.013
53348.404093,14.76,0.013
53354.35723,14.473,0.01
53354.371989,14.528,0.01
53354.386351,14.59,0.012
53354.40067,14.704,0.012
53354.41514,14.873,0.013
53384.318449,14.861,0.041
53384.33265,14.725,0.031
53404.326614,14.795,0.012
53404.359629,14.744,0.012
53474.191406,14.429,0.013
53474.201011,14.46,0.013
53474.211117,14.416,0.015
53474.220874,14.444,0.015
53474.230571,14.486,0.015
53683.390392,14.487,0.028
53728.333805,14.843,0.013
53728.346957,14.65,0.013
53728.359954,14.539,0.015
53728.37307,14.465,0.015
53728.386805,14.419,0.011
53742.347143,14.461,0.007
53742.360088,14.413,0.007
53742.372975,14.4,0.007
53742.386113,14.402,0.007
53742.398928,14.438,0.007
53772.220102,14.521,0.011
53772.232806,14.456,0.009
53772.24562,14.427,0.009
53772.258528,14.391,0.009
53772.271508,14.405,0.009
53786.2351,14.417,0.008
53786.248303,14.427,0.008
53786.261405,14.481,0.008
53786.274821,14.571,0.008
53786.288703,14.737,0.01
53812.249683,14.483,0.013
53812.26076,14.568,0.015
53812.271833,14.646,0.015
53812.282899,14.754,0.018
53812.293982,14.835,0.02
53824.181515,14.663,0.012
53824.192537,14.576,0.012
53824.222991,14.398,0.01
53824.249907,14.413,0.01
53843.140173,14.699,0.015
53843.151731,14.793,0.017
53843.163515,14.816,0.017
53843.175606,14.713,0.015
53843.188181,14.544,0.013
53855.141137,14.558,0.015
53855.151275,14.641,0.015
53855.161401,14.772,0.018
54010.427651,14.597,0.016
54010.443931,14.812,0.018
54010.457031,14.883,0.018
54010.47004,14.754,0.016
54010.483222,14.599,0.015
54054.395165,14.454,0.012
54054.407907,14.505,0.012
54054.420502,14.549,0.012
54054.433111,14.632,0.013
54054.445558,14.793,0.015
54068.389893,14.574,0.012
54068.402773,14.643,0.012
54068.415837,14.785,0.013
54068.428891,14.932,0.015
54068.441894,14.913,0.015
54109.263513,14.435,0.015
54109.276382,14.424,0.015
54109.28829,14.417,0.016
54109.300455,14.459,0.02
54109.312415,14.508,0.016
54169.216179,14.46,0.007
54169.227112,14.452,0.007
54169.238111,14.461,0.007
54169.249051,14.492,0.007
54169.260074,14.529,0.007
54200.174377,14.747,0.011
54200.18596,14.631,0.011
54200.195807,14.504,0.011
54200.20572,14.482,0.009
54200.215579,14.461,0.009
54413.382565,14.591,0.007
54413.394829,14.695,0.007
54413.407111,14.81,0.007
54413.419353,14.927,0.009
54413.431595,14.897,0.009
54420.436701,14.559,0.007
54420.449545,14.535,0.007
54420.46237,14.505,0.007
54420.474808,14.411,0.009
54436.457804,14.666,0.007
54436.470616,14.836,0.007
54436.483392,14.951,0.009
54436.496292,14.871,0.009
54436.509074,14.727,0.007
54452.325101,14.436,0.006
54452.337996,14.466,0.006
54452.350855,14.531,0.006
54452.363716,14.599,0.007
54452.376567,14.721,0.007
54476.329768,14.462,0.006
54476.342623,14.43,0.006
54476.355474,14.422,0.006
54476.368321,14.456,0.006
54476.381177,14.479,0.006
54509.211594,14.601,0.015
54509.224255,14.677,0.015
54509.236651,14.874,0.016
54509.248865,14.957,0.018
54533.218202,14.434,0.006
54533.229208,14.462,0.006
54533.240198,14.51,0.006
54533.25118,14.553,0.006
54533.262212,14.65,0.007
54567.129481,14.504,0.009
54567.14078,14.455,0.009
54567.15176,14.427,0.009
54567.162804,14.429,0.009
54567.173758,14.425,0.009
54587.145842,14.413,0.009
54587.156565,14.432,0.009
54587.16726,14.463,0.009
54587.177939,14.533,0.011
54587.188637,14.592,0.011
54595.145495,14.538,0.015
54595.155415,14.651,0.017
54595.165296,14.76,0.018
54595.175185,14.829,0.02
54595.185121,14.832,0.022
