mjd,m,merr
52613.441719,17.114,0.096
52613.456867,17.48,0.131
52613.472142,17.431,0.131
52613.487386,17.178,0.105
52613.502589,16.992,0.087
52618.447848,17.26,0.172
52618.463225,17.065,0.157
52618.478468,16.75,0.111
52618.493975,16.694,0.096
52618.509485,16.739,0.1
52640.437293,16.824,0.061
52643.38829,16.819,0.07
52643.402464,16.869,0.074
52643.416756,17.036,0.087
52643.430871,17.084,0.091
52647.388977,17.318,0.118
52647.403941,17.43,0.137
52647.418268,17.226,0.113
52647.432758,16.988,0.093
52647.44713,16.979,0.091
52666.31844,16.848,0.071
52666.333832,16.779,0.068
52666.348534,16.732,0.064
52666.363714,16.851,0.073
52666.378439,16.906,0.078
52670.33088,16.98,0.078
52670.344848,17.045,0.083
52670.358838,17.313,0.109
52670.372843,17.488,0.135
52670.386848,17.163,0.105
52673.294102,17.342,0.105
52673.324796,17.052,0.08
52673.339971,16.857,0.068
52678.308351,16.988,0.113
52678.322449,16.782,0.104
52678.336365,16.868,0.08
52678.350428,16.878,0.085
52678.364555,16.889,0.087
52698.266694,16.58,0.099
52698.283916,17.041,0.087
52698.301803,17.229,0.102
52698.302389,17.226,0.117
52698.316126,17.255,0.107
52703.246083,17.021,0.08
52703.259566,17.245,0.165
52703.273487,17.341,0.15
52703.287005,17.494,0.124
52703.300301,17.255,0.118
52725.276306,16.747,0.176
52725.288037,16.927,0.118
52725.2997,16.868,0.072
52730.193296,17.261,0.107
52730.205549,17.592,0.142
52730.217083,17.257,0.109
52730.228734,17.028,0.089
52733.191656,16.898,0.078
52733.240343,16.93,0.08
52754.16982,17.107,0.093
52754.181934,17.226,0.105
52754.194117,17.333,0.122
52758.158655,17.26,0.102
52758.182891,17.006,0.081
52936.486316,17.508,0.134
52936.498445,17.367,0.116
52940.460715,17.219,0.274
52940.496705,16.832,0.203
52944.437863,17.0,0.128
52944.449868,16.864,0.105
52944.46181,16.955,0.111
52944.473733,16.927,0.104
52944.485842,17.029,0.111
52964.457064,17.019,0.072
52964.470079,16.839,0.059
52964.498772,16.869,0.059
52966.404335,16.953,0.081
52966.417026,16.993,0.087
52966.429821,17.142,0.096
52966.442472,17.1,0.089
52966.455204,17.252,0.102
52973.395311,17.0,0.085
52973.408371,16.919,0.078
52973.421431,16.976,0.08
52973.434269,16.936,0.076
52973.44722,17.071,0.085
52993.386274,17.411,0.104
52993.399361,17.219,0.078
52993.412408,17.143,0.08
52993.425835,16.934,0.059
52993.438902,16.916,0.052
52994.399941,17.435,0.117
52994.412778,17.565,0.102
52994.425403,17.406,0.117
52994.439384,17.229,0.084
52994.452979,17.051,0.079
52996.332742,17.262,0.083
52996.345444,17.125,0.073
52996.357995,17.002,0.064
52996.370786,16.915,0.059
52996.383373,16.874,0.053
53025.289729,17.352,0.078
53025.301441,17.169,0.064
53025.313445,17.058,0.058
53028.369632,17.259,0.063
53028.381803,17.071,0.051
53028.394672,16.963,0.046
53028.419318,16.905,0.071
53033.276364,17.026,0.094
53033.288866,17.009,0.094
53033.301572,17.223,0.109
53033.314061,17.361,0.12
53033.326519,17.528,0.134
53052.272136,16.833,0.059
53052.283903,16.908,0.063
53052.295753,16.981,0.067
53052.307755,17.004,0.068
53052.319558,17.112,0.078
53057.349522,17.011,0.262
53079.223275,17.096,0.096
53079.234355,17.19,0.099
53079.24541,17.265,0.106
53079.256342,17.571,0.137
53079.2673,17.586,0.142
53082.235697,16.903,0.051
53082.247315,16.93,0.051
53082.258929,16.828,0.046
53082.272278,16.889,0.051
53082.283633,16.869,0.051
53084.237839,17.459,0.083
53084.250306,17.316,0.073
53084.261682,17.096,0.059
53084.273009,16.963,0.053
53084.284815,16.922,0.051
53091.229794,17.101,0.078
53091.239603,17.471,0.157
53091.26215,17.418,0.104
53091.271888,17.324,0.086
53110.185855,17.027,0.107
53110.19668,16.948,0.101
53110.207731,17.064,0.114
53110.218688,16.93,0.102
53110.229508,17.014,0.114
53115.198851,16.945,0.063
53115.209613,17.064,0.071
53115.220853,17.054,0.073
53115.231678,17.189,0.083
53115.242677,17.498,0.116
53138.153082,16.816,0.089
53138.162707,16.947,0.101
53138.172457,16.994,0.104
53138.182758,17.003,0.109
53138.192436,17.041,0.109
53141.170697,17.306,0.12
53141.18014,17.112,0.099
53141.189169,17.065,0.097
53141.198159,17.059,0.094
53141.20716,16.884,0.084
53292.406825,16.884,0.178
53292.41639,17.499,0.318
53292.425958,17.322,0.226
53292.435518,16.991,0.157
53292.445086,17.123,0.167
53297.413099,17.034,0.178
53297.42285,17.184,0.198
53297.432594,16.947,0.15
53297.442339,16.632,0.109
53297.452077,16.88,0.13
53327.375156,17.474,0.231
53327.387572,17.343,0.178
53327.399965,17.085,0.146
53327.412354,16.874,0.12
53327.424784,16.934,0.115
53347.466693,16.868,0.078
53347.483164,16.759,0.068
53347.497629,16.74,0.067
53347.516325,16.831,0.07
53348.49482,16.803,0.124
53349.4549,17.17,0.135
53349.462397,17.124,0.144
53349.471939,17.362,0.161
53349.472029,17.316,0.155
53349.476204,17.152,0.144
53349.484187,17.213,0.139
53349.489781,16.956,0.125
53349.496171,17.051,0.12
53349.508695,16.852,0.102
53349.517526,16.768,0.099
53350.461302,17.17,0.144
53352.435492,17.046,0.114
53353.391872,17.022,0.094
53353.404807,17.213,0.113
53353.417745,17.269,0.122
53353.430694,17.217,0.117
53353.443676,17.084,0.104
53357.437521,16.799,0.065
53357.450929,16.869,0.07
53357.479246,16.937,0.081
53357.494324,17.15,0.098
53376.412166,17.084,0.091
53376.426627,16.858,0.07
53376.44057,16.881,0.072
53376.454257,16.779,0.065
53376.467804,16.773,0.065
53381.354711,17.476,0.133
53381.368023,17.261,0.107
53381.381983,16.968,0.126
53381.395645,16.926,0.078
53381.409974,16.934,0.117
53403.289768,17.276,0.087
53403.302549,17.356,0.098
53403.315361,17.148,0.083
53403.328108,17.03,0.076
53432.281945,16.818,0.148
53432.336218,16.526,0.141
53437.231692,17.243,0.093
53437.243275,17.387,0.107
53437.255753,17.172,0.087
53437.278827,16.913,0.07
53438.350708,16.849,0.074
53438.362911,16.853,0.08
53438.374438,16.901,0.085
53438.386063,17.025,0.098
53438.39767,17.148,0.118
53440.236742,16.774,0.063
53440.24845,16.768,0.061
53440.260058,16.836,0.065
53440.275273,16.929,0.072
53440.287961,17.065,0.085
53443.214882,17.079,0.222
53443.225879,17.275,0.174
53443.259914,17.135,0.111
53445.348253,16.825,0.076
53445.359599,16.836,0.081
53445.371267,16.839,0.083
53445.383786,16.862,0.085
53445.395551,16.99,0.098
53446.165893,17.382,0.122
53446.176495,17.29,0.113
53446.187082,16.946,0.083
53446.197689,16.967,0.083
53446.208282,16.921,0.078
53464.238516,16.843,0.076
53464.259797,16.867,0.074
53464.27036,16.926,0.081
53464.280788,17.126,0.102
53495.151956,17.011,0.104
53495.162105,17.122,0.117
53495.172277,17.364,0.148
53495.182448,17.297,0.146
53495.192582,17.239,0.2
53502.142768,16.799,0.089
53502.153564,16.885,0.096
53502.164103,16.947,0.104
53502.174396,16.791,0.093
53502.18523,17.12,0.131
53671.457193,17.056,0.185
53671.46923,17.217,0.281
53671.49342,16.984,0.179
53674.465864,16.825,0.096
53674.478002,16.788,0.087
53674.490279,16.815,0.087
53674.502407,16.883,0.094
53679.448695,16.802,0.085
53679.460941,16.824,0.083
53679.473081,16.89,0.091
53679.485258,17.051,0.105
53679.498096,17.059,0.102
53705.450766,16.915,0.085
53705.463693,16.817,0.076
53705.476421,16.801,0.072
53705.489135,16.917,0.078
53705.501761,16.947,0.078
53708.396238,16.822,0.07
53708.409385,16.821,0.068
53708.422662,16.852,0.07
53708.435553,16.928,0.076
53708.448433,17.039,0.083
53712.395046,17.087,0.117
53712.408366,17.214,0.126
53712.425868,17.369,0.142
53712.43945,17.214,0.124
53712.453281,16.982,0.096
53732.412204,17.011,0.126
53732.42497,17.045,0.131
53732.437747,17.168,0.137
53732.450521,17.366,0.168
53732.463192,17.349,0.17
53735.416092,16.948,0.093
53738.400203,16.692,0.067
53738.413319,16.81,0.074
53738.426356,16.844,0.083
53738.439347,17.052,0.094
53747.368609,16.955,0.202
53747.39513,16.92,0.213
53759.34428,16.946,0.076
53759.357067,17.133,0.104
53759.369871,17.294,0.111
53759.382547,17.367,0.126
53759.395238,17.087,0.104
53762.348271,16.866,0.068
53762.360969,16.833,0.065
53762.386765,16.762,0.063
53762.399886,16.831,0.068
53769.348062,17.069,0.078
53769.362046,17.005,0.074
53787.401307,16.675,0.098
53787.413156,16.72,0.109
53787.425055,16.968,0.126
53787.437029,16.985,0.111
53787.449084,17.121,0.135
53789.289567,16.638,0.097
53789.302176,16.689,0.083
53789.315169,16.861,0.142
53789.327669,16.686,0.214
53789.340202,16.292,0.13
53790.282965,16.918,0.081
53790.294731,16.937,0.089
53790.306512,16.95,0.087
53790.318264,16.751,0.076
53790.33001,16.789,0.074
53793.299049,16.788,0.276
53799.30133,17.174,0.115
53799.31284,17.471,0.178
53799.324539,17.244,0.157
53819.244765,16.949,0.094
53819.255512,16.876,0.087
53819.266479,16.835,0.087
53819.278012,16.909,0.141
53827.241851,17.04,0.096
53827.252835,17.23,0.113
53827.274525,17.117,0.105
53827.285107,16.993,0.096
53845.185256,16.875,0.104
53845.195961,16.837,0.102
53845.217527,17.014,0.126
53845.22827,16.932,0.124
53846.192641,16.721,0.102
53846.20329,16.697,0.1
53846.213973,16.801,0.115
53846.224706,16.775,0.111
53846.235429,16.823,0.12
53850.217936,17.207,0.128
53850.228563,17.452,0.165
53850.239251,17.25,0.216
53850.250164,17.061,0.117
53850.261286,16.911,0.105
53851.142648,16.967,0.135
53851.153264,16.87,0.109
53851.163829,16.848,0.117
53851.174298,16.846,0.107
53851.184727,16.724,0.111
53853.188213,16.902,0.107
53853.198829,16.743,0.091
53853.210239,16.798,0.096
53853.220647,16.846,0.104
54031.435942,16.791,0.116
54031.447873,16.944,0.125
54031.460197,16.969,0.124
54031.472091,17.056,0.127
54031.484021,17.28,0.15
54034.454226,17.069,0.162
54036.433904,16.813,0.112
54036.446568,17.188,0.157
54036.459731,17.327,0.165
54036.471971,17.388,0.165
54036.483827,17.075,0.124
54040.442927,17.305,0.203
54040.455265,17.025,0.15
54040.46765,16.978,0.142
54040.479668,16.979,0.137
54057.45284,16.762,0.07
54057.465381,16.781,0.074
54057.477865,16.794,0.074
54057.490353,16.877,0.08
54057.502839,17.014,0.089
54058.397467,17.076,0.13
54058.409929,17.19,0.142
54058.423961,17.033,0.117
54058.437033,16.854,0.097
54060.429052,16.997,0.083
54060.442987,17.261,0.107
54060.45591,17.376,0.118
54060.46881,17.144,0.1
54060.48187,17.034,0.091
54064.382619,16.872,0.107
54064.395273,17.256,0.142
54064.407842,17.299,0.145
54064.420573,17.131,0.12
54064.433521,16.862,0.094
54067.407559,16.801,0.061
54067.420523,16.797,0.059
54082.371446,17.013,0.223
54082.383947,17.351,0.309
54082.396311,17.374,0.305
54082.421223,17.216,0.257
54083.403723,17.1,0.131
54083.416915,17.389,0.133
54083.430107,17.145,0.107
54083.443303,17.04,0.104
54083.4565,16.789,0.104
54086.361764,17.19,0.113
54086.37497,16.989,0.089
54086.387902,16.894,0.081
54086.400842,16.867,0.074
54086.413781,16.831,0.07
54091.3675,16.86,0.07
54091.38008,16.845,0.072
54091.392663,16.763,0.065
54091.405582,16.763,0.065
54091.418177,16.868,0.074
54112.399814,16.835,0.224
54112.412374,17.02,0.12
54112.42492,16.868,0.109
54113.327541,16.786,0.076
54113.366391,16.601,0.12
54113.379383,16.903,0.086
54115.348383,16.745,0.084
54115.361448,16.718,0.084
54115.374386,16.632,0.078
54115.400186,16.741,0.087
54123.332736,16.876,0.091
54123.345186,17.065,0.109
54123.357573,17.268,0.129
54123.370137,17.048,0.107
54123.382763,16.95,0.097
54144.272516,17.16,0.102
54144.284422,17.234,0.111
54144.308349,16.885,0.081
54144.317231,16.9,0.07
54144.320268,16.819,0.078
54144.328428,16.865,0.067
54144.33953,16.796,0.063
54144.350634,16.764,0.072
54148.292649,16.754,0.076
54148.304406,16.707,0.071
54148.316113,16.779,0.079
54148.32791,16.812,0.086
54153.276558,16.679,0.066
54153.288344,16.67,0.068
54153.32428,16.977,0.091
54154.270179,16.886,0.068
54154.281668,16.866,0.065
54154.293149,16.864,0.065
54154.304643,16.825,0.061
54154.316115,16.867,0.065
54173.21784,17.003,0.068
54173.228485,17.205,0.081
54173.23919,17.391,0.096
54173.249869,17.275,0.091
54173.260669,17.164,0.081
54176.222802,16.779,0.059
54176.233538,16.786,0.059
54176.244345,16.782,0.061
54176.254898,16.877,0.067
54176.265957,16.822,0.063
54179.235309,17.236,0.085
54179.246479,17.34,0.096
54179.25781,17.222,0.089
54186.304799,17.213,0.081
54186.316048,17.087,0.078
54201.192535,17.024,0.142
54201.202017,16.997,0.139
54201.21124,17.098,0.145
54201.220469,16.983,0.134
54201.229776,16.804,0.117
54206.21641,16.763,0.065
54206.225561,16.81,0.068
54206.234595,16.79,0.065
54206.243639,16.777,0.065
54206.252683,16.798,0.067
54209.175575,16.836,0.093
54209.184557,16.926,0.083
54209.193553,16.938,0.12
54209.202555,16.906,0.093
54209.21156,16.998,0.142
54409.453087,16.864,0.068
54409.465328,16.85,0.068
54409.477554,16.902,0.067
54418.44181,17.442,0.094
54418.454316,17.234,0.074
54418.466819,17.092,0.067
54418.479319,16.934,0.057
54418.491817,16.858,0.055
54439.399063,16.955,0.054
54439.411922,16.879,0.05
54439.424816,16.899,0.05
54439.437694,16.903,0.048
54480.459677,17.257,0.208
54480.471964,17.082,0.18
54480.484579,17.065,0.186
54480.496869,16.933,0.181
54480.50919,16.906,0.181
54507.270594,16.975,0.055
54507.282827,16.944,0.055
54507.295095,16.836,0.05
54507.30749,16.892,0.052
54507.319908,16.833,0.048
54522.332932,16.967,0.072
54522.344823,16.943,0.072
54522.356762,16.91,0.07
54522.368753,16.914,0.074
54522.38055,16.786,0.068
54529.269268,16.92,0.046
54529.2808,16.943,0.048
54529.304238,17.238,0.07
54529.315609,17.322,0.08
54536.215317,17.268,0.068
54536.226407,17.047,0.055
54536.237339,17.06,0.057
54536.248292,16.94,0.05
54536.259355,16.826,0.046
54553.256574,16.866,0.057
54553.268506,16.931,0.072
54553.280391,17.001,0.078
54553.292245,17.012,0.094
54562.238656,17.454,0.089
54562.250517,17.364,0.085
54562.262231,17.174,0.07
54562.27393,17.014,0.061
54562.285516,16.965,0.061
54581.145264,17.001,0.096
54581.155974,17.023,0.098
54581.166638,16.894,0.089
54581.177333,16.877,0.087
54581.188175,16.902,0.085
54584.195088,17.291,0.104
54584.20597,17.227,0.098
54584.227756,16.921,0.078
54584.238651,16.941,0.083
54591.149473,16.936,0.074
54591.160089,16.897,0.074
54591.17044,17.018,0.083
54591.180753,17.092,0.091
54591.190977,17.218,0.104
54592.141245,16.971,0.129
54592.151054,16.739,0.109
54592.160914,16.807,0.12
54592.170636,16.715,0.107
54592.180167,16.927,0.135
