mjd,m,merr
52619.448908,15.41,0.025
52619.463893,15.546,0.03
52619.478868,15.529,0.03
52619.494282,15.439,0.028
52619.509271,15.347,0.026
52640.383081,15.293,0.018
52640.39814,15.239,0.02
52640.413157,15.231,0.018
52640.428593,15.261,0.018
52640.444263,15.303,0.02
52646.38572,15.566,0.024
52646.400532,15.677,0.028
52646.414973,15.666,0.028
52646.429544,15.571,0.024
52646.444055,15.403,0.022
52647.382181,15.228,0.021
52647.411561,15.347,0.025
52647.441094,15.533,0.03
52667.317804,15.281,0.02
52672.321586,15.489,0.024
52672.33543,15.394,0.02
52672.349683,15.339,0.02
52672.363547,15.278,0.018
52672.377517,15.274,0.02
52673.288997,15.258,0.02
52673.319837,15.424,0.021
52673.33627,15.543,0.026
52673.351274,15.5,0.025
52705.237931,15.254,0.015
52705.247695,15.218,0.018
52705.251101,15.287,0.017
52705.260651,15.269,0.02
52705.26607,15.318,0.017
52705.279109,15.381,0.017
52705.292257,15.494,0.02
52707.243789,15.575,0.022
52707.25719,15.478,0.02
52707.270357,15.378,0.018
52707.283637,15.316,0.018
52707.296921,15.3,0.017
52708.170183,15.283,0.02
52708.183219,15.278,0.02
52708.18785,15.182,0.025
52708.196617,15.29,0.02
52708.201103,15.212,0.026
52708.209495,15.318,0.022
52708.222519,15.363,0.02
52709.17074,15.327,0.028
52709.184273,15.279,0.026
52709.198364,15.274,0.025
52709.212114,15.203,0.025
52709.225426,15.224,0.023
52710.170149,15.599,0.038
52710.184445,15.591,0.036
52710.197887,15.562,0.033
52710.211755,15.448,0.03
52710.224959,15.355,0.028
52725.265289,15.394,0.054
52725.277031,15.54,0.035
52725.288762,15.611,0.057
52725.300424,15.713,0.028
52729.226938,15.282,0.017
52729.238569,15.265,0.017
52729.250038,15.325,0.018
52729.261526,15.393,0.02
52729.273694,15.472,0.022
52734.195196,15.423,0.02
52734.20761,15.344,0.018
52734.220807,15.309,0.018
52734.233046,15.272,0.018
52734.24621,15.271,0.018
52738.180684,15.512,0.03
52738.192104,15.396,0.026
52738.203638,15.344,0.026
52738.215062,15.315,0.024
52738.226531,15.272,0.024
52755.143796,15.364,0.02
52755.155916,15.424,0.022
52755.167979,15.548,0.026
52755.180069,15.665,0.028
52755.192132,15.636,0.028
52760.145625,15.187,0.021
52760.15792,15.209,0.021
52760.169941,15.225,0.023
52760.181981,15.273,0.025
52760.194049,15.334,0.026
52765.179934,15.196,0.028
52765.191908,15.214,0.025
52937.480961,15.615,0.025
52937.492698,15.463,0.021
52941.440496,15.457,0.021
52995.344007,15.607,0.018
52995.356508,15.531,0.016
52995.381436,15.341,0.013
53027.424024,15.314,0.013
53029.339578,15.284,0.025
53053.287027,15.292,0.02
53053.29942,15.305,0.02
53053.312152,15.359,0.024
53053.326234,15.379,0.039
53053.337968,15.462,0.018
53079.247875,15.591,0.02
53079.258564,15.654,0.022
53079.269254,15.623,0.02
53079.280061,15.547,0.02
53079.290718,15.452,0.018
53110.184403,15.602,0.028
53110.195092,15.681,0.03
53110.205781,15.582,0.028
53110.216466,15.518,0.026
53110.227218,15.444,0.026
53114.208015,15.551,0.016
53114.240425,15.367,0.016
53116.200179,15.168,0.023
53138.152416,15.544,0.026
53138.162287,15.672,0.028
53138.172168,15.681,0.03
53138.181999,15.662,0.03
53138.191801,15.572,0.028
53142.157509,15.548,0.023
53142.170653,15.595,0.023
53142.180094,15.612,0.025
53142.189736,15.525,0.021
53142.199669,15.429,0.038
53144.167148,15.291,0.022
53144.176543,15.269,0.022
53144.185931,15.293,0.028
53144.205162,15.385,0.048
53327.397442,15.556,0.04
53327.434643,15.358,0.031
53347.480045,15.273,0.026
53351.421185,15.327,0.025
53351.435421,15.243,0.023
53351.449886,15.222,0.023
53351.464795,15.189,0.023
53351.479462,15.17,0.023
53352.446106,15.413,0.026
53352.461121,15.315,0.025
53352.475875,15.262,0.026
53352.490556,15.235,0.025
53383.345524,15.626,0.022
53383.359675,15.629,0.024
53383.372755,15.556,0.022
53383.386261,15.418,0.018
53383.399818,15.36,0.018
53404.292908,15.297,0.015
53404.310468,15.33,0.015
53404.322992,15.367,0.017
53404.33544,15.424,0.017
53404.347837,15.498,0.018
53466.222373,15.59,0.028
53466.231768,15.684,0.03
53466.241134,15.707,0.031
53466.250486,15.651,0.031
53466.26006,15.575,0.028
53468.213877,15.329,0.044
53468.223379,15.292,0.03
53704.449424,15.487,0.022
53704.461941,15.594,0.024
53704.474368,15.652,0.026
53704.486946,15.612,0.024
53704.499692,15.488,0.022
53707.450053,15.591,0.024
53707.462853,15.478,0.02
53707.475459,15.424,0.022
53707.488103,15.364,0.02
53707.500712,15.296,0.018
53711.468985,15.375,0.018
53711.481975,15.321,0.017
53711.494851,15.29,0.017
53711.50786,15.284,0.017
53711.520787,15.256,0.017
53734.407671,15.349,0.018
53734.42062,15.288,0.018
53734.433555,15.281,0.018
53734.446698,15.278,0.018
53734.459875,15.289,0.018
53737.404329,15.282,0.017
53737.417845,15.319,0.017
53737.431195,15.338,0.017
53737.444601,15.425,0.044
53737.457932,15.496,0.02
53747.34356,15.208,0.048
53747.356442,15.347,0.052
53747.369283,15.375,0.052
53747.395821,15.601,0.067
53758.340408,15.692,0.022
53758.352935,15.599,0.022
53758.36545,15.493,0.02
53758.378186,15.381,0.02
53758.390696,15.327,0.02
53787.414485,15.34,0.026
53787.426395,15.315,0.028
53787.438387,15.297,0.026
53787.450454,15.258,0.028
53789.290099,15.558,0.037
53789.302033,15.433,0.03
53789.313962,15.319,0.043
53790.286746,15.447,0.021
53790.298654,15.526,0.025
53790.310622,15.58,0.025
53792.288284,15.298,0.02
53792.300207,15.279,0.018
53792.312115,15.285,0.028
53792.324014,15.275,0.018
53792.335962,15.322,0.022
53799.230322,15.264,0.02
53799.242488,15.228,0.018
53799.254511,15.212,0.018
53799.266446,15.197,0.016
53799.278131,15.235,0.016
53802.281096,15.524,0.031
53802.292468,15.665,0.037
53802.303857,15.56,0.044
53802.326673,15.411,0.055
53818.228959,15.28,0.02
53818.240078,15.317,0.02
53818.251172,15.348,0.021
53818.262312,15.425,0.023
53818.273569,15.544,0.025
53821.235091,15.595,0.03
53821.249099,15.654,0.033
53821.262028,15.542,0.028
53821.275275,15.45,0.024
53821.286469,15.364,0.028
53824.286079,15.314,0.03
53824.330325,15.365,0.039
53824.346254,15.557,0.105
53828.234562,15.403,0.03
53828.244955,15.353,0.03
53828.256016,15.299,0.046
53828.279981,15.299,0.033
53831.190887,15.172,0.043
53831.200436,15.128,0.041
53845.138191,15.194,0.021
53845.172183,15.254,0.023
53845.183534,15.3,0.025
53846.193471,15.265,0.03
53846.204123,15.322,0.031
53846.214804,15.337,0.031
53846.225537,15.362,0.033
53846.23626,15.402,0.035
53851.143221,15.514,0.041
53851.153948,15.468,0.031
53851.164407,15.578,0.041
53851.174877,15.339,0.028
53851.185303,15.385,0.036
53851.192849,15.306,0.026
53851.202889,15.255,0.024
53851.213505,15.265,0.026
53851.223399,15.237,0.026
53851.233284,15.288,0.028
53854.196646,15.345,0.059
53854.207534,15.378,0.057
53854.221838,15.381,0.03
53854.232736,15.432,0.031
53854.246624,15.528,0.041
54030.430734,15.401,0.038
54030.446694,15.48,0.038
54030.458569,15.572,0.041
54030.474562,15.554,0.035
54030.487043,15.486,0.031
54035.437431,15.261,0.03
54035.449673,15.325,0.03
54035.462203,15.374,0.03
54035.474351,15.43,0.03
54035.486051,15.569,0.031
54040.468319,15.274,0.03
54053.425938,15.423,0.05
54053.449505,15.317,0.035
54053.461443,15.311,0.03
54053.473294,15.287,0.024
54056.4273,15.286,0.018
54056.439557,15.271,0.018
54056.451805,15.259,0.018
54056.464249,15.279,0.018
54056.476498,15.311,0.018
54059.434083,15.412,0.02
54059.441861,15.401,0.025
54059.44658,15.46,0.02
54059.458893,15.56,0.024
54059.465454,15.552,0.028
54059.47123,15.684,0.026
54059.479374,15.666,0.03
54059.484655,15.717,0.024
54059.491848,15.606,0.028
54059.504512,15.497,0.023
54064.442305,15.252,0.017
54064.455172,15.272,0.017
54064.468029,15.312,0.017
54064.480891,15.371,0.018
54064.493765,15.475,0.018
54082.393357,15.507,0.028
54082.406247,15.654,0.031
54082.419155,15.656,0.031
54082.432373,15.556,0.028
54082.445273,15.454,0.026
54085.404009,15.461,0.02
54085.417146,15.376,0.018
54085.4309,15.349,0.026
54085.444543,15.303,0.02
54085.458025,15.305,0.017
54112.387793,15.242,0.023
54112.400501,15.265,0.023
54112.413063,15.293,0.025
54112.425609,15.302,0.028
54114.356449,15.437,0.028
54114.369148,15.558,0.033
54152.280215,15.622,0.017
54152.292126,15.51,0.017
54152.304014,15.416,0.015
54152.315913,15.36,0.015
54152.327821,15.332,0.015
54153.273894,15.445,0.017
54153.285389,15.557,0.018
54153.296885,15.653,0.02
54153.30839,15.702,0.022
54153.319961,15.675,0.02
54173.258097,15.442,0.023
54174.265165,15.313,0.017
54174.275868,15.307,0.017
54174.286573,15.375,0.02
54174.297275,15.405,0.024
54174.30798,15.522,0.024
54180.281142,15.45,0.018
54180.291677,15.397,0.018
54180.302817,15.336,0.017
54180.313535,15.328,0.017
54180.324134,15.303,0.018
54185.221412,15.327,0.04
54185.231672,15.367,0.043
54185.241886,15.398,0.045
54185.252083,15.462,0.046
54185.262297,15.518,0.049
54201.193121,15.395,0.035
54201.202605,15.361,0.036
54201.211829,15.321,0.031
54201.221058,15.443,0.036
54201.230365,15.509,0.038
54205.220591,15.379,0.02
54205.229784,15.421,0.022
54205.239061,15.475,0.024
54205.248251,15.569,0.026
54205.257458,15.653,0.028
54208.216187,15.732,0.031
54208.225214,15.757,0.03
54208.234269,15.669,0.028
54208.243341,15.586,0.026
54208.252423,15.479,0.024
54212.223531,15.661,0.033
54212.232597,15.61,0.031
54212.241605,15.537,0.03
54212.250762,15.48,0.03
54212.259905,15.444,0.028
54416.43726,15.41,0.017
54416.450013,15.363,0.017
54416.462339,15.299,0.015
54416.474657,15.272,0.015
54416.486996,15.281,0.015
54438.446197,15.554,0.015
54438.459437,15.654,0.017
54438.472777,15.628,0.017
54438.486208,15.521,0.015
54438.499466,15.427,0.013
54448.464258,15.324,0.041
54448.477323,15.341,0.04
54448.48969,15.339,0.041
54481.216193,15.565,0.03
54481.229562,15.462,0.026
54481.24272,15.37,0.022
54481.25573,15.332,0.02
54481.268671,15.299,0.018
54498.332857,15.308,0.013
54498.345388,15.351,0.013
54498.357941,15.378,0.015
54498.370589,15.444,0.015
54498.383109,15.537,0.017
54506.276196,15.375,0.013
54506.288551,15.329,0.013
54506.300712,15.298,0.013
54506.313174,15.27,0.013
54506.325381,15.277,0.013
54521.345155,15.696,0.026
54521.356808,15.62,0.033
54521.368519,15.549,0.022
54521.380227,15.41,0.026
54521.391933,15.364,0.022
54527.286096,15.495,0.024
54527.297512,15.361,0.022
54527.308896,15.325,0.013
54527.320309,15.29,0.011
54535.270709,15.514,0.013
54535.281784,15.435,0.013
54535.292874,15.377,0.013
54535.303969,15.332,0.011
54535.315051,15.301,0.011
54535.332931,15.26,0.021
54535.343919,15.263,0.021
54535.355886,15.266,0.023
54535.367279,15.339,0.025
54540.160769,15.362,0.018
54540.171676,15.33,0.017
54540.182686,15.292,0.017
54540.193659,15.304,0.017
54540.20468,15.276,0.015
54552.248642,15.492,0.015
54552.260724,15.609,0.017
54552.272827,15.668,0.018
54552.284834,15.661,0.02
54552.296877,15.536,0.02
54558.119919,15.314,0.017
54558.13165,15.356,0.015
54558.143206,15.4,0.017
54558.154753,15.471,0.017
54558.166338,15.593,0.02
54561.239027,15.294,0.015
54561.25051,15.316,0.011
54561.261962,15.352,0.013
54561.273441,15.414,0.018
54561.284912,15.512,0.028
54583.197278,15.643,0.028
54583.207942,15.691,0.031
54590.197628,15.387,0.018
54590.207929,15.363,0.018
54590.218272,15.323,0.02
54590.228639,15.317,0.02
54590.238992,15.257,0.02
