mjd,m,merr
52619.448271,15.601,0.03
52619.478231,15.581,0.035
52619.493643,15.612,0.035
52619.508634,15.615,0.035
52640.422295,15.542,0.022
52640.437672,15.76,0.026
52640.453281,16.094,0.033
52640.4683,16.571,0.054
52640.483139,16.633,0.057
52646.38523,15.286,0.022
52646.400042,15.3,0.022
52646.414484,15.315,0.022
52646.429053,15.337,0.022
52646.443565,15.329,0.024
52672.320882,15.351,0.022
52672.334724,15.387,0.02
52672.34898,15.377,0.026
52672.362843,15.391,0.02
52672.376808,15.385,0.022
52673.288364,15.883,0.035
52673.303336,15.748,0.031
52673.319205,15.844,0.033
52673.335638,16.159,0.046
52673.350642,16.474,0.059
52698.252108,15.928,0.15
52698.302036,16.464,0.051
52698.30215,16.422,0.046
52698.316364,16.088,0.038
52698.316478,16.002,0.033
52704.285576,15.438,0.023
52704.285934,15.459,0.023
52704.298666,15.477,0.025
52704.299024,15.484,0.023
52704.312016,15.52,0.026
52704.312376,15.537,0.026
52704.325047,15.523,0.026
52704.325404,15.489,0.026
52704.338057,15.445,0.026
52704.338415,15.406,0.025
52705.237288,15.324,0.017
52705.250457,15.32,0.017
52705.265427,15.298,0.017
52705.278468,15.301,0.017
52705.291617,15.332,0.018
52725.287916,15.367,0.028
52725.299579,15.349,0.02
52729.177856,15.472,0.022
52729.189728,15.493,0.022
52729.201261,15.513,0.022
52729.212915,15.482,0.022
52729.224372,15.476,0.022
52734.194599,15.363,0.018
52734.207009,15.332,0.018
52734.220191,15.352,0.02
52734.232445,15.359,0.02
52734.24561,15.353,0.02
52738.1866,15.348,0.03
52738.186715,15.367,0.031
52738.198292,15.317,0.031
52738.198407,15.305,0.03
52738.209899,15.381,0.031
52738.210014,15.343,0.031
52738.221582,15.335,0.031
52738.221699,15.345,0.031
52738.233186,15.407,0.033
52738.233301,15.377,0.033
52755.143912,15.341,0.02
52755.156042,15.345,0.02
52755.168105,15.337,0.02
52755.180195,15.373,0.022
52755.192257,15.346,0.022
52758.146569,15.472,0.025
52758.147021,15.453,0.025
52758.158881,15.413,0.025
52758.159339,15.442,0.025
52758.171086,15.419,0.025
52758.171539,15.418,0.025
52758.183219,15.42,0.025
52758.183673,15.408,0.025
52758.195289,15.38,0.023
52758.195741,15.385,0.023
52944.437723,15.314,0.03
52944.449728,15.312,0.028
52944.461669,15.322,0.028
52944.473592,15.314,0.026
52944.485701,15.328,0.026
52973.395154,15.294,0.02
52973.408193,15.301,0.02
52973.421283,15.272,0.018
52973.434121,15.32,0.018
52973.447072,15.322,0.018
52993.386626,15.407,0.018
52993.399714,15.356,0.017
52993.412761,15.36,0.018
52993.426188,15.333,0.017
52993.439255,15.284,0.015
52994.399744,18.088,0.188
52994.425204,18.037,0.193
52994.439187,15.91,0.026
52994.452781,18.5,0.313
52996.357793,17.042,0.066
52996.370357,18.366,0.218
52996.38317,15.859,0.021
53025.300948,17.684,0.097
53028.370025,15.978,0.02
53028.382212,16.438,0.026
53028.395075,15.469,0.012
53028.407487,15.471,0.013
53028.419712,15.708,0.036
53033.277035,15.354,0.021
53033.289523,15.298,0.021
53033.302234,15.342,0.02
53033.314719,15.319,0.02
53033.327182,15.362,0.02
53053.286804,15.331,0.043
53053.299197,15.299,0.026
53053.311928,15.318,0.026
53053.326011,15.329,0.041
53053.337745,15.316,0.017
53079.247675,15.451,0.018
53079.258365,15.484,0.02
53079.269054,15.516,0.02
53079.279861,15.497,0.02
53079.290518,15.482,0.02
53082.235507,15.437,0.013
53082.247125,15.387,0.013
53082.258739,15.343,0.013
53082.283442,15.336,0.013
53084.23765,15.475,0.013
53084.250117,15.365,0.012
53084.261493,15.355,0.012
53084.272821,15.362,0.012
53084.284625,15.358,0.012
53091.230158,15.491,0.018
53091.249899,15.399,0.016
53110.184214,16.729,0.078
53110.194903,16.57,0.07
53110.205592,16.317,0.057
53110.216278,15.997,0.043
53110.227029,15.762,0.035
53115.198664,15.352,0.015
53115.209411,15.344,0.015
53115.220667,15.349,0.015
53115.231475,15.335,0.016
53138.152517,15.332,0.024
53138.162387,15.358,0.024
53138.172268,15.395,0.024
53138.1821,15.371,0.024
53138.191901,15.371,0.022
53141.171043,15.391,0.021
53141.180486,15.366,0.021
53141.189516,15.341,0.021
53141.198505,15.356,0.021
53141.207507,15.344,0.023
53292.429395,17.601,0.309
53346.419315,16.755,0.079
53347.437471,16.141,0.043
53347.4513,15.941,0.036
53347.465342,16.064,0.046
53347.479079,15.537,0.025
53351.43553,16.659,0.074
53351.450012,16.53,0.068
53351.464921,18.074,0.297
53351.479571,16.772,0.089
53352.445887,16.415,0.063
53352.460901,16.392,0.061
53352.475656,15.468,0.028
53352.490337,15.397,0.026
53352.50514,15.437,0.028
53353.413533,17.688,0.185
53353.441765,17.761,0.198
53357.437992,15.587,0.026
53357.451399,15.813,0.031
53357.465922,16.195,0.046
53357.479725,16.706,0.074
53357.494801,16.673,0.07
53383.344879,15.352,0.02
53383.359029,15.325,0.018
53383.372111,15.304,0.02
53383.385368,15.316,0.02
53383.399137,15.295,0.018
53403.324782,16.634,0.049
53403.35179,16.767,0.063
53410.416336,15.496,0.018
53410.428712,15.632,0.022
53410.441096,15.843,0.028
53410.453473,16.193,0.041
53410.466477,16.536,0.059
53438.351214,15.282,0.02
53438.363419,15.282,0.022
53438.374951,15.255,0.022
53438.386569,15.309,0.024
53438.398188,15.299,0.024
53468.213678,15.426,0.041
53468.22318,15.475,0.035
53502.143165,15.361,0.026
53502.153962,15.351,0.026
53502.164501,15.316,0.024
53502.174796,15.294,0.026
53502.185628,15.302,0.026
53671.445646,16.539,0.144
53671.457698,16.058,0.081
53674.46637,15.327,0.026
53674.478509,15.357,0.026
53674.490787,15.38,0.026
53674.502915,15.361,0.026
53679.449252,16.576,0.076
53679.461498,17.012,0.107
53679.47364,16.625,0.076
53679.485815,16.143,0.05
53679.498651,15.889,0.037
53704.448886,15.399,0.022
53704.461402,15.387,0.022
53704.47383,15.386,0.022
53704.486408,15.384,0.022
53704.499153,15.355,0.02
53707.449511,15.389,0.024
53707.462309,15.364,0.022
53707.474914,15.394,0.024
53707.48756,15.396,0.022
53707.500169,15.479,0.024
53711.468613,15.383,0.022
53711.481603,15.388,0.022
53711.494478,15.396,0.022
53711.507488,15.439,0.024
53711.520415,15.539,0.026
53734.406981,15.363,0.02
53734.419933,15.456,0.022
53734.432779,15.471,0.022
53734.445997,15.518,0.024
53734.45908,15.521,0.026
53737.403895,15.338,0.018
53737.417411,15.334,0.018
53737.430762,15.34,0.018
53737.444167,15.33,0.048
53737.457496,15.307,0.018
53747.342759,15.472,0.063
53747.355645,15.457,0.059
53747.368482,15.425,0.052
53747.395003,15.378,0.054
53758.339755,15.342,0.018
53758.352284,15.321,0.018
53758.364797,15.339,0.02
53758.377517,15.347,0.022
53758.390042,15.339,0.022
53787.401967,15.379,0.055
53787.413826,15.384,0.03
53787.425731,15.415,0.033
53787.437715,15.448,0.03
53787.449774,15.457,0.031
53789.289567,15.363,0.035
53789.28999,16.319,0.069
53789.301504,15.373,0.03
53789.302598,16.467,0.066
53789.313431,15.458,0.054
53789.337533,15.366,0.065
53792.287764,15.482,0.024
53792.299688,15.456,0.024
53792.311596,15.445,0.031
53792.323496,15.408,0.022
53792.335443,15.398,0.022
53799.229758,15.48,0.023
53799.241907,15.58,0.025
53799.253946,15.711,0.026
53799.265885,15.743,0.026
53799.277569,15.863,0.028
53802.28047,16.263,0.068
53802.291843,16.528,0.085
53802.326046,16.135,0.105
53818.229101,15.366,0.021
53818.24022,15.357,0.021
53818.251314,15.361,0.021
53818.262453,15.385,0.021
53818.273711,15.684,0.028
53821.23447,15.365,0.026
53821.248471,15.341,0.026
53821.261397,15.322,0.026
53821.274648,15.342,0.024
53821.285845,15.314,0.024
53824.237362,15.296,0.02
53824.250784,15.291,0.02
53824.261924,15.301,0.02
53824.272744,15.316,0.02
53824.284202,15.326,0.033
53828.233942,15.276,0.026
53828.255397,15.28,0.044
53828.279365,15.309,0.033
53845.185866,15.331,0.028
53845.196572,15.347,0.03
53845.207285,15.345,0.028
53845.218141,15.352,0.03
53845.228882,15.395,0.033
53846.193059,15.336,0.031
53846.203708,15.339,0.033
53846.21439,15.344,0.033
53846.225122,15.34,0.033
53846.235849,15.367,0.033
53851.142553,15.405,0.028
53851.153169,15.4,0.03
53851.163733,15.432,0.033
53851.174202,15.378,0.028
53851.184631,15.424,0.033
53851.192416,15.393,0.028
53851.202459,15.36,0.028
53851.213071,15.382,0.03
53851.222966,15.438,0.031
53851.232848,15.583,0.037
53854.196045,15.354,0.046
53854.206931,15.359,0.061
53854.221233,15.332,0.028
53854.23212,15.336,0.03
53854.24602,15.339,0.033
54030.429883,15.369,0.036
54030.444094,15.353,0.036
54030.458075,16.268,0.069
54030.474068,15.379,0.03
54030.486549,15.343,0.028
54035.436909,15.358,0.031
54035.449169,15.327,0.028
54035.461697,15.29,0.026
54035.473845,15.348,0.028
54035.485546,15.317,0.025
54040.428775,15.374,0.036
54040.442814,15.366,0.035
54040.45515,15.341,0.033
54040.467534,15.36,0.033
54040.479553,15.352,0.031
54053.42529,15.369,0.046
54053.448856,15.352,0.037
54053.472646,15.322,0.031
54056.426655,15.458,0.024
54056.43891,15.455,0.024
54056.451157,15.42,0.022
54056.463601,15.38,0.022
54056.475847,15.351,0.02
54058.385541,16.675,0.094
54058.397894,15.789,0.04
54058.410356,15.985,0.046
54058.424386,17.214,0.137
54058.437459,17.241,0.139
54059.433548,15.334,0.02
54059.446046,15.336,0.02
54059.458359,15.341,0.02
54059.470696,15.333,0.02
54059.48412,15.311,0.018
54064.383186,15.408,0.028
54064.389424,15.327,0.022
54064.39584,15.34,0.026
54064.402339,15.334,0.02
54064.40841,15.353,0.025
54064.415238,15.35,0.022
54064.421142,15.376,0.025
54064.428149,15.388,0.02
54064.434089,15.362,0.025
54064.441239,15.43,0.022
54082.371674,15.974,0.083
54082.384175,15.656,0.063
54082.392801,15.332,0.026
54082.40569,15.357,0.026
54082.418599,15.33,0.026
54082.431816,15.331,0.026
54082.444717,15.374,0.024
54085.403423,15.293,0.02
54085.41656,15.271,0.022
54085.430315,15.287,0.031
54085.443957,15.314,0.022
54085.457439,15.305,0.018
54112.386972,17.013,0.12
54112.412257,16.308,0.064
54112.424802,15.906,0.046
54114.355914,15.423,0.025
54152.280365,15.354,0.017
54152.292277,15.345,0.017
54152.304165,15.37,0.017
54152.316065,15.449,0.018
54152.327974,15.627,0.022
54153.273269,15.312,0.018
54153.284765,15.287,0.018
54153.296258,15.3,0.018
54153.307766,15.325,0.018
54153.319336,15.327,0.018
54173.225254,16.107,0.045
54173.236144,16.405,0.059
54173.246959,16.825,0.086
54173.257831,16.742,0.081
54174.264565,15.292,0.017
54174.275271,15.32,0.017
54174.285978,15.285,0.018
54174.296678,15.322,0.028
54174.307378,15.305,0.02
54180.280911,15.303,0.015
54180.291445,15.287,0.015
54180.302585,15.318,0.015
54180.313299,15.328,0.015
54180.323862,15.311,0.017
54185.221544,16.212,0.089
54201.192431,15.387,0.035
54201.201915,15.35,0.033
54201.211139,15.39,0.033
54201.220367,15.374,0.033
54201.229674,15.441,0.035
54205.220122,15.351,0.02
54205.229315,15.351,0.022
54205.238593,15.366,0.022
54205.247782,15.356,0.022
54205.25699,15.385,0.022
54208.215724,15.408,0.02
54208.224749,15.403,0.02
54208.233803,15.373,0.02
54208.242874,15.339,0.02
54208.251958,15.355,0.017
54212.187142,15.518,0.028
54212.196007,15.552,0.031
54212.205139,15.498,0.03
54212.214032,15.465,0.03
54212.222937,15.43,0.03
54416.43694,15.377,0.018
54416.449696,15.385,0.018
54416.46202,15.402,0.018
54416.474337,15.462,0.02
54416.486678,15.597,0.022
54438.445642,15.303,0.013
54438.458884,15.294,0.013
54438.472222,15.327,0.013
54438.485654,15.352,0.013
54438.498914,15.35,0.013
54480.461858,15.412,0.036
54480.474146,15.401,0.036
54480.486761,15.355,0.036
54480.49905,15.369,0.041
54480.51137,15.4,0.041
54481.228667,15.241,0.024
54481.241829,15.247,0.024
54481.254838,15.218,0.022
54481.267776,15.269,0.022
54498.332454,15.345,0.015
54498.344986,15.346,0.015
54498.357538,15.363,0.017
54498.370186,15.433,0.018
54498.382706,15.537,0.018
54506.275511,15.307,0.013
54506.287864,15.315,0.015
54506.300025,15.315,0.013
54506.312488,15.32,0.015
54506.324697,15.346,0.015
54522.333771,15.304,0.017
54522.345665,15.298,0.018
54522.357605,15.3,0.018
54522.369593,15.29,0.018
54522.38139,15.303,0.02
54527.297117,15.772,0.046
54527.308502,15.963,0.028
54527.319914,16.276,0.03
54535.224951,15.309,0.013
54535.23606,15.343,0.013
54535.247366,15.322,0.013
54535.258769,15.352,0.013
54535.26997,15.356,0.013
54553.245486,15.314,0.015
54553.257318,15.293,0.015
54553.269253,15.322,0.018
54553.281135,15.329,0.02
54553.292991,15.321,0.026
54559.121749,15.369,0.015
54559.133383,15.367,0.017
54559.144954,15.372,0.017
54559.156432,15.358,0.017
54559.167892,15.319,0.015
54561.238637,15.326,0.018
54561.250119,15.311,0.013
54561.261569,15.303,0.015
54561.273048,15.318,0.017
54561.284519,15.332,0.022
54580.144199,15.347,0.031
54580.154426,15.313,0.031
54580.164982,15.352,0.031
54580.183223,15.351,0.033
54580.193879,15.356,0.031
54584.195987,15.355,0.02
54584.206867,15.327,0.02
54584.217765,15.349,0.02
54584.228652,15.339,0.02
54584.239545,15.369,0.022
54591.144684,15.654,0.056
54591.154445,15.9,0.066
54591.173947,15.683,0.059
54591.183529,15.628,0.058
54591.192016,15.504,0.026
54591.202436,15.462,0.026
54591.212713,15.434,0.024
54591.222982,15.404,0.026
54591.233265,15.383,0.028
