mjd,m,merr
52618.371578,14.879,0.026
52618.402817,14.866,0.031
52618.417995,14.893,0.016
52618.433154,14.882,0.018
52636.354678,14.925,0.017
52636.368811,14.935,0.017
52636.38298,14.926,0.017
52636.397189,14.939,0.017
52636.411353,14.928,0.017
52650.245148,14.913,0.018
52650.261097,14.981,0.02
52650.276735,15.13,0.02
52650.292112,15.25,0.021
52650.307532,15.258,0.02
52653.308778,14.922,0.017
52653.324103,14.905,0.017
52653.3395,14.927,0.017
52653.354846,14.918,0.017
52653.370222,14.895,0.017
52654.297988,14.99,0.037
52654.327659,14.953,0.022
52654.34254,14.96,0.026
52654.357459,14.97,0.033
52660.301443,15.0,0.024
52660.331028,14.983,0.024
52660.360511,14.983,0.033
52695.244968,14.958,0.015
52695.261835,14.95,0.013
52695.277741,14.924,0.013
52695.294159,14.942,0.013
52695.310545,14.931,0.013
52711.177855,14.926,0.026
52711.191162,14.965,0.028
52711.204844,14.954,0.02
52711.218261,14.928,0.02
52711.232006,14.936,0.02
52722.19514,15.254,0.015
52722.20883,15.28,0.017
52722.222391,15.165,0.015
52722.235703,15.034,0.013
52722.253125,14.956,0.013
52739.141584,14.912,0.022
52739.152936,14.918,0.022
52739.164339,14.922,0.022
52739.175829,14.957,0.022
52739.180479,14.91,0.026
52739.191969,14.894,0.028
52739.203438,14.914,0.028
52739.215278,14.923,0.03
52739.227218,14.92,0.03
52751.14013,14.934,0.018
52751.150723,14.894,0.055
52751.161415,14.929,0.018
52751.172042,14.921,0.017
52751.182839,14.906,0.017
52769.146612,14.947,0.031
52769.158132,14.96,0.033
52769.170023,14.984,0.035
52769.181725,14.978,0.035
52769.193323,14.986,0.039
52914.435228,14.926,0.039
52914.448229,14.944,0.02
52914.474204,14.931,0.031
52914.487662,14.95,0.026
52928.430886,14.933,0.033
52928.442423,14.917,0.033
52928.453864,14.926,0.033
52928.465524,14.928,0.033
52928.477006,14.929,0.033
52964.413689,14.963,0.012
52964.475577,14.952,0.012
52966.321221,14.962,0.013
52966.340481,14.959,0.013
52966.349395,14.967,0.013
52966.35838,14.964,0.013
52977.341088,14.914,0.016
52977.352205,14.935,0.016
52977.363423,14.914,0.016
52977.374719,14.917,0.016
52977.386074,14.939,0.015
52978.38093,14.928,0.017
52978.393658,14.929,0.017
52978.406385,14.901,0.017
52978.419231,14.935,0.017
52978.43198,14.913,0.015
52988.328419,14.953,0.015
52988.341489,14.966,0.015
52988.354465,14.933,0.015
52988.367439,14.944,0.015
52988.380315,14.952,0.015
53003.265011,14.959,0.01
53003.277101,14.949,0.01
53003.289196,14.945,0.008
53003.301376,14.938,0.008
53003.313484,14.934,0.01
53006.265609,14.913,0.017
53006.277718,14.951,0.02
53006.289801,14.939,0.017
53006.302077,14.867,0.031
53006.323948,14.913,0.015
53008.373486,14.913,0.018
53008.386035,14.917,0.017
53038.277019,14.904,0.025
53038.289219,14.935,0.025
53038.301418,14.91,0.021
53038.313792,14.922,0.021
53038.326124,14.931,0.021
53045.275864,14.926,0.015
53045.288124,14.941,0.015
53045.305575,14.936,0.016
53045.317841,14.92,0.016
53092.180837,14.949,0.016
53092.191378,14.969,0.016
53092.200966,14.968,0.016
53092.210689,14.95,0.016
53092.220367,14.958,0.018
53121.143315,14.981,0.021
53121.153402,14.945,0.021
53121.163413,14.957,0.021
53121.173508,14.974,0.021
53121.183953,14.994,0.021
53125.146289,15.085,0.045
53125.155863,14.977,0.041
53125.165582,15.067,0.043
53125.176091,15.029,0.049
53134.151107,15.114,0.021
53134.16021,15.195,0.025
53134.16926,15.275,0.025
53134.178548,15.356,0.026
53262.415021,15.226,0.026
53262.427376,15.357,0.026
53262.439254,15.352,0.025
53262.452242,15.269,0.023
53262.464013,15.119,0.02
53281.424266,14.888,0.035
53281.435086,14.918,0.033
53281.44607,14.949,0.033
53281.457167,14.889,0.031
53281.468005,14.967,0.031
53294.475754,15.24,0.018
53294.487276,15.389,0.02
53319.413204,14.959,0.016
53319.426973,14.93,0.016
53319.441644,14.927,0.016
53329.454542,15.255,0.023
53329.467057,15.415,0.026
53329.479842,15.424,0.026
53329.492311,15.235,0.023
53329.505042,15.095,0.02
53340.377304,14.97,0.033
53340.389974,14.955,0.031
53349.397861,14.932,0.018
53349.411276,14.922,0.018
53349.425107,14.933,0.02
53349.438876,14.934,0.02
53349.452476,14.926,0.018
53355.413065,14.927,0.013
53355.426353,14.933,0.015
53355.43955,14.924,0.013
53355.453343,14.995,0.033
53355.466632,14.933,0.015
53360.349165,14.979,0.016
53360.362973,15.001,0.016
53360.377032,14.986,0.016
53360.391348,14.98,0.016
53360.405483,15.008,0.016
53385.419565,14.971,0.015
53385.432484,14.987,0.015
53385.445412,14.953,0.015
53385.458893,14.99,0.015
53385.472449,14.996,0.017
53401.284539,14.97,0.015
53401.297062,14.96,0.015
53401.309685,14.982,0.015
53401.322859,15.009,0.015
53401.335463,15.112,0.017
53415.296649,14.924,0.013
53415.308883,14.932,0.013
53415.321633,14.923,0.013
53415.333879,14.924,0.013
53415.346307,14.922,0.013
53430.234328,14.973,0.017
53430.246103,14.962,0.013
53430.259636,14.982,0.013
53430.273385,14.979,0.015
53430.292955,14.957,0.015
53437.237876,14.898,0.013
53437.250348,14.915,0.013
53437.26197,14.914,0.013
53437.273444,14.941,0.013
53437.284939,15.0,0.013
53480.178484,14.939,0.033
53480.187493,14.908,0.035
53480.196512,14.952,0.035
53480.205833,14.897,0.035
53480.214852,14.923,0.037
53491.156168,14.942,0.022
53491.165989,14.912,0.017
53685.385938,14.927,0.017
53685.398208,14.907,0.017
53685.410488,14.922,0.018
53685.422882,14.921,0.018
53685.435204,14.945,0.043
53727.339465,14.979,0.017
53727.3523,14.988,0.015
53727.365102,14.983,0.015
53727.378059,14.974,0.015
53727.390754,14.967,0.015
53757.261599,14.931,0.013
53757.274309,14.927,0.013
53757.286987,14.934,0.013
53757.299508,14.926,0.013
53757.312102,14.935,0.013
53773.287439,14.932,0.017
53773.30029,14.955,0.017
53773.313129,14.923,0.017
53773.326111,14.919,0.017
53773.33875,14.936,0.018
53802.244672,14.922,0.021
53802.256984,14.92,0.021
53827.199429,14.918,0.013
53827.210826,14.925,0.013
53827.221719,14.946,0.013
53827.232736,14.937,0.013
53827.24363,14.918,0.013
53842.182575,14.966,0.017
53842.195158,14.948,0.018
53842.206413,14.95,0.018
53842.217643,14.952,0.02
53842.229263,14.913,0.024
54024.450876,14.957,0.02
54052.392301,15.059,0.018
54052.404517,14.993,0.017
54052.416715,14.962,0.017
54052.428923,14.928,0.022
54052.441135,14.963,0.035
54071.331869,14.951,0.026
54071.344528,14.937,0.026
54071.35718,14.965,0.025
54071.370356,14.953,0.025
54080.308835,14.944,0.017
54080.320731,14.921,0.017
54080.332626,14.932,0.017
54080.344519,14.929,0.017
54080.356689,14.921,0.017
54098.313919,14.923,0.018
54098.326014,14.917,0.018
54098.338097,14.931,0.018
54098.350346,14.931,0.018
54098.362675,14.94,0.018
54109.352848,14.985,0.022
54109.36545,14.983,0.028
54109.390878,14.98,0.022
54124.271569,15.31,0.02
54124.284001,15.17,0.018
54124.296485,15.024,0.015
54124.30879,14.968,0.015
54124.321601,14.953,0.015
54140.291866,14.926,0.011
54140.304601,14.932,0.011
54140.316435,14.919,0.013
54140.32842,14.936,0.013
54140.340731,14.945,0.013
54198.177569,14.962,0.015
54198.187027,14.928,0.024
54198.196679,14.932,0.015
54198.206179,14.948,0.015
54198.215671,14.938,0.017
54212.182618,14.937,0.025
54498.266978,14.949,0.018
54498.278731,14.969,0.02
54498.290512,14.992,0.02
54498.302554,15.068,0.02
54498.314298,15.212,0.023
54526.220807,14.919,0.016
54526.232362,14.951,0.018
54526.243589,14.939,0.018
54526.255079,14.944,0.016
54526.266587,14.945,0.016
54559.183144,14.926,0.021
54559.194599,14.937,0.021
54559.205985,14.918,0.021
54559.217618,14.926,0.021
54559.229954,14.915,0.021
54570.181673,15.012,0.04
54570.192736,15.079,0.041
54570.204188,15.142,0.043
54570.215478,15.268,0.049
54570.226902,15.402,0.046
54589.145902,14.909,0.015
54589.156388,14.912,0.015
54589.166897,14.921,0.015
54589.177345,14.928,0.015
54589.187902,14.939,0.015
