mjd,m,merr
52644.489468,16.016,0.035
52644.504365,16.128,0.052
52644.519208,16.196,0.057
52644.533991,16.231,0.046
52648.400124,16.228,0.054
52648.415173,16.34,0.059
52648.429864,16.208,0.052
52648.445199,16.037,0.041
52648.460606,15.965,0.037
52667.46824,15.984,0.037
52667.483491,15.921,0.037
52667.49872,15.906,0.035
52667.513916,15.905,0.035
52667.529321,15.954,0.039
52671.401759,15.86,0.03
52671.417116,15.915,0.031
52671.432302,16.041,0.035
52671.447641,16.259,0.043
52671.463,16.267,0.044
52674.401341,15.915,0.031
52674.415337,15.937,0.031
52674.429327,15.932,0.033
52674.443205,15.915,0.041
52674.457147,16.048,0.035
52704.372954,15.891,0.03
52704.386113,15.931,0.031
52704.399475,15.972,0.033
52704.412649,16.062,0.037
52704.425726,16.14,0.041
52707.315445,16.235,0.046
52707.328486,16.206,0.043
52707.341782,16.094,0.04
52707.355031,16.055,0.038
52707.368543,15.982,0.036
52728.293277,15.928,0.03
52728.306193,15.961,0.03
52728.318367,15.972,0.03
52728.33186,16.103,0.035
52728.344743,16.166,0.037
52731.324825,15.985,0.055
52731.336823,15.981,0.081
52731.34883,16.051,0.046
52737.30726,16.108,0.035
52737.329998,15.979,0.031
52737.341967,15.927,0.03
52737.353887,15.921,0.03
52737.365837,15.9,0.03
52756.255319,15.956,0.04
52756.267649,16.056,0.045
52756.279708,16.079,0.046
52756.291947,16.186,0.051
52756.304187,16.2,0.053
52760.208263,16.196,0.037
52760.220193,16.088,0.035
52760.23212,16.012,0.033
52760.244065,15.962,0.033
52760.255989,15.874,0.03
52767.20894,15.971,0.043
52767.221583,16.1,0.048
52767.233212,16.127,0.049
52767.24487,16.213,0.051
52767.257474,16.212,0.053
52789.215872,15.9,0.035
52789.226166,15.902,0.035
52789.236588,15.944,0.035
52789.246903,15.978,0.037
52789.257387,16.002,0.037
52794.214118,16.073,0.046
52794.224131,16.056,0.046
52794.234161,15.993,0.043
52794.244296,15.92,0.044
52794.254357,15.959,0.046
52816.170634,15.911,0.046
52816.180417,15.986,0.05
52816.191086,15.957,0.052
52816.20093,16.075,0.065
52816.210755,16.137,0.08
52823.170828,16.089,0.109
52823.180741,15.97,0.133
52823.19067,15.979,0.052
52987.473319,16.152,0.091
52987.486274,16.174,0.083
52987.49925,16.274,0.078
52987.512099,16.306,0.063
52995.486294,15.938,0.022
52996.466301,16.087,0.03
52996.479259,15.96,0.024
52996.492212,15.93,0.024
52996.505345,15.888,0.022
52996.518301,15.906,0.022
53001.468648,16.198,0.03
53001.482034,16.204,0.028
53001.495088,16.102,0.024
53001.509235,16.044,0.024
53001.52252,15.963,0.02
53033.395766,15.89,0.035
53033.408011,15.914,0.031
53033.420523,16.016,0.033
53033.432618,16.128,0.037
53033.444784,16.188,0.039
53054.37659,15.97,0.028
53054.389133,15.873,0.024
53054.401146,15.878,0.024
53054.4138,15.913,0.026
53054.427431,15.89,0.026
53060.310265,15.905,0.02
53060.322391,15.915,0.02
53060.335109,15.942,0.02
53060.34657,15.964,0.022
53060.359727,16.063,0.024
53080.337134,15.912,0.028
53080.348621,15.882,0.026
53080.360232,15.966,0.03
53080.371735,15.992,0.03
53080.383142,16.075,0.031
53084.350019,15.902,0.02
53084.360815,15.883,0.02
53086.355115,15.995,0.03
53086.366091,15.961,0.031
53086.377056,15.932,0.03
53086.388113,15.877,0.026
53086.399066,15.941,0.025
53115.3151,15.93,0.024
53117.264321,16.077,0.028
53117.274883,16.175,0.031
53117.28559,16.221,0.033
53117.296697,16.194,0.033
53117.307094,16.104,0.03
53139.205009,16.084,0.039
53139.214317,16.023,0.037
53139.223614,16.012,0.037
53139.232919,15.935,0.035
53139.242383,15.93,0.035
53143.234477,16.076,0.037
53143.243979,16.053,0.031
53143.253324,15.967,0.03
53143.262667,15.946,0.03
53143.272013,15.951,0.028
53147.207449,15.907,0.031
53147.216239,15.995,0.035
53147.225046,16.074,0.036
53147.234213,16.158,0.038
53147.243309,16.192,0.041
53169.174562,16.13,0.044
53169.184685,16.059,0.041
53169.194779,16.003,0.041
53169.204879,15.947,0.039
53169.21499,15.973,0.037
53172.174622,16.289,0.041
53172.185575,16.224,0.039
53172.196005,16.056,0.033
53172.2063,16.022,0.033
53172.21655,15.983,0.031
53174.173495,16.175,0.043
53174.183315,16.243,0.045
53174.195301,16.273,0.046
53174.205125,16.143,0.041
53174.215297,16.064,0.04
53348.461427,16.086,0.055
53348.473887,16.28,0.067
53348.486342,16.394,0.067
53348.500632,16.354,0.063
53348.513359,16.184,0.05
53354.457377,15.983,0.041
53354.470322,15.984,0.039
53354.484466,16.008,0.039
53354.497292,16.082,0.041
53354.510249,16.086,0.041
53377.414811,16.093,0.043
53377.427975,16.186,0.044
53377.442426,16.251,0.044
53377.456535,16.163,0.041
53377.469655,16.087,0.037
53382.509293,16.13,0.037
53382.524757,16.032,0.035
53382.539654,15.94,0.035
53404.431964,15.989,0.037
53404.444279,15.923,0.035
53404.457729,15.957,0.035
53404.470599,15.964,0.035
53404.484319,16.018,0.039
53433.4155,15.939,0.035
53433.426763,16.017,0.039
53433.438587,16.054,0.048
53433.449804,16.226,0.054
53433.461004,16.252,0.054
53440.428527,16.02,0.037
53440.439018,15.992,0.039
53440.449515,15.929,0.037
53440.461193,15.895,0.039
53440.472823,15.982,0.043
53465.336461,16.088,0.039
53465.347219,16.002,0.037
53465.358916,16.004,0.035
53465.370357,15.941,0.033
53465.380645,16.015,0.037
53468.27891,16.033,0.076
53468.288443,16.012,0.052
53468.29842,16.094,0.08
53473.278081,15.951,0.037
53473.289426,15.953,0.037
53473.300417,15.873,0.035
53473.311303,15.921,0.037
53473.323721,15.991,0.039
53478.239167,15.957,0.065
53478.248735,16.101,0.072
53478.259506,16.274,0.083
53478.268903,16.225,0.081
53479.279881,16.432,0.117
53479.292751,16.167,0.093
53479.314936,16.003,0.083
53479.324772,16.029,0.087
53493.297541,16.033,0.05
53493.307882,15.956,0.046
53493.3186,15.924,0.046
53493.328578,15.952,0.044
53493.338619,15.969,0.044
53496.24494,16.057,0.048
53496.255109,16.159,0.052
53496.26513,16.247,0.057
53496.275229,16.322,0.061
53496.285379,16.316,0.059
53526.194633,16.084,0.083
53526.205137,16.066,0.076
53526.215624,16.123,0.061
53527.170855,15.972,0.043
53527.181156,15.909,0.041
53527.191056,16.045,0.046
53527.200818,15.962,0.044
53527.210616,16.046,0.046
53733.458157,15.917,0.039
53733.4708,15.891,0.037
53733.483534,15.867,0.091
53746.463419,16.062,0.055
53746.475841,16.221,0.063
53746.488532,16.204,0.055
53746.500989,16.225,0.052
53746.51351,16.18,0.044
53791.360196,15.924,0.03
53791.372029,15.964,0.031
53791.383773,15.977,0.031
53791.395401,16.026,0.033
53791.407278,16.056,0.035
53791.417169,16.192,0.041
53791.42899,16.232,0.043
53791.440802,16.223,0.044
53791.452628,16.097,0.039
53791.464442,16.023,0.039
53794.399719,15.946,0.031
53794.411343,15.979,0.031
53794.422963,16.062,0.033
53794.434594,16.169,0.037
53794.446223,16.324,0.043
53815.339983,16.311,0.067
53815.351126,16.264,0.063
53815.362264,16.178,0.059
53815.373431,16.062,0.052
53815.38459,15.975,0.054
53817.27169,15.97,0.035
53817.282944,15.944,0.033
53817.294223,15.979,0.035
53817.305562,15.99,0.036
53817.3169,16.023,0.038
53818.334477,15.992,0.037
53818.345757,16.191,0.044
53818.358088,16.276,0.048
53818.369416,16.335,0.05
53818.38284,16.205,0.046
53823.318517,15.958,0.037
53823.331901,15.907,0.033
53823.344251,15.918,0.033
53823.360141,15.995,0.037
53823.377204,16.092,0.041
53825.333831,15.963,0.065
53825.346373,16.062,0.135
53825.370318,15.985,0.181
53829.286891,16.455,0.309
53829.313447,16.449,0.348
53829.327604,16.315,0.083
53829.340982,16.226,0.231
53846.241344,15.967,0.043
53846.251973,15.916,0.043
53846.262526,16.12,0.049
53848.293192,16.067,0.052
53848.303949,16.176,0.059
53848.314604,16.258,0.067
53848.32539,16.342,0.074
53848.336281,16.212,0.063
53849.299717,16.006,0.043
53849.310495,16.101,0.046
53849.321597,16.139,0.048
53849.33237,16.197,0.052
53849.34314,16.275,0.059
53850.244958,16.292,0.061
53850.255344,15.942,0.043
53850.265663,15.995,0.045
53850.275967,15.955,0.043
53850.286372,15.987,0.048
53852.260977,16.039,0.048
53852.271791,15.943,0.044
53852.282163,15.922,0.044
53852.293829,15.939,0.044
53852.305227,15.945,0.044
53855.252456,16.306,0.055
53855.263075,16.144,0.048
53855.274717,16.045,0.044
53855.286107,16.025,0.044
53855.296302,15.968,0.043
53858.247101,16.233,0.218
53858.258618,16.281,0.154
53858.269291,16.103,0.12
53858.280372,16.104,0.135
53858.290947,16.129,0.055
53881.211594,16.064,0.048
53881.2216,15.945,0.045
53881.231708,15.943,0.048
53881.24185,16.12,0.056
53881.251848,15.891,0.046
53883.224089,16.046,0.048
53883.235503,16.013,0.05
53883.247005,15.968,0.046
53883.258452,15.943,0.046
53883.269879,15.898,0.052
53884.216634,16.138,0.055
53884.228214,16.087,0.054
53884.239785,15.994,0.052
53884.25137,15.954,0.05
53884.26296,15.921,0.05
53901.190605,16.234,0.085
53901.200639,16.281,0.085
53901.21069,16.246,0.096
53910.167584,15.935,0.052
53910.177831,15.996,0.055
53910.188119,16.015,0.055
53910.198333,15.856,0.05
53910.208554,15.871,0.052
53911.208624,16.194,0.389
53911.218451,16.015,0.102
53914.17158,16.375,0.142
53914.182062,16.222,0.093
53914.192509,16.042,0.091
53914.202981,16.186,0.12
54084.48904,16.028,0.043
54084.502769,15.957,0.048
54084.5165,15.982,0.044
54084.530223,16.057,0.055
54121.40175,16.042,0.045
54121.414506,16.065,0.046
54121.42707,16.201,0.053
54121.439467,16.347,0.063
54121.451992,16.312,0.058
54124.407974,15.95,0.026
54124.422438,16.0,0.028
54124.435329,16.015,0.026
54124.449148,16.136,0.028
54124.462235,16.2,0.03
54149.394298,16.367,0.049
54149.40602,16.246,0.045
54149.418727,16.117,0.041
54149.430567,16.05,0.04
54149.442476,16.012,0.038
54155.357343,15.937,0.028
54155.369168,15.904,0.026
54155.381008,15.944,0.026
54155.392966,15.997,0.028
54155.404806,16.07,0.031
54156.328477,16.142,0.037
54156.340093,16.073,0.033
54156.35161,16.04,0.031
54156.363137,15.98,0.03
54156.374667,15.975,0.03
54174.322192,16.145,0.046
54174.332837,16.076,0.106
54174.343504,16.025,0.04
54174.354414,15.955,0.038
54174.365115,15.929,0.036
54175.327669,16.279,0.037
54175.33842,16.125,0.033
54175.349151,16.083,0.031
54175.359837,16.044,0.031
54175.370436,15.99,0.03
54180.286083,15.948,0.033
54180.296542,15.982,0.033
54180.307112,15.98,0.035
54180.317629,16.003,0.033
54180.328181,16.082,0.036
54200.293571,15.896,0.053
54200.303041,15.909,0.061
54207.270021,16.113,0.037
54207.279166,16.242,0.041
54207.288348,16.321,0.081
54207.297509,16.221,0.266
54210.266901,15.974,0.035
54210.275902,15.99,0.035
54210.284881,16.023,0.039
54210.293873,16.089,0.041
54210.302899,16.125,0.043
54447.459271,16.051,0.03
54447.472334,16.006,0.037
54447.48611,15.923,0.026
54447.499159,15.917,0.024
54447.512211,15.913,0.024
54454.464378,16.135,0.033
54454.477723,16.276,0.037
54454.49076,16.319,0.037
54454.503786,16.214,0.035
54454.516808,16.025,0.03
54475.453792,15.99,0.024
54475.466891,15.999,0.024
54475.479804,16.074,0.026
54475.492679,16.155,0.028
54475.505549,16.323,0.031
54483.39849,15.98,0.048
54483.411762,16.04,0.046
54483.424858,16.21,0.046
54483.437771,16.228,0.039
54483.45067,16.209,0.035
54509.339324,16.033,0.024
54509.351514,16.152,0.026
54509.363559,16.216,0.026
54509.3756,16.16,0.026
54509.387684,16.115,0.024
54524.395865,15.952,0.026
54524.407926,15.91,0.026
54524.419613,15.916,0.028
54524.43132,15.932,0.028
54524.443168,15.995,0.03
54538.312856,16.286,0.03
54538.323981,16.214,0.028
54538.335069,16.121,0.026
54538.346217,16.021,0.022
54538.357243,16.016,0.022
54543.24727,15.981,0.05
54543.258231,16.05,0.052
54543.269027,15.954,0.046
54555.304964,16.226,0.028
54555.316781,16.283,0.028
54555.32872,16.179,0.026
54555.340771,16.081,0.024
54555.352583,16.045,0.024
54564.298306,15.97,0.024
54564.309702,15.923,0.022
54564.321064,15.887,0.022
54564.332411,15.906,0.022
54564.343737,15.968,0.024
54580.245801,16.176,0.046
54580.256415,16.051,0.043
54580.267011,16.052,0.044
54580.277614,16.02,0.044
54580.28828,15.926,0.041
54586.244011,15.945,0.03
54586.254428,16.003,0.033
54586.264762,16.145,0.039
54586.275164,16.164,0.037
54586.285506,16.191,0.039
54594.253475,15.985,0.033
54594.263763,15.941,0.031
54594.27408,15.896,0.033
54594.284354,15.953,0.035
54594.294629,15.954,0.033
54611.209252,16.306,0.037
54611.219145,16.25,0.037
54611.229004,16.155,0.033
54611.239018,16.053,0.031
54611.248797,16.021,0.03
54618.209386,15.97,0.031
54618.219602,15.935,0.03
54618.22982,16.034,0.033
54618.240038,16.109,0.037
54618.250289,16.184,0.039
