mjd,m,merr
52641.464688,15.669,0.028
52641.479969,15.688,0.028
52641.49518,15.723,0.028
52641.51037,15.774,0.03
52641.525485,15.807,0.03
52644.488965,16.078,0.039
52644.503862,16.057,0.054
52644.518706,16.153,0.05
52644.533465,16.132,0.05
52648.399626,16.071,0.048
52648.414673,16.072,0.05
52648.429364,16.11,0.048
52648.444601,16.128,0.046
52648.460108,16.15,0.044
52667.467465,16.075,0.041
52667.482716,16.125,0.044
52667.497947,16.172,0.048
52667.513083,16.148,0.048
52667.528542,16.186,0.05
52671.40124,16.069,0.037
52671.416601,16.105,0.039
52671.431784,16.124,0.039
52671.447126,16.11,0.039
52671.462484,16.131,0.041
52674.400628,16.24,0.046
52674.414621,16.315,0.046
52674.42861,16.23,0.046
52674.44249,16.331,0.061
52674.456432,16.107,0.041
52704.372437,15.905,0.033
52704.385605,15.917,0.033
52704.39896,15.929,0.033
52704.412131,15.96,0.035
52704.425213,16.015,0.039
52707.314967,16.099,0.041
52707.328006,16.089,0.041
52707.341303,16.102,0.041
52707.354552,16.091,0.041
52707.368065,16.085,0.041
52728.29251,16.207,0.041
52728.3054,16.121,0.037
52728.317766,15.89,0.03
52728.331254,15.761,0.028
52728.344136,15.591,0.024
52731.324226,15.96,0.044
52731.336222,16.007,0.102
52731.348231,15.992,0.044
52737.305468,15.69,0.026
52737.329064,15.491,0.022
52737.340941,15.512,0.022
52737.35293,15.573,0.024
52737.364896,15.596,0.024
52756.255093,16.128,0.048
52756.267423,16.151,0.049
52756.279483,16.199,0.053
52756.291721,16.254,0.054
52756.303962,16.22,0.054
52760.207818,16.219,0.039
52760.219746,16.219,0.041
52760.231674,16.284,0.043
52760.243618,16.29,0.048
52760.255543,16.245,0.044
52761.198171,16.187,0.072
52761.210187,16.131,0.065
52761.222301,16.208,0.067
52761.234378,16.12,0.044
52761.246398,16.135,0.041
52764.146746,16.276,0.03
52764.159836,16.272,0.03
52764.172725,16.292,0.03
52764.185392,16.224,0.028
52764.197703,16.099,0.026
52789.215341,16.128,0.044
52789.225635,16.115,0.044
52789.236057,16.17,0.046
52789.246369,16.11,0.044
52789.256852,16.134,0.043
52794.173316,15.993,0.041
52794.183283,15.997,0.043
52794.193207,16.028,0.048
52794.20316,16.069,0.046
52794.213132,16.046,0.048
52816.170178,16.112,0.059
52816.179964,16.211,0.065
52816.190615,16.242,0.072
52816.200479,16.234,0.08
52816.210305,16.239,0.094
52823.170469,15.535,0.061
52823.180374,15.603,0.054
52823.190312,15.625,0.039
52987.472851,15.755,0.067
52987.485806,15.474,0.052
52987.498781,15.461,0.044
52987.51163,15.45,0.031
52995.471864,15.818,0.022
52995.485427,15.843,0.024
52995.499336,15.87,0.024
52995.512784,15.9,0.024
52995.526508,15.985,0.026
53000.480949,15.761,0.02
53000.493831,15.804,0.02
53000.506795,15.82,0.018
53000.519815,15.855,0.02
53000.532731,15.877,0.02
53026.421492,16.013,0.035
53026.435427,16.003,0.031
53026.46302,16.008,0.037
53033.395029,16.311,0.052
53033.407274,16.292,0.046
53033.419786,16.27,0.044
53033.431881,16.198,0.041
53033.444028,16.056,0.037
53054.375927,15.895,0.026
53054.38847,15.905,0.026
53054.400481,15.926,0.026
53054.413138,15.951,0.028
53054.426768,15.989,0.03
53058.346541,15.94,0.02
53058.358888,15.943,0.022
53058.37123,15.994,0.022
53058.38332,15.988,0.022
53058.400997,16.055,0.028
53080.33672,16.096,0.033
53080.348208,16.139,0.035
53080.359187,16.102,0.033
53080.371321,16.126,0.035
53080.382728,16.131,0.035
53083.339909,16.271,0.031
53083.350673,16.135,0.028
53083.361964,15.954,0.024
53083.372939,15.796,0.02
53083.383644,15.724,0.022
53086.346371,15.87,0.024
53086.357211,15.896,0.028
53086.367954,15.95,0.028
53086.379018,15.959,0.028
53086.390016,15.906,0.03
53092.332811,16.02,0.03
53092.343305,15.872,0.026
53092.353485,15.814,0.024
53092.363668,15.764,0.022
53092.373849,15.69,0.022
53114.255576,15.67,0.02
53114.266816,15.606,0.018
53114.277949,15.562,0.017
53114.289152,15.581,0.017
53114.300327,15.638,0.018
53116.247973,16.136,0.074
53116.248844,16.128,0.057
53116.249214,16.142,0.058
53116.250935,16.106,0.055
53116.25993,16.192,0.056
53116.259948,16.083,0.055
53116.260813,16.123,0.046
53116.262902,16.107,0.05
53116.270916,16.112,0.043
53116.271083,16.042,0.043
53116.271947,16.171,0.043
53116.274036,16.075,0.05
53116.281847,16.093,0.086
53116.282215,16.132,0.089
53116.28308,16.146,0.055
53116.28517,16.15,0.054
53116.292576,16.183,0.064
53116.293438,16.098,0.059
53116.294318,16.139,0.059
53116.296406,16.133,0.037
53117.245482,15.922,0.024
53117.256345,15.947,0.024
53117.267212,15.973,0.026
53117.277981,15.966,0.026
53117.28876,15.981,0.026
53117.303118,16.025,0.028
53117.313735,16.051,0.03
53117.324301,16.049,0.03
53117.334977,16.108,0.031
53117.346008,16.089,0.031
53139.204464,16.117,0.043
53139.21377,16.088,0.041
53139.223068,16.083,0.043
53139.232372,16.129,0.044
53139.241834,16.109,0.044
53142.253143,16.211,0.039
53142.26263,15.984,0.028
53142.272118,15.744,0.024
53142.281603,15.636,0.033
53142.291213,15.478,0.078
53146.212633,15.555,0.018
53146.22181,15.457,0.017
53146.230855,15.439,0.017
53146.239934,15.433,0.017
53146.248979,15.494,0.018
53169.174219,16.188,0.048
53169.184341,16.019,0.043
53169.194435,15.86,0.037
53169.204536,15.829,0.037
53169.214646,15.762,0.031
53171.173658,16.04,0.035
53171.183955,16.091,0.039
53171.194172,16.069,0.039
53171.2044,16.049,0.039
53171.214888,16.071,0.041
53174.174085,16.218,0.037
53174.184156,16.204,0.037
53174.194676,16.219,0.039
53174.20491,16.203,0.039
53174.215211,16.197,0.039
53346.460056,15.903,0.107
53346.473502,15.716,0.085
53346.486779,15.672,0.08
53346.499434,15.658,0.074
53346.511577,15.653,0.07
53348.460586,16.129,0.063
53348.473045,16.109,0.059
53348.4855,16.16,0.057
53348.499327,16.133,0.054
53348.512517,16.096,0.05
53354.456508,15.837,0.039
53354.469453,15.854,0.037
53354.483598,15.892,0.037
53354.496423,15.895,0.037
53354.509381,15.915,0.037
53377.413932,15.762,0.033
53377.427096,15.762,0.031
53377.441547,15.805,0.031
53377.455656,15.818,0.031
53377.468776,15.85,0.031
53382.508743,15.82,0.031
53382.523554,15.879,0.033
53382.539101,15.888,0.035
53404.431347,15.925,0.035
53404.443661,15.923,0.035
53404.457109,15.97,0.037
53404.469983,15.998,0.039
53404.483702,16.054,0.043
53433.366293,16.149,0.037
53433.37774,15.99,0.033
53433.389194,15.91,0.031
53433.402114,15.806,0.031
53433.414388,15.705,0.03
53440.428279,16.087,0.043
53440.438769,16.121,0.044
53440.449264,16.097,0.046
53440.460944,16.136,0.048
53440.472572,16.142,0.052
53465.335568,16.172,0.044
53465.346328,15.963,0.037
53465.358023,15.727,0.03
53465.369465,15.587,0.026
53465.379736,15.512,0.024
53468.278015,15.765,0.065
53468.287513,15.825,0.044
53468.297524,15.864,0.055
53473.276914,15.619,0.028
53473.288318,15.672,0.031
53473.299525,15.696,0.031
53473.310411,15.734,0.033
53473.322829,15.79,0.035
53478.22696,16.066,0.08
53478.237924,15.976,0.07
53478.248085,15.803,0.057
53478.258322,15.687,0.052
53478.268236,15.581,0.048
53479.278778,16.152,0.093
53479.291857,16.206,0.098
53479.304125,16.231,0.1
53479.314045,16.231,0.102
53479.323879,16.221,0.1
53493.296825,16.143,0.057
53493.307158,16.211,0.061
53493.317886,16.202,0.061
53493.327835,16.268,0.065
53493.337904,16.268,0.063
53496.244538,15.641,0.033
53496.254702,15.642,0.035
53496.264728,15.674,0.035
53496.274811,15.667,0.035
53496.284978,15.692,0.035
53526.194011,15.971,0.068
53526.214997,16.18,0.093
53527.17068,15.784,0.037
53527.180981,15.808,0.039
53527.190876,15.856,0.041
53527.200643,15.854,0.041
53527.21044,15.903,0.044
53733.457629,16.106,0.05
53733.470274,15.934,0.041
53746.462487,15.668,0.041
53746.474907,15.716,0.041
53746.487603,15.77,0.039
53746.500057,15.805,0.037
53746.512576,15.809,0.033
53791.359623,15.75,0.028
53791.371412,15.779,0.028
53791.383191,15.786,0.028
53791.39482,15.815,0.028
53791.406699,15.826,0.03
53791.416505,15.891,0.035
53791.428332,15.896,0.035
53791.440145,15.922,0.039
53791.451966,15.937,0.039
53791.463786,15.991,0.043
53794.399205,16.131,0.037
53794.410827,16.081,0.035
53794.422448,16.121,0.037
53794.43408,16.105,0.037
53794.445709,16.127,0.037
53815.33975,16.166,0.057
53815.350894,16.049,0.054
53815.36203,15.894,0.046
53815.373197,15.866,0.046
53815.384355,15.775,0.044
53817.270851,16.017,0.04
53817.282105,16.015,0.04
53817.293381,16.049,0.04
53817.304721,16.018,0.04
53817.316059,16.061,0.043
53818.333866,15.867,0.035
53818.344468,15.877,0.035
53818.357027,15.897,0.035
53818.368804,15.894,0.035
53818.382235,15.938,0.037
53823.317731,15.719,0.03
53823.330998,15.749,0.03
53823.343641,15.73,0.03
53823.359444,15.811,0.033
53823.376283,15.841,0.035
53825.333369,16.09,0.068
53825.382211,16.245,0.161
53829.327104,16.251,0.081
53846.24051,15.588,0.033
53846.251142,15.49,0.03
53846.261696,15.521,0.031
53846.272383,15.53,0.031
53846.282979,15.572,0.033
53848.292404,16.165,0.061
53848.303166,16.204,0.063
53848.313822,16.214,0.067
53848.32461,16.121,0.063
53848.335499,16.198,0.065
53849.299153,16.05,0.046
53849.309939,16.067,0.046
53849.321042,16.068,0.048
53849.331815,16.097,0.05
53849.34258,16.103,0.052
53850.244169,15.703,0.04
53850.254563,15.718,0.036
53850.26484,15.768,0.038
53850.275185,15.808,0.04
53852.260549,16.093,0.052
53852.271364,16.172,0.055
53852.281733,16.148,0.055
53852.292777,16.163,0.055
53852.304801,16.203,0.057
53855.252038,15.532,0.03
53855.262658,15.615,0.031
53855.274299,15.633,0.031
53855.285203,15.717,0.035
53855.295885,15.722,0.035
53858.258047,16.149,0.167
53858.268729,16.155,0.117
53858.290377,16.088,0.054
53880.216873,16.165,0.054
53880.228058,16.127,0.051
53880.239299,16.146,0.053
53880.250502,16.103,0.051
53880.261514,16.097,0.051
53883.223566,16.008,0.05
53883.234979,15.802,0.043
53883.246478,15.787,0.041
53883.257927,15.659,0.037
53883.269358,15.566,0.037
53884.168003,16.116,0.054
53884.179752,16.069,0.052
53884.191523,16.075,0.055
53884.203318,16.148,0.057
53884.212307,16.127,0.053
53884.215105,16.086,0.054
53884.225111,16.119,0.054
53884.237713,16.198,0.059
53884.250459,16.15,0.058
53884.262723,16.218,0.063
53901.190434,15.898,0.067
53901.200467,15.917,0.068
53901.210518,15.879,0.074
53911.218275,16.404,0.15
53911.227873,16.675,0.351
54080.492425,16.28,0.142
54080.505049,16.251,0.134
54084.488478,16.101,0.052
54084.502206,16.064,0.055
54084.515938,16.196,0.063
54084.529663,16.18,0.065
54121.401247,16.115,0.049
54121.413999,16.049,0.048
54121.42656,16.048,0.049
54121.438956,16.12,0.053
54121.451484,16.122,0.053
54124.407402,16.132,0.035
54124.421867,15.905,0.03
54124.434763,15.851,0.026
54124.448574,15.733,0.024
54124.461662,15.667,0.022
54149.3938,16.038,0.04
54149.405518,16.102,0.041
54149.418221,16.09,0.043
54149.430049,16.045,0.041
54149.441957,16.115,0.043
54155.357063,15.605,0.022
54155.368887,15.62,0.022
54155.380729,15.665,0.022
54155.392685,15.69,0.024
54155.404526,15.739,0.024
54156.328188,16.214,0.043
54156.339805,16.213,0.043
54156.351322,16.231,0.041
54156.362848,16.232,0.041
54156.374378,16.18,0.039
54174.321372,16.309,0.056
54174.332015,16.07,0.116
54174.342683,15.852,0.036
54174.353441,15.648,0.031
54174.364293,15.474,0.025
54175.327172,16.186,0.037
54175.337923,16.218,0.037
54175.348653,16.186,0.037
54175.35925,16.208,0.037
54175.369939,16.225,0.039
54180.285282,16.144,0.041
54180.295745,16.148,0.041
54180.306317,16.15,0.041
54180.316831,16.068,0.038
54180.327383,16.139,0.04
54200.283945,15.863,0.046
54200.293379,15.822,0.046
54200.302849,15.837,0.064
54207.269468,16.108,0.035
54207.27861,16.109,0.035
54207.287795,16.119,0.078
54207.29696,16.226,0.298
54210.266469,15.763,0.028
54210.275471,15.724,0.026
54210.28445,15.665,0.026
54210.293443,15.675,0.026
54210.302467,15.67,0.026
54447.458877,16.225,0.037
54447.47194,16.319,0.048
54447.485717,16.212,0.041
54447.498768,16.055,0.03
54447.511821,15.866,0.026
54454.46362,15.946,0.03
54454.476968,15.974,0.03
54454.490006,16.007,0.03
54454.503033,16.017,0.031
54454.516056,16.026,0.031
54474.457661,15.718,0.026
54474.47078,15.553,0.02
54474.483833,15.499,0.017
54474.496891,15.559,0.022
54474.509923,15.588,0.026
54483.397687,16.139,0.065
54483.410961,15.849,0.044
54483.424058,15.631,0.033
54483.436969,15.544,0.024
54483.449869,15.453,0.02
54495.469267,16.005,0.037
54495.481874,16.002,0.035
54495.494486,16.016,0.035
54495.507085,16.058,0.039
54495.519688,16.076,0.039
54508.410919,16.135,0.028
54508.423025,16.086,0.028
54508.435107,16.142,0.03
54508.447257,16.081,0.031
54508.459338,16.094,0.03
54524.395502,15.633,0.02
54524.407567,15.6,0.02
54524.419254,15.605,0.022
54524.430961,15.694,0.022
54524.44281,15.706,0.024
54537.326722,15.658,0.033
54537.337782,15.686,0.03
54537.348768,15.668,0.061
54537.359724,15.72,0.024
54537.370699,15.793,0.031
54543.246573,16.054,0.055
54543.257529,16.065,0.055
54543.26833,16.056,0.055
54555.304146,15.653,0.018
54555.31596,15.728,0.018
54555.3279,15.748,0.02
54555.339949,15.799,0.02
54555.351769,15.838,0.022
54564.297614,15.706,0.02
54564.309016,15.738,0.02
54564.320374,15.763,0.02
54564.331723,15.81,0.022
54564.343048,15.826,0.022
54568.295952,15.862,0.043
54568.306871,15.893,0.045
54568.318128,15.896,0.045
54568.329052,15.95,0.046
54568.340038,16.011,0.049
54580.245014,16.21,0.048
54580.255642,16.159,0.046
54580.266238,16.151,0.048
54580.27684,16.222,0.054
54580.287449,16.171,0.05
54585.249421,16.084,0.081
54585.259681,16.132,0.039
54585.269991,16.131,0.044
54585.280282,16.11,0.031
54585.290649,16.111,0.031
54590.240686,16.089,0.074
54590.250372,16.013,0.066
54590.260578,15.949,0.074
54590.280899,16.117,0.101
54592.246237,15.633,0.024
54592.256929,15.565,0.022
54592.267402,15.566,0.022
54592.277838,15.573,0.022
54592.288257,15.63,0.024
54611.208997,16.245,0.037
54611.21889,16.256,0.037
54611.228748,16.282,0.039
54611.238765,16.301,0.039
54611.248546,16.307,0.039
54615.215348,16.011,0.037
54615.226063,15.925,0.033
54615.236395,15.901,0.035
54615.23652,15.906,0.035
54615.246961,15.808,0.031
54615.257476,15.732,0.031
