mjd,m,merr
52639.450333,15.959,0.03
52639.465118,15.922,0.03
52639.480469,15.806,0.026
52639.495129,15.681,0.024
52639.510067,15.562,0.02
52650.464691,15.751,0.026
52650.479805,15.753,0.026
52650.494468,15.809,0.028
52650.509307,15.809,0.026
52665.389157,15.925,0.031
52665.403558,15.957,0.031
52665.417841,15.934,0.031
52665.432253,15.925,0.031
52665.446718,15.946,0.031
52677.385446,15.951,0.085
52677.399997,16.013,0.041
52677.414284,15.971,0.033
52677.42867,15.947,0.033
52677.443001,16.059,0.104
52697.409717,15.847,0.059
52706.314578,15.815,0.03
52706.327886,15.785,0.03
52706.34148,15.752,0.028
52706.354824,15.716,0.026
52706.368005,15.736,0.028
52711.312557,15.814,0.033
52711.326579,15.817,0.033
52711.341178,15.84,0.031
52711.355156,15.873,0.033
52711.369306,15.912,0.033
52724.298636,15.552,0.02
52724.3102,15.518,0.018
52724.328504,15.547,0.02
52724.341166,15.584,0.02
52724.353032,15.576,0.02
52730.288234,15.722,0.026
52730.299803,15.719,0.026
52730.311448,15.728,0.026
52730.322995,15.715,0.026
52730.33455,15.729,0.026
52739.246698,15.687,0.028
52739.258125,15.713,0.028
52739.26953,15.724,0.028
52739.280927,15.734,0.028
52739.292414,15.779,0.03
52753.252811,15.729,0.028
52753.265474,15.726,0.028
52753.281442,15.765,0.028
52753.294132,15.806,0.031
52753.306391,15.867,0.031
52770.211164,15.987,0.061
52770.223015,15.94,0.057
52770.235257,15.923,0.057
52770.247306,15.724,0.05
52770.259569,15.612,0.052
52787.21603,15.751,0.026
52787.226768,15.793,0.028
52787.237393,15.767,0.026
52787.247983,15.808,0.028
52787.258559,15.834,0.03
52797.173603,15.59,0.041
52797.183531,15.622,0.043
52797.193493,15.704,0.05
52797.203525,15.695,0.055
52797.213505,15.664,0.054
52811.174398,15.677,0.035
52811.18432,15.657,0.035
52811.194282,15.717,0.037
52811.204132,15.716,0.037
52811.214013,15.76,0.039
52825.190461,15.731,0.059
52825.2004,15.712,0.052
52825.210331,15.753,0.048
52992.466237,15.917,0.026
52992.479619,15.911,0.026
52992.493159,15.9,0.026
52992.50654,15.928,0.026
52992.519879,15.943,0.039
53034.399968,15.914,0.03
53034.412313,15.906,0.03
53034.424893,15.981,0.031
53034.437127,15.94,0.031
53034.449517,16.024,0.031
53050.332152,15.764,0.035
53050.343841,15.727,0.052
53050.355525,15.734,0.065
53050.367135,15.752,0.055
53050.378751,15.837,0.052
53065.333589,15.702,0.024
53065.345228,15.68,0.022
53065.356574,15.663,0.022
53065.367898,15.674,0.024
53065.379389,15.644,0.022
53078.285431,15.731,0.022
53078.296194,15.729,0.022
53078.306942,15.769,0.024
53078.317681,15.792,0.024
53078.328344,15.799,0.024
53093.278683,15.931,0.022
53093.289258,15.891,0.022
53093.299542,15.873,0.02
53093.309836,15.847,0.02
53093.320155,15.793,0.018
53109.244321,15.856,0.028
53109.255436,15.887,0.028
53109.266571,15.866,0.028
53109.277656,15.811,0.026
53109.288702,15.783,0.026
53121.247807,15.96,0.026
53121.258486,15.969,0.026
53121.269262,15.972,0.026
53121.279916,15.965,0.026
53121.290588,15.939,0.026
53137.205394,15.928,0.035
53137.214983,15.902,0.033
53137.224535,15.958,0.033
53150.20671,15.751,0.094
53150.224188,15.72,0.118
53150.233013,15.731,0.061
53165.175451,15.954,0.039
53165.195412,15.898,0.068
53165.205427,15.992,0.041
53165.215415,15.972,0.037
53177.176108,15.911,0.031
53177.186032,15.955,0.033
53449.280367,15.723,0.044
53449.290838,15.705,0.033
53449.301789,15.748,0.037
53449.312291,15.718,0.031
53473.387122,15.865,0.035
53473.39906,15.89,0.037
53473.408892,15.861,0.037
53473.41877,15.934,0.041
53473.428383,15.936,0.043
53474.293907,15.831,0.03
53474.306679,15.821,0.028
53474.321168,15.763,0.026
53474.331174,15.695,0.026
53474.341503,15.662,0.026
53500.241847,15.935,0.033
53500.252584,15.972,0.035
53500.263957,15.964,0.035
53500.275729,15.967,0.033
53500.285947,15.973,0.035
53528.175395,15.893,0.044
53528.187041,15.878,0.044
53528.198197,15.881,0.043
53528.208862,15.98,0.046
53528.219368,15.952,0.048
53539.174549,15.424,0.052
53539.184067,15.462,0.054
53539.1936,15.459,0.054
53539.203115,15.47,0.057
53539.212628,15.594,0.063
53550.176212,15.903,0.039
53550.19598,15.926,0.046
53550.205866,15.947,0.044
53550.215753,15.916,0.046
53714.460383,15.753,0.03
53714.473183,15.754,0.028
53714.486188,15.806,0.026
53714.498873,15.826,0.026
53714.511781,15.813,0.024
53740.411225,15.698,0.026
53740.425366,15.762,0.026
53740.43908,15.741,0.024
53740.452666,15.822,0.028
53740.467014,15.807,0.026
53770.414021,15.769,0.028
53770.426817,15.734,0.026
53770.441117,15.767,0.026
53770.458396,15.816,0.026
53770.47262,15.866,0.028
53813.359294,15.98,0.055
53813.370326,15.889,0.052
53813.38132,15.947,0.054
53813.392339,15.926,0.054
53813.403371,15.922,0.054
53823.251474,15.821,0.026
53823.26271,15.866,0.026
53823.27354,15.871,0.028
53823.284584,15.874,0.026
53823.29536,15.9,0.028
53844.237295,15.432,0.026
53844.247514,15.439,0.026
53844.257818,15.448,0.026
53844.268041,15.456,0.026
53844.278274,15.5,0.026
53853.243407,15.804,0.041
53853.253789,15.881,0.045
53853.26408,15.882,0.043
53853.274392,15.817,0.04
53853.284847,15.912,0.043
53883.223237,16.198,0.079
53883.23354,15.778,0.053
53887.223396,15.8,0.05
53887.234022,15.834,0.05
53887.244682,15.831,0.052
53887.25539,15.84,0.05
53887.266098,15.865,0.05
53902.174204,15.627,0.041
53902.197438,15.64,0.04
53915.173534,15.698,0.051
53915.183381,15.742,0.051
53915.19478,15.795,0.054
53915.205981,15.827,0.063
54066.488082,15.902,0.056
54066.515466,15.89,0.038
54084.471332,15.818,0.046
54084.484187,15.744,0.041
54084.49702,15.675,0.04
54084.509936,15.688,0.049
54098.376191,15.879,0.037
54098.388201,15.844,0.031
54098.400163,15.921,0.031
54098.412107,15.888,0.03
54098.424139,15.931,0.03
54110.41067,16.0,0.083
54110.423469,15.946,0.079
54110.436131,15.967,0.078
54110.449089,16.058,0.094
54121.389214,15.508,0.017
54121.40143,15.524,0.018
54121.413631,15.519,0.018
54121.425829,15.553,0.02
54121.438021,15.597,0.02
54155.352903,15.627,0.025
54155.364422,15.65,0.025
54155.376164,15.61,0.025
54155.387984,15.663,0.026
54155.400008,15.696,0.028
54529.21472,15.719,0.035
54574.283099,15.976,0.081
54582.245436,15.966,0.031
54582.255786,15.966,0.031
54582.266198,15.963,0.033
54582.276547,15.977,0.031
54582.286908,15.931,0.031
54613.204202,15.633,0.028
54613.21404,15.674,0.026
54613.223986,15.671,0.037
54613.234112,15.647,0.054
54613.243932,15.693,0.031
