mjd,m,merr
52639.479388,14.84,0.015
52639.494312,14.881,0.015
52639.510312,14.984,0.015
52639.525505,15.007,0.016
52666.395178,15.047,0.013
52666.410418,14.917,0.013
52666.425504,14.844,0.011
52666.440781,14.813,0.011
52666.455448,14.789,0.011
52676.362432,15.064,0.021
52676.377412,15.074,0.02
52676.392492,15.11,0.02
52676.407614,15.114,0.021
52676.42291,15.108,0.02
52698.401588,15.077,0.013
52698.415592,15.115,0.015
52698.430883,15.12,0.015
52711.304237,14.97,0.018
52711.317248,14.991,0.018
52711.330625,15.008,0.018
52711.343968,15.026,0.018
52711.357024,15.043,0.018
52724.305444,14.916,0.012
52724.305559,14.824,0.013
52724.317948,14.934,0.012
52724.318063,14.841,0.013
52724.33039,14.892,0.015
52724.34313,14.928,0.015
52724.355245,14.956,0.015
52739.247386,15.143,0.021
52739.258873,15.124,0.02
52739.270729,15.123,0.02
52739.282472,15.129,0.021
52739.29396,15.101,0.02
52754.274038,14.87,0.016
52754.2868,14.966,0.016
52754.299333,14.983,0.016
52754.312256,15.03,0.018
52754.324993,15.055,0.018
52769.212184,15.173,0.026
52769.223893,15.138,0.026
52769.235593,15.124,0.026
52769.24754,15.059,0.026
52769.259909,15.065,0.028
52794.173264,15.037,0.02
52794.194679,14.979,0.02
52794.205053,14.952,0.018
52794.215405,14.911,0.021
52820.17246,15.044,0.018
52820.182486,14.987,0.041
52820.202228,14.945,0.018
52820.212121,14.815,0.018
52824.171021,14.843,0.018
52824.180969,14.94,0.017
52824.190861,14.809,0.017
52824.200705,14.779,0.017
52824.210618,14.774,0.017
52974.467831,14.956,0.013
52974.480607,14.931,0.013
52974.493242,15.002,0.013
52974.506181,15.04,0.013
53003.439095,15.089,0.124
53006.39656,15.134,0.018
53006.408849,15.102,0.017
53006.421536,15.064,0.015
53006.433666,14.994,0.013
53006.451186,14.833,0.013
53034.393225,14.969,0.015
53034.405061,15.001,0.015
53034.416883,15.014,0.015
53034.428826,15.041,0.015
53034.440838,15.057,0.016
53051.337657,14.839,0.009
53051.349889,14.844,0.009
53051.361486,14.903,0.011
53051.373214,14.929,0.011
53051.384844,14.978,0.011
53064.288049,14.754,0.015
53064.300515,14.774,0.013
53064.324949,14.806,0.011
53064.3435,14.845,0.011
53064.357307,14.888,0.011
53078.323945,14.777,0.013
53078.334907,14.777,0.013
53078.345809,14.763,0.012
53092.281854,15.152,0.013
53092.292275,15.139,0.013
53092.302271,15.136,0.013
53092.312293,15.117,0.013
53092.322586,15.112,0.012
53109.240231,15.149,0.018
53109.254646,15.154,0.016
53109.266553,15.126,0.016
53109.277289,15.135,0.016
53109.296085,15.089,0.016
53121.246102,14.877,0.01
53121.256742,14.83,0.01
53121.26767,14.824,0.01
53121.278315,14.837,0.01
53121.288933,14.817,0.01
53137.208998,14.768,0.015
53137.218621,14.783,0.015
53137.229043,14.793,0.013
53137.238858,14.808,0.013
53137.248494,14.838,0.013
53150.236837,14.895,0.036
53165.175636,15.112,0.023
53165.195456,15.149,0.031
53165.221389,15.14,0.021
53165.23123,15.155,0.021
53177.17597,15.102,0.016
53177.186101,15.086,0.02
53349.47422,14.892,0.02
53349.48779,14.89,0.02
53349.501526,14.752,0.018
53349.515526,14.9,0.02
53437.41265,15.144,0.015
53437.423956,15.122,0.015
53437.435256,15.075,0.013
53437.451966,14.951,0.013
53437.463265,14.892,0.013
53501.245409,15.151,0.018
53501.26028,15.149,0.018
53501.27543,15.149,0.018
53501.287627,15.156,0.018
53501.297819,15.145,0.02
53529.165893,14.849,0.017
53529.176306,14.843,0.017
53529.186613,14.837,0.015
53529.19719,14.81,0.017
53529.207524,14.773,0.015
53540.175642,15.049,0.065
53540.195249,15.124,0.052
53540.204952,15.14,0.052
53540.214658,15.098,0.048
53713.474057,15.015,0.039
53739.476016,15.089,0.015
53739.489629,15.094,0.013
53739.502545,15.117,0.013
53739.51544,15.139,0.013
53739.528567,15.142,0.013
53770.414712,14.806,0.013
53770.427518,14.832,0.013
53770.441815,14.849,0.013
53770.459098,14.908,0.013
53770.473428,15.01,0.013
53788.358766,14.803,0.016
53788.371358,14.904,0.036
53788.384045,14.784,0.015
53788.396686,14.793,0.02
53788.409361,14.781,0.012
53813.322323,14.905,0.016
53813.333792,14.789,0.016
53813.3453,14.773,0.016
53813.356814,14.758,0.016
53813.368538,14.785,0.016
53820.338624,15.1,0.054
53844.244922,15.124,0.018
53844.256033,15.135,0.018
53844.266968,15.087,0.018
53844.277938,15.043,0.016
53844.289209,14.98,0.015
53852.244447,14.855,0.018
53852.254601,14.927,0.016
53852.264802,14.925,0.016
53852.274937,14.832,0.016
53852.28505,14.752,0.016
53881.21616,14.764,0.017
53881.227198,14.798,0.017
53881.238252,14.794,0.017
53881.249306,14.828,0.018
53881.260703,14.852,0.018
53887.214351,15.111,0.026
53887.224565,15.069,0.025
53887.234992,15.031,0.023
53887.245153,15.016,0.023
53887.25541,14.942,0.02
53902.174308,14.928,0.022
53914.183019,15.097,0.031
53914.193069,15.085,0.033
54154.33725,15.157,0.018
54154.348771,15.133,0.018
54154.360187,15.13,0.016
54154.371646,15.098,0.016
54154.383152,15.046,0.015
54169.325662,14.938,0.018
54169.336607,14.971,0.018
54169.347471,14.983,0.02
54169.358435,14.991,0.02
54169.369352,15.002,0.02
54205.267915,15.066,0.018
54205.277194,15.065,0.016
54205.286462,14.977,0.016
54205.296306,14.99,0.016
54205.306054,14.867,0.015
54208.255555,14.753,0.013
54208.264059,14.937,0.015
54208.272945,15.008,0.015
54208.281886,15.011,0.015
54560.245704,14.815,0.007
54560.257294,14.83,0.007
54560.26885,14.857,0.007
54560.28047,14.904,0.009
54560.292249,14.931,0.009
54568.241595,14.952,0.013
54568.252602,14.972,0.013
54568.263729,15.005,0.013
54568.274854,15.044,0.013
54568.285954,15.075,0.013
54581.237917,15.019,0.03
54581.24776,15.017,0.03
54581.257441,15.059,0.031
54581.276997,15.064,0.035
54589.24794,15.104,0.013
54589.258347,15.12,0.013
54589.268877,15.129,0.013
54589.279338,15.126,0.013
54589.289858,15.126,0.013
54594.248352,15.017,0.03
54594.257798,15.065,0.031
54594.267324,15.056,0.031
54594.276745,15.096,0.033
54594.287195,15.085,0.033
54612.20645,14.916,0.023
54612.21502,14.905,0.023
54612.22451,14.906,0.021
54612.233056,14.815,0.023
54612.241575,14.929,0.023
54621.208644,14.781,0.011
54621.218745,14.881,0.043
54621.228884,14.779,0.011
54621.239003,14.776,0.011
54621.249104,14.773,0.011
