mjd,m,merr
52639.450828,16.229,0.041
52639.465613,16.109,0.035
52639.480965,15.914,0.03
52639.495622,15.892,0.03
52639.510562,15.92,0.03
52650.465802,16.214,0.04
52650.480966,16.239,0.04
52650.495614,16.275,0.04
52650.510434,16.279,0.04
52665.390134,16.469,0.048
52665.404538,16.531,0.054
52665.418818,16.598,0.054
52665.433346,16.43,0.046
52665.447702,16.368,0.044
52677.400975,15.939,0.044
52677.415259,15.861,0.031
52677.42968,15.892,0.033
52677.443976,16.024,0.067
52706.310047,16.377,0.043
52706.323457,16.417,0.043
52706.33678,16.343,0.041
52706.350045,16.461,0.044
52706.363497,16.434,0.043
52711.312836,16.488,0.057
52711.326828,16.453,0.055
52711.341428,16.466,0.054
52711.35548,16.458,0.052
52711.369558,16.467,0.054
52724.299584,16.506,0.044
52724.311148,16.486,0.043
52724.329458,16.608,0.048
52724.342117,16.467,0.043
52724.354032,16.471,0.044
52725.362414,16.532,0.063
52725.376137,16.463,0.055
52725.390081,16.492,0.044
52725.403438,16.563,0.048
52725.416001,16.51,0.048
52739.246933,16.146,0.041
52739.258361,16.148,0.039
52739.269762,16.163,0.039
52739.281245,16.185,0.041
52739.292645,16.15,0.039
52753.253266,15.809,0.03
52753.265931,15.839,0.03
52753.294594,15.987,0.035
52770.21196,16.343,0.074
52770.224371,16.258,0.07
52770.236045,16.323,0.078
52770.248117,16.344,0.08
52770.260454,16.042,0.072
52797.174144,16.017,0.057
52797.184069,15.936,0.061
52797.194029,15.991,0.065
52797.204068,16.08,0.074
52797.214049,15.987,0.067
52811.174955,16.266,0.057
52811.18486,16.117,0.05
52811.194829,16.022,0.046
52811.204673,15.877,0.041
52811.214554,15.871,0.041
52825.190644,16.393,0.098
52825.200585,16.454,0.094
52825.210527,16.478,0.087
52992.466966,16.349,0.044
52992.480349,16.54,0.044
52992.493889,16.591,0.046
52992.507269,16.376,0.044
52992.520625,16.509,0.063
53006.39254,16.144,0.051
53006.429542,16.242,0.048
53006.44306,16.217,0.046
53034.400391,15.868,0.028
53034.412736,15.776,0.026
53034.425316,15.832,0.028
53034.437549,15.841,0.028
53034.449939,15.944,0.031
53051.338098,16.216,0.031
53051.35033,16.235,0.031
53051.361928,16.239,0.033
53051.373655,16.296,0.035
53051.385285,16.337,0.035
53065.334383,15.964,0.03
53065.357368,16.135,0.033
53078.324327,15.949,0.031
53078.335289,15.917,0.031
53078.346193,15.94,0.031
53093.276179,16.378,0.035
53093.286056,16.456,0.038
53093.296102,16.461,0.038
53093.307143,16.473,0.036
53093.317099,16.463,0.036
53109.239922,16.034,0.036
53109.254389,16.101,0.04
53109.266294,16.119,0.04
53109.277022,16.125,0.04
53109.295824,16.182,0.041
53121.248366,16.271,0.033
53121.259028,16.279,0.033
53121.269804,16.323,0.035
53121.280458,16.289,0.033
53121.29113,16.351,0.037
53137.209339,16.53,0.064
53137.218966,16.645,0.064
53137.229399,16.518,0.059
53137.239217,16.526,0.056
53137.248834,16.624,0.061
53150.207191,16.75,0.115
53150.224759,16.402,0.137
53165.175975,16.351,0.069
53165.195796,16.483,0.104
53165.221727,16.557,0.068
53165.231569,16.537,0.066
53177.17657,16.408,0.046
53177.186495,16.353,0.044
53449.281085,16.786,0.1
53449.291553,16.611,0.074
53449.302507,16.483,0.074
53449.313007,16.502,0.065
53500.242644,16.475,0.052
53500.253381,16.336,0.046
53500.264752,16.173,0.041
53500.276524,16.029,0.035
53500.286742,15.908,0.031
53528.175534,16.504,0.072
53528.18718,16.453,0.07
53528.198337,16.465,0.07
53528.209003,16.52,0.072
53528.219507,16.563,0.078
53540.175397,16.563,0.218
53540.185207,16.584,0.185
53540.195003,16.465,0.161
53540.204707,16.709,0.189
53540.214413,16.687,0.187
53550.176395,15.925,0.041
53550.206049,16.095,0.048
53550.215936,16.115,0.05
53554.166872,16.398,0.067
53554.177658,16.442,0.072
53554.18854,16.381,0.07
53554.199339,16.399,0.072
53554.2102,16.447,0.076
53714.460666,16.348,0.048
53714.473466,16.316,0.046
53714.486471,16.358,0.044
53714.499156,16.354,0.041
53714.512064,16.369,0.041
53740.467481,16.289,0.041
53740.480373,16.286,0.039
53740.493331,16.338,0.039
53740.506039,16.281,0.043
53740.518897,16.394,0.044
53770.414287,16.541,0.055
53770.427087,16.482,0.05
53770.441384,16.469,0.048
53770.458666,16.478,0.046
53770.472889,16.524,0.048
53787.408141,15.97,0.092
53787.421034,15.951,0.031
53813.359772,16.509,0.085
53813.370805,16.605,0.094
53813.3818,16.663,0.1
53813.392823,16.463,0.083
53813.403854,16.202,0.067
53823.251997,16.091,0.033
53823.26324,16.075,0.031
53823.274061,16.111,0.033
53823.285112,16.165,0.035
53823.29588,16.19,0.035
53844.237726,16.7,0.081
53844.247948,16.487,0.067
53844.258251,16.484,0.063
53844.268475,16.411,0.055
53844.278706,16.374,0.054
53853.243786,16.411,0.068
53853.25417,16.467,0.068
53853.264463,16.394,0.064
53853.274774,16.505,0.073
53853.285229,16.457,0.069
53887.223767,16.102,0.065
53887.234396,16.126,0.061
53887.245052,16.18,0.068
53887.255763,16.116,0.063
53887.266473,16.208,0.067
53902.174545,16.335,0.078
53902.197769,16.476,0.079
53902.208748,16.307,0.084
53915.173864,16.551,0.099
53915.183712,16.398,0.089
53915.195107,16.426,0.092
53915.206309,16.482,0.107
54084.458876,16.3,0.092
54084.471791,16.35,0.073
54084.484648,16.302,0.066
54084.497567,16.412,0.076
54084.510395,16.474,0.096
54098.424557,15.847,0.03
54098.436669,15.994,0.031
54098.451851,16.001,0.031
54098.465215,16.068,0.035
54098.47743,16.069,0.033
54110.398429,16.499,0.134
54110.411133,16.254,0.092
54110.423923,16.366,0.106
54110.436586,16.393,0.104
54110.449542,16.467,0.12
54121.389662,16.503,0.046
54121.401875,16.463,0.044
54121.414075,16.412,0.043
54121.42627,16.416,0.044
54121.438466,16.484,0.048
54155.353504,16.101,0.038
54155.376767,16.171,0.04
54155.388583,16.206,0.041
54155.400609,16.213,0.043
54206.268858,16.03,0.035
54206.278234,16.097,0.036
54206.287618,16.11,0.04
54206.296917,16.09,0.038
54206.306273,16.132,0.041
54529.217594,16.227,0.051
54529.22893,16.37,0.056
54529.240693,16.381,0.054
54529.251795,16.361,0.053
54529.262865,16.372,0.053
54574.283824,16.612,0.131
54582.24594,16.122,0.037
54582.25627,16.165,0.037
54582.266679,16.199,0.039
54582.27703,16.179,0.037
54582.287394,16.219,0.039
54613.204608,16.174,0.037
54613.214446,16.247,0.037
54613.22446,16.24,0.063
54613.23452,16.403,0.13
54613.244339,16.217,0.091
