mjd,m,merr
52644.490349,16.391,0.052
52644.505255,16.451,0.07
52644.520093,16.612,0.104
52644.535307,16.547,0.067
52648.401004,16.825,0.098
52648.416054,16.862,0.102
52648.430747,16.968,0.105
52648.446077,16.932,0.093
52648.461533,16.744,0.076
52667.469022,16.947,0.089
52667.484267,17.011,0.098
52667.499498,16.883,0.089
52667.51478,16.653,0.072
52667.530099,16.69,0.078
52671.464961,16.859,0.078
52671.480534,16.884,0.08
52671.496168,16.862,0.078
52671.511586,16.862,0.08
52674.401823,16.555,0.055
52674.415819,16.509,0.055
52674.429809,16.568,0.061
52674.443794,16.546,0.063
52674.457626,16.56,0.057
52704.373624,16.41,0.05
52704.386758,16.483,0.052
52704.400116,16.473,0.054
52704.413288,16.469,0.055
52704.426362,16.593,0.063
52708.374789,16.518,0.061
52708.387908,16.486,0.061
52708.400925,16.405,0.059
52708.414112,16.448,0.063
52708.427155,16.388,0.061
52728.293892,16.687,0.061
52728.306673,16.75,0.063
52728.318849,16.719,0.063
52728.332662,16.798,0.068
52728.345239,16.797,0.067
52731.325283,17.03,0.13
52731.337279,16.988,0.235
52731.349288,16.765,0.098
52737.309551,16.873,0.076
52737.330471,16.791,0.065
52737.342441,16.871,0.068
52737.354366,16.914,0.074
52737.366495,16.871,0.072
52756.203066,16.667,0.067
52756.214907,16.622,0.063
52756.226771,16.623,0.063
52756.23861,16.696,0.07
52756.250466,16.662,0.068
52760.208491,16.531,0.052
52760.220422,16.599,0.057
52760.232348,16.552,0.055
52760.244293,16.655,0.067
52760.256218,16.609,0.061
52764.149508,16.559,0.039
52764.162637,16.546,0.037
52764.18815,16.309,0.033
52789.216297,16.974,0.096
52789.226591,16.944,0.096
52789.237017,16.999,0.096
52789.247328,17.093,0.107
52789.257814,17.139,0.105
52794.214583,16.572,0.078
52794.224596,16.507,0.072
52794.234623,16.574,0.08
52794.244758,16.632,0.083
52794.254824,16.648,0.089
52816.171008,16.817,0.107
52816.180794,16.91,0.124
52816.191441,16.972,0.139
52816.201285,17.077,0.17
52816.211114,17.117,0.207
52823.181111,17.13,0.303
52823.191035,16.802,0.111
52986.465432,16.954,0.13
52986.478463,16.841,0.111
52986.491615,16.95,0.117
52986.504568,16.972,0.117
52986.517718,16.993,0.111
52995.472963,16.633,0.048
52995.487308,16.549,0.043
52995.500435,16.478,0.041
52995.513883,16.429,0.039
52995.527607,16.366,0.039
53000.482033,16.679,0.043
53000.494917,16.68,0.041
53000.507881,16.736,0.043
53000.5209,16.732,0.041
53000.533815,16.717,0.041
53026.422579,16.821,0.076
53026.436514,16.723,0.078
53026.44953,16.707,0.12
53026.476954,16.918,0.07
53032.399412,16.529,0.05
53032.411703,16.661,0.055
53032.423892,16.543,0.05
53032.436159,16.662,0.057
53032.448454,16.667,0.055
53054.377793,16.971,0.067
53054.389795,16.89,0.061
53054.401807,16.911,0.061
53054.414464,16.905,0.063
53054.428092,16.93,0.067
53058.402793,16.801,0.061
53058.415436,16.896,0.061
53058.427394,16.883,0.057
53058.438968,16.899,0.2
53058.450519,16.867,0.052
53080.337548,16.941,0.07
53080.349036,16.974,0.072
53080.360648,16.883,0.067
53080.372149,16.882,0.067
53080.383556,16.88,0.068
53083.340756,16.424,0.037
53083.35152,16.481,0.037
53083.362812,16.487,0.039
53083.373785,16.48,0.037
53083.384491,16.541,0.043
53084.345548,16.892,0.053
53084.356817,16.907,0.051
53084.36805,16.972,0.056
53084.391004,16.978,0.056
53086.347386,16.917,0.063
53086.358242,17.004,0.068
53086.36897,16.956,0.076
53086.380034,16.947,0.07
53086.391032,16.998,0.085
53092.344299,16.749,0.054
53092.354482,16.726,0.052
53092.374844,16.747,0.057
53114.304005,16.839,0.052
53114.317401,16.884,0.055
53114.328748,16.9,0.059
53114.340144,16.801,0.057
53117.303959,16.378,0.039
53117.314576,16.393,0.041
53117.325142,16.35,0.039
53117.335817,16.394,0.041
53117.346975,16.481,0.044
53122.189842,16.567,0.066
53122.190501,16.506,0.068
53122.200087,16.546,0.066
53122.201117,16.52,0.068
53122.210428,16.584,0.071
53122.211643,16.579,0.067
53122.222033,16.542,0.067
53122.231065,16.611,0.063
53122.232515,16.547,0.063
53139.205554,16.623,0.067
53139.214862,16.616,0.065
53139.224157,16.619,0.068
53139.233463,16.626,0.068
53139.242927,16.583,0.067
53142.254056,16.88,0.067
53142.263543,16.94,0.065
53142.273032,16.947,0.068
53142.282516,16.933,0.105
53146.213369,16.865,0.059
53146.222547,16.793,0.057
53146.231592,16.816,0.059
53146.24067,16.873,0.065
53146.249716,16.804,0.059
53169.174906,16.655,0.072
53169.185029,16.658,0.076
53169.195123,16.555,0.067
53169.205223,16.646,0.076
53169.215335,16.671,0.072
53171.17436,16.69,0.063
53171.184657,16.657,0.063
53171.194873,16.7,0.067
53171.2052,16.654,0.065
53171.21559,16.776,0.076
53174.174781,16.964,0.074
53174.184851,17.034,0.076
53174.195372,17.002,0.076
53174.205606,17.001,0.078
53174.215908,16.958,0.076
53348.462585,17.11,0.15
53348.475044,16.923,0.131
53348.487499,16.968,0.142
53348.501787,16.967,0.118
53348.514515,17.143,0.128
53354.458742,16.919,0.105
53354.471514,16.895,0.094
53354.485659,16.93,0.096
53354.498486,16.88,0.089
53354.511443,16.986,0.096
53377.416017,16.826,0.087
53377.429184,16.824,0.083
53377.443632,16.762,0.074
53377.457741,16.85,0.076
53377.470861,16.891,0.08
53382.509989,17.024,0.087
53382.52605,17.063,0.093
53382.5405,16.993,0.094
53404.432454,16.334,0.055
53404.44477,16.358,0.052
53404.458221,16.394,0.054
53404.471098,16.372,0.054
53404.484818,16.424,0.059
53433.415976,16.904,0.087
53433.427334,16.89,0.089
53433.439063,16.981,0.12
53433.45028,16.822,0.102
53433.46148,16.906,0.102
53440.429026,16.659,0.07
53440.439517,16.659,0.072
53440.450015,16.479,0.065
53440.461691,16.371,0.061
53440.47332,16.271,0.057
53465.336858,16.951,0.093
53465.347617,16.98,0.094
53465.359312,16.844,0.083
53465.370754,16.924,0.089
53465.381043,16.962,0.094
53468.279307,17.101,0.215
53468.288841,17.145,0.181
53468.298817,17.092,0.228
53469.280631,16.775,0.072
53469.290418,16.693,0.068
53469.301029,16.805,0.076
53469.311963,16.774,0.074
53469.32219,16.801,0.078
53473.279189,16.606,0.07
53473.290548,16.633,0.074
53473.300985,16.759,0.081
53473.312157,16.678,0.076
53473.324118,16.749,0.083
53479.29315,16.475,0.12
53479.305428,16.432,0.117
53479.325168,16.523,0.128
53493.298659,16.84,0.107
53493.309003,16.732,0.1
53493.319727,16.925,0.115
53493.32979,16.898,0.111
53493.339793,16.825,0.102
53504.192576,16.972,0.111
53504.201465,16.943,0.107
53504.210742,16.979,0.109
53504.219562,16.836,0.094
53504.229169,16.909,0.104
53526.237285,16.448,0.078
53526.247621,16.39,0.068
53526.258014,16.5,0.081
53530.169679,16.913,0.109
53530.179766,16.924,0.109
53530.189596,17.029,0.12
53530.199527,16.925,0.113
53530.209388,16.939,0.117
53733.458819,16.95,0.105
53733.471464,16.995,0.105
53733.484195,17.007,0.139
53791.417707,16.967,0.083
53791.429526,17.021,0.091
53791.441337,17.047,0.096
53791.453166,17.153,0.105
53791.464978,16.956,0.091
53794.400379,16.608,0.055
53794.412003,16.646,0.057
53794.423626,16.567,0.054
53794.435255,16.621,0.057
53794.446886,16.681,0.059
53797.316382,16.848,0.066
53797.328783,16.887,0.068
53797.353655,16.901,0.068
53815.340711,16.46,0.081
53815.351852,16.449,0.08
53815.362994,16.378,0.072
53815.374159,16.321,0.072
53815.385318,16.374,0.081
53818.334976,16.735,0.076
53818.346255,16.796,0.08
53818.358588,16.756,0.076
53818.369918,16.793,0.078
53818.383344,16.815,0.083
53823.31901,16.92,0.087
53823.33239,16.881,0.083
53823.344742,16.8,0.078
53823.360636,16.86,0.083
53823.377696,16.974,0.094
53825.334427,16.972,0.122
53825.346962,16.713,0.168
53825.370911,16.757,0.331
53825.383726,17.108,0.326
53829.327868,17.006,0.146
53829.341248,16.882,0.442
53833.274921,16.731,0.109
53833.284752,16.786,0.109
53833.295174,16.699,0.109
53833.305245,16.752,0.111
53833.315229,16.906,0.126
53846.241136,16.713,0.086
53846.251764,16.76,0.087
53848.293592,16.977,0.126
53848.304347,16.718,0.102
53848.315001,16.842,0.117
53848.325786,16.71,0.105
53848.336679,16.915,0.126
53849.300172,16.94,0.1
53849.310952,16.757,0.085
53849.322051,16.645,0.08
53849.332824,16.624,0.081
53849.343599,16.648,0.085
53852.261534,16.719,0.089
53852.272343,16.719,0.093
53852.282721,16.595,0.083
53852.294382,16.778,0.096
53852.305781,16.65,0.085
53855.252997,16.859,0.096
53855.263615,16.905,0.098
53855.275256,16.935,0.105
53855.286645,17.057,0.115
53855.296841,16.995,0.109
53858.269822,16.509,0.17
53858.281139,16.66,0.105
53858.291408,16.637,0.091
53880.218027,16.889,0.097
53880.251717,16.707,0.087
53883.224527,16.838,0.105
53883.235942,16.938,0.12
53883.247446,17.12,0.141
53883.258893,16.907,0.117
53883.270321,17.131,0.157
53884.25163,16.676,0.089
53884.263898,16.645,0.087
53905.165381,16.329,0.07
53905.175385,16.357,0.074
53905.185393,16.391,0.078
53905.195399,16.257,0.072
53905.205423,16.385,0.081
53910.166741,16.656,0.111
53910.177315,16.65,0.097
53910.187879,16.695,0.101
53910.198395,16.662,0.104
53910.208911,16.773,0.165
54113.451594,16.489,0.08
54113.47743,16.578,0.076
54113.494358,16.629,0.087
54113.507325,16.591,0.083
54121.402412,17.056,0.112
54121.415167,17.076,0.12
54121.427729,17.032,0.116
54121.440127,17.027,0.122
54124.408701,16.642,0.05
54124.423166,16.635,0.05
54124.436054,16.74,0.054
54124.449876,16.627,0.046
54124.462965,16.691,0.052
54147.395255,16.495,0.064
54147.407411,16.578,0.069
54147.419655,16.609,0.071
54147.43189,16.558,0.069
54147.444003,16.561,0.069
54149.394966,16.678,0.068
54149.406662,16.634,0.064
54149.419369,16.597,0.064
54149.431207,16.555,0.066
54149.443117,16.532,0.064
54156.329049,16.615,0.061
54156.340664,16.548,0.055
54156.352182,16.583,0.054
54156.363711,16.672,0.055
54156.375243,16.625,0.052
54175.327076,16.461,0.056
54175.337938,16.421,0.054
54175.348664,16.54,0.059
54175.359474,16.504,0.059
54175.370227,16.564,0.066
54175.371052,16.557,0.05
54175.381896,16.608,0.054
54175.39273,16.585,0.054
54175.403663,16.543,0.054
54175.414612,16.604,0.057
54198.272396,16.727,0.099
54207.270464,16.395,0.046
54207.279607,16.356,0.044
54207.288788,16.364,0.128
54210.267445,16.785,0.074
54210.276447,16.906,0.085
54210.285421,16.867,0.081
54210.294416,16.819,0.081
54210.303438,16.943,0.093
54454.465722,16.767,0.063
54454.479069,16.754,0.059
54454.492101,16.757,0.059
54454.505127,16.799,0.059
54454.518147,16.85,0.065
54474.458871,16.831,0.128
54474.471984,16.918,0.063
54474.485037,16.971,0.061
54474.498093,16.917,0.059
54474.511126,16.922,0.065
54483.400163,17.128,0.152
54483.413579,17.017,0.117
54483.426512,16.778,0.081
54483.43942,16.622,0.059
54483.452322,16.582,0.052
54508.41228,16.933,0.055
54508.424383,16.927,0.055
54508.43647,16.901,0.057
54508.448616,16.943,0.065
54508.4607,16.919,0.059
54523.453938,16.94,0.074
54523.465703,16.901,0.076
54523.477457,16.921,0.074
54523.489321,16.94,0.078
54523.501482,17.048,0.087
54537.328046,16.684,0.093
54537.339113,16.671,0.089
54537.361052,16.631,0.052
54537.372026,16.616,0.052
54539.317035,16.337,0.033
54539.327925,16.398,0.035
54539.338809,16.368,0.031
54539.349652,16.444,0.033
54539.360548,16.443,0.033
54539.364707,16.513,0.059
54539.375551,16.493,0.061
54539.386222,16.606,0.069
54539.396983,16.622,0.069
54539.408922,16.707,0.076
54543.248869,16.94,0.128
54543.259687,17.061,0.135
54543.270469,17.062,0.133
54554.360635,16.524,0.039
54554.372583,16.528,0.041
54554.38452,16.623,0.048
54554.396478,16.688,0.052
54554.408493,16.619,0.052
54564.299021,16.958,0.059
54564.310415,16.984,0.059
54564.321776,16.966,0.057
54564.333124,17.034,0.059
54564.344449,17.006,0.059
54568.297648,17.048,0.12
54568.308912,16.836,0.106
54568.330748,16.758,0.092
54568.341734,16.915,0.107
54585.291626,16.939,0.067
54585.301957,16.792,0.161
54585.312285,17.049,0.089
54585.322639,16.964,0.08
54585.332995,16.892,0.067
54592.247234,17.13,0.087
54592.257918,17.074,0.083
54592.268391,16.98,0.076
54592.278828,16.965,0.076
54592.289246,16.774,0.067
54615.216222,16.935,0.076
54615.226942,16.915,0.074
54615.237395,16.947,0.08
54615.24784,16.88,0.076
54615.258353,16.875,0.078
