mjd,m,merr
52614.435875,15.72,0.045
52614.479533,15.681,0.043
52614.493964,15.728,0.033
52639.378872,15.88,0.03
52639.39365,15.888,0.031
52639.408374,15.92,0.031
52639.423301,15.937,0.031
52639.438357,15.927,0.03
52646.402772,15.911,0.038
52646.417799,15.916,0.038
52646.433499,15.914,0.036
52646.448611,15.894,0.036
52646.463602,15.907,0.038
52649.461562,15.794,0.028
52649.479493,15.82,0.03
52649.494118,15.8,0.028
52649.508403,15.796,0.03
52649.522706,15.84,0.031
52672.328894,15.735,0.033
52672.343616,15.74,0.035
52672.358327,15.803,0.03
52672.373348,15.833,0.033
52672.388515,15.838,0.04
52676.288721,15.888,0.033
52676.304094,15.96,0.035
52676.319679,15.981,0.037
52676.335258,16.012,0.039
52676.350781,15.978,0.037
52677.318256,15.852,0.03
52677.361563,15.749,0.035
52677.376152,15.67,0.161
52706.301592,16.023,0.031
52706.314781,16.034,0.031
52706.328152,16.039,0.031
52706.341493,16.059,0.031
52706.354933,16.042,0.031
52710.247966,16.047,0.045
52710.248454,15.961,0.046
52710.261547,16.078,0.046
52710.262034,16.115,0.049
52710.275237,16.072,0.046
52710.275724,16.057,0.051
52710.28849,16.061,0.045
52710.301734,16.07,0.045
52710.302221,16.097,0.053
52724.242356,16.132,0.035
52724.253976,16.109,0.033
52724.265613,16.099,0.033
52724.277208,16.112,0.035
52724.288829,16.086,0.033
52733.243323,15.857,0.035
52733.255459,15.886,0.035
52733.267614,15.846,0.033
52733.279698,15.81,0.033
52733.291755,15.732,0.053
52733.292226,15.764,0.078
52753.193165,15.898,0.031
52753.205241,15.895,0.033
52753.219209,15.927,0.035
52753.231251,15.93,0.033
52753.243278,15.972,0.037
52761.200164,15.976,0.051
52761.212211,15.894,0.074
52761.22425,15.89,0.046
52761.236273,15.881,0.048
52761.248589,15.884,0.043
52768.154006,16.103,0.083
52768.165672,16.098,0.086
52768.177459,16.058,0.086
52768.202139,15.974,0.079
52792.164384,15.869,0.054
52792.186159,15.824,0.049
52792.208125,15.809,0.056
52793.201366,15.869,0.054
52793.221973,15.824,0.049
52793.242858,15.809,0.056
52797.166974,15.908,0.094
52974.457694,15.971,0.035
52974.481263,15.98,0.033
52974.492491,16.02,0.033
52974.505775,15.988,0.031
52992.403707,16.013,0.031
52992.417181,16.054,0.031
52992.430371,16.001,0.03
52992.443682,16.006,0.028
52992.45739,16.017,0.028
53001.419167,16.12,0.025
53001.441528,16.14,0.025
53001.474139,16.086,0.021
53001.493012,16.04,0.021
53003.375875,16.073,0.024
53003.388036,16.052,0.024
53003.40011,16.0,0.026
53003.41216,15.931,0.041
53003.424336,15.855,0.057
53003.432157,15.819,0.091
53034.341424,16.021,0.035
53034.3537,15.982,0.033
53034.366336,16.036,0.035
53034.378988,16.016,0.033
53034.39125,16.022,0.033
53051.329292,15.929,0.024
53051.341489,15.893,0.024
53051.353123,15.893,0.026
53051.364833,15.953,0.028
53051.376449,15.981,0.03
53062.287852,15.993,0.089
53062.299281,16.047,0.067
53062.310899,16.058,0.159
53062.334076,16.059,0.055
53078.316147,16.072,0.036
53078.327166,16.122,0.038
53078.338091,16.058,0.036
53078.349008,16.142,0.041
53087.287093,16.071,0.023
53087.300337,16.007,0.023
53087.311793,15.957,0.021
53087.322836,15.918,0.021
53087.334864,15.886,0.021
53089.28331,15.77,0.02
53089.294406,15.769,0.02
53089.305564,15.744,0.021
53109.233242,15.959,0.035
53109.259599,15.945,0.036
53109.270293,16.001,0.038
53109.289108,16.021,0.038
53137.202518,15.984,0.043
53137.212187,15.986,0.043
53137.23244,16.024,0.043
53137.242012,16.014,0.043
53149.164884,15.859,0.03
53149.173862,15.882,0.03
53149.184272,15.861,0.031
53149.193259,15.89,0.031
53149.202188,15.918,0.033
53165.169137,15.814,0.079
53165.179134,15.975,0.056
53165.189043,15.951,0.054
53165.214988,16.09,0.071
53165.224823,16.116,0.064
53348.421319,16.068,0.046
53348.43566,16.084,0.045
53348.44987,16.068,0.045
53348.464174,16.071,0.051
53348.478397,16.094,0.058
53354.431242,15.788,0.03
53354.445681,15.79,0.03
53354.459879,15.792,0.028
53354.474797,15.799,0.028
53354.489166,15.829,0.028
53357.458869,16.043,0.036
53357.473437,16.031,0.036
53357.487958,15.947,0.033
53357.502476,15.933,0.033
53357.517224,15.788,0.069
53500.191143,15.945,0.035
53500.201767,15.947,0.035
53500.213216,15.954,0.035
53500.223132,15.963,0.037
53500.23316,16.007,0.039
53528.169,15.947,0.052
53528.180215,16.074,0.061
53528.191781,16.034,0.061
53528.202579,15.966,0.057
53528.213188,15.947,0.059
53703.458948,15.791,0.028
53703.472062,15.843,0.03
53703.484738,15.804,0.028
53703.497478,15.866,0.03
53703.510404,15.864,0.03
53714.451795,15.955,0.031
53714.464588,15.974,0.031
53714.477456,15.987,0.031
53714.490383,16.014,0.031
53714.503239,16.006,0.03
53740.402686,15.852,0.03
53740.416894,15.917,0.03
53740.429607,15.908,0.03
53740.443413,15.922,0.028
53740.457044,15.889,0.03
53770.346373,15.97,0.031
53770.361051,15.998,0.031
53770.374525,15.967,0.031
53770.387501,15.952,0.033
53770.400431,15.999,0.033
53813.305973,15.826,0.044
53813.316978,15.749,0.043
53813.327981,15.726,0.041
53813.339003,15.704,0.041
53813.350015,15.733,0.043
53823.200084,16.065,0.035
53823.210996,16.073,0.036
53823.22182,16.085,0.035
53823.232637,16.077,0.035
53823.24347,16.045,0.033
53844.230715,16.03,0.044
53844.240948,16.036,0.057
53844.251258,16.048,0.044
53844.261477,16.023,0.046
53844.271708,16.071,0.048
53845.127069,15.796,0.035
53845.138381,15.812,0.035
53845.149683,15.791,0.035
53845.160995,15.724,0.033
53845.172352,15.78,0.035
53846.131203,16.07,0.052
53846.141954,16.08,0.052
53846.152831,16.181,0.057
53846.163983,16.089,0.055
53846.174949,16.101,0.057
53849.190544,15.919,0.037
53849.201333,15.918,0.035
53849.212219,15.972,0.037
53849.223143,15.953,0.039
53849.234252,15.947,0.039
53853.193605,16.147,0.056
53853.204172,16.138,0.096
53853.214666,16.103,0.053
53853.22527,16.079,0.054
53853.235909,16.167,0.059
53883.162908,16.021,0.053
53883.183663,16.066,0.059
53883.194552,15.971,0.054
53883.206505,15.948,0.054
53887.170631,15.806,0.07
53887.182505,15.769,0.072
53887.205091,15.802,0.08
53902.187551,15.942,0.066
54042.475251,16.011,0.063
54042.487523,15.97,0.054
54042.499844,15.975,0.054
54056.445765,16.001,0.051
54056.460339,15.935,0.046
54056.473073,16.013,0.046
54056.486144,16.014,0.043
54056.498742,15.998,0.045
54066.450337,15.839,0.041
54066.506997,15.865,0.041
54070.447036,15.989,0.031
54070.459939,15.979,0.03
54070.47296,16.015,0.03
54070.485839,16.002,0.03
54070.49873,16.015,0.033
54084.397013,15.921,0.054
54084.410154,15.973,0.058
54084.423027,15.95,0.056
54084.436071,15.999,0.054
54084.449205,15.928,0.069
54098.368165,15.949,0.037
54098.38023,15.976,0.033
54098.392188,15.98,0.031
54098.404133,15.989,0.031
54098.416164,15.984,0.03
54110.389137,15.87,0.063
54110.401864,16.001,0.066
54110.414563,15.922,0.064
54110.427361,15.973,0.071
54110.44003,15.951,0.068
54121.331923,16.037,0.03
54121.344098,16.002,0.028
54121.356289,15.985,0.026
54121.368481,16.015,0.028
54121.380738,16.033,0.028
54155.293826,15.857,0.041
54155.305783,15.851,0.04
54155.318157,15.799,0.038
54155.330812,15.811,0.035
54155.343424,15.75,0.031
54206.223299,15.71,0.03
54206.232629,15.755,0.031
54206.241959,15.762,0.031
54206.251658,15.781,0.031
54206.261013,15.775,0.03
54452.395957,15.905,0.024
54452.409091,15.938,0.024
54452.422443,15.953,0.022
54452.435735,15.94,0.022
54452.448869,15.995,0.024
54477.39298,16.025,0.026
54477.405866,16.047,0.026
54477.41905,16.075,0.026
54477.431889,16.046,0.026
54477.44475,16.062,0.026
54484.273027,16.012,0.057
54484.29906,15.989,0.05
54484.311952,16.0,0.046
54484.324859,16.014,0.044
54529.15061,15.883,0.038
54529.163672,15.876,0.038
54529.176185,15.858,0.038
54529.187486,15.844,0.036
54529.198925,15.87,0.035
54539.21209,16.079,0.03
54539.222905,16.059,0.028
54539.233793,15.992,0.026
54539.244638,15.956,0.024
54539.255633,15.92,0.024
54567.187331,15.974,0.028
54567.198398,15.93,0.026
54567.209589,15.91,0.026
54567.220946,15.862,0.026
54567.232163,15.867,0.026
54582.196088,15.995,0.035
54582.206532,15.995,0.035
54582.217104,16.014,0.037
54582.227565,16.049,0.037
54582.238111,16.077,0.039
54597.199029,15.73,0.059
54597.209657,15.756,0.059
54597.220303,15.748,0.059
54597.230934,15.742,0.061
54597.241525,15.829,0.067
54613.158222,15.842,0.03
54613.168182,15.881,0.031
54613.178062,15.911,0.031
54613.187995,15.901,0.033
54613.197933,15.862,0.033
54620.167693,15.886,0.031
54620.17856,15.857,0.03
54620.188687,15.876,0.031
54620.198806,15.911,0.033
54620.208923,15.87,0.031
