mjd,m,merr
52621.456444,16.106,0.046
52621.472012,16.143,0.046
52621.486841,16.18,0.048
52621.501695,16.173,0.045
52621.516746,16.187,0.045
52623.457638,16.279,0.07
52623.505115,15.786,0.043
52623.520992,15.74,0.059
52652.454417,15.836,0.026
52652.469452,15.833,0.028
52652.484804,15.85,0.03
52652.502988,15.908,0.028
52652.517938,15.912,0.03
52664.35625,16.177,0.044
52664.371491,16.223,0.067
52664.417334,16.228,0.135
52722.350062,16.327,0.041
52722.363239,16.281,0.039
52722.375784,16.291,0.039
52722.38879,16.277,0.041
52722.401325,16.245,0.041
52723.332484,16.17,0.094
52751.260313,16.272,0.043
52751.271019,16.304,0.044
52751.28238,16.273,0.043
52751.294015,16.299,0.044
52751.306501,16.277,0.043
52772.213743,15.961,0.087
52772.225636,15.918,0.083
52772.23728,16.095,0.094
52772.248761,16.007,0.1
52772.260654,16.046,0.087
52782.214684,15.804,0.085
52800.216445,16.287,0.126
52800.226815,16.245,0.12
52800.236968,16.199,0.117
52810.17908,16.131,0.046
52810.189022,16.207,0.048
52810.218959,16.256,0.052
52812.179893,16.136,0.044
52812.190135,16.037,0.043
52812.200451,15.943,0.039
52812.210782,15.817,0.035
52812.221133,15.827,0.035
52976.407956,15.978,0.038
52990.464492,16.014,0.043
52990.477871,16.068,0.037
52990.490899,16.067,0.037
52990.504101,16.065,0.037
52990.517131,16.084,0.037
53023.404164,16.164,0.031
53023.416992,16.201,0.031
53023.429672,16.207,0.03
53023.442351,16.243,0.031
53023.455062,16.262,0.031
53046.404565,16.392,0.059
53046.417011,16.349,0.057
53046.429032,16.373,0.063
53046.44094,16.323,0.059
53046.453516,16.392,0.063
53107.249658,15.716,0.022
53107.26091,15.729,0.022
53107.272103,15.761,0.024
53107.283373,15.822,0.024
53107.294591,15.861,0.024
53127.245819,16.197,0.094
53127.255878,16.021,0.081
53127.265841,15.895,0.065
53127.2758,15.762,0.055
53127.285832,15.669,0.052
53136.242663,15.844,0.033
53136.252034,15.864,0.033
53136.261504,15.857,0.033
53136.270772,15.905,0.033
53136.28004,15.945,0.037
53154.211538,16.239,0.067
53154.220298,16.25,0.068
53154.229188,16.273,0.07
53154.237973,16.223,0.068
53154.246888,16.312,0.072
53164.21902,16.162,0.037
53164.229193,16.178,0.037
53164.239424,16.15,0.041
53164.249604,16.182,0.043
53164.259787,16.223,0.044
53194.212871,16.086,0.109
53340.481459,15.727,0.049
53340.494027,15.699,0.046
53340.51184,15.767,0.046
53358.471307,16.164,0.045
53358.485794,16.169,0.045
53358.500303,16.174,0.041
53358.514828,16.177,0.043
53358.529316,16.233,0.045
53401.370426,16.099,0.054
53401.383052,16.193,0.059
53401.395733,16.251,0.067
53421.352391,16.113,0.057
53421.364253,16.118,0.057
53421.376149,16.095,0.055
53421.388225,16.134,0.052
53421.40011,16.131,0.052
53430.368192,16.294,0.057
53430.379896,16.279,0.055
53430.394283,16.269,0.055
53430.406103,16.314,0.057
53430.417445,16.317,0.057
53491.250794,16.418,0.067
53491.261275,16.435,0.055
53491.273111,16.409,0.055
53491.286521,16.393,0.067
53491.297701,16.136,0.043
53537.177996,16.174,0.091
53537.188095,16.015,0.13
53537.198165,16.153,0.098
53537.208235,16.225,0.135
53553.175423,15.799,0.041
53553.185931,15.838,0.043
53553.196641,15.888,0.044
53553.207171,15.964,0.048
53553.217785,15.97,0.048
53566.208022,16.185,0.094
53566.21886,16.171,0.098
53566.22954,16.1,0.104
53566.240169,16.089,0.096
53727.490372,15.961,0.072
53757.386273,16.098,0.046
53757.398913,15.988,0.041
53757.411619,15.836,0.035
53757.424408,15.8,0.035
53757.437136,15.812,0.037
53773.415921,16.292,0.043
53773.42893,16.33,0.044
53773.441571,16.353,0.044
53773.454154,16.343,0.044
53773.46714,16.38,0.044
53826.288134,16.352,0.043
53826.320513,16.347,0.043
53826.331201,16.404,0.043
53827.306216,16.291,0.036
53827.31763,16.328,0.038
53827.328973,16.329,0.036
53827.340048,16.32,0.038
53827.351027,16.295,0.038
53843.251631,16.034,0.035
53843.263022,15.968,0.036
53843.274393,15.969,0.038
53843.286016,16.008,0.041
53843.297416,16.045,0.045
53856.270217,16.387,0.058
53856.280286,16.376,0.058
53856.290151,16.329,0.056
53856.30012,16.311,0.054
53856.310045,16.333,0.056
53877.25512,16.059,0.031
53877.265743,16.142,0.038
53904.174488,16.301,0.061
53904.184455,16.262,0.059
53904.194441,16.372,0.067
53904.204531,16.356,0.065
53904.214631,16.367,0.067
53933.166225,16.279,0.059
53933.176922,16.35,0.065
53933.187577,16.378,0.07
53933.198318,16.311,0.081
53933.209149,16.305,0.074
54098.383308,16.241,0.056
54098.395474,16.297,0.054
54098.407638,16.294,0.051
54098.419995,16.366,0.054
54098.432325,16.282,0.051
54124.39324,16.04,0.035
54124.405833,16.136,0.036
54124.419164,16.121,0.038
54124.431888,16.156,0.038
54124.444332,16.186,0.04
54140.393123,15.7,0.031
54140.405139,15.689,0.031
54140.417431,15.773,0.033
54140.429691,15.794,0.035
54140.441986,15.861,0.036
54188.274328,15.848,0.063
54188.294231,15.832,0.059
54188.303956,15.814,0.059
54188.313778,15.837,0.059
54198.272606,16.002,0.035
54198.282251,15.928,0.046
54198.292304,15.809,0.044
54198.302054,15.953,0.117
54210.263088,16.249,0.048
54210.271968,16.289,0.048
54210.280847,16.34,0.051
54210.289718,16.343,0.051
54210.298609,16.28,0.049
54218.26639,16.348,0.096
54218.275059,16.361,0.098
54218.2837,16.241,0.087
54218.292322,16.092,0.076
54218.300927,15.912,0.065
54498.385764,15.884,0.036
54498.410236,15.972,0.038
54498.433863,15.987,0.038
54526.334275,16.169,0.041
54526.345844,16.143,0.04
54526.357249,16.218,0.043
54526.368509,16.178,0.041
54537.320174,15.749,0.035
54537.331093,15.85,0.083
54537.342066,15.855,0.046
54537.353251,15.86,0.049
54555.240742,16.07,0.051
54555.252574,16.103,0.051
54555.264236,16.087,0.051
54555.275987,16.107,0.051
54555.287603,16.113,0.051
54559.296311,16.333,0.056
54559.307849,16.358,0.058
54559.319616,16.267,0.053
54559.331098,16.288,0.053
54559.342554,16.269,0.053
54569.245699,16.265,0.054
54569.256694,16.269,0.056
54569.267612,16.249,0.054
54569.278554,16.278,0.054
54569.289464,16.219,0.051
54585.240235,15.867,0.058
54585.250362,15.864,0.053
54585.2604,15.971,0.049
54585.270516,15.983,0.083
54585.280544,15.992,0.043
54618.212711,16.176,0.073
54618.22309,16.162,0.073
54618.233427,16.183,0.074
54618.24377,16.208,0.078
54618.254622,16.303,0.081
