mjd,m,merr
52636.435901,15.18,0.024
52636.450148,15.187,0.022
52636.46424,15.207,0.02
52636.478275,15.264,0.022
52636.492386,15.258,0.02
52653.458611,15.529,0.022
52653.473917,15.535,0.024
52653.489215,15.529,0.022
52653.504585,15.519,0.022
52653.519985,15.413,0.018
52722.349385,15.343,0.017
52722.362565,15.329,0.017
52722.375113,15.368,0.018
52722.388118,15.386,0.018
52722.400647,15.38,0.018
52751.259713,15.497,0.022
52751.270421,15.474,0.022
52751.281783,15.439,0.02
52751.293103,15.344,0.018
52751.305904,15.286,0.018
52772.26754,15.36,0.051
52772.29103,15.388,0.058
52781.214146,15.525,0.024
52781.224912,15.451,0.02
52781.235602,15.328,0.02
52781.246332,15.238,0.018
52781.256961,15.225,0.018
52809.177248,15.255,0.028
52809.18722,15.161,0.016
52809.1874,15.076,0.026
52809.217236,15.132,0.016
52809.217416,14.992,0.025
52977.450525,15.291,0.023
52977.495064,15.219,0.021
53008.420758,15.383,0.028
53008.433367,15.401,0.026
53008.446034,15.433,0.028
53008.458579,15.447,0.026
53038.399445,15.494,0.045
53038.423985,15.445,0.038
53038.436106,15.45,0.038
53038.448196,15.414,0.033
53045.352607,15.121,0.023
53096.273222,15.431,0.036
53096.283089,15.447,0.036
53096.29297,15.419,0.035
53096.302888,15.414,0.043
53096.312753,15.468,0.04
53125.243886,15.211,0.036
53125.253692,15.191,0.033
53125.263236,15.195,0.033
53125.272783,15.178,0.031
53134.240194,15.471,0.033
53134.249064,15.513,0.023
53134.257886,15.485,0.023
53134.266864,15.491,0.021
53134.275898,15.501,0.023
53155.214728,15.155,0.038
53155.223443,15.184,0.035
53155.231859,15.227,0.035
53155.240197,15.222,0.035
53155.248671,15.266,0.036
53163.236159,15.335,0.102
53169.218486,15.22,0.021
53169.227913,15.247,0.023
53169.23735,15.228,0.023
53169.246801,15.248,0.025
53169.256145,15.254,0.021
53193.177713,15.279,0.023
53193.186927,15.259,0.023
53340.436718,15.429,0.046
53340.448998,15.403,0.043
53340.4618,15.422,0.043
53340.474115,15.456,0.041
53340.486823,15.502,0.041
53359.422484,15.222,0.02
53359.435904,15.244,0.02
53359.452441,15.255,0.02
53359.465297,15.257,0.018
53359.478532,15.259,0.017
53362.494793,15.624,0.028
53362.508294,15.589,0.025
53362.521772,15.525,0.025
53451.338937,15.349,0.028
53451.34994,15.33,0.028
53451.360738,15.314,0.028
53451.371592,15.349,0.028
53451.382536,15.339,0.028
53480.232269,15.54,0.055
53480.242072,15.393,0.044
53480.251017,15.341,0.039
53480.26046,15.28,0.037
53480.269451,15.228,0.033
53490.250623,15.199,0.018
53490.260829,15.177,0.018
53490.271761,15.193,0.017
53490.283005,15.149,0.017
53490.294805,15.126,0.015
53536.176742,15.231,0.033
53536.186678,15.192,0.033
53536.196701,15.189,0.031
53536.206736,15.184,0.033
53536.216776,15.192,0.037
53726.486178,15.059,0.02
53726.499647,15.101,0.022
53726.513307,15.11,0.022
53726.52665,15.107,0.02
53774.41327,15.139,0.02
53774.425771,15.153,0.02
53774.438472,15.183,0.02
53774.45122,15.203,0.02
53774.464106,15.225,0.022
53802.366208,15.192,0.018
53802.378315,15.195,0.018
53802.390642,15.224,0.018
53802.402786,15.259,0.02
53802.414822,15.294,0.028
53806.3672,15.23,0.033
53806.37877,15.237,0.033
53806.390008,15.218,0.031
53806.401269,15.28,0.035
53806.412594,15.278,0.033
53828.285597,15.188,0.021
53828.296126,15.222,0.028
53828.306787,15.229,0.018
53828.327888,15.246,0.015
53834.275806,15.239,0.03
53834.295375,15.211,0.028
53834.305198,15.211,0.028
53834.314912,15.224,0.028
53842.249013,15.174,0.026
53842.260847,15.157,0.028
53842.273108,15.22,0.03
53842.284349,15.245,0.031
53842.295573,15.233,0.03
53857.281015,15.524,0.028
53857.291084,15.49,0.028
53857.301061,15.563,0.049
53876.232747,15.21,0.028
53876.243354,15.252,0.028
53876.254038,15.266,0.028
53904.178786,15.279,0.021
53904.189317,15.316,0.021
53904.199184,15.308,0.021
53904.209617,15.302,0.021
53904.219489,15.33,0.021
53933.164991,15.536,0.036
53933.175245,15.542,0.038
53933.185927,15.559,0.04
53933.196194,15.463,0.038
53933.206543,15.404,0.045
54072.458967,15.303,0.049
54072.485313,15.29,0.043
54080.461684,15.304,0.043
54080.473645,15.262,0.028
54108.398998,15.39,0.045
54108.41123,15.403,0.045
54108.423374,15.344,0.043
54108.435639,15.375,0.043
54108.447781,15.441,0.046
54125.378779,15.512,0.03
54125.390618,15.545,0.031
54125.402519,15.521,0.03
54125.415101,15.415,0.028
54125.427329,15.367,0.028
54140.362675,15.29,0.018
54140.37502,15.331,0.02
54140.386886,15.349,0.02
54140.399094,15.388,0.022
54140.411467,15.35,0.022
54157.334932,15.443,0.028
54157.345952,15.355,0.026
54157.356964,15.28,0.025
54157.367986,15.193,0.021
54157.379219,15.168,0.021
54212.259665,15.352,0.026
54212.268139,15.358,0.026
54212.276845,15.343,0.026
54212.285235,15.374,0.026
54212.293971,15.405,0.026
54483.443042,15.19,0.026
54497.399494,15.188,0.036
54497.411466,15.173,0.04
54497.423473,15.216,0.038
54497.436135,15.218,0.036
54525.340828,15.174,0.026
54525.352283,15.192,0.026
54525.364032,15.21,0.026
54525.375369,15.215,0.03
54525.386685,15.214,0.033
54558.296386,15.541,0.053
54558.307935,15.525,0.068
54558.319619,15.537,0.045
54558.342932,15.565,0.063
54570.245603,15.45,0.031
54570.257297,15.464,0.031
54570.268653,15.486,0.031
54570.279817,15.448,0.03
54570.290749,15.444,0.031
54586.250948,15.48,0.031
54586.27145,15.5,0.033
54586.282283,15.524,0.035
54598.242367,15.502,0.066
54598.251911,15.447,0.063
54598.270668,15.475,0.063
54598.280167,15.495,0.063
54619.210803,15.319,0.03
54619.221001,15.298,0.028
54619.231193,15.291,0.031
54619.241378,15.311,0.03
54619.251868,15.328,0.031
