mjd,m,merr
52644.492864,15.67,0.031
52644.507889,15.795,0.039
52644.522619,15.989,0.059
52644.537829,16.051,0.043
52648.403852,15.631,0.037
52648.418822,15.697,0.039
52648.433763,15.72,0.037
52648.448899,15.908,0.039
52648.464297,15.999,0.041
52667.471217,15.664,0.03
52667.486492,15.787,0.033
52667.501692,15.89,0.039
52667.517074,15.998,0.041
52667.5323,15.927,0.037
52671.467399,16.028,0.037
52671.483015,15.864,0.033
52671.498541,15.766,0.03
52671.513927,15.678,0.028
52674.461169,15.908,0.035
52674.47574,16.058,0.039
52674.490746,16.029,0.037
52703.453875,15.627,0.054
52703.480496,15.788,0.036
52703.495778,16.013,0.045
52704.37581,15.741,0.03
52704.389078,15.785,0.03
52704.402352,15.952,0.035
52704.41547,16.027,0.037
52704.428558,16.019,0.037
52707.372421,15.681,0.03
52707.372781,15.657,0.028
52707.385612,15.731,0.031
52707.385969,15.657,0.028
52707.398706,15.728,0.031
52707.399063,15.758,0.03
52707.411789,15.754,0.033
52707.412147,15.808,0.033
52707.425943,15.951,0.038
52707.426299,15.893,0.036
52728.296673,16.001,0.033
52728.309469,16.055,0.035
52728.321688,16.016,0.033
52728.335542,15.932,0.031
52728.348029,15.8,0.03
52730.302974,15.81,0.035
52730.314987,15.786,0.03
52730.327004,15.731,0.028
52730.339028,15.678,0.026
52731.316033,15.941,0.057
52731.328004,16.019,0.078
52731.352016,15.979,0.043
52737.316731,15.662,0.026
52737.332567,15.685,0.026
52737.34464,15.715,0.026
52737.3565,15.832,0.03
52737.36881,15.955,0.031
52756.257922,15.788,0.035
52756.258031,15.789,0.035
52756.270017,15.881,0.04
52756.270126,15.911,0.04
52756.282351,15.874,0.041
52756.28246,15.922,0.04
52756.294441,15.935,0.043
52756.29455,15.908,0.04
52756.306563,15.891,0.041
52756.306672,15.836,0.038
52761.260944,15.96,0.033
52761.272668,16.068,0.037
52761.284443,16.036,0.039
52761.296167,15.984,0.037
52761.307978,15.855,0.033
52764.261519,15.775,0.031
52764.261628,15.789,0.031
52764.273487,15.844,0.033
52764.273675,15.856,0.033
52764.285513,15.951,0.036
52764.285623,15.945,0.033
52764.297597,16.038,0.038
52764.297706,16.038,0.036
52764.309497,16.022,0.038
52764.309606,16.002,0.036
52789.218352,15.719,0.036
52789.228986,15.76,0.038
52789.239825,15.906,0.041
52789.250589,15.822,0.04
52789.261191,15.907,0.04
52791.23236,15.956,0.178
52794.216911,15.827,0.037
52794.226927,15.931,0.043
52794.237094,15.987,0.044
52794.247069,16.0,0.046
52794.257163,16.022,0.048
52816.173748,15.924,0.054
52816.193884,15.919,0.059
52816.214321,15.921,0.074
52819.21031,15.851,0.096
52823.182882,15.672,0.051
52823.19296,15.706,0.045
52823.20297,15.692,0.045
52987.476366,15.65,0.055
52987.489338,15.874,0.059
52987.502313,16.031,0.07
52987.51516,16.024,0.046
52996.469067,15.789,0.026
52996.482025,15.726,0.022
52996.495041,15.697,0.022
52996.508111,15.678,0.02
52996.521065,15.719,0.02
53001.471535,15.766,0.022
53001.4848,15.704,0.018
53001.497853,15.683,0.018
53001.512,15.678,0.018
53001.525284,15.724,0.018
53027.400205,15.765,0.022
53027.41305,15.906,0.024
53027.425821,16.034,0.028
53027.439373,16.013,0.026
53027.452493,15.959,0.024
53033.398344,15.669,0.031
53033.410657,15.672,0.028
53033.423104,15.668,0.028
53033.435197,15.74,0.028
53033.447363,15.774,0.03
53054.432036,15.668,0.022
53054.445431,15.688,0.022
53054.460917,15.698,0.024
53054.473502,15.814,0.028
53054.485923,15.861,0.03
53060.363166,15.811,0.02
53060.374373,15.893,0.022
53060.386182,16.002,0.024
53060.397368,16.035,0.026
53060.40874,16.014,0.026
53080.340216,15.992,0.03
53080.351215,16.025,0.031
53080.362831,16.063,0.031
53080.374327,15.989,0.031
53080.385778,15.848,0.028
53084.341886,15.697,0.018
53084.352511,15.72,0.018
53084.363309,15.678,0.017
53084.374003,15.675,0.017
53084.384873,15.716,0.018
53086.357391,15.728,0.023
53086.368362,15.781,0.025
53086.37932,15.857,0.028
53086.390378,15.961,0.028
53086.401715,16.025,0.026
53115.306654,15.861,0.024
53115.317749,15.783,0.022
53115.3289,15.752,0.02
53115.339968,15.693,0.02
53115.351038,15.627,0.02
53117.310142,15.712,0.021
53117.320455,15.702,0.021
53117.330988,15.658,0.021
53117.341434,15.679,0.021
53117.352025,15.692,0.023
53139.207101,15.845,0.033
53139.216408,15.749,0.031
53139.225708,15.698,0.03
53139.235165,15.699,0.03
53139.244473,15.678,0.03
53143.275068,15.997,0.03
53143.284439,15.902,0.028
53143.29372,15.811,0.026
53143.303006,15.762,0.024
53143.312309,15.7,0.024
53147.20958,15.977,0.033
53147.218392,15.902,0.031
53147.22715,15.819,0.03
53147.236329,15.787,0.028
53147.245416,15.7,0.026
53169.176717,15.719,0.031
53169.186837,15.704,0.03
53169.196933,15.638,0.028
53169.207037,15.692,0.03
53169.217148,15.709,0.03
53172.176756,15.828,0.026
53172.187711,15.754,0.026
53172.19814,15.725,0.026
53172.208434,15.684,0.024
53172.218687,15.621,0.028
53174.175503,15.684,0.028
53174.185339,15.626,0.026
53174.197304,15.623,0.026
53174.207338,15.608,0.026
53174.217316,15.643,0.028
53354.460366,15.687,0.037
53354.473141,15.664,0.033
53354.487284,15.721,0.035
53354.500111,15.776,0.035
53354.51307,15.933,0.039
53377.472509,15.687,0.03
53377.485456,15.828,0.033
53377.498401,15.871,0.033
53377.511357,15.913,0.033
53377.524311,15.915,0.033
53382.512395,16.027,0.035
53382.528464,15.914,0.031
53382.542991,15.78,0.031
53404.435289,15.933,0.039
53404.447605,15.907,0.039
53404.461058,15.807,0.037
53404.473981,15.73,0.031
53404.48781,15.693,0.031
53433.41868,15.713,0.03
53433.42996,15.819,0.033
53433.441705,15.89,0.043
53433.452905,15.894,0.041
53433.464117,15.909,0.044
53440.476669,15.672,0.033
53440.487186,15.653,0.035
53440.498335,15.646,0.033
53465.338866,15.851,0.033
53465.349677,16.032,0.041
53465.362299,16.041,0.039
53465.373111,16.027,0.037
53465.383839,15.974,0.037
53468.281298,15.731,0.05
53468.290845,15.685,0.044
53468.30086,15.744,0.081
53473.281843,15.751,0.033
53473.292585,15.715,0.031
53473.303679,15.679,0.031
53473.315077,15.673,0.031
53473.326182,15.726,0.033
53478.241105,15.858,0.055
53478.251178,15.845,0.054
53478.261853,15.763,0.05
53478.270917,15.706,0.048
53479.284543,15.952,0.07
53479.296516,16.001,0.074
53479.307433,15.955,0.072
53479.317663,15.796,0.061
53479.327158,15.664,0.057
53493.300507,15.705,0.037
53493.310842,15.726,0.041
53493.321566,15.829,0.041
53493.331628,15.886,0.043
53493.341795,15.912,0.043
53496.24762,15.843,0.041
53496.257748,15.797,0.039
53496.267828,15.753,0.037
53496.277865,15.707,0.035
53496.288007,15.693,0.033
53526.21802,15.761,0.043
53526.238873,15.677,0.035
53526.249219,15.691,0.035
53526.259603,15.721,0.039
53527.172802,15.727,0.035
53527.183098,15.765,0.037
53527.192994,15.811,0.039
53527.202764,15.922,0.043
53527.212582,15.919,0.044
53733.461091,15.756,0.039
53733.473716,15.905,0.044
53746.465976,15.768,0.048
53746.478463,15.828,0.048
53746.491089,15.896,0.046
53746.50355,15.869,0.041
53746.516071,15.813,0.035
53791.410286,16.06,0.036
53791.420715,15.989,0.037
53791.422099,15.952,0.033
53791.43253,15.835,0.033
53791.434073,15.851,0.031
53791.444352,15.75,0.031
53791.445938,15.731,0.028
53791.456173,15.756,0.033
53791.457876,15.726,0.03
53791.467999,15.668,0.031
53794.402614,15.876,0.03
53794.414235,16.041,0.035
53794.42586,16.019,0.033
53794.43749,16.017,0.033
53794.449122,15.915,0.031
53815.343345,15.765,0.043
53815.354479,15.727,0.044
53815.365626,15.686,0.041
53815.376804,15.718,0.043
53815.387957,15.739,0.044
53817.274213,15.915,0.031
53817.285451,15.799,0.028
53817.296751,15.741,0.028
53817.308079,15.716,0.026
53817.319442,15.693,0.026
53818.337779,15.972,0.039
53818.34905,15.822,0.035
53818.361396,15.759,0.031
53818.374113,15.687,0.03
53818.386153,15.686,0.03
53823.382184,15.636,0.031
53823.394927,15.66,0.035
53823.408725,15.665,0.039
53823.423981,15.76,0.043
53823.438973,15.909,0.059
53829.344183,16.047,0.105
53829.354807,15.953,0.087
53846.243674,15.702,0.031
53846.254261,15.754,0.031
53846.264828,15.812,0.033
53846.275588,15.889,0.036
53846.286093,15.934,0.036
53848.295714,15.77,0.043
53848.306462,15.744,0.043
53848.317125,15.669,0.043
53848.328143,15.663,0.041
53848.339659,15.637,0.041
53849.302633,15.871,0.039
53849.31341,15.948,0.043
53849.324505,15.936,0.041
53849.33528,15.871,0.041
53849.346054,15.787,0.039
53850.24719,15.895,0.045
53850.257504,15.705,0.036
53850.267823,15.732,0.036
53850.278215,15.718,0.035
53850.288536,15.671,0.036
53852.309773,15.739,0.039
53852.321401,15.863,0.043
53852.332225,15.936,0.044
53852.343073,15.92,0.044
53852.353906,15.893,0.044
53855.255227,15.771,0.037
53855.265874,15.711,0.035
53855.277356,15.665,0.035
53855.288479,15.644,0.033
53855.298645,15.63,0.033
53858.250977,16.006,0.161
53858.261685,16.004,0.17
53858.272592,15.91,0.12
53858.283823,15.781,0.041
53858.293987,15.748,0.041
53881.213483,16.017,0.048
53881.223471,15.928,0.045
53881.233584,16.04,0.051
53881.243742,15.911,0.045
53881.253736,15.85,0.045
53883.226932,15.745,0.039
53883.238345,15.683,0.037
53883.249878,15.705,0.039
53883.261303,15.685,0.041
53883.27273,15.696,0.041
53884.218829,15.73,0.041
53884.230409,15.905,0.046
53884.241985,16.032,0.052
53884.253564,16.017,0.052
53884.265156,16.0,0.054
53886.210064,15.962,0.046
53886.220067,15.94,0.045
53886.23015,15.964,0.046
53886.240365,15.828,0.041
53886.250364,15.791,0.041
53901.183245,15.948,0.094
53901.193239,15.983,0.087
53901.203257,15.99,0.083
53901.213297,15.846,0.085
53910.169405,15.672,0.046
53910.179671,15.692,0.046
53910.18992,15.661,0.044
53910.200167,15.653,0.044
53910.210369,15.709,0.059
53914.173744,15.828,0.072
53914.184191,15.885,0.068
53914.205097,15.865,0.096
54121.455116,15.64,0.031
54121.467551,15.658,0.031
54121.48074,15.745,0.033
54121.493217,15.778,0.033
54121.505704,15.888,0.038
54124.412466,15.942,0.03
54124.42562,15.833,0.026
54124.438509,15.735,0.024
54124.452331,15.677,0.022
54124.465419,15.62,0.022
54149.397114,15.693,0.028
54149.408947,15.664,0.028
54149.421702,15.653,0.028
54149.43338,15.69,0.028
54149.445292,15.739,0.03
54155.360594,15.799,0.026
54155.372431,15.897,0.028
54155.384276,15.91,0.028
54155.396235,15.956,0.03
54155.408079,15.877,0.028
54156.377896,15.668,0.024
54156.389444,15.666,0.02
54156.407585,15.741,0.022
54156.419468,15.816,0.022
54156.431025,15.911,0.026
54174.324629,15.806,0.038
54174.335278,15.801,0.061
54174.346024,15.766,0.033
54174.356851,15.735,0.036
54174.367556,15.7,0.03
54180.331129,16.049,0.036
54180.341509,16.013,0.035
54180.351821,16.052,0.036
54180.362214,15.959,0.035
54180.372803,15.87,0.033
54200.286993,16.035,0.051
54200.3059,16.075,0.081
54210.26931,16.009,0.037
54210.278317,16.006,0.037
54210.287304,16.03,0.037
54210.296324,16.036,0.041
54210.305305,15.907,0.037
54475.45636,15.675,0.02
54475.469441,15.673,0.02
54475.482348,15.678,0.02
54475.495222,15.781,0.022
54475.508395,15.859,0.024
54483.404397,16.059,0.057
54483.417647,15.9,0.044
54483.430569,15.793,0.033
54483.443483,15.712,0.028
54483.456381,15.676,0.026
54509.392282,15.989,0.022
54509.404384,16.003,0.024
54509.416478,16.012,0.024
54509.428548,15.883,0.022
54509.440637,15.768,0.02
54524.446493,15.619,0.022
54524.458046,15.634,0.022
54524.469601,15.653,0.024
54524.481268,15.726,0.026
54524.49341,15.811,0.028
54532.336642,15.71,0.018
54532.348017,15.742,0.018
54532.359339,15.822,0.02
54532.3706,15.943,0.022
54532.381844,16.023,0.024
54538.361283,15.649,0.017
54538.372467,15.668,0.017
54538.383483,15.7,0.018
54538.394413,15.743,0.018
54538.405455,15.805,0.02
54543.242211,15.827,0.046
54543.253151,15.919,0.048
54543.263973,16.028,0.052
54543.274731,16.091,0.054
54555.355452,15.939,0.024
54555.367302,16.018,0.024
54555.379158,16.015,0.026
54555.391023,15.922,0.024
54555.402871,15.832,0.024
54568.300204,15.669,0.038
54568.311469,15.707,0.038
54568.3225,15.735,0.038
54568.333404,15.772,0.04
54568.344283,15.816,0.04
54580.24817,15.654,0.031
54580.258767,15.583,0.031
54580.26937,15.665,0.033
54580.279969,15.693,0.035
54580.290631,15.791,0.037
54586.246066,15.884,0.037
54586.256482,15.795,0.026
54586.266822,15.746,0.026
54586.277224,15.702,0.026
54586.287563,15.673,0.024
54594.256023,15.861,0.031
54594.266295,15.767,0.028
54594.276611,15.71,0.028
54594.286887,15.703,0.028
54594.297173,15.674,0.028
54611.212097,15.745,0.024
54611.221979,15.698,0.022
54611.23184,15.653,0.022
54611.241842,15.629,0.022
54611.251619,15.649,0.022
54618.211152,15.672,0.024
54618.221372,15.669,0.024
54618.231584,15.691,0.024
54618.24181,15.722,0.026
54618.252063,15.805,0.028
