mjd,m,merr
52650.483209,15.998,0.038
52666.397379,15.761,0.028
52666.412624,15.777,0.026
52666.427714,15.781,0.028
52666.442995,15.761,0.026
52666.457549,15.749,0.028
52697.409659,15.78,0.037
52697.440567,16.036,0.072
52706.364663,16.028,0.031
52706.377527,15.964,0.03
52706.390503,15.945,0.03
52706.403625,15.909,0.03
52706.41665,15.839,0.028
52711.314387,16.221,0.046
52711.328448,16.234,0.046
52711.342936,16.258,0.044
52711.357051,16.204,0.044
52711.371034,16.233,0.044
52724.307955,15.749,0.028
52724.32056,15.757,0.03
52724.333245,15.778,0.03
52724.345529,15.831,0.031
52724.357696,15.827,0.031
52739.248605,16.192,0.044
52739.260013,16.232,0.044
52739.271412,16.234,0.044
52739.282892,16.17,0.043
52739.294294,16.164,0.043
52753.2601,15.798,0.035
52753.273211,15.803,0.035
52753.286273,15.821,0.035
52753.300297,15.872,0.038
52753.312891,15.946,0.04
52769.224691,16.355,0.074
52769.236392,16.363,0.072
52769.260795,16.298,0.081
52797.225736,16.001,0.068
52797.235719,15.862,0.061
52797.245697,15.923,0.067
52811.176384,16.046,0.05
52811.186353,16.06,0.05
52811.206106,16.151,0.052
52811.215991,16.137,0.052
52825.191732,15.953,0.065
52825.201664,15.899,0.052
52825.211613,15.832,0.048
53006.406385,16.189,0.048
53006.418713,16.052,0.045
53006.431063,15.933,0.041
53006.44458,15.882,0.038
53034.394528,15.734,0.03
53034.406369,15.713,0.028
53034.418196,15.708,0.028
53034.43013,15.721,0.03
53034.442145,15.7,0.028
53051.338975,15.995,0.028
53051.351209,16.042,0.03
53051.362807,16.074,0.031
53051.374535,16.093,0.033
53051.386164,16.087,0.03
53064.285363,15.866,0.03
53064.297411,15.773,0.025
53064.309783,15.734,0.023
53064.322115,15.783,0.026
53064.334322,15.726,0.021
53078.325156,16.029,0.035
53078.336119,16.026,0.035
53078.347023,16.028,0.036
53093.277018,15.726,0.02
53093.286896,15.753,0.02
53093.296947,15.757,0.02
53093.308011,15.776,0.02
53093.317943,15.806,0.02
53109.240985,16.047,0.036
53109.26731,16.091,0.038
53109.27804,16.043,0.038
53109.296832,16.07,0.036
53121.249173,15.849,0.024
53121.259835,15.886,0.024
53121.270611,15.902,0.024
53121.281266,15.929,0.026
53121.291938,15.981,0.03
53137.250419,15.955,0.035
53137.260469,15.872,0.031
53137.270266,15.835,0.031
53137.280215,15.795,0.033
53137.289935,15.727,0.031
53150.207908,16.178,0.078
53165.176646,15.84,0.059
53165.196467,15.793,0.043
53165.222398,15.682,0.033
53165.232238,15.739,0.033
53177.177259,16.109,0.037
53177.187184,16.107,0.039
53177.217041,16.243,0.054
53437.41426,15.781,0.026
53437.425564,15.772,0.026
53437.436865,15.831,0.028
53437.453575,15.905,0.031
53437.464874,15.941,0.031
53449.281914,15.988,0.055
53449.292381,16.082,0.048
53449.303336,16.191,0.057
53449.313835,16.207,0.052
53501.246709,15.823,0.033
53501.26158,15.747,0.031
53501.276755,15.783,0.031
53501.288928,15.78,0.031
53501.29912,15.805,0.033
53529.167102,15.8,0.039
53529.177505,15.768,0.037
53529.187809,15.823,0.039
53529.198387,15.777,0.037
53529.208722,15.806,0.037
53540.186192,15.843,0.111
53739.477021,15.805,0.028
53739.490635,15.852,0.028
53739.503549,15.899,0.028
53739.516458,15.933,0.028
53739.529573,15.997,0.028
53770.416261,15.862,0.031
53770.429069,15.922,0.033
53770.443443,15.931,0.031
53770.460759,15.953,0.033
53770.474978,16.013,0.033
53787.422535,15.959,0.031
53813.361243,15.877,0.052
53813.372276,15.912,0.055
53813.383275,15.923,0.055
53813.394297,15.837,0.052
53813.405326,15.863,0.054
53844.246199,16.026,0.041
53844.257301,15.953,0.038
53844.268235,15.966,0.036
53844.279211,15.899,0.035
53844.290477,15.881,0.033
53853.244936,16.05,0.051
53853.255322,16.065,0.048
53853.26561,16.087,0.049
53853.275925,16.083,0.051
53853.28638,16.058,0.048
53883.224558,16.002,0.051
53883.234851,16.005,0.049
53883.245139,16.018,0.048
53887.224879,16.129,0.067
53887.23551,16.119,0.063
53887.246167,16.118,0.065
53887.256879,16.181,0.067
53887.267591,16.141,0.061
53902.175556,15.673,0.043
53902.20976,15.674,0.059
53915.174858,16.051,0.064
53915.196111,16.044,0.064
53931.165972,15.811,0.063
53931.176404,15.855,0.072
53931.18689,15.878,0.07
53931.197293,15.874,0.072
53931.207642,15.913,0.078
54084.460259,15.67,0.051
54084.473182,15.753,0.048
54084.486038,15.718,0.043
54084.498964,15.735,0.043
54084.511784,15.768,0.051
54098.42582,16.005,0.037
54098.437932,16.037,0.037
54098.453112,16.065,0.037
54098.466476,16.075,0.037
54098.478691,16.131,0.037
54110.399817,15.863,0.091
54110.412524,15.833,0.071
54110.425323,15.766,0.069
54110.437995,15.734,0.066
54110.450918,15.825,0.087
54121.391005,16.097,0.037
54121.403218,16.028,0.037
54121.415414,16.075,0.041
54121.427615,15.981,0.037
54121.439805,15.914,0.033
54154.338838,16.107,0.04
54154.350251,16.059,0.04
54154.361667,16.015,0.038
54154.373126,16.018,0.038
54154.384632,15.967,0.035
54169.327097,15.744,0.043
54169.338058,15.807,0.043
54169.349005,15.768,0.045
54169.359886,15.857,0.048
54169.370782,15.889,0.046
54205.269102,15.692,0.031
54205.278389,15.695,0.03
54205.287651,15.723,0.03
54205.297496,15.739,0.031
54205.307254,15.771,0.031
54560.247413,15.963,0.02
54560.259001,16.039,0.022
54560.270569,16.055,0.022
54560.282175,16.068,0.022
54560.29404,16.071,0.022
54581.239344,15.88,0.054
54581.249098,15.828,0.056
54581.258772,15.788,0.054
54581.268547,15.712,0.053
54581.278331,15.68,0.056
54594.249574,16.013,0.066
54594.259048,16.128,0.074
54594.268547,16.011,0.066
54594.278586,16.096,0.071
54594.28842,16.113,0.078
54612.207595,15.782,0.048
54612.216185,15.785,0.046
54612.22568,15.749,0.046
54612.2342,15.712,0.046
54612.24272,15.685,0.046
