mjd,m,merr
52639.452929,15.764,0.028
52639.467484,15.745,0.028
52639.482836,15.848,0.03
52639.497495,15.949,0.031
52639.512432,16.106,0.037
52650.427596,16.054,0.035
52650.441772,15.886,0.03
52650.455726,15.848,0.028
52650.469751,15.845,0.028
52650.483786,15.815,0.028
52665.391765,16.048,0.035
52665.406127,16.278,0.044
52665.42041,16.4,0.05
52665.434973,16.219,0.043
52665.449298,16.029,0.035
52666.488426,15.874,0.028
52666.502951,16.023,0.031
52666.517421,16.199,0.041
52677.388011,16.381,0.098
52677.402566,16.462,0.08
52677.416853,16.252,0.048
52677.431273,15.992,0.039
52677.445565,15.877,0.054
52680.424214,16.257,0.045
52680.439106,16.43,0.054
52680.453991,16.277,0.046
52680.468731,16.037,0.045
52680.484842,15.902,0.035
52697.399302,15.702,0.221
52706.371316,15.886,0.033
52706.38406,15.861,0.023
52706.384419,15.836,0.031
52706.397523,15.8,0.031
52706.410623,15.794,0.031
52706.424068,15.862,0.033
52712.312409,15.788,0.054
52712.325776,15.795,0.057
52712.338755,15.892,0.044
52712.351693,15.878,0.043
52712.364604,16.008,0.048
52724.301125,15.804,0.026
52724.312687,15.796,0.024
52724.33109,15.897,0.028
52724.34366,15.977,0.03
52724.355576,16.095,0.033
52753.254953,15.907,0.033
52753.267618,15.984,0.035
52753.284162,16.157,0.041
52753.296446,16.424,0.054
52753.309404,16.404,0.052
52770.212228,15.974,0.064
52770.224046,16.141,0.074
52770.235661,16.333,0.089
52770.247107,16.23,0.083
52770.258913,16.183,0.079
52787.217652,15.993,0.031
52787.228455,15.933,0.03
52787.239012,15.864,0.03
52787.249603,15.845,0.028
52787.260169,15.811,0.03
52797.216202,16.03,0.067
52797.226178,16.148,0.076
52797.236166,16.396,0.096
52797.246142,16.568,0.115
52797.256121,16.598,0.122
52811.176117,16.186,0.055
52811.186086,15.941,0.044
52811.195994,15.887,0.043
52811.205839,15.907,0.043
52811.215723,15.872,0.041
52825.19231,15.977,0.071
52825.212702,16.282,0.081
52991.50752,15.866,0.028
52991.520671,15.872,0.03
52991.534309,16.026,0.052
53024.405218,15.626,0.07
53024.41805,15.762,0.03
53024.456828,15.956,0.031
53034.402003,16.36,0.048
53034.414383,16.179,0.041
53034.426905,15.964,0.033
53034.439306,15.864,0.03
53034.451526,15.814,0.03
53050.334149,15.908,0.052
53050.34584,16.001,0.065
53050.357523,16.14,0.115
53050.369136,16.117,0.091
53050.38075,16.119,0.093
53065.381909,16.352,0.044
53078.330234,16.376,0.044
53078.340997,16.397,0.044
53078.351854,16.275,0.039
53093.281394,15.815,0.02
53093.29168,15.797,0.02
53093.301965,15.815,0.02
53093.312258,15.884,0.022
53093.322653,15.944,0.022
53109.246264,15.812,0.028
53109.257379,15.782,0.026
53109.268512,15.799,0.026
53109.279595,15.834,0.028
53109.290644,15.869,0.028
53110.238239,15.844,0.035
53110.249124,15.929,0.036
53110.25994,15.899,0.036
53110.270861,16.062,0.04
53110.281853,16.255,0.046
53111.237607,16.129,0.043
53111.249266,16.431,0.054
53111.261633,16.411,0.053
53111.272555,16.291,0.046
53111.287006,16.102,0.038
53112.239511,16.178,0.041
53112.250113,15.998,0.031
53112.260683,15.905,0.03
53112.271249,15.869,0.026
53112.282068,15.877,0.033
53122.244342,15.935,0.03
53122.254705,16.121,0.036
53122.264962,16.179,0.038
53122.275225,16.393,0.046
53122.285541,16.373,0.045
53153.207638,15.846,0.036
53153.217802,15.867,0.038
53153.227289,15.879,0.038
53153.236279,15.932,0.041
53153.24478,15.967,0.043
53165.217231,15.775,0.076
53165.227228,15.886,0.035
53165.237231,15.949,0.039
53178.177182,15.957,0.031
53178.186609,16.013,0.033
53178.196658,16.21,0.04
53178.206076,16.375,0.046
53341.475354,15.818,0.064
53341.489153,15.844,0.063
53341.502159,15.925,0.066
53341.514694,16.157,0.078
53341.527239,16.454,0.099
53358.470307,16.429,0.057
53358.482948,16.465,0.055
53358.495579,16.23,0.044
53358.508214,15.952,0.033
53358.528297,15.827,0.031
53443.385282,15.845,0.035
53443.395932,15.782,0.043
53443.406563,15.82,0.111
53443.427811,15.881,0.057
53473.389227,16.198,0.046
53473.401174,16.029,0.043
53473.410987,15.936,0.037
53473.420869,15.859,0.037
53473.430482,15.884,0.039
53498.219168,16.009,0.091
53498.229803,15.878,0.08
53498.239926,15.883,0.054
53500.24413,16.051,0.037
53500.254873,15.92,0.033
53500.266244,15.873,0.031
53500.278016,15.812,0.03
53500.288235,15.807,0.03
53501.190595,16.178,0.044
53501.202381,15.991,0.037
53501.212704,15.965,0.035
53501.222742,15.832,0.031
53501.232693,15.826,0.031
53528.221219,15.919,0.043
53528.232481,15.854,0.043
53528.243544,15.768,0.039
53528.254367,15.799,0.039
53528.264684,15.787,0.039
53539.176236,16.035,0.087
53539.185763,16.135,0.096
53539.195294,16.439,0.128
53539.204807,16.382,0.126
53539.214318,16.52,0.142
53550.177807,15.904,0.039
53550.197582,16.022,0.052
53550.207466,16.121,0.05
53570.164592,15.846,0.074
53570.175218,15.944,0.083
53570.185816,16.142,0.1
53570.196426,16.415,0.137
53570.20703,16.438,0.15
53714.462535,15.873,0.035
53714.475405,15.959,0.035
53714.488336,16.108,0.039
53714.501034,16.372,0.044
53740.469347,15.807,0.028
53740.482237,15.791,0.028
53740.495189,15.821,0.028
53740.507947,15.913,0.03
53740.52076,15.962,0.031
53771.466008,15.69,0.076
53786.344337,15.953,0.054
53786.368215,15.958,0.059
53786.380254,15.984,0.039
53813.361849,15.844,0.05
53813.372886,15.913,0.054
53813.383888,15.93,0.054
53813.394907,15.978,0.057
53813.405934,16.327,0.08
53823.253999,15.887,0.03
53823.264964,15.887,0.03
53823.27577,15.893,0.03
53823.286825,15.967,0.031
53823.297752,16.077,0.035
53844.239137,16.218,0.061
53844.249448,16.343,0.057
53844.259669,16.474,0.065
53844.269894,16.466,0.061
53844.280127,16.309,0.052
53853.245392,15.909,0.048
53853.25579,15.835,0.043
53853.266078,15.896,0.045
53853.276393,15.794,0.041
53853.286848,15.8,0.04
53854.186104,16.323,0.061
53854.190481,16.07,0.043
53854.196409,16.138,0.056
53854.206768,15.93,0.051
53854.216576,15.836,0.033
53854.217044,15.957,0.043
53854.227254,15.892,0.04
53854.227435,15.821,0.031
53854.240817,15.71,0.031
53883.224987,16.124,0.061
53883.255884,16.511,0.086
53887.225293,16.089,0.063
53887.235925,16.316,0.076
53887.246581,16.42,0.083
53887.257293,16.42,0.081
53887.268005,16.184,0.065
53902.175973,15.737,0.048
53902.210174,15.787,0.048
53902.223041,15.934,0.079
53915.185151,15.957,0.059
53931.171435,15.955,0.068
53931.192039,16.319,0.101
53931.202159,16.194,0.094
53931.212211,16.2,0.104
54084.460836,16.245,0.101
54084.473752,16.1,0.066
54084.486609,16.092,0.061
54084.499537,15.9,0.051
54084.512365,15.847,0.051
54098.426334,15.782,0.03
54098.438447,15.837,0.03
54098.453627,15.87,0.031
54098.46699,15.932,0.031
54098.479205,16.017,0.035
54110.400388,15.887,0.078
54110.413099,15.915,0.073
54110.425894,15.864,0.071
54110.438561,15.939,0.074
54121.391551,16.061,0.035
54121.403762,15.93,0.033
54121.415961,15.9,0.031
54121.428159,15.838,0.031
54121.440349,15.856,0.031
54155.355457,16.012,0.04
54155.366971,16.108,0.043
54155.378764,16.295,0.049
54155.390522,16.479,0.059
54155.403077,16.471,0.061
54206.270399,15.907,0.035
54206.289155,15.89,0.035
54206.298456,15.912,0.036
54206.307814,15.937,0.036
54529.265662,15.915,0.041
54529.277595,15.904,0.04
54529.288929,15.982,0.043
54529.300367,16.181,0.049
54529.311472,16.289,0.054
54562.174427,15.848,0.064
54562.18583,15.912,0.064
54574.28513,15.883,0.065
54582.247489,16.135,0.039
54582.257832,16.024,0.035
54582.268241,15.945,0.031
54582.278575,15.883,0.03
54582.28896,15.854,0.03
54613.205928,16.296,0.046
54613.215768,16.485,0.057
54613.225786,16.462,0.048
54613.235844,16.443,0.048
54613.245662,16.28,0.109
