mjd,m,merr
52644.492986,14.973,0.015
52644.508015,15.022,0.018
52644.522743,14.99,0.02
52644.538045,14.958,0.017
52648.403976,14.967,0.018
52648.418946,14.938,0.018
52648.433886,14.896,0.017
52648.44902,14.98,0.015
52648.464419,14.952,0.015
52667.471864,14.919,0.015
52667.487139,14.931,0.015
52667.502343,15.011,0.015
52667.517722,15.021,0.015
52667.532949,15.034,0.015
52671.467525,15.087,0.017
52671.483142,15.238,0.017
52671.498667,15.27,0.017
52671.514054,15.293,0.018
52674.461286,15.114,0.015
52674.475858,15.094,0.015
52674.490863,15.032,0.015
52703.45399,15.1,0.033
52703.480611,15.141,0.02
52703.495893,15.195,0.021
52707.373139,15.094,0.016
52707.386327,15.108,0.018
52707.399422,15.191,0.018
52707.412509,15.187,0.018
52707.426658,15.221,0.02
52730.303088,15.117,0.018
52730.315103,15.074,0.016
52730.32712,15.122,0.016
52730.339143,15.133,0.018
52730.351934,15.189,0.018
52737.317799,15.032,0.013
52737.333474,14.966,0.013
52737.345458,14.955,0.011
52737.357318,14.964,0.013
52737.369656,14.975,0.013
52756.258373,15.312,0.023
52756.270466,15.304,0.023
52756.282802,15.26,0.023
52756.294891,15.244,0.021
52756.307014,15.192,0.021
52761.261057,15.128,0.015
52761.272781,15.044,0.015
52761.284556,15.025,0.015
52761.29628,14.994,0.015
52761.308091,14.964,0.015
52764.26197,15.214,0.018
52764.274016,15.257,0.02
52764.285965,15.304,0.02
52764.298049,15.304,0.02
52764.309949,15.344,0.021
52789.21846,15.258,0.018
52789.229094,15.401,0.02
52789.239931,15.31,0.02
52789.250696,15.349,0.02
52791.232468,15.321,0.078
52794.227021,15.242,0.02
52794.237187,15.305,0.022
52794.247159,15.306,0.022
52794.257259,15.313,0.022
52816.173838,15.331,0.03
52816.183888,15.339,0.031
52816.193975,15.323,0.031
52816.204254,15.293,0.031
52816.214411,15.313,0.036
52823.183346,15.207,0.03
52823.193427,15.25,0.026
52823.203436,15.295,0.03
52996.469988,15.106,0.015
52996.482946,15.21,0.015
52996.495963,15.153,0.013
52996.509032,15.103,0.013
52996.522003,15.203,0.013
53001.49896,15.025,0.011
53001.512922,15.075,0.011
53028.429814,14.98,0.01
53028.4427,14.936,0.01
53028.457482,14.924,0.012
53028.470365,14.895,0.008
53028.475435,14.888,0.018
53028.488664,14.929,0.022
53028.489957,14.921,0.012
53033.399369,14.959,0.015
53033.411485,14.928,0.015
53033.423933,14.977,0.015
53033.436027,14.961,0.015
53033.448193,15.086,0.015
53054.432592,15.214,0.015
53054.445984,15.164,0.015
53054.461468,15.057,0.015
53054.474054,15.036,0.015
53054.486475,14.986,0.013
53060.364018,15.114,0.011
53060.375225,14.999,0.011
53060.387034,15.052,0.011
53060.39832,14.975,0.011
53060.409592,14.935,0.011
53080.340736,15.014,0.013
53080.351734,15.018,0.013
53080.363351,15.018,0.013
53080.374848,15.04,0.013
53080.386297,15.123,0.013
53084.342716,15.013,0.011
53084.353343,15.166,0.011
53084.364139,15.089,0.011
53084.374835,15.028,0.011
53084.385705,14.974,0.011
53087.370761,14.848,0.009
53087.381311,14.917,0.011
53139.207559,15.033,0.015
53139.216862,15.047,0.015
53139.226163,15.015,0.015
53139.23562,14.978,0.015
53139.244931,14.994,0.015
53148.206619,15.148,0.017
53148.215569,15.146,0.017
53148.224524,15.185,0.018
53148.233507,15.162,0.018
53148.242461,15.152,0.015
53169.17715,15.081,0.017
53169.187269,15.035,0.017
53169.197366,15.047,0.017
53169.20747,15.029,0.015
53169.217581,15.007,0.015
53175.177078,15.031,0.011
53175.18706,15.067,0.018
53175.197102,15.027,0.011
53175.207023,14.919,0.011
53175.21695,15.059,0.013
53354.461235,14.995,0.018
53354.474011,15.022,0.018
53354.488153,15.01,0.017
53354.500981,15.032,0.017
53354.513942,15.043,0.017
53377.473391,15.103,0.017
53377.486337,15.107,0.017
53377.499284,15.139,0.017
53377.512239,15.197,0.017
53377.525191,15.257,0.017
53404.442728,15.294,0.03
53404.455726,15.29,0.028
53404.468685,15.286,0.03
53404.48167,15.277,0.025
53404.494714,15.267,0.023
53440.477044,15.13,0.018
53440.487559,15.088,0.018
53440.498711,15.037,0.018
53465.340304,15.19,0.017
53465.350474,15.227,0.017
53465.363095,15.248,0.017
53465.373924,15.284,0.017
53465.384682,15.285,0.017
53468.282098,15.268,0.037
53468.291649,15.285,0.03
53473.282641,15.298,0.02
53473.293382,15.267,0.018
53473.304469,15.186,0.018
53473.315884,15.168,0.018
53473.326976,15.171,0.017
53475.315712,15.317,0.022
53475.325606,15.324,0.02
53475.335428,15.335,0.022
53475.345245,15.351,0.022
53475.356097,15.385,0.022
53478.365115,14.997,0.024
53478.374725,15.015,0.024
53478.383742,14.997,0.024
53478.392795,15.01,0.022
53478.401808,15.075,0.022
53479.285347,15.239,0.035
53479.298234,15.189,0.033
53479.308246,15.151,0.031
53479.318459,15.214,0.031
53479.327956,15.148,0.03
53493.300606,15.288,0.024
53493.310942,15.356,0.026
53493.321666,15.331,0.024
53493.331728,15.327,0.024
53493.341895,15.294,0.022
53496.24792,15.158,0.02
53496.258054,15.096,0.018
53496.268145,15.03,0.018
53496.278165,15.056,0.018
53496.288307,15.003,0.017
53526.239765,15.174,0.02
53526.250113,15.109,0.02
53526.260494,15.082,0.02
53527.172957,15.292,0.022
53527.183184,15.297,0.022
53527.19308,15.318,0.022
53527.20285,15.273,0.024
53527.212669,15.287,0.024
53556.171037,15.24,0.022
53556.181553,15.229,0.022
53556.192168,15.205,0.02
53556.203005,15.175,0.022
53556.213515,15.169,0.022
53746.467025,15.059,0.024
53746.479635,15.036,0.022
53746.492137,14.979,0.018
53746.504602,15.04,0.017
53746.517122,14.978,0.015
53791.411019,15.13,0.015
53791.422946,15.146,0.015
53791.434809,15.185,0.015
53791.44667,15.222,0.018
53791.458609,15.272,0.018
53815.343702,15.043,0.02
53815.354837,14.97,0.018
53815.365985,15.057,0.02
53815.377161,15.071,0.02
53815.388318,15.091,0.022
53817.321159,15.316,0.018
53817.332771,15.303,0.018
53817.344233,15.238,0.016
53817.356011,15.204,0.016
53846.243774,15.207,0.02
53846.254361,15.174,0.02
53846.264928,15.159,0.02
53846.275689,15.154,0.018
53846.286193,15.066,0.018
53850.248132,15.098,0.018
53850.258399,15.121,0.018
53850.268719,15.126,0.02
53850.279108,15.126,0.018
53850.289464,15.164,0.02
53881.213855,15.253,0.021
53881.223845,15.248,0.021
53881.233978,15.219,0.021
53881.244116,15.174,0.021
53881.254108,15.129,0.02
53884.219773,15.092,0.02
53884.231357,15.177,0.022
53884.242924,15.184,0.022
53884.254508,15.253,0.024
53884.266102,15.27,0.024
53886.210526,15.007,0.021
53886.220527,15.008,0.02
53886.230615,15.012,0.021
53886.240823,14.979,0.021
53886.25084,14.991,0.021
53901.183328,15.211,0.046
53901.193327,15.205,0.037
53901.203345,15.232,0.033
53901.213385,15.242,0.037
53910.169767,15.13,0.02
53910.180033,15.115,0.02
53910.190287,15.099,0.02
53910.200529,15.04,0.018
53910.210742,15.089,0.026
53914.174202,15.193,0.037
53914.184651,15.227,0.033
54155.360731,15.247,0.015
54155.372565,15.223,0.015
54155.384412,15.181,0.013
54155.396369,15.15,0.013
54155.408213,15.067,0.013
54156.378326,15.263,0.015
54156.389874,15.266,0.013
54156.408016,15.222,0.011
54156.419899,15.207,0.011
54156.431455,15.188,0.011
54174.325584,15.318,0.023
54174.336236,15.303,0.025
54174.346982,15.312,0.021
54174.357809,15.34,0.023
54174.368512,15.367,0.021
54180.331259,15.317,0.018
54180.34164,15.328,0.018
54180.351952,15.323,0.018
54180.362345,15.326,0.018
54180.372934,15.302,0.018
54200.287088,15.084,0.021
54200.306001,15.088,0.031
54475.45732,14.97,0.011
54475.470399,14.969,0.011
54475.483301,14.929,0.009
54475.496174,14.918,0.009
54475.509353,14.885,0.011
54483.432209,15.089,0.018
54483.44512,15.113,0.017
54483.458024,15.15,0.017
54509.39278,14.851,0.009
54509.404884,14.904,0.009
54509.416977,14.89,0.009
54509.429044,14.9,0.009
54509.441132,14.907,0.009
54524.447788,15.079,0.015
54524.47089,14.908,0.015
54532.33742,14.816,0.009
54532.348775,14.838,0.009
54532.3601,14.831,0.009
54532.371356,14.806,0.009
54532.382599,14.871,0.009
54538.36176,14.978,0.009
54538.372942,15.026,0.009
54538.383959,15.038,0.009
54538.394887,15.052,0.011
54538.405928,14.957,0.011
54543.277165,14.885,0.018
54543.28806,15.023,0.018
54543.299011,14.875,0.018
54543.309891,14.968,0.017
54543.320759,15.045,0.018
54555.356571,15.021,0.009
54555.368423,15.071,0.009
54555.380275,15.114,0.011
54555.392147,15.093,0.011
54555.403988,15.109,0.013
54568.301587,15.041,0.021
54568.312744,15.048,0.021
54568.323769,15.051,0.021
54568.33475,15.125,0.023
54568.345554,15.124,0.023
54580.249077,15.022,0.018
54580.259674,15.093,0.018
54580.270276,15.056,0.018
54580.280875,14.974,0.018
54580.291544,14.981,0.017
54581.242961,15.227,0.018
54581.253537,15.265,0.02
54581.264085,15.229,0.02
54581.27474,15.22,0.022
54581.285291,15.144,0.024
54586.246823,14.977,0.015
54586.257242,14.945,0.013
54586.267574,14.965,0.013
54586.277981,14.935,0.013
54586.288321,14.906,0.013
54590.24373,15.177,0.03
54590.253412,15.185,0.03
54590.26362,15.221,0.045
54590.273823,15.244,0.079
54590.284321,15.29,0.045
54594.256643,15.294,0.018
54594.266917,15.284,0.018
54594.277226,15.228,0.018
54594.287495,15.295,0.018
54594.297784,15.337,0.018
54611.212245,15.241,0.015
54611.222125,15.211,0.015
54611.231988,15.193,0.015
54611.241985,15.177,0.013
54611.251763,15.136,0.013
54618.211807,15.197,0.015
54618.222031,15.219,0.015
54618.232243,15.209,0.015
54618.242466,15.262,0.017
54618.252721,15.318,0.017
