mjd,m,merr
52650.469552,15.787,0.03
52650.484471,15.795,0.03
52650.499293,15.817,0.028
52650.513956,15.841,0.03
52666.460205,15.826,0.028
52666.474657,15.825,0.03
52666.489118,15.87,0.03
52666.503645,15.907,0.03
52666.518115,15.91,0.031
52697.410766,16.166,0.059
52697.441782,16.154,0.093
52706.365709,16.148,0.035
52706.378589,16.214,0.037
52706.391555,16.225,0.039
52706.404682,16.21,0.039
52706.417702,16.237,0.043
52711.315778,15.832,0.033
52711.329888,15.852,0.033
52711.344389,15.878,0.033
52711.358462,15.838,0.033
52711.372453,15.896,0.033
52724.309507,15.871,0.03
52724.322106,15.887,0.031
52724.334796,15.931,0.031
52724.34708,15.914,0.031
52724.359244,15.922,0.033
52739.249308,16.073,0.041
52739.260721,16.039,0.039
52739.27211,16.064,0.039
52739.283593,16.063,0.041
52739.294996,16.112,0.041
52753.261029,15.921,0.038
52753.274139,15.897,0.038
52753.287201,15.929,0.038
52753.301228,15.97,0.041
52753.31382,15.989,0.041
52770.213566,15.943,0.054
52770.226001,15.901,0.05
52770.238118,15.861,0.048
52770.250257,15.835,0.05
52770.262124,15.734,0.044
52797.216649,16.138,0.068
52797.226623,16.264,0.08
52797.23661,16.21,0.08
52797.246585,16.241,0.081
52797.25657,16.192,0.081
52811.17731,15.929,0.044
52811.187254,15.994,0.046
52811.19716,16.011,0.046
52811.206998,15.992,0.044
52811.21689,16.022,0.046
52825.192451,15.766,0.052
52825.202377,15.778,0.044
52825.212327,15.798,0.046
52997.504093,15.743,0.117
53006.395114,15.747,0.04
53006.407445,15.762,0.036
53006.419788,15.821,0.036
53006.432137,15.795,0.036
53006.445656,15.813,0.035
53034.395538,16.115,0.043
53034.407376,16.129,0.043
53034.419223,16.121,0.045
53034.431143,16.106,0.043
53034.443156,16.135,0.043
53051.387265,15.868,0.026
53051.398868,15.919,0.026
53051.410545,15.887,0.026
53051.422227,15.948,0.03
53051.433866,15.931,0.026
53065.336642,16.227,0.041
53065.348279,16.109,0.037
53065.359625,16.002,0.033
53065.370947,15.899,0.031
53065.382441,15.871,0.028
53078.412373,15.766,0.041
53093.278189,15.888,0.025
53093.288066,15.913,0.025
53093.298171,15.942,0.025
53093.309202,15.936,0.025
53093.319113,15.919,0.023
53109.241834,15.936,0.035
53109.256249,15.954,0.036
53109.268161,15.966,0.036
53109.278889,15.977,0.036
53109.297683,16.002,0.036
53121.250117,16.114,0.031
53121.260904,16.09,0.031
53121.271555,16.113,0.03
53121.28221,16.094,0.03
53121.292884,16.084,0.03
53137.2512,16.178,0.045
53137.261233,16.185,0.045
53137.271049,16.199,0.045
53137.280983,16.168,0.048
53150.208746,16.18,0.081
53150.226315,16.116,0.065
53165.233084,15.806,0.041
53165.242891,15.796,0.051
53165.255383,15.899,0.071
53165.265219,15.846,0.041
53165.275031,15.852,0.043
53177.178065,15.96,0.033
53177.217847,16.028,0.044
53449.272416,15.708,0.128
53449.282859,15.906,0.046
53449.293328,16.008,0.05
53449.304282,15.959,0.048
53449.314779,15.962,0.043
53501.247726,15.973,0.039
53501.2626,15.997,0.039
53501.277772,16.049,0.041
53501.289931,16.005,0.041
53501.300129,16.067,0.043
53529.209784,16.176,0.052
53529.221525,16.135,0.052
53529.232861,16.166,0.054
53529.244282,16.202,0.057
53529.255189,16.217,0.061
53540.187013,15.899,0.115
53540.196808,15.891,0.105
53540.206512,15.958,0.109
53540.216208,15.887,0.102
53550.17818,15.958,0.041
53550.197953,15.966,0.052
53550.207837,15.961,0.044
53550.217721,15.989,0.046
53739.478173,16.058,0.037
53739.491802,15.926,0.03
53739.504703,15.857,0.028
53739.51761,15.811,0.026
53739.530725,15.747,0.024
53770.417983,15.956,0.035
53770.430823,16.014,0.037
53770.445144,16.019,0.035
53770.46255,15.981,0.035
53770.476679,16.012,0.033
53787.410554,15.855,0.073
53787.423446,15.824,0.03
53813.362458,15.768,0.048
53813.373494,15.761,0.048
53813.384496,15.773,0.05
53813.39552,15.816,0.052
53813.406547,15.864,0.054
53844.247132,16.06,0.035
53844.258236,16.083,0.036
53844.269185,16.032,0.035
53844.280134,16.118,0.035
53844.291408,16.116,0.035
53853.245873,16.19,0.059
53853.25627,16.114,0.051
53853.266559,16.128,0.053
53853.276871,16.204,0.058
53853.287328,16.165,0.054
53883.215131,16.03,0.045
53883.225425,16.076,0.046
53883.23572,16.092,0.045
53883.246004,16.08,0.045
53883.25632,16.091,0.046
53887.225771,15.904,0.054
53887.236407,15.875,0.052
53887.247068,15.919,0.054
53887.257777,15.91,0.054
53887.268493,15.943,0.054
53902.176395,16.115,0.063
53915.175699,16.142,0.069
53915.185571,16.177,0.074
53915.196938,16.21,0.074
53931.1668,16.1,0.063
53931.187676,16.15,0.076
53931.198082,16.075,0.074
53931.208446,16.102,0.08
54084.461409,16.047,0.087
54084.474324,16.088,0.069
54084.487184,15.982,0.059
54084.50011,16.045,0.063
54084.512941,16.031,0.063
54098.426862,15.796,0.033
54098.438976,15.697,0.028
54098.467518,15.686,0.028
54098.479734,15.766,0.028
54110.400987,15.982,0.092
54110.413668,15.983,0.089
54110.426468,15.956,0.089
54110.439148,16.017,0.086
54121.392118,16.119,0.035
54121.404329,15.983,0.031
54121.416522,15.901,0.03
54121.428719,15.878,0.031
54121.440907,15.826,0.028
54154.339915,16.223,0.046
54154.351331,16.145,0.043
54154.362748,16.208,0.046
54154.374206,16.2,0.045
54154.385715,16.273,0.048
54169.328147,15.808,0.041
54169.339107,15.821,0.041
54169.35007,15.878,0.045
54169.360934,15.858,0.045
54169.371832,15.871,0.043
54205.270056,15.791,0.035
54205.279342,15.793,0.031
54205.288612,15.805,0.031
54205.298446,15.782,0.033
54205.308207,15.783,0.033
54560.248674,15.961,0.02
54560.260249,15.959,0.02
54560.271816,15.997,0.02
54560.283419,16.015,0.02
54560.295286,16.031,0.022
54594.250467,15.883,0.063
54594.260013,15.846,0.061
54594.269438,15.792,0.059
54594.279477,15.76,0.058
54594.289313,15.741,0.058
54612.208444,15.993,0.058
54612.217024,16.109,0.063
54612.226516,16.05,0.061
54612.235034,16.152,0.066
54612.243557,16.081,0.064
