mjd,m,merr
52639.453666,16.025,0.037
52639.468229,16.015,0.035
52639.483579,15.679,0.026
52639.498239,15.218,0.017
52639.51317,14.964,0.013
52650.428637,15.918,0.031
52650.442721,15.944,0.031
52650.456678,15.901,0.03
52650.470702,15.911,0.03
52650.484737,15.905,0.028
52665.392133,15.861,0.031
52665.406493,15.892,0.033
52665.420775,15.884,0.03
52665.435339,15.893,0.031
52665.449664,15.881,0.03
52677.388377,15.632,0.039
52677.402931,15.643,0.037
52677.417218,15.708,0.028
52677.431637,15.705,0.03
52677.44593,15.778,0.048
52680.425605,15.904,0.031
52680.44037,15.896,0.035
52680.455257,15.889,0.033
52680.486109,15.882,0.033
52697.400255,15.942,0.079
52697.413615,16.061,0.114
52697.413729,15.945,0.127
52706.372155,15.503,0.023
52706.384655,15.47,0.016
52706.385257,15.544,0.025
52706.397759,15.493,0.018
52706.398365,15.608,0.026
52706.411464,15.62,0.026
52706.424906,15.671,0.028
52712.313061,15.788,0.063
52712.326427,15.863,0.087
52712.339407,15.848,0.043
52712.352346,15.855,0.041
52712.365254,15.914,0.043
52724.301481,15.621,0.02
52724.313044,15.62,0.02
52724.331447,15.697,0.022
52724.344013,15.721,0.022
52724.355933,15.752,0.024
52753.255632,15.367,0.02
52753.268295,15.439,0.022
52753.284837,15.482,0.022
52753.297122,15.516,0.024
52753.31008,15.578,0.024
52770.214007,15.501,0.035
52770.226388,15.538,0.035
52770.238467,15.579,0.037
52770.25059,15.587,0.039
52770.262514,15.627,0.039
52771.21797,15.575,0.058
52771.230156,15.588,0.053
52771.242771,15.606,0.053
52771.254208,15.642,0.058
52787.217868,15.677,0.024
52787.228671,15.721,0.024
52787.239232,15.746,0.024
52787.249822,15.781,0.026
52787.26039,15.843,0.028
52797.216384,15.047,0.024
52797.226358,15.103,0.028
52797.236346,15.189,0.03
52797.246322,15.245,0.033
52797.256305,15.285,0.033
52811.176849,16.024,0.048
52811.18681,15.897,0.041
52811.196716,15.599,0.031
52811.206549,15.314,0.024
52811.216441,15.057,0.02
52825.192634,16.039,0.078
52825.202741,16.072,0.068
52825.212972,15.975,0.061
52992.48272,15.745,0.028
52992.522996,15.807,0.031
53034.402655,15.71,0.028
53034.415017,15.768,0.028
53034.42754,15.801,0.03
53034.439941,15.839,0.03
53034.452219,15.85,0.03
53035.469402,15.989,0.03
53035.482179,16.028,0.031
53035.494794,15.995,0.03
53035.507513,15.984,0.03
53035.520868,16.045,0.03
53050.334358,15.705,0.043
53050.346049,15.675,0.05
53050.357732,15.768,0.072
53050.369345,15.761,0.063
53050.380959,15.761,0.061
53065.336243,15.687,0.024
53065.34788,15.694,0.024
53065.359226,15.743,0.028
53065.370548,15.788,0.028
53065.382041,15.815,0.03
53078.330432,15.501,0.02
53078.341194,15.549,0.02
53078.352051,15.573,0.02
53093.282041,15.297,0.013
53093.292329,15.35,0.015
53093.302612,15.394,0.015
53093.312906,15.425,0.015
53093.3233,15.462,0.015
53095.325258,15.54,0.03
53095.335417,15.555,0.03
53095.34553,15.624,0.031
53095.355637,15.628,0.031
53095.365886,15.662,0.031
53109.247006,15.32,0.018
53109.258121,15.404,0.018
53109.269254,15.456,0.02
53109.280338,15.477,0.02
53109.291387,15.517,0.02
53122.244642,15.004,0.013
53122.255004,15.044,0.015
53122.265261,15.104,0.015
53122.275524,15.157,0.015
53122.28584,15.208,0.016
53137.245572,15.017,0.015
53137.255366,15.118,0.017
53137.265218,15.11,0.017
53137.275033,15.215,0.018
53137.284852,15.247,0.02
53153.207912,15.007,0.016
53153.218076,15.071,0.018
53153.227562,15.118,0.02
53153.236554,15.156,0.02
53153.245054,15.228,0.023
53165.227921,16.052,0.039
53165.237922,16.077,0.087
53165.258022,15.709,0.031
53178.177421,15.881,0.028
53178.18735,15.845,0.028
53178.196897,15.859,0.03
53178.206314,15.893,0.03
53178.215783,15.933,0.045
53449.283219,15.339,0.026
53449.293688,15.369,0.028
53449.304642,15.431,0.03
53449.31514,15.466,0.026
53473.390025,15.075,0.017
53473.401973,15.003,0.017
53473.412049,15.021,0.017
53473.421669,15.094,0.018
53473.431285,15.141,0.02
53498.196417,15.71,0.159
53498.219067,15.726,0.065
53498.229701,15.626,0.055
53498.239827,15.671,0.039
53500.244443,15.843,0.03
53500.255171,15.85,0.031
53500.266556,15.876,0.031
53500.278314,15.891,0.031
53500.288536,15.893,0.031
53528.221501,15.672,0.035
53528.232762,15.654,0.035
53528.243827,15.746,0.037
53528.254666,15.746,0.037
53528.265031,15.763,0.039
53539.176884,15.058,0.037
53539.186412,15.002,0.033
53539.195937,15.026,0.035
53539.205456,15.058,0.037
53539.214965,15.163,0.043
53550.177899,15.941,0.039
53550.197673,15.875,0.078
53550.207558,15.896,0.041
53550.21744,15.937,0.044
53714.463107,15.686,0.031
53714.475977,15.725,0.031
53714.488906,15.72,0.028
53714.501607,15.772,0.028
53714.514501,15.775,0.026
53740.469916,15.342,0.018
53740.482806,15.411,0.02
53740.49576,15.438,0.02
53740.508573,15.483,0.02
53740.521567,15.525,0.022
53770.417576,15.109,0.017
53770.430398,15.167,0.017
53770.444735,15.268,0.017
53770.462137,15.335,0.018
53770.476269,15.416,0.02
53787.372307,15.253,0.028
53787.411018,15.438,0.04
53787.423909,15.493,0.021
53813.362092,15.987,0.057
53813.37313,15.981,0.057
53813.384131,16.023,0.059
53813.395154,15.876,0.052
53813.406181,15.632,0.043
53823.254264,15.617,0.023
53823.265226,15.62,0.023
53823.276031,15.677,0.023
53823.287086,15.708,0.025
53823.298012,15.739,0.025
53844.239351,15.941,0.048
53844.24966,15.929,0.039
53844.259879,15.915,0.037
53844.270112,15.907,0.037
53844.280343,15.898,0.035
53853.245582,15.616,0.035
53853.25598,15.631,0.035
53853.266267,15.648,0.035
53853.276581,15.686,0.036
53853.287037,15.707,0.036
53883.24626,15.624,0.035
53887.225477,15.905,0.052
53887.236112,15.819,0.048
53887.246769,15.878,0.05
53887.25748,15.903,0.05
53887.268193,15.851,0.046
53902.176141,15.822,0.049
53915.175446,15.608,0.043
53915.185318,15.737,0.049
53915.196684,15.675,0.046
53931.171955,15.679,0.051
53931.192558,15.754,0.059
53931.202676,15.75,0.059
53931.212729,15.787,0.066
54084.461064,15.663,0.059
54084.473978,15.671,0.046
54084.486836,15.741,0.045
54084.499764,15.771,0.048
54084.512594,15.805,0.049
54098.426542,15.445,0.022
54098.438656,15.471,0.022
54098.453836,15.495,0.022
54098.4672,15.535,0.022
54098.479414,15.589,0.024
54110.400628,15.705,0.066
54110.413323,15.24,0.043
54110.426118,15.029,0.035
54110.438798,15.053,0.033
54110.451707,15.109,0.048
54121.391774,15.896,0.031
54121.403986,15.889,0.033
54121.416182,15.935,0.033
54121.42838,15.911,0.033
54121.44057,15.924,0.033
54155.355756,16.046,0.04
54155.367272,15.951,0.036
54155.379063,15.733,0.03
54155.390822,15.319,0.021
54155.403376,15.023,0.016
54206.270867,15.351,0.021
54206.280275,15.401,0.021
54206.289622,15.429,0.023
54206.298928,15.447,0.023
54206.308286,15.498,0.025
54529.266842,15.896,0.04
54529.278776,15.507,0.03
54529.290111,15.237,0.025
54529.301548,14.983,0.02
54529.312654,14.993,0.02
54562.162863,15.72,0.056
54562.175053,15.315,0.041
54562.186571,15.024,0.033
54574.2855,14.949,0.031
54582.247738,15.794,0.028
54582.258079,15.793,0.028
54582.268493,15.835,0.03
54582.278827,15.841,0.028
54582.289209,15.861,0.03
54613.206134,15.801,0.026
54613.215974,15.777,0.03
54613.225991,15.82,0.028
54613.236047,15.851,0.03
54613.24587,15.881,0.05
