mjd,m,merr
52623.473969,14.684,0.02
52623.489862,14.667,0.022
52623.505759,14.69,0.017
52623.521634,14.672,0.026
52652.455056,14.126,0.007
52652.470186,14.151,0.007
52652.485501,14.214,0.007
52652.503612,14.274,0.007
52652.518558,14.328,0.007
52664.356891,14.517,0.011
52664.372132,14.549,0.015
52664.417972,14.598,0.031
52722.302185,14.339,0.01
52722.314207,14.376,0.01
52722.314322,14.583,0.013
52722.326316,14.392,0.01
52722.326432,14.593,0.013
52722.338327,14.41,0.01
52722.350339,14.433,0.01
52723.321093,14.334,0.024
52723.333165,14.238,0.015
52751.255354,14.671,0.013
52751.266127,14.676,0.013
52751.27686,14.674,0.013
52751.288254,14.687,0.013
52751.298995,14.709,0.013
52772.249249,14.572,0.026
52772.261111,14.584,0.024
52800.216718,14.216,0.018
52800.227094,14.251,0.02
52800.237246,14.265,0.02
52800.257513,14.327,0.028
52810.179353,14.212,0.009
52810.189296,14.242,0.013
52810.219235,14.31,0.009
52812.222613,14.646,0.013
52812.232697,14.655,0.013
52812.242684,14.653,0.013
52812.252919,14.695,0.013
52812.262893,14.663,0.013
52826.171852,14.544,0.015
52826.181702,14.565,0.015
52826.191773,14.556,0.015
52826.20169,14.594,0.017
52826.211552,14.604,0.017
52976.463953,14.766,0.013
52976.477278,14.797,0.013
52976.490758,14.841,0.013
52976.503783,14.84,0.013
52976.516888,14.809,0.011
52990.464944,14.693,0.013
52990.478324,14.723,0.011
52990.491351,14.724,0.011
52990.504553,14.734,0.013
52990.517583,14.753,0.013
53023.404631,14.794,0.009
53023.417459,14.757,0.009
53023.430139,14.681,0.009
53023.442827,14.585,0.007
53023.455529,14.466,0.007
53035.451692,14.565,0.01
53035.464001,14.595,0.01
53046.405037,14.266,0.009
53046.417484,14.307,0.009
53046.429504,14.326,0.011
53046.441412,14.389,0.011
53046.453988,14.397,0.011
53107.294911,14.314,0.007
53107.328254,14.226,0.007
53127.246118,14.291,0.02
53127.256178,14.23,0.018
53127.26614,14.164,0.015
53127.276099,14.182,0.013
53127.286131,14.222,0.015
53136.242949,14.52,0.011
53136.252319,14.551,0.011
53136.26179,14.55,0.011
53136.271058,14.559,0.011
53136.280325,14.589,0.011
53154.211819,14.173,0.011
53154.220579,14.152,0.011
53154.22947,14.171,0.011
53154.238255,14.216,0.011
53154.24717,14.217,0.011
53164.219301,14.219,0.007
53164.229475,14.234,0.007
53164.239706,14.267,0.009
53164.249886,14.307,0.009
53164.260068,14.315,0.009
53341.473301,14.625,0.02
53341.485372,14.591,0.018
53341.497452,14.623,0.018
53341.510034,14.647,0.018
53341.52211,14.646,0.018
53358.470986,14.58,0.012
53358.485461,14.599,0.012
53358.499986,14.634,0.012
53358.514507,14.614,0.012
53358.529011,14.61,0.012
53422.344794,14.6,0.02
53422.356778,14.613,0.018
53422.368758,14.594,0.017
53442.260392,14.569,0.009
53442.271707,14.578,0.009
53442.28301,14.592,0.009
53442.295448,14.603,0.009
53442.306774,14.614,0.009
53443.431433,14.563,0.015
53443.442214,14.552,0.024
53443.464149,14.604,0.011
53443.474942,14.62,0.011
53450.339081,14.356,0.013
53450.349867,14.393,0.011
53450.361116,14.401,0.011
53450.372281,14.443,0.011
53496.193746,14.576,0.011
53496.204064,14.58,0.011
53496.214261,14.599,0.011
53496.22458,14.605,0.011
53496.234841,14.623,0.011
53537.2587,14.614,0.028
53553.175704,14.671,0.015
53553.186212,14.695,0.015
53553.196922,14.679,0.015
53553.207452,14.698,0.015
53553.218066,14.693,0.015
53566.2085,14.718,0.024
53728.465902,14.664,0.013
53728.479407,14.642,0.015
53728.493152,14.668,0.013
53728.506504,14.666,0.015
53728.519791,14.672,0.015
53772.411606,14.684,0.013
53772.42428,14.683,0.013
53772.437147,14.683,0.013
53772.450103,14.68,0.013
53772.462913,14.679,0.013
53825.28935,14.763,0.012
53825.300454,14.757,0.013
53825.312507,14.714,0.01
53825.323665,14.672,0.01
53825.334852,14.605,0.01
53842.251225,14.71,0.018
53842.262805,14.724,0.02
53842.27438,14.763,0.021
53842.286099,14.74,0.021
53842.297726,14.723,0.021
53855.244631,14.523,0.012
53855.254802,14.429,0.012
53855.265042,14.348,0.01
53855.275216,14.269,0.01
53855.285301,14.234,0.01
53878.238948,14.321,0.013
53878.249735,14.338,0.013
53878.260439,14.352,0.013
53878.271434,14.383,0.013
53878.283243,14.408,0.013
53892.214641,14.236,0.02
53892.224702,14.185,0.02
53892.234779,14.183,0.02
53892.24484,14.188,0.02
53892.254901,14.212,0.02
53903.179848,14.677,0.016
53903.200913,14.708,0.016
53903.21112,14.73,0.016
53903.230437,14.72,0.016
53932.189588,14.387,0.018
53932.203101,14.349,0.02
53932.213387,14.377,0.016
53944.190632,14.723,0.031
53944.201583,14.69,0.028
53944.212522,14.685,0.031
54070.462897,14.186,0.01
54070.476284,14.221,0.01
54070.489276,14.254,0.01
54070.502334,14.283,0.01
54070.515333,14.301,0.01
54086.432199,14.473,0.015
54086.445967,14.49,0.015
54086.459315,14.518,0.015
54086.472603,14.553,0.015
54086.487665,14.56,0.015
54109.382381,14.617,0.035
54109.394247,14.628,0.03
54109.406092,14.624,0.036
54109.429766,14.602,0.036
54140.39359,14.552,0.013
54140.405606,14.551,0.013
54140.417895,14.576,0.013
54140.430187,14.607,0.013
54140.442454,14.605,0.013
54187.283644,14.525,0.015
54187.29454,14.522,0.015
54187.305216,14.549,0.015
54200.28585,14.643,0.009
54200.31637,14.659,0.009
54210.263539,14.66,0.012
54210.272343,14.649,0.012
54210.281221,14.665,0.012
54210.290093,14.671,0.012
54210.298985,14.657,0.013
54218.26688,14.408,0.017
54218.275549,14.406,0.017
54218.28419,14.425,0.017
54218.292815,14.432,0.017
54218.301412,14.473,0.017
54481.396116,14.245,0.015
54481.408443,14.277,0.016
54481.432646,14.315,0.015
54481.445164,14.344,0.013
54509.384164,14.728,0.016
54509.396284,14.702,0.016
54509.408251,14.684,0.016
54509.420168,14.612,0.015
54509.432104,14.54,0.015
54527.340814,14.609,0.015
54527.352611,14.641,0.015
54536.323611,14.732,0.016
54536.334719,14.756,0.018
54536.345631,14.762,0.018
54536.356575,14.757,0.016
54536.367487,14.707,0.016
54560.301472,14.729,0.018
54560.313894,14.696,0.018
54560.325423,14.706,0.018
54560.336888,14.72,0.02
54560.348336,14.76,0.02
54584.244765,14.652,0.018
54584.254756,14.653,0.02
54584.265045,14.648,0.02
54584.275062,14.665,0.02
54584.28504,14.671,0.02
54615.216924,14.518,0.025
54615.227504,14.55,0.025
54615.237869,14.548,0.026
54615.248116,14.577,0.025
54615.258412,14.586,0.025
