mjd,m,merr
52653.459763,16.617,0.061
52653.475061,16.545,0.061
52653.490367,16.378,0.05
52653.505737,16.241,0.044
52653.521137,16.197,0.043
52660.400113,16.327,0.183
52722.351104,16.575,0.052
52722.364198,16.448,0.048
52722.376743,16.266,0.041
52722.389747,16.319,0.044
52722.402285,16.309,0.044
52723.31969,16.259,0.17
52723.332206,16.743,0.137
52724.291693,16.265,0.037
52724.303238,16.311,0.037
52724.314803,16.291,0.035
52724.333204,16.295,0.037
52724.345771,16.348,0.041
52751.26114,16.287,0.044
52751.271842,16.25,0.043
52751.283204,16.213,0.043
52751.294841,16.317,0.046
52751.307957,16.346,0.048
52772.26836,16.939,0.228
52772.291828,16.947,0.223
52782.216079,16.969,0.261
52801.235066,16.976,0.353
52809.178602,16.528,0.125
52809.188578,16.575,0.074
52809.208503,16.522,0.073
52809.218611,16.315,0.058
52827.171477,16.605,0.137
52830.170624,16.517,0.124
52830.180818,16.35,0.107
52830.190933,16.346,0.112
52830.210984,16.306,0.109
52977.46295,16.247,0.054
52977.485379,16.207,0.049
53008.408709,16.705,0.113
53008.421518,16.772,0.102
53008.434126,16.773,0.1
53008.446794,16.669,0.089
53008.459338,16.475,0.074
53038.400097,16.481,0.096
53038.412261,16.481,0.106
53038.424639,16.344,0.079
53038.43676,16.251,0.078
53038.448851,16.227,0.063
53045.353272,16.521,0.078
53045.377895,16.611,0.086
53045.389926,16.621,0.096
53096.27376,16.64,0.101
53096.283628,16.637,0.099
53096.303427,16.779,0.139
53096.313292,16.724,0.117
53125.244431,16.793,0.144
53125.254187,16.565,0.111
53125.263727,16.429,0.094
53125.273276,16.26,0.081
53125.283049,16.397,0.096
53134.240672,16.408,0.071
53134.249539,16.337,0.045
53134.267339,16.309,0.041
53134.276391,16.323,0.045
53155.215196,16.281,0.102
53155.223904,16.328,0.099
53155.232323,16.35,0.092
53155.240658,16.253,0.086
53155.249136,16.313,0.089
53163.255747,16.382,0.201
53169.218937,16.506,0.066
53169.228363,16.507,0.068
53169.2378,16.666,0.081
53169.24725,16.645,0.086
53169.256596,16.653,0.074
53193.17816,16.559,0.066
53193.187374,16.599,0.069
53193.196603,16.707,0.076
53214.156418,16.483,0.2
53340.467553,16.552,0.114
53340.483035,16.673,0.119
53340.500949,16.696,0.112
53340.513414,16.785,0.119
53358.473755,16.65,0.069
53358.488262,16.676,0.069
53358.502759,16.625,0.061
53358.53192,16.57,0.061
53421.353586,16.621,0.098
53421.365451,16.668,0.122
53421.377346,16.577,0.093
53421.389424,16.62,0.093
53421.401307,16.721,0.098
53430.3694,16.77,0.094
53430.381107,16.697,0.085
53430.395491,16.625,0.083
53430.407308,16.521,0.072
53430.418651,16.419,0.067
53480.269989,16.277,0.091
53480.279003,16.233,0.087
53480.288152,16.177,0.08
53480.297244,16.305,0.089
53480.306232,16.29,0.091
53491.252127,16.531,0.074
53491.263745,16.438,0.059
53491.274942,16.505,0.067
53491.287848,16.505,0.072
53491.299033,16.645,0.07
53536.217441,16.766,0.155
53536.227385,16.852,0.178
53536.237378,16.82,0.17
53536.247342,16.805,0.194
53536.257391,16.747,0.17
53583.167867,16.361,0.078
53583.179138,16.315,0.061
53583.190398,16.26,0.065
53583.201673,16.257,0.068
53727.492052,16.197,0.081
53727.517913,16.13,0.176
53757.387944,16.147,0.061
53757.400582,16.188,0.063
53757.413287,16.311,0.065
53757.426079,16.263,0.065
53757.438811,16.269,0.065
53773.41724,16.397,0.054
53773.430252,16.27,0.048
53773.442886,16.219,0.044
53773.4556,16.176,0.043
53773.468466,16.216,0.044
53802.36784,16.388,0.049
53802.379951,16.438,0.053
53802.39242,16.566,0.058
53802.404428,16.56,0.058
53802.416469,16.519,0.054
53806.380318,16.258,0.089
53806.39156,16.226,0.083
53806.402821,16.332,0.091
53806.414147,16.26,0.085
53827.306931,16.609,0.048
53827.329691,16.33,0.036
53827.340765,16.308,0.036
53827.351742,16.33,0.038
53842.251049,16.7,0.111
53842.262724,16.617,0.109
53842.274568,16.57,0.105
53842.285799,16.516,0.102
53842.297026,16.361,0.089
53856.281597,16.396,0.056
53866.277467,16.556,0.193
53877.256199,16.406,0.158
53877.266835,16.454,0.18
53904.175666,16.353,0.065
53904.185615,16.445,0.07
53904.195653,16.468,0.072
53904.205698,16.477,0.074
53904.215795,16.51,0.076
53918.172562,16.916,0.261
53918.192557,16.763,0.195
53933.166916,16.698,0.096
53933.177607,16.695,0.1
53933.188282,16.67,0.1
53933.199002,16.617,0.111
53933.209832,16.637,0.117
54071.458948,16.525,0.119
54071.497518,16.439,0.079
54071.510242,16.315,0.069
54080.462431,16.632,0.117
54080.474392,16.597,0.1
54098.433921,16.563,0.066
54098.446275,16.585,0.066
54098.459215,16.392,0.056
54098.471311,16.287,0.051
54098.483406,16.314,0.053
54109.428012,16.654,0.194
54109.440782,16.644,0.174
54109.45356,16.586,0.161
54109.468489,16.732,0.185
54124.394915,16.381,0.054
54124.407485,16.415,0.056
54124.420837,16.431,0.058
54124.433552,16.494,0.059
54124.44598,16.569,0.064
54140.41211,16.222,0.052
54140.424848,16.161,0.048
54140.437394,16.199,0.052
54140.450044,16.211,0.05
54140.462692,16.32,0.061
54158.340714,16.541,0.087
54158.351679,16.498,0.083
54158.362504,16.377,0.073
54158.373347,16.388,0.073
54158.384597,16.351,0.068
54188.274766,16.569,0.122
54188.284689,16.503,0.116
54188.294669,16.36,0.094
54188.304393,16.442,0.101
54188.314213,16.297,0.087
54198.274041,16.64,0.067
54198.283693,16.676,0.096
54198.293754,16.726,0.176
54198.303497,16.872,0.35
54212.260176,16.326,0.061
54212.268668,16.308,0.058
54212.277361,16.352,0.059
54212.28575,16.288,0.054
54212.294485,16.257,0.053
54498.387706,16.196,0.048
54498.399515,16.228,0.049
54498.411981,16.246,0.048
54498.423806,16.295,0.051
54498.435607,16.255,0.049
54526.335943,16.624,0.066
54526.347509,16.701,0.069
54526.358908,16.706,0.071
54526.37301,16.573,0.064
54526.384451,16.507,0.061
54555.241478,16.427,0.064
54555.253306,16.362,0.059
54555.264973,16.186,0.051
54555.276718,16.375,0.059
54555.288337,16.344,0.058
54559.297758,16.622,0.074
54559.309295,16.553,0.068
54559.321059,16.461,0.063
54559.332538,16.3,0.054
54559.343997,16.231,0.053
54570.24706,16.287,0.059
54570.258809,16.346,0.061
54570.27011,16.245,0.056
54570.281274,16.362,0.061
54570.292204,16.424,0.064
54585.240771,16.285,0.137
54585.250896,16.441,0.116
54585.260931,16.351,0.097
54585.281103,16.475,0.083
54599.242274,16.49,0.162
54599.251575,16.598,0.175
54599.279526,16.66,0.188
54618.213194,16.323,0.081
54618.223573,16.397,0.086
54618.233958,16.402,0.089
54618.244375,16.337,0.081
54618.255105,16.38,0.084
