mjd,m,merr
52646.477945,14.722,0.015
52646.492881,14.738,0.015
52646.508097,14.783,0.015
52646.523005,14.796,0.015
52666.464792,14.312,0.012
52666.480258,14.101,0.008
52666.494946,14.094,0.008
52666.510683,14.147,0.008
52666.525392,14.22,0.01
52676.366432,14.141,0.012
52676.381516,14.212,0.012
52676.396591,14.291,0.012
52676.411929,14.332,0.012
52676.426915,14.376,0.012
52698.398496,14.598,0.01
52698.398611,14.528,0.012
52698.413879,14.706,0.01
52698.413993,14.567,0.012
52698.428593,14.606,0.013
52698.443067,14.649,0.013
52698.458182,14.661,0.013
52710.317265,14.133,0.01
52710.332022,14.196,0.01
52710.345118,14.26,0.01
52710.358466,14.307,0.01
52710.371544,14.329,0.01
52725.373217,14.768,0.015
52725.387161,14.781,0.011
52725.400517,14.776,0.011
52725.413081,14.784,0.011
52725.425494,14.799,0.011
52734.311668,15.048,0.035
52734.311782,14.829,0.038
52738.301357,14.321,0.01
52738.314533,14.379,0.01
52738.328003,14.583,0.01
52738.328392,14.418,0.01
52738.341454,14.599,0.01
52738.353849,14.516,0.01
52738.354207,14.476,0.012
52755.265875,14.296,0.009
52755.277883,14.337,0.009
52755.289828,14.369,0.009
52755.301688,14.387,0.009
52755.313564,14.437,0.009
52768.21262,14.799,0.021
52768.224232,14.815,0.021
52768.236783,14.859,0.021
52768.248599,14.907,0.023
52768.260455,14.925,0.023
52794.21813,14.61,0.015
52794.228417,14.727,0.016
52794.23895,14.744,0.016
52794.249405,14.762,0.018
52794.26015,14.746,0.018
52813.179237,14.951,0.023
52813.189089,14.962,0.021
52813.198978,14.977,0.021
52813.208816,14.955,0.023
52813.218667,14.815,0.023
52824.173543,14.727,0.015
52824.183514,14.501,0.013
52824.193362,14.384,0.011
52824.203241,14.243,0.011
52824.213147,14.092,0.009
52987.475355,14.173,0.015
53002.502939,14.764,0.007
53002.517745,14.777,0.008
53002.532042,14.801,0.008
53006.455083,14.837,0.013
53006.467272,14.852,0.013
53006.479541,14.876,0.013
53006.491818,14.905,0.013
53006.50401,14.95,0.017
53033.400534,14.426,0.01
53033.4133,14.312,0.008
53033.425555,14.12,0.008
53033.437832,14.097,0.007
53033.450304,14.141,0.008
53053.419761,14.768,0.011
53053.431462,14.739,0.013
53053.443172,14.74,0.017
53053.455522,14.779,0.015
53064.290704,14.612,0.013
53064.327471,14.71,0.011
53064.346022,14.728,0.011
53064.359925,14.741,0.011
53079.364186,14.951,0.013
53079.375086,14.901,0.013
53079.386449,14.793,0.011
53086.349229,14.809,0.01
53086.360854,14.816,0.01
53086.382922,14.816,0.01
53086.393873,14.821,0.01
53087.329677,14.779,0.007
53087.340088,14.764,0.007
53087.350517,14.784,0.007
53087.361161,14.829,0.009
53087.371744,14.888,0.009
53089.330565,14.188,0.013
53089.362574,14.354,0.013
53110.247296,14.529,0.011
53110.258377,14.547,0.011
53110.269515,14.554,0.011
53110.280596,14.605,0.011
53110.291773,14.617,0.011
53119.250093,14.805,0.009
53119.2606,14.803,0.009
53119.271097,14.807,0.009
53119.281692,14.816,0.009
53119.292151,14.851,0.009
53123.352514,14.445,0.009
53123.362968,14.485,0.009
53123.373293,14.53,0.009
53123.383652,14.531,0.009
53123.394006,14.577,0.011
53138.249872,14.68,0.011
53138.259395,14.691,0.011
53138.268973,14.702,0.011
53138.278569,14.703,0.011
53138.288149,14.722,0.011
53149.211183,14.686,0.011
53149.220237,14.689,0.011
53149.229216,14.705,0.011
53149.238292,14.695,0.009
53149.247339,14.738,0.011
53166.240494,14.761,0.013
53166.24994,14.743,0.013
53166.25939,14.76,0.013
53166.268842,14.755,0.015
53166.278379,14.756,0.015
53438.467599,14.767,0.011
53438.479242,14.78,0.011
53438.490966,14.794,0.011
53468.398276,14.413,0.009
53468.407845,14.436,0.009
53502.202159,14.703,0.013
53502.212626,14.444,0.011
53502.224209,14.316,0.009
53522.215649,14.737,0.013
53522.22589,14.724,0.013
53522.236171,14.742,0.013
53522.256664,14.751,0.013
53737.480211,14.761,0.011
53737.493466,14.758,0.011
53737.506811,14.772,0.011
53737.520204,14.78,0.011
53738.477783,14.54,0.02
53739.471959,14.371,0.009
53739.485454,14.408,0.009
53739.511378,14.465,0.007
53739.524351,14.516,0.009
53747.469839,14.855,0.026
53747.482923,14.851,0.024
53747.49585,14.876,0.024
53747.509188,14.917,0.018
53747.522094,14.958,0.018
53789.4145,14.596,0.016
53789.439488,14.625,0.031
53789.452097,14.674,0.013
53789.464735,14.711,0.018
53799.346854,14.741,0.01
53799.358873,14.762,0.01
53799.370712,14.775,0.01
53799.382509,14.778,0.01
53799.394407,14.784,0.01
53818.340131,14.374,0.008
53818.351496,14.398,0.008
53818.36279,14.433,0.008
53818.373995,14.462,0.008
53818.385178,14.49,0.01
53845.258637,14.501,0.037
53845.269792,14.598,0.017
53845.280638,14.636,0.015
53845.291492,14.631,0.015
53849.245731,14.755,0.015
53849.256468,14.771,0.015
53849.267159,14.799,0.015
53849.277856,14.771,0.015
53849.288553,14.796,0.015
53851.244844,14.505,0.012
53851.2551,14.499,0.012
53851.265398,14.541,0.013
53851.275853,14.55,0.013
53851.286127,14.583,0.013
53880.212929,14.327,0.011
53880.224148,14.364,0.011
53880.235376,14.379,0.011
53880.246612,14.408,0.011
53880.25784,14.438,0.013
53885.219029,14.511,0.013
53885.231028,14.543,0.013
53885.242962,14.585,0.013
53885.254951,14.586,0.015
53885.26711,14.605,0.015
53901.184978,14.69,0.028
53901.194931,14.701,0.023
53901.204767,14.729,0.021
53912.175278,14.763,0.018
53912.204474,14.759,0.018
53912.214229,14.853,0.036
54112.49779,14.503,0.015
54112.510384,14.507,0.015
54112.522975,14.561,0.016
54173.32131,14.564,0.012
54173.332151,14.597,0.012
54173.342848,14.59,0.012
54173.353476,14.625,0.012
54173.364353,14.645,0.012
54185.334346,14.47,0.018
54185.355342,14.565,0.015
54185.365562,14.58,0.03
54201.285555,14.662,0.015
54201.294884,14.655,0.015
54201.304268,14.668,0.015
54201.313736,14.71,0.015
54201.323086,14.714,0.015
54453.463232,14.887,0.011
54539.319153,14.776,0.009
54539.330045,14.782,0.009
54539.340918,14.794,0.009
54539.351768,14.802,0.007
54539.362666,14.796,0.007
54559.24052,14.371,0.007
54568.245066,14.646,0.011
54568.256048,14.669,0.011
54568.267156,14.702,0.011
54568.278301,14.717,0.011
54568.289382,14.717,0.011
54580.254713,14.617,0.02
54580.265047,14.605,0.02
54580.275303,14.639,0.02
54580.285546,14.652,0.021
54580.295922,14.657,0.021
54591.240531,14.673,0.025
54591.250114,14.731,0.026
54591.259705,14.724,0.025
54591.26932,14.716,0.026
54591.279019,14.766,0.026
54597.252252,14.59,0.013
54597.262921,14.631,0.013
54597.273529,14.64,0.013
54597.284287,14.63,0.013
54597.294911,14.688,0.013
54611.203289,14.919,0.026
54611.211653,14.916,0.026
54611.219875,14.896,0.026
54611.228091,14.934,0.026
54611.236321,14.902,0.026
54620.217575,14.536,0.009
54620.227801,14.552,0.009
54620.237959,14.569,0.009
54620.248165,14.572,0.009
54620.258364,14.61,0.009
