mjd,m,merr
52643.491941,15.446,0.023
52643.508392,15.496,0.023
52643.524886,15.508,0.025
52667.472519,15.558,0.026
52667.487794,15.569,0.028
52667.502997,15.624,0.03
52667.518378,15.601,0.028
52667.533604,15.584,0.028
52670.495831,15.49,0.028
52670.510406,15.398,0.025
52670.525428,15.357,0.025
52676.367794,15.808,0.043
52676.383485,15.778,0.041
52676.398946,15.799,0.035
52676.419701,15.762,0.033
52676.43431,15.671,0.031
52703.455068,15.686,0.045
52703.481687,15.721,0.035
52703.49697,15.705,0.035
52707.374216,15.642,0.028
52707.387403,15.66,0.028
52707.400498,15.649,0.028
52707.41358,15.64,0.03
52707.427737,15.691,0.031
52730.352889,16.778,0.078
52737.319184,15.67,0.026
52737.333825,15.673,0.026
52737.345809,15.702,0.024
52737.357674,15.698,0.026
52737.370007,15.725,0.026
52761.261723,15.737,0.028
52761.273445,15.771,0.028
52761.285221,15.739,0.028
52761.296944,15.758,0.03
52761.308754,15.743,0.03
52764.262762,15.515,0.025
52764.274809,15.503,0.025
52764.286763,15.528,0.025
52764.298843,15.522,0.025
52764.310743,15.535,0.025
52789.219444,15.575,0.041
52789.240919,15.597,0.038
52789.25168,15.611,0.036
52816.174586,15.535,0.038
52816.184629,15.579,0.046
52816.194722,15.607,0.046
52823.194081,15.236,0.033
52823.204089,15.267,0.036
53000.50671,15.454,0.015
53000.519791,15.485,0.015
53000.532875,15.482,0.015
53033.399644,15.819,0.035
53033.411761,15.784,0.03
53033.424209,15.768,0.028
53033.436303,15.662,0.026
53033.448468,15.623,0.026
53054.433146,15.627,0.022
53054.446619,15.671,0.022
53054.462023,15.677,0.024
53054.474607,15.683,0.024
53054.487029,15.695,0.024
53062.411714,15.681,0.074
53062.435324,15.636,0.045
53080.341312,15.688,0.024
53080.352254,15.672,0.022
53080.364393,15.683,0.024
53080.375366,15.688,0.024
53080.386816,15.721,0.024
53087.339266,15.276,0.015
53087.349696,15.278,0.015
53087.360339,15.344,0.015
53087.370922,15.379,0.015
53087.381472,15.365,0.015
53112.240221,15.647,0.03
53112.250918,15.654,0.026
53112.261619,15.679,0.028
53112.272387,15.66,0.026
53112.283166,15.71,0.037
53139.246719,15.513,0.026
53139.256209,15.557,0.026
53139.265661,15.559,0.026
53139.275178,15.536,0.024
53139.284644,15.579,0.026
53142.204215,15.721,0.035
53142.213741,15.751,0.041
53142.22327,15.72,0.02
53142.232891,15.758,0.02
53142.242434,15.732,0.024
53148.207063,15.76,0.028
53148.216014,15.734,0.028
53148.224968,15.749,0.028
53148.233951,15.682,0.026
53148.242905,15.643,0.022
53169.177581,15.586,0.026
53169.1877,15.581,0.026
53169.197797,15.61,0.028
53169.2079,15.612,0.028
53169.218012,15.614,0.026
53175.177496,15.617,0.024
53175.187478,15.61,0.028
53175.197521,15.605,0.02
53175.207443,15.602,0.022
53175.21737,15.664,0.026
53354.461343,15.682,0.039
53354.474119,15.651,0.035
53354.488261,15.678,0.035
53354.501088,15.714,0.033
53354.51405,15.7,0.033
53377.4735,15.523,0.026
53377.486447,15.5,0.026
53377.499393,15.512,0.024
53377.512348,15.524,0.024
53377.5253,15.546,0.024
53404.443676,15.384,0.035
53404.456614,15.308,0.033
53404.469586,15.299,0.033
53404.482561,15.289,0.033
53404.495616,15.305,0.025
53440.477677,15.48,0.028
53440.488185,15.505,0.028
53440.499336,15.487,0.028
53465.340456,15.783,0.031
53465.350572,15.735,0.03
53465.363192,15.787,0.03
53465.374021,15.759,0.028
53465.38478,15.767,0.03
53468.282195,15.48,0.048
53468.291746,15.456,0.035
53468.301758,15.462,0.078
53471.309644,15.782,0.033
53471.321198,15.79,0.033
53471.342885,15.788,0.033
53471.352973,15.851,0.046
53473.282738,15.762,0.033
53473.293479,15.741,0.031
53473.304595,15.756,0.031
53473.31649,15.76,0.033
53473.327086,15.8,0.035
53478.365221,15.563,0.041
53478.374831,15.522,0.041
53478.383847,15.545,0.041
53478.392901,15.594,0.041
53478.401921,15.574,0.037
53479.285459,15.738,0.057
53479.298373,15.726,0.055
53479.308733,15.753,0.055
53479.318557,15.782,0.057
53479.328054,15.844,0.061
53496.248791,15.521,0.03
53496.258798,15.557,0.03
53496.268856,15.529,0.03
53496.278875,15.558,0.031
53496.289017,15.549,0.03
53527.173735,15.534,0.03
53527.183807,15.436,0.028
53527.193703,15.423,0.028
53527.20347,15.387,0.026
53527.21329,15.365,0.026
53556.171128,15.663,0.033
53556.181645,15.651,0.033
53556.19226,15.675,0.033
53556.203096,15.667,0.035
53556.213607,15.679,0.037
53746.467139,15.551,0.041
53746.47975,15.525,0.037
53746.492252,15.633,0.037
53746.504717,15.598,0.031
53746.517237,15.608,0.028
53791.411455,15.362,0.02
53791.423381,15.411,0.021
53791.435245,15.443,0.021
53791.447098,15.431,0.023
53791.459042,15.436,0.023
53815.344543,15.409,0.031
53815.355679,15.413,0.03
53815.366825,15.41,0.033
53815.378001,15.419,0.031
53815.389161,15.463,0.035
53817.321859,15.422,0.023
53817.333468,15.437,0.023
53817.344931,15.427,0.023
53817.356711,15.436,0.023
53846.244736,15.761,0.038
53846.255333,15.76,0.038
53846.265869,15.774,0.038
53846.276631,15.826,0.04
53846.287133,15.805,0.04
53850.248228,15.77,0.038
53850.258495,15.837,0.038
53850.268815,15.888,0.041
53850.279203,15.829,0.038
53850.28956,15.855,0.041
53881.21461,15.613,0.035
53881.224587,15.653,0.035
53881.234722,15.685,0.036
53881.244857,15.681,0.036
53881.254853,15.671,0.036
53884.219869,15.369,0.028
53884.231454,15.361,0.028
53884.243017,15.336,0.028
53884.254607,15.321,0.026
53884.266201,15.325,0.028
53886.211554,15.356,0.026
53886.221559,15.361,0.026
53886.231806,15.33,0.026
53886.241852,15.325,0.026
53886.251866,15.294,0.026
53901.184161,15.705,0.061
53901.204188,15.781,0.065
53910.170492,15.319,0.035
53910.180754,15.377,0.037
53910.190988,15.365,0.035
53910.201238,15.377,0.037
53910.21145,15.413,0.044
53911.221842,15.801,0.094
53914.174588,15.352,0.044
53914.185027,15.387,0.041
54155.361774,15.677,0.022
54155.373611,15.676,0.022
54155.385566,15.664,0.022
54155.397413,15.691,0.024
54155.409263,15.656,0.024
54156.379058,15.306,0.017
54156.390609,15.343,0.017
54156.408754,15.367,0.017
54156.420637,15.366,0.017
54156.432194,15.408,0.017
54174.325713,15.386,0.028
54174.336366,15.424,0.03
54174.347111,15.475,0.028
54174.357939,15.445,0.028
54174.368642,15.46,0.025
54180.332191,15.429,0.021
54180.342572,15.454,0.021
54180.352884,15.476,0.023
54180.363335,15.463,0.026
54180.373883,15.484,0.025
54200.268912,15.538,0.041
54200.288008,15.494,0.033
54475.457641,15.49,0.018
54475.470719,15.432,0.017
54475.48362,15.382,0.017
54475.496492,15.341,0.015
54475.50967,15.288,0.015
54483.432614,15.292,0.026
54483.445525,15.307,0.022
54483.458427,15.249,0.02
54509.394129,15.297,0.013
54509.40623,15.328,0.013
54509.418319,15.353,0.015
54509.430385,15.372,0.015
54509.442474,15.378,0.015
54532.337987,15.617,0.018
54532.349382,15.644,0.018
54532.360662,15.693,0.018
54532.371919,15.658,0.018
54532.383157,15.689,0.018
54538.362576,15.745,0.018
54538.373753,15.741,0.018
54538.38477,15.749,0.018
54538.395716,15.758,0.018
54538.406737,15.702,0.018
54539.370851,15.477,0.013
54539.381721,15.483,0.013
54539.386842,15.512,0.03
54539.392601,15.492,0.013
54539.397605,15.601,0.033
54539.403423,15.514,0.015
54539.409543,15.613,0.033
54539.414257,15.486,0.015
54543.278966,15.379,0.028
54543.289876,15.435,0.028
54543.300805,15.39,0.026
54543.311681,15.404,0.026
54543.322556,15.478,0.026
54568.301734,15.81,0.041
54568.31289,15.829,0.041
54568.323915,15.704,0.038
54568.334895,15.689,0.038
54568.3457,15.565,0.033
54580.24921,15.727,0.033
54580.259807,15.725,0.033
54580.27041,15.707,0.033
54580.281009,15.613,0.031
54580.291678,15.556,0.03
54586.247073,15.687,0.028
54586.257492,15.603,0.024
54586.267824,15.507,0.022
54586.27823,15.433,0.02
54586.288571,15.423,0.02
54590.244578,15.558,0.045
54590.254672,15.457,0.041
54590.285165,15.433,0.051
54594.256895,15.419,0.02
54594.267172,15.388,0.02
54594.277476,15.372,0.02
54594.287743,15.31,0.02
54594.298034,15.313,0.02
54611.213157,15.622,0.02
54611.223015,15.619,0.02
54611.232886,15.636,0.022
54611.242865,15.67,0.022
54611.252651,15.672,0.022
54618.212027,15.301,0.017
54618.22225,15.309,0.017
54618.232462,15.336,0.018
54618.242685,15.332,0.018
54618.252941,15.348,0.018
