mjd,m,merr
52666.46542,15.213,0.02
52666.480888,15.259,0.02
52666.495578,15.253,0.02
52666.511311,15.234,0.02
52666.526021,15.226,0.02
52676.367336,15.323,0.028
52676.382417,15.241,0.025
52676.39753,15.177,0.021
52676.412831,15.163,0.021
52676.427817,15.135,0.021
52698.398964,15.173,0.018
52698.399552,15.185,0.021
52698.414345,15.204,0.02
52698.414933,15.212,0.023
52698.428946,15.221,0.02
52698.42953,15.228,0.023
52698.44342,15.239,0.021
52698.444011,15.228,0.023
52698.458535,15.217,0.021
52698.459122,15.233,0.023
52711.308186,15.25,0.025
52711.321198,15.191,0.023
52711.321556,15.19,0.028
52711.334572,15.133,0.021
52711.334932,15.149,0.025
52711.347909,15.138,0.021
52711.360968,15.149,0.02
52711.361327,15.152,0.026
52725.373093,15.4,0.024
52725.387036,15.388,0.018
52725.400392,15.317,0.017
52725.412956,15.261,0.017
52725.425369,15.198,0.017
52739.298363,15.229,0.021
52739.310013,15.243,0.021
52739.321908,15.234,0.021
52739.333521,15.228,0.021
52739.345153,15.202,0.021
52754.261129,15.135,0.017
52754.274013,15.14,0.017
52754.286516,15.172,0.017
52754.300643,15.188,0.017
52754.312919,15.235,0.017
52769.217993,15.368,0.035
52769.229834,15.349,0.035
52769.241322,15.291,0.033
52769.253425,15.23,0.031
52769.264975,15.204,0.031
52794.218312,15.757,0.026
52794.228599,15.485,0.025
52794.239135,15.901,0.033
52794.24959,15.69,0.028
52794.260336,15.91,0.035
52797.217461,15.215,0.036
52797.227764,15.258,0.04
52797.248989,15.361,0.045
52797.259196,15.369,0.045
52813.179507,15.203,0.028
52813.18936,15.218,0.026
52813.19925,15.239,0.026
52813.209088,15.248,0.028
52813.218936,15.265,0.031
52824.173448,15.288,0.024
52824.183418,15.387,0.026
52824.193267,15.414,0.026
52824.203145,15.384,0.026
52824.213051,15.393,0.026
52993.460494,15.22,0.015
52993.473754,15.204,0.015
52993.487115,15.152,0.013
52993.500601,15.148,0.013
52993.513997,15.154,0.013
53006.454959,15.23,0.018
53006.467148,15.21,0.018
53006.479418,15.173,0.018
53006.491694,15.178,0.018
53006.503886,15.189,0.044
53033.400438,15.225,0.02
53033.413204,15.197,0.018
53033.425459,15.167,0.016
53033.437737,15.098,0.016
53033.450205,15.131,0.016
53052.389212,15.141,0.015
53052.401042,15.131,0.015
53052.412853,15.108,0.013
53052.424597,15.127,0.015
53052.43641,15.166,0.015
53064.290513,15.126,0.02
53064.327336,15.169,0.017
53064.345888,15.218,0.017
53064.35979,15.214,0.015
53079.332559,15.112,0.016
53079.343797,15.106,0.016
53079.355269,15.126,0.016
53079.366411,15.172,0.016
53079.378545,15.187,0.016
53089.330406,15.117,0.024
53089.341337,15.153,0.011
53089.362414,15.097,0.02
53110.247848,15.426,0.025
53110.258655,15.364,0.023
53110.269549,15.378,0.021
53110.280533,15.376,0.021
53110.291432,15.285,0.02
53119.249583,15.147,0.013
53119.260337,15.122,0.012
53119.270787,15.143,0.013
53119.281326,15.147,0.012
53119.295365,15.129,0.013
53138.249336,15.179,0.016
53138.258839,15.177,0.016
53138.268346,15.187,0.018
53138.277817,15.222,0.018
53138.287245,15.227,0.018
53149.208006,15.184,0.016
53149.216598,15.2,0.016
53149.225155,15.208,0.016
53149.233924,15.246,0.016
53149.242787,15.294,0.018
53166.176436,15.237,0.023
53166.187098,15.26,0.025
53166.196994,15.236,0.025
53166.206749,15.242,0.023
53166.216586,15.195,0.023
53437.41587,15.21,0.017
53437.427172,15.177,0.015
53437.438472,15.151,0.015
53437.455201,15.124,0.017
53437.466478,15.114,0.015
53438.467473,15.242,0.017
53438.479116,15.237,0.017
53438.49084,15.24,0.017
53445.467353,15.136,0.015
53445.479154,15.139,0.015
53445.491372,15.137,0.015
53471.316207,15.228,0.018
53471.327137,15.257,0.02
53471.337558,15.296,0.02
53471.34807,15.362,0.033
53471.358139,15.396,0.028
53502.202055,15.411,0.022
53502.212523,15.422,0.024
53502.224105,15.378,0.022
53502.235212,15.306,0.022
53502.246714,15.265,0.02
53523.219624,15.233,0.018
53523.230139,15.199,0.018
53523.240604,15.203,0.018
53523.251089,15.184,0.018
53523.261616,15.15,0.017
53738.500899,15.355,0.054
53747.469723,15.193,0.035
53747.482807,15.155,0.031
53747.495735,15.14,0.03
53747.509073,15.155,0.024
53747.521978,15.148,0.022
53769.45352,15.156,0.015
53769.466998,15.188,0.015
53769.480177,15.219,0.015
53769.493979,15.228,0.015
53769.507309,15.23,0.015
53789.414362,15.255,0.028
53789.439351,15.085,0.053
53789.451958,15.112,0.018
53789.464594,15.099,0.023
53845.258529,15.214,0.07
53845.269684,15.224,0.03
53845.280529,15.247,0.024
53845.291383,15.252,0.026
53851.244744,15.234,0.023
53851.255001,15.211,0.021
53851.265298,15.234,0.023
53851.275732,15.199,0.021
53851.286027,15.158,0.021
53880.212827,15.26,0.024
53880.224045,15.261,0.024
53880.235273,15.221,0.022
53880.246509,15.199,0.022
53880.257737,15.186,0.022
53885.218915,15.384,0.028
53885.230914,15.36,0.026
53885.242848,15.342,0.026
53885.254838,15.29,0.026
53885.266997,15.241,0.026
53901.18489,15.319,0.058
53901.194842,15.367,0.04
53901.204678,15.349,0.035
53901.214947,15.324,0.049
53912.184854,15.253,0.028
53912.204387,15.207,0.025
53912.214141,15.193,0.035
54112.497671,15.141,0.025
54112.510265,15.129,0.025
54112.522857,15.091,0.025
54144.389587,15.209,0.02
54144.401549,15.19,0.018
54144.413435,15.155,0.018
54144.425589,15.136,0.018
54144.437558,15.131,0.018
54153.392933,15.154,0.018
54153.405526,15.183,0.026
54153.417292,15.206,0.036
54153.42919,15.256,0.03
54153.440908,15.392,0.046
54201.285453,15.12,0.021
54201.294783,15.09,0.02
54201.304166,15.14,0.021
54201.313634,15.143,0.021
54201.322984,15.177,0.021
54453.463028,15.243,0.017
54453.489182,15.221,0.015
54453.50224,15.201,0.013
54453.515295,15.172,0.013
54478.413346,15.171,0.039
54478.452416,15.119,0.03
54478.465399,15.173,0.013
54559.240369,15.124,0.013
54559.25201,15.142,0.013
54559.263855,15.13,0.013
54559.275772,15.153,0.011
54559.287486,15.183,0.011
54568.244935,15.229,0.017
54568.255916,15.252,0.017
54568.267025,15.238,0.017
54568.278171,15.226,0.017
54568.28925,15.205,0.017
54581.250524,15.261,0.018
54581.261091,15.236,0.02
54581.27175,15.245,0.022
54581.282303,15.243,0.024
54581.292939,15.192,0.024
54592.237993,15.304,0.031
54592.247733,15.247,0.03
54592.258274,15.204,0.026
54592.26804,15.198,0.028
54592.278042,15.171,0.028
54597.252136,15.228,0.026
54597.262806,15.21,0.024
54597.273413,15.196,0.024
54597.284171,15.168,0.022
54597.294794,15.161,0.022
54620.217473,15.174,0.018
54620.227699,15.196,0.018
54620.237855,15.229,0.018
54620.248061,15.227,0.018
54620.258263,15.224,0.018
