mjd,m,merr
52646.478584,16.774,0.087
52646.493522,16.747,0.079
52646.508735,16.742,0.081
52646.52364,16.774,0.083
52667.462267,16.554,0.068
52667.477498,16.646,0.074
52667.492114,16.682,0.078
52667.506758,16.659,0.079
52667.521388,16.809,0.089
52676.368187,16.663,0.085
52676.38388,16.691,0.08
52676.399358,16.773,0.081
52676.420071,16.825,0.083
52676.43468,16.775,0.08
52707.378457,16.801,0.065
52707.391602,16.805,0.065
52707.405183,16.819,0.067
52707.418838,16.661,0.061
52707.432116,16.581,0.057
52710.317623,16.93,0.102
52710.317739,16.668,0.102
52710.332381,16.715,0.079
52710.332495,16.669,0.087
52710.345473,16.838,0.086
52710.345588,16.65,0.092
52710.358819,16.684,0.074
52710.358933,16.412,0.076
52710.371897,16.679,0.073
52710.372012,16.543,0.081
52725.37358,16.633,0.07
52725.387523,16.671,0.057
52725.40088,16.727,0.059
52725.413444,16.834,0.067
52725.425858,16.816,0.068
52738.2988,16.748,0.063
52738.310411,16.79,0.065
52738.32192,16.715,0.059
52738.333552,16.666,0.055
52738.3453,16.587,0.05
52755.266096,16.589,0.059
52755.278104,16.621,0.057
52755.290048,16.642,0.063
52755.301908,16.701,0.067
52755.313785,16.694,0.068
52761.260722,16.724,0.071
52761.273506,16.846,0.081
52761.285534,16.793,0.081
52761.297682,16.752,0.078
52761.309584,16.806,0.084
52768.215642,16.766,0.1
52768.227497,16.833,0.105
52768.23964,16.804,0.102
52768.251335,16.764,0.098
52768.263279,16.647,0.089
52792.220557,16.793,0.101
52792.231282,16.513,0.083
52792.242211,16.504,0.083
52792.253058,16.457,0.084
52792.26385,16.435,0.079
52793.253389,16.793,0.101
52793.263768,16.513,0.083
52793.274064,16.504,0.083
52793.284822,16.457,0.084
52793.295103,16.435,0.079
52819.214984,16.75,0.12
52824.173371,16.66,0.094
52824.183871,16.606,0.089
52824.193838,16.436,0.076
52824.203856,16.343,0.073
52824.213802,16.327,0.073
53033.40111,16.4,0.058
53033.41387,16.358,0.051
53033.426154,16.319,0.049
53033.438402,16.331,0.048
53033.450871,16.418,0.053
53053.40819,16.622,0.052
53053.419984,16.561,0.055
53053.431685,16.392,0.059
53053.443394,16.443,0.085
53053.455745,16.314,0.063
53062.396944,16.451,0.098
53062.408299,16.422,0.094
53062.419657,16.285,0.198
53062.431049,16.519,0.065
53062.442562,16.48,0.135
53079.364446,16.769,0.063
53079.375287,16.754,0.059
53079.386649,16.639,0.054
53079.3982,16.627,0.054
53079.409382,16.465,0.044
53087.347099,16.406,0.035
53087.357958,16.372,0.033
53087.369076,16.42,0.035
53087.380795,16.394,0.036
53087.391772,16.441,0.036
53089.339308,16.338,0.12
53110.247197,16.849,0.083
53110.258278,16.876,0.081
53110.269416,16.722,0.067
53110.280497,16.79,0.072
53110.291673,16.726,0.067
53119.249937,16.399,0.037
53119.260444,16.414,0.037
53119.27094,16.37,0.037
53119.281537,16.43,0.037
53119.291996,16.435,0.039
53121.241756,16.394,0.04
53121.244001,16.425,0.041
53121.252321,16.41,0.041
53121.254684,16.388,0.041
53121.263082,16.414,0.04
53121.265463,16.45,0.041
53121.273961,16.457,0.041
53121.276116,16.463,0.043
53121.284619,16.543,0.046
53121.28677,16.494,0.043
53138.249771,16.703,0.065
53138.259302,16.698,0.063
53138.26888,16.538,0.055
53138.27847,16.465,0.05
53138.288049,16.416,0.052
53149.211048,16.433,0.048
53149.220102,16.381,0.044
53149.229081,16.402,0.044
53149.238157,16.477,0.046
53149.247204,16.516,0.048
53166.240669,16.504,0.063
53166.250114,16.365,0.054
53166.259564,16.399,0.055
53166.269016,16.442,0.061
53166.278554,16.364,0.055
53348.507649,16.402,0.086
53348.522052,16.458,0.076
53447.356323,16.878,0.068
53447.366717,16.833,0.065
53447.387979,16.762,0.067
53447.399337,16.664,0.055
53468.38856,16.776,0.068
53468.39817,16.749,0.074
53468.407739,16.751,0.072
53468.417327,16.728,0.072
53468.426945,16.789,0.078
53503.32303,16.54,0.054
53503.33208,16.44,0.046
53503.342162,16.427,0.05
53503.351841,16.409,0.052
53503.362314,16.487,0.059
53522.215863,16.632,0.068
53522.226105,16.581,0.065
53522.236385,16.623,0.068
53522.246595,16.609,0.072
53522.256879,16.688,0.078
53737.480645,16.479,0.055
53737.493901,16.416,0.05
53737.507245,16.434,0.05
53737.52064,16.411,0.046
53747.470309,16.649,0.133
53747.483381,16.646,0.12
53747.496318,16.625,0.115
53747.509646,16.727,0.098
53747.522562,16.692,0.089
53790.403941,16.681,0.069
53790.41601,16.517,0.056
53790.427687,16.502,0.058
53790.439487,16.39,0.048
53790.451742,16.415,0.049
53799.34742,16.404,0.045
53799.359434,16.384,0.041
53799.371273,16.354,0.04
53799.383076,16.395,0.041
53799.394977,16.432,0.043
53818.339988,16.759,0.064
53818.351353,16.734,0.064
53818.362647,16.593,0.056
53818.373853,16.516,0.053
53818.385035,16.499,0.053
53845.260219,16.848,0.219
53845.271468,16.752,0.091
53845.28275,16.788,0.091
53845.293959,16.716,0.084
53851.245131,16.541,0.071
53851.255388,16.556,0.071
53851.265684,16.491,0.071
53851.27614,16.434,0.068
53851.286414,16.357,0.061
53880.213219,16.511,0.074
53880.224434,16.407,0.067
53880.235661,16.397,0.067
53880.2469,16.449,0.068
53880.258131,16.428,0.067
53885.21934,16.464,0.072
53885.231342,16.446,0.068
53885.243276,16.516,0.072
53885.255264,16.476,0.076
53885.267425,16.526,0.081
53901.185323,16.461,0.129
53901.195276,16.591,0.119
53901.205112,16.573,0.111
53901.21538,16.164,0.172
53912.204808,16.565,0.087
53912.214564,16.342,0.165
54112.498249,16.565,0.097
54112.510843,16.783,0.12
54112.523433,16.735,0.112
54152.349613,16.759,0.054
54152.361578,16.775,0.054
54152.373976,16.803,0.055
54152.388902,16.813,0.054
54152.400865,16.755,0.052
54153.452081,16.808,0.259
54153.463851,16.429,0.178
54153.475772,16.673,0.181
54153.489215,16.518,0.122
54153.501033,16.748,0.221
54173.321577,16.567,0.061
54173.332418,16.569,0.064
54173.343115,16.592,0.066
54173.353743,16.585,0.061
54173.36462,16.6,0.059
54185.334604,16.653,0.124
54185.345029,16.697,0.168
54185.355598,16.519,0.086
54185.36582,16.55,0.165
54201.285946,16.502,0.073
54201.295276,16.533,0.074
54201.30466,16.562,0.074
54201.314128,16.59,0.078
54201.323478,16.652,0.081
54477.459903,16.403,0.039
54477.47283,16.346,0.039
54477.485783,16.365,0.035
54477.498713,16.376,0.035
54477.511781,16.379,0.035
54484.416556,16.488,0.081
54484.429719,16.512,0.078
54484.442824,16.479,0.072
54484.455844,16.507,0.067
54539.318995,16.504,0.037
54539.329887,16.497,0.035
54539.340761,16.492,0.035
54539.351608,16.532,0.035
54539.362507,16.578,0.037
54558.240116,16.816,0.094
54558.251701,16.723,0.074
54558.263331,16.704,0.065
54558.274969,16.633,0.054
54558.286543,16.558,0.052
54567.289778,16.534,0.046
54567.301082,16.549,0.044
54567.312384,16.55,0.044
54567.323569,16.676,0.048
54567.334717,16.66,0.05
54580.254594,16.678,0.102
54580.264928,16.8,0.116
54580.275184,16.797,0.117
54580.285427,16.746,0.112
54580.295801,16.809,0.117
54591.240762,16.737,0.122
54591.250344,16.455,0.094
54591.259935,16.568,0.101
54591.269551,16.383,0.084
54591.279249,16.652,0.111
54597.252741,16.658,0.087
54597.263404,16.715,0.091
54597.274014,16.613,0.081
54597.284775,16.667,0.083
54597.295403,16.748,0.087
54611.203494,16.676,0.099
54611.211858,16.537,0.087
54611.220081,16.583,0.091
54611.228296,16.549,0.087
54611.236526,16.417,0.079
54620.217974,16.546,0.05
54620.228201,16.516,0.05
54620.238358,16.58,0.054
54620.248564,16.63,0.055
54620.258763,16.58,0.055
