mjd,m,merr
52643.492637,16.89,0.081
52643.509065,17.053,0.092
52643.525656,17.055,0.091
52667.473561,16.561,0.068
52667.488834,16.666,0.078
52667.50404,16.767,0.083
52667.519429,16.828,0.085
52667.534643,16.803,0.085
52670.496446,17.192,0.117
52670.511019,17.032,0.099
52670.526043,17.04,0.094
52676.368836,16.992,0.126
52676.384522,17.201,0.141
52676.400053,17.004,0.105
52676.42068,17.15,0.12
52676.435291,17.074,0.111
52701.37796,16.894,0.084
52701.378316,16.899,0.079
52701.394668,16.929,0.091
52701.398654,16.949,0.087
52701.411496,16.804,0.081
52701.411854,16.934,0.084
52701.424648,16.818,0.083
52701.425005,16.947,0.087
52701.437709,16.989,0.097
52701.438067,16.823,0.081
52707.379236,16.878,0.076
52707.392384,16.968,0.081
52707.40597,16.977,0.085
52707.419618,17.001,0.091
52707.432893,17.074,0.098
52729.301937,16.561,0.063
52729.302295,16.568,0.059
52729.314056,16.514,0.059
52729.314766,16.586,0.059
52729.326488,16.635,0.064
52729.326847,16.566,0.059
52729.338531,16.599,0.063
52729.338888,16.598,0.059
52729.350926,16.68,0.068
52729.351537,16.706,0.069
52732.308417,17.314,0.132
52732.308772,17.277,0.116
52732.320737,17.351,0.142
52732.321094,17.21,0.117
52732.332688,17.225,0.124
52732.344601,17.41,0.15
52732.344956,17.299,0.13
52732.357087,17.289,0.132
52732.357441,17.318,0.124
52733.303661,16.706,0.165
52734.309279,17.508,0.379
52734.321807,17.324,0.527
52735.322978,16.918,0.098
52735.335426,16.996,0.104
52735.347683,16.979,0.102
52735.359989,17.037,0.109
52735.372307,17.05,0.111
52738.300377,17.024,0.087
52738.311936,17.11,0.093
52738.323443,17.149,0.091
52738.335079,17.224,0.096
52738.346823,17.161,0.089
52755.25975,17.258,0.129
52755.260092,17.156,0.109
52755.272594,17.066,0.109
52755.272933,17.177,0.111
52755.284793,17.202,0.119
52755.285132,17.113,0.106
52755.297298,17.23,0.122
52755.30891,17.134,0.12
52755.30925,17.104,0.114
52761.262279,16.636,0.063
52761.274001,16.682,0.063
52761.285775,16.678,0.067
52761.2975,16.765,0.072
52761.309309,16.752,0.074
52768.265208,17.088,0.135
52768.277257,17.068,0.128
52768.289403,17.106,0.131
52768.301348,16.987,0.115
52768.313178,17.292,0.148
52792.221759,16.853,0.114
52792.232483,16.883,0.119
52792.243433,16.959,0.132
52792.254262,16.756,0.112
52793.254406,16.853,0.114
52793.264777,16.883,0.119
52793.275079,16.959,0.132
52793.285839,16.756,0.112
52819.215523,16.697,0.135
52824.174873,17.404,0.191
52824.184768,17.2,0.153
52824.194739,17.222,0.16
52824.204758,17.383,0.196
52824.214707,17.393,0.205
53000.507312,16.949,0.049
53000.520395,16.989,0.053
53000.533485,16.952,0.049
53033.400291,17.192,0.124
53033.41243,17.199,0.113
53033.424855,17.173,0.109
53033.436949,17.154,0.105
53033.449115,17.201,0.107
53054.435062,16.736,0.059
53054.447505,16.718,0.059
53054.462909,16.768,0.065
53054.475498,16.716,0.063
53054.487916,16.784,0.065
53062.412305,16.767,0.177
53062.424098,17.261,0.526
53062.435917,17.077,0.178
53080.342476,17.05,0.08
53080.353409,17.112,0.085
53080.365543,17.226,0.096
53080.376957,17.154,0.091
53080.387965,17.205,0.094
53087.383475,17.154,0.076
53087.393922,17.173,0.078
53087.40451,17.128,0.078
53087.414988,17.26,0.154
53118.262836,16.56,0.04
53118.273315,16.618,0.04
53118.284482,16.64,0.041
53118.294772,16.738,0.046
53139.247356,16.939,0.091
53139.256846,16.986,0.093
53139.266296,16.885,0.081
53139.275814,16.919,0.081
53139.28528,17.02,0.091
53148.248202,16.786,0.064
53148.257037,16.778,0.064
53148.26565,16.764,0.061
53148.274515,16.826,0.068
53148.283496,16.803,0.066
53169.178533,16.877,0.081
53169.188651,16.884,0.081
53169.198749,16.893,0.085
53169.208852,16.871,0.081
53169.218965,16.921,0.083
53175.177478,17.056,0.109
53175.19673,17.077,0.086
53175.206373,17.127,0.089
53175.216071,17.127,0.107
53404.444189,16.922,0.144
53404.457126,16.859,0.137
53404.470098,16.82,0.134
53404.496128,17.046,0.12
53447.356922,16.864,0.074
53447.367317,16.867,0.126
53447.388584,17.039,0.276
53447.399937,16.912,0.074
53478.365651,17.192,0.178
53478.375267,17.268,0.189
53478.38428,17.279,0.189
53478.393332,17.164,0.161
53478.402349,17.199,0.155
53496.249404,16.938,0.107
53496.259406,17.182,0.128
53496.269468,16.981,0.107
53496.279486,17.091,0.122
53496.289643,17.022,0.115
53503.324237,16.765,0.065
53503.333269,16.801,0.067
53503.343617,16.845,0.078
53503.353164,16.84,0.085
53503.363504,16.875,0.094
53527.174103,17.131,0.118
53527.184181,17.099,0.115
53527.194056,16.976,0.105
53527.203825,17.088,0.115
53527.213645,17.14,0.126
53556.171605,16.968,0.104
53556.18212,16.969,0.102
53556.192736,17.0,0.107
53556.203571,16.938,0.104
53556.214084,17.115,0.126
53746.467956,17.052,0.163
53746.480568,17.118,0.163
53746.49307,17.235,0.163
53746.505534,17.23,0.144
53746.518053,17.195,0.126
53791.412775,17.156,0.094
53791.424702,17.151,0.096
53791.436569,17.14,0.094
53791.448418,17.14,0.101
53791.46036,17.226,0.109
53817.322419,16.929,0.086
53817.334026,17.002,0.091
53817.345488,16.968,0.087
53817.35727,16.976,0.087
53845.260862,16.502,0.277
53845.272108,16.699,0.087
53850.248913,17.149,0.14
53850.259176,17.319,0.145
53850.269497,17.183,0.129
53850.290258,17.136,0.127
53884.22059,17.017,0.122
53884.232177,16.902,0.109
53884.243737,16.85,0.105
53884.255327,16.758,0.096
53884.266922,16.716,0.096
53901.194434,16.878,0.179
53901.204463,16.897,0.17
53911.222106,16.835,0.276
53911.231727,17.056,0.29
54155.409848,16.862,0.07
54155.421692,16.96,0.076
54155.433551,17.012,0.08
54155.445417,16.935,0.078
54155.457448,16.992,0.083
54174.326386,16.95,0.117
54174.337048,16.934,0.102
54174.347791,16.966,0.099
54174.358619,17.16,0.14
54174.369427,17.078,0.099
54180.332795,17.149,0.094
54180.343106,17.144,0.094
54180.353418,17.088,0.089
54180.36404,17.058,0.094
54180.374416,17.137,0.102
54200.269201,16.843,0.145
54200.288298,16.895,0.155
54200.307436,16.856,0.206
54476.464928,16.763,0.052
54476.477866,16.715,0.048
54476.490776,16.676,0.048
54476.50368,16.756,0.048
54476.51658,16.746,0.096
54484.419018,16.832,0.133
54484.44531,16.784,0.111
54484.458322,16.777,0.102
54533.338588,16.955,0.054
54533.349861,16.985,0.057
54533.361155,17.039,0.054
54533.37257,16.966,0.05
54533.383848,17.014,0.054
54539.319974,17.059,0.063
54539.330865,17.035,0.059
54539.341742,17.108,0.059
54539.35259,17.044,0.054
54539.363491,17.061,0.054
54558.242007,17.036,0.167
54558.253591,17.146,0.179
54558.265221,17.177,0.12
54558.276863,17.041,0.104
54558.288431,17.165,0.118
54567.29051,17.093,0.083
54567.301811,17.149,0.087
54567.313109,17.189,0.087
54567.324287,17.189,0.085
54567.33544,17.244,0.089
54580.249854,17.131,0.128
54580.260449,17.106,0.122
54580.271055,17.163,0.131
54580.281653,17.073,0.128
54580.29232,17.357,0.157
54587.255497,16.895,0.081
54587.266016,17.027,0.091
54587.276464,16.9,0.083
54587.286854,16.911,0.083
54587.297232,16.927,0.087
54590.245065,17.337,0.196
54590.255233,17.12,0.163
54590.264955,17.19,0.216
54590.285718,16.935,0.165
54595.24803,17.16,0.105
54595.258021,17.206,0.107
54595.267971,17.146,0.098
54595.277937,17.187,0.098
54595.287913,17.118,0.091
54611.213671,16.628,0.052
54611.223528,16.639,0.052
54611.233556,16.604,0.05
54611.243372,16.622,0.052
54611.253157,16.69,0.054
54619.21191,16.94,0.085
54619.222147,16.815,0.08
54619.23245,16.933,0.091
54619.242689,16.916,0.087
54619.253126,16.925,0.093
