mjd,m,merr
52643.492637,15.51,0.023
52643.509065,15.534,0.023
52643.525656,15.363,0.021
52667.473561,15.345,0.022
52667.488834,15.519,0.026
52667.50404,15.55,0.026
52667.519429,15.34,0.022
52667.534643,15.186,0.018
52670.496446,15.167,0.02
52670.511019,15.312,0.023
52670.526043,15.566,0.026
52676.368836,15.056,0.02
52676.384522,15.063,0.02
52676.400053,15.089,0.018
52676.42068,15.197,0.02
52676.435291,15.405,0.024
52701.37796,15.504,0.025
52701.378316,15.421,0.028
52701.394668,15.252,0.021
52701.398654,15.15,0.023
52701.411496,15.135,0.02
52701.411854,15.117,0.023
52701.424648,15.079,0.018
52701.437709,15.026,0.018
52707.379236,15.104,0.015
52707.392384,15.174,0.017
52707.40597,15.281,0.018
52707.419618,15.528,0.022
52707.432893,15.577,0.024
52729.301937,15.591,0.028
52729.314056,15.618,0.028
52729.326488,15.383,0.023
52729.338531,15.237,0.02
52729.350926,15.158,0.02
52729.351537,15.133,0.023
52732.308417,15.251,0.021
52732.320737,15.479,0.028
52732.332688,15.631,0.03
52732.344601,15.625,0.031
52732.357087,15.51,0.028
52734.309279,15.496,0.057
52734.321807,15.495,0.098
52735.322978,15.099,0.018
52735.335426,15.162,0.018
52735.347683,15.299,0.02
52735.359989,15.544,0.028
52735.372307,15.596,0.028
52738.300377,15.162,0.017
52738.311936,15.089,0.015
52738.323443,15.052,0.013
52738.335079,15.027,0.013
52738.346823,15.051,0.013
52755.25975,15.444,0.026
52755.272594,15.517,0.028
52755.284793,15.47,0.026
52755.296959,15.278,0.023
52755.30891,15.169,0.021
52761.262279,15.054,0.015
52761.274001,15.038,0.015
52761.285775,15.062,0.015
52761.2975,15.1,0.017
52761.309309,15.139,0.017
52768.265208,15.016,0.02
52768.277257,15.073,0.02
52768.289403,15.119,0.022
52768.301348,15.149,0.022
52768.313178,15.31,0.024
52792.221759,15.471,0.031
52792.232483,15.338,0.028
52792.243433,15.188,0.026
52792.254262,15.138,0.025
52793.254406,15.471,0.031
52793.264777,15.338,0.028
52793.275079,15.188,0.026
52793.285839,15.138,0.025
52819.215523,15.652,0.049
52824.174873,15.106,0.023
52824.184768,15.096,0.023
52824.194739,15.221,0.026
52824.204758,15.351,0.03
52824.214707,15.493,0.035
53000.507312,15.207,0.01
53000.520395,15.353,0.012
53000.533485,15.553,0.015
53033.400291,15.074,0.017
53033.41243,15.035,0.015
53033.424855,15.018,0.015
53033.436949,15.034,0.015
53033.449115,15.072,0.015
53054.435062,15.397,0.017
53054.447505,15.507,0.018
53054.462909,15.495,0.018
53054.475498,15.328,0.017
53054.487916,15.203,0.015
53062.412305,15.041,0.043
53062.424098,15.045,0.063
53062.435917,15.096,0.031
53080.342476,15.068,0.013
53080.353409,15.056,0.013
53080.365543,15.084,0.013
53080.376957,15.159,0.015
53080.387965,15.243,0.015
53081.402523,15.044,0.013
53081.424789,15.064,0.013
53081.436315,15.096,0.015
53087.383475,15.354,0.015
53087.393922,15.552,0.017
53087.40451,15.564,0.017
53087.414988,15.58,0.035
53118.262836,15.225,0.012
53118.273315,15.134,0.012
53118.284482,15.066,0.01
53118.294772,15.05,0.01
53139.247356,15.071,0.017
53139.256846,15.074,0.017
53139.266296,15.052,0.017
53139.275814,15.047,0.015
53139.28528,15.08,0.017
53148.248202,15.065,0.015
53148.257037,15.09,0.015
53148.26565,15.136,0.015
53148.274515,15.172,0.016
53148.283496,15.28,0.018
53169.178533,15.061,0.017
53169.188651,15.011,0.015
53169.198749,15.017,0.017
53169.208852,15.058,0.017
53169.218965,15.078,0.017
53175.177478,15.632,0.03
53175.19673,15.623,0.023
53175.206373,15.528,0.021
53175.216071,15.355,0.021
53404.444189,15.074,0.025
53404.457126,15.081,0.025
53404.470098,15.124,0.026
53404.483194,15.25,0.031
53404.496128,15.473,0.028
53447.356922,15.322,0.018
53447.367317,15.3,0.026
53447.399937,15.069,0.015
53478.365651,15.081,0.026
53478.375267,15.049,0.024
53478.38428,15.029,0.024
53478.393332,15.013,0.022
53478.402349,15.037,0.02
53496.249404,15.546,0.03
53496.259406,15.312,0.022
53496.269468,15.191,0.02
53496.279486,15.142,0.02
53496.289643,15.118,0.02
53503.324237,15.124,0.015
53503.333269,15.18,0.017
53503.343617,15.24,0.018
53503.353164,15.362,0.02
53503.363504,15.525,0.026
53527.174103,15.127,0.02
53527.184181,15.227,0.022
53527.194056,15.432,0.026
53527.203825,15.582,0.03
53527.213645,15.58,0.03
53556.171605,15.077,0.018
53556.18212,15.136,0.018
53556.192736,15.211,0.02
53556.203571,15.325,0.024
53556.214084,15.46,0.028
53746.467956,15.185,0.028
53746.480568,15.206,0.026
53746.49307,15.369,0.028
53746.505534,15.522,0.03
53746.518053,15.56,0.028
53791.412775,15.102,0.015
53791.424702,15.196,0.016
53791.436569,15.251,0.018
53791.448418,15.458,0.023
53791.46036,15.564,0.025
53817.322419,15.147,0.016
53817.334026,15.073,0.016
53817.345488,15.045,0.015
53817.35727,15.029,0.015
53845.272108,15.112,0.021
53845.294598,15.019,0.02
53850.248913,15.467,0.03
53850.259176,15.327,0.025
53850.269497,15.205,0.021
53850.290258,15.117,0.02
53884.22059,15.163,0.022
53884.232177,15.259,0.024
53884.243737,15.407,0.028
53884.255327,15.528,0.031
53884.266922,15.477,0.03
53901.194434,15.033,0.035
53901.204463,15.04,0.031
53911.231727,15.04,0.046
54155.409848,15.031,0.013
54155.421692,15.024,0.013
54155.433551,15.046,0.013
54155.445417,15.093,0.015
54155.457448,15.17,0.015
54174.326386,15.524,0.033
54174.337048,15.43,0.026
54174.347791,15.31,0.023
54174.358619,15.166,0.025
54174.369427,15.116,0.018
54180.332795,15.001,0.015
54180.343106,15.072,0.015
54180.353418,15.097,0.015
54180.36404,15.193,0.018
54180.374416,15.293,0.02
54200.269201,15.432,0.031
54200.288298,15.531,0.033
54200.307436,15.419,0.035
54476.464928,15.019,0.011
54476.477866,15.018,0.011
54476.490776,15.083,0.011
54476.50368,15.149,0.011
54476.51658,15.271,0.024
54484.419018,15.436,0.033
54484.432212,15.458,0.031
54484.44531,15.45,0.03
54484.458322,15.327,0.024
54533.338588,15.463,0.013
54533.349861,15.369,0.013
54533.361155,15.232,0.011
54533.37257,15.123,0.009
54533.383848,15.079,0.009
54539.319974,15.025,0.011
54539.330865,15.02,0.011
54539.341742,15.004,0.011
54539.35259,15.03,0.011
54539.363491,15.081,0.011
54558.242007,15.521,0.039
54558.253591,15.406,0.035
54558.265221,15.237,0.02
54558.276863,15.16,0.018
54558.288431,15.086,0.018
54567.29051,15.05,0.013
54567.301811,15.05,0.013
54567.313109,15.138,0.013
54567.324287,15.242,0.015
54567.33544,15.398,0.017
54580.249854,15.506,0.028
54580.260449,15.533,0.028
54580.271055,15.504,0.028
54580.281653,15.349,0.026
54580.29232,15.182,0.022
54587.255497,15.54,0.024
54587.266016,15.372,0.02
54587.276464,15.201,0.018
54587.286854,15.106,0.017
54587.297232,15.066,0.017
54590.245065,15.156,0.031
54590.255233,15.26,0.035
54590.264955,15.449,0.049
54590.285718,15.578,0.053
54595.24803,15.052,0.015
54595.258021,15.112,0.017
54595.267971,15.226,0.017
54595.277937,15.343,0.018
54595.287913,15.428,0.018
54611.213671,15.284,0.015
54611.223528,15.442,0.017
54611.233556,15.544,0.018
54611.243372,15.538,0.018
54611.253157,15.51,0.018
54619.21191,14.993,0.015
54619.222147,14.977,0.017
54619.23245,15.022,0.017
54619.242689,15.047,0.017
54619.253126,15.098,0.017
